G04 #@! TF.GenerationSoftware,KiCad,Pcbnew,5.0.2+dfsg1-1*
G04 #@! TF.CreationDate,2019-02-17T13:53:47+13:00*
G04 #@! TF.ProjectId,1bit-adder,31626974-2d61-4646-9465-722e6b696361,rev?*
G04 #@! TF.SameCoordinates,Original*
G04 #@! TF.FileFunction,Legend,Top*
G04 #@! TF.FilePolarity,Positive*
%FSLAX46Y46*%
G04 Gerber Fmt 4.6, Leading zero omitted, Abs format (unit mm)*
G04 Created by KiCad (PCBNEW 5.0.2+dfsg1-1) date Sun 17 Feb 2019 13:53:47 NZDT*
%MOMM*%
%LPD*%
G01*
G04 APERTURE LIST*
%ADD10C,0.200000*%
%ADD11C,0.400000*%
%ADD12C,0.300000*%
%ADD13C,0.120000*%
%ADD14C,0.010000*%
%ADD15C,0.150000*%
%ADD16C,0.100000*%
%ADD17C,0.006350*%
G04 APERTURE END LIST*
D10*
X86060000Y-79700000D02*
X86060000Y-75000000D01*
X74990000Y-79700000D02*
X86060000Y-79700000D01*
X74990000Y-75000000D02*
X74990000Y-79700000D01*
X86060000Y-75000000D02*
X74990000Y-75000000D01*
X79490000Y-79700000D02*
X79490000Y-75050000D01*
D11*
X119051428Y-122244761D02*
X117908571Y-122244761D01*
X118480000Y-122244761D02*
X118480000Y-120244761D01*
X118289523Y-120530476D01*
X118099047Y-120720952D01*
X117908571Y-120816190D01*
X122099047Y-121197142D02*
X122384761Y-121292380D01*
X122480000Y-121387619D01*
X122575238Y-121578095D01*
X122575238Y-121863809D01*
X122480000Y-122054285D01*
X122384761Y-122149523D01*
X122194285Y-122244761D01*
X121432380Y-122244761D01*
X121432380Y-120244761D01*
X122099047Y-120244761D01*
X122289523Y-120340000D01*
X122384761Y-120435238D01*
X122480000Y-120625714D01*
X122480000Y-120816190D01*
X122384761Y-121006666D01*
X122289523Y-121101904D01*
X122099047Y-121197142D01*
X121432380Y-121197142D01*
X123432380Y-122244761D02*
X123432380Y-120244761D01*
X124099047Y-120244761D02*
X125241904Y-120244761D01*
X124670476Y-122244761D02*
X124670476Y-120244761D01*
X117099047Y-125073333D02*
X118051428Y-125073333D01*
X116908571Y-125644761D02*
X117575238Y-123644761D01*
X118241904Y-125644761D01*
X118908571Y-125644761D02*
X118908571Y-123644761D01*
X119384761Y-123644761D01*
X119670476Y-123740000D01*
X119860952Y-123930476D01*
X119956190Y-124120952D01*
X120051428Y-124501904D01*
X120051428Y-124787619D01*
X119956190Y-125168571D01*
X119860952Y-125359047D01*
X119670476Y-125549523D01*
X119384761Y-125644761D01*
X118908571Y-125644761D01*
X120908571Y-125644761D02*
X120908571Y-123644761D01*
X121384761Y-123644761D01*
X121670476Y-123740000D01*
X121860952Y-123930476D01*
X121956190Y-124120952D01*
X122051428Y-124501904D01*
X122051428Y-124787619D01*
X121956190Y-125168571D01*
X121860952Y-125359047D01*
X121670476Y-125549523D01*
X121384761Y-125644761D01*
X120908571Y-125644761D01*
X122908571Y-124597142D02*
X123575238Y-124597142D01*
X123860952Y-125644761D02*
X122908571Y-125644761D01*
X122908571Y-123644761D01*
X123860952Y-123644761D01*
X125860952Y-125644761D02*
X125194285Y-124692380D01*
X124718095Y-125644761D02*
X124718095Y-123644761D01*
X125480000Y-123644761D01*
X125670476Y-123740000D01*
X125765714Y-123835238D01*
X125860952Y-124025714D01*
X125860952Y-124311428D01*
X125765714Y-124501904D01*
X125670476Y-124597142D01*
X125480000Y-124692380D01*
X124718095Y-124692380D01*
D10*
X113480000Y-76920000D02*
X120210000Y-76920000D01*
X123080000Y-86600000D02*
X123080000Y-78550000D01*
D12*
X121070000Y-76078571D02*
X121570000Y-77578571D01*
X122070000Y-76078571D01*
X123427142Y-77435714D02*
X123355714Y-77507142D01*
X123141428Y-77578571D01*
X122998571Y-77578571D01*
X122784285Y-77507142D01*
X122641428Y-77364285D01*
X122570000Y-77221428D01*
X122498571Y-76935714D01*
X122498571Y-76721428D01*
X122570000Y-76435714D01*
X122641428Y-76292857D01*
X122784285Y-76150000D01*
X122998571Y-76078571D01*
X123141428Y-76078571D01*
X123355714Y-76150000D01*
X123427142Y-76221428D01*
X124927142Y-77435714D02*
X124855714Y-77507142D01*
X124641428Y-77578571D01*
X124498571Y-77578571D01*
X124284285Y-77507142D01*
X124141428Y-77364285D01*
X124070000Y-77221428D01*
X123998571Y-76935714D01*
X123998571Y-76721428D01*
X124070000Y-76435714D01*
X124141428Y-76292857D01*
X124284285Y-76150000D01*
X124498571Y-76078571D01*
X124641428Y-76078571D01*
X124855714Y-76150000D01*
X124927142Y-76221428D01*
X80790000Y-123665714D02*
X80718571Y-123737142D01*
X80504285Y-123808571D01*
X80361428Y-123808571D01*
X80147142Y-123737142D01*
X80004285Y-123594285D01*
X79932857Y-123451428D01*
X79861428Y-123165714D01*
X79861428Y-122951428D01*
X79932857Y-122665714D01*
X80004285Y-122522857D01*
X80147142Y-122380000D01*
X80361428Y-122308571D01*
X80504285Y-122308571D01*
X80718571Y-122380000D01*
X80790000Y-122451428D01*
X82861428Y-122308571D02*
X83147142Y-122308571D01*
X83290000Y-122380000D01*
X83432857Y-122522857D01*
X83504285Y-122808571D01*
X83504285Y-123308571D01*
X83432857Y-123594285D01*
X83290000Y-123737142D01*
X83147142Y-123808571D01*
X82861428Y-123808571D01*
X82718571Y-123737142D01*
X82575714Y-123594285D01*
X82504285Y-123308571D01*
X82504285Y-122808571D01*
X82575714Y-122522857D01*
X82718571Y-122380000D01*
X82861428Y-122308571D01*
X84147142Y-122308571D02*
X84147142Y-123522857D01*
X84218571Y-123665714D01*
X84290000Y-123737142D01*
X84432857Y-123808571D01*
X84718571Y-123808571D01*
X84861428Y-123737142D01*
X84932857Y-123665714D01*
X85004285Y-123522857D01*
X85004285Y-122308571D01*
X85504285Y-122308571D02*
X86361428Y-122308571D01*
X85932857Y-123808571D02*
X85932857Y-122308571D01*
X75660000Y-115835714D02*
X75588571Y-115907142D01*
X75374285Y-115978571D01*
X75231428Y-115978571D01*
X75017142Y-115907142D01*
X74874285Y-115764285D01*
X74802857Y-115621428D01*
X74731428Y-115335714D01*
X74731428Y-115121428D01*
X74802857Y-114835714D01*
X74874285Y-114692857D01*
X75017142Y-114550000D01*
X75231428Y-114478571D01*
X75374285Y-114478571D01*
X75588571Y-114550000D01*
X75660000Y-114621428D01*
X77445714Y-115978571D02*
X77445714Y-114478571D01*
X78160000Y-115978571D02*
X78160000Y-114478571D01*
X79017142Y-115978571D01*
X79017142Y-114478571D01*
X118908571Y-100667142D02*
X119122857Y-100738571D01*
X119480000Y-100738571D01*
X119622857Y-100667142D01*
X119694285Y-100595714D01*
X119765714Y-100452857D01*
X119765714Y-100310000D01*
X119694285Y-100167142D01*
X119622857Y-100095714D01*
X119480000Y-100024285D01*
X119194285Y-99952857D01*
X119051428Y-99881428D01*
X118980000Y-99810000D01*
X118908571Y-99667142D01*
X118908571Y-99524285D01*
X118980000Y-99381428D01*
X119051428Y-99310000D01*
X119194285Y-99238571D01*
X119551428Y-99238571D01*
X119765714Y-99310000D01*
X120408571Y-99238571D02*
X120408571Y-100452857D01*
X120480000Y-100595714D01*
X120551428Y-100667142D01*
X120694285Y-100738571D01*
X120980000Y-100738571D01*
X121122857Y-100667142D01*
X121194285Y-100595714D01*
X121265714Y-100452857D01*
X121265714Y-99238571D01*
X121980000Y-100738571D02*
X121980000Y-99238571D01*
X122480000Y-100310000D01*
X122980000Y-99238571D01*
X122980000Y-100738571D01*
X77867142Y-101922857D02*
X78081428Y-101994285D01*
X78152857Y-102065714D01*
X78224285Y-102208571D01*
X78224285Y-102422857D01*
X78152857Y-102565714D01*
X78081428Y-102637142D01*
X77938571Y-102708571D01*
X77367142Y-102708571D01*
X77367142Y-101208571D01*
X77867142Y-101208571D01*
X78010000Y-101280000D01*
X78081428Y-101351428D01*
X78152857Y-101494285D01*
X78152857Y-101637142D01*
X78081428Y-101780000D01*
X78010000Y-101851428D01*
X77867142Y-101922857D01*
X77367142Y-101922857D01*
X77382857Y-98190000D02*
X78097142Y-98190000D01*
X77240000Y-98618571D02*
X77740000Y-97118571D01*
X78240000Y-98618571D01*
D13*
G04 #@! TO.C,D1*
X98140000Y-113560000D02*
X101000000Y-113560000D01*
X98140000Y-111640000D02*
X98140000Y-113560000D01*
X101000000Y-111640000D02*
X98140000Y-111640000D01*
D14*
G04 #@! TO.C,G\002A\002A\002A*
G36*
X78017109Y-75710896D02*
X78056320Y-75744648D01*
X78075960Y-75790853D01*
X78082287Y-75867343D01*
X78082527Y-75897252D01*
X78076884Y-75988494D01*
X78061792Y-76111072D01*
X78040002Y-76244256D01*
X78028795Y-76301886D01*
X78006823Y-76412544D01*
X77990678Y-76501451D01*
X77982358Y-76557125D01*
X77982126Y-76570090D01*
X77996224Y-76550491D01*
X78029729Y-76491868D01*
X78077867Y-76402889D01*
X78135861Y-76292225D01*
X78145618Y-76273313D01*
X78246569Y-76085835D01*
X78333462Y-75944585D01*
X78409823Y-75845289D01*
X78479174Y-75783672D01*
X78545041Y-75755462D01*
X78575098Y-75752526D01*
X78629754Y-75756660D01*
X78675346Y-75772027D01*
X78712771Y-75803070D01*
X78742926Y-75854237D01*
X78766706Y-75929972D01*
X78785009Y-76034722D01*
X78798731Y-76172930D01*
X78808769Y-76349044D01*
X78816019Y-76567508D01*
X78821378Y-76832768D01*
X78823635Y-76984816D01*
X78826779Y-77229719D01*
X78828681Y-77426685D01*
X78829153Y-77581240D01*
X78828007Y-77698910D01*
X78825055Y-77785221D01*
X78820107Y-77845699D01*
X78812977Y-77885870D01*
X78803475Y-77911261D01*
X78791522Y-77927290D01*
X78724622Y-77966472D01*
X78656993Y-77962473D01*
X78620181Y-77935094D01*
X78610195Y-77899725D01*
X78601696Y-77818477D01*
X78594613Y-77689776D01*
X78588879Y-77512047D01*
X78584423Y-77283716D01*
X78581690Y-77059139D01*
X78578445Y-76814448D01*
X78573848Y-76602796D01*
X78568068Y-76428323D01*
X78561271Y-76295168D01*
X78553624Y-76207469D01*
X78545842Y-76170233D01*
X78533240Y-76159999D01*
X78514477Y-76170260D01*
X78486465Y-76205910D01*
X78446117Y-76271839D01*
X78390345Y-76372938D01*
X78316061Y-76514100D01*
X78258739Y-76625082D01*
X78147540Y-76837074D01*
X78054362Y-77003492D01*
X77975866Y-77127787D01*
X77908712Y-77213407D01*
X77849561Y-77263803D01*
X77795073Y-77282422D01*
X77741909Y-77272714D01*
X77686730Y-77238128D01*
X77674790Y-77228213D01*
X77646776Y-77189911D01*
X77632346Y-77130280D01*
X77631735Y-77042751D01*
X77645176Y-76920757D01*
X77672904Y-76757728D01*
X77695721Y-76641308D01*
X77720496Y-76514854D01*
X77739704Y-76408796D01*
X77751618Y-76333303D01*
X77754512Y-76298540D01*
X77754095Y-76297498D01*
X77737237Y-76316021D01*
X77696965Y-76378806D01*
X77634946Y-76482886D01*
X77552846Y-76625295D01*
X77452328Y-76803067D01*
X77335061Y-77013235D01*
X77202707Y-77252833D01*
X77056934Y-77518895D01*
X76899407Y-77808454D01*
X76735289Y-78112052D01*
X76675905Y-78219709D01*
X76632914Y-78288257D01*
X76598701Y-78326371D01*
X76565646Y-78342722D01*
X76529816Y-78346000D01*
X76460391Y-78330571D01*
X76420555Y-78280426D01*
X76412860Y-78254360D01*
X76414212Y-78221382D01*
X76427372Y-78174931D01*
X76455101Y-78108445D01*
X76500161Y-78015365D01*
X76565313Y-77889128D01*
X76653317Y-77723175D01*
X76661627Y-77707613D01*
X76815675Y-77421477D01*
X76968383Y-77142104D01*
X77116332Y-76875514D01*
X77256104Y-76627726D01*
X77384279Y-76404759D01*
X77497438Y-76212634D01*
X77592163Y-76057369D01*
X77650588Y-75966421D01*
X77746675Y-75831459D01*
X77826751Y-75742176D01*
X77895823Y-75695080D01*
X77958898Y-75686682D01*
X78017109Y-75710896D01*
X78017109Y-75710896D01*
G37*
X78017109Y-75710896D02*
X78056320Y-75744648D01*
X78075960Y-75790853D01*
X78082287Y-75867343D01*
X78082527Y-75897252D01*
X78076884Y-75988494D01*
X78061792Y-76111072D01*
X78040002Y-76244256D01*
X78028795Y-76301886D01*
X78006823Y-76412544D01*
X77990678Y-76501451D01*
X77982358Y-76557125D01*
X77982126Y-76570090D01*
X77996224Y-76550491D01*
X78029729Y-76491868D01*
X78077867Y-76402889D01*
X78135861Y-76292225D01*
X78145618Y-76273313D01*
X78246569Y-76085835D01*
X78333462Y-75944585D01*
X78409823Y-75845289D01*
X78479174Y-75783672D01*
X78545041Y-75755462D01*
X78575098Y-75752526D01*
X78629754Y-75756660D01*
X78675346Y-75772027D01*
X78712771Y-75803070D01*
X78742926Y-75854237D01*
X78766706Y-75929972D01*
X78785009Y-76034722D01*
X78798731Y-76172930D01*
X78808769Y-76349044D01*
X78816019Y-76567508D01*
X78821378Y-76832768D01*
X78823635Y-76984816D01*
X78826779Y-77229719D01*
X78828681Y-77426685D01*
X78829153Y-77581240D01*
X78828007Y-77698910D01*
X78825055Y-77785221D01*
X78820107Y-77845699D01*
X78812977Y-77885870D01*
X78803475Y-77911261D01*
X78791522Y-77927290D01*
X78724622Y-77966472D01*
X78656993Y-77962473D01*
X78620181Y-77935094D01*
X78610195Y-77899725D01*
X78601696Y-77818477D01*
X78594613Y-77689776D01*
X78588879Y-77512047D01*
X78584423Y-77283716D01*
X78581690Y-77059139D01*
X78578445Y-76814448D01*
X78573848Y-76602796D01*
X78568068Y-76428323D01*
X78561271Y-76295168D01*
X78553624Y-76207469D01*
X78545842Y-76170233D01*
X78533240Y-76159999D01*
X78514477Y-76170260D01*
X78486465Y-76205910D01*
X78446117Y-76271839D01*
X78390345Y-76372938D01*
X78316061Y-76514100D01*
X78258739Y-76625082D01*
X78147540Y-76837074D01*
X78054362Y-77003492D01*
X77975866Y-77127787D01*
X77908712Y-77213407D01*
X77849561Y-77263803D01*
X77795073Y-77282422D01*
X77741909Y-77272714D01*
X77686730Y-77238128D01*
X77674790Y-77228213D01*
X77646776Y-77189911D01*
X77632346Y-77130280D01*
X77631735Y-77042751D01*
X77645176Y-76920757D01*
X77672904Y-76757728D01*
X77695721Y-76641308D01*
X77720496Y-76514854D01*
X77739704Y-76408796D01*
X77751618Y-76333303D01*
X77754512Y-76298540D01*
X77754095Y-76297498D01*
X77737237Y-76316021D01*
X77696965Y-76378806D01*
X77634946Y-76482886D01*
X77552846Y-76625295D01*
X77452328Y-76803067D01*
X77335061Y-77013235D01*
X77202707Y-77252833D01*
X77056934Y-77518895D01*
X76899407Y-77808454D01*
X76735289Y-78112052D01*
X76675905Y-78219709D01*
X76632914Y-78288257D01*
X76598701Y-78326371D01*
X76565646Y-78342722D01*
X76529816Y-78346000D01*
X76460391Y-78330571D01*
X76420555Y-78280426D01*
X76412860Y-78254360D01*
X76414212Y-78221382D01*
X76427372Y-78174931D01*
X76455101Y-78108445D01*
X76500161Y-78015365D01*
X76565313Y-77889128D01*
X76653317Y-77723175D01*
X76661627Y-77707613D01*
X76815675Y-77421477D01*
X76968383Y-77142104D01*
X77116332Y-76875514D01*
X77256104Y-76627726D01*
X77384279Y-76404759D01*
X77497438Y-76212634D01*
X77592163Y-76057369D01*
X77650588Y-75966421D01*
X77746675Y-75831459D01*
X77826751Y-75742176D01*
X77895823Y-75695080D01*
X77958898Y-75686682D01*
X78017109Y-75710896D01*
G36*
X77412417Y-75525747D02*
X77468947Y-75566736D01*
X77508869Y-75632812D01*
X77506865Y-75674899D01*
X77491601Y-75707317D01*
X77453312Y-75782751D01*
X77394176Y-75897052D01*
X77316371Y-76046074D01*
X77222075Y-76225671D01*
X77113466Y-76431695D01*
X76992724Y-76660001D01*
X76862027Y-76906441D01*
X76723552Y-77166869D01*
X76690406Y-77229107D01*
X76551284Y-77490647D01*
X76420110Y-77737978D01*
X76298974Y-77967114D01*
X76189965Y-78174066D01*
X76095172Y-78354850D01*
X76016684Y-78505477D01*
X75956590Y-78621962D01*
X75916978Y-78700316D01*
X75899939Y-78736554D01*
X75899470Y-78738593D01*
X75927095Y-78735021D01*
X75990576Y-78717176D01*
X76066192Y-78692311D01*
X76208866Y-78646808D01*
X76387927Y-78595693D01*
X76587181Y-78543069D01*
X76790430Y-78493040D01*
X76981481Y-78449709D01*
X77144136Y-78417178D01*
X77170242Y-78412600D01*
X77317875Y-78391848D01*
X77505855Y-78372117D01*
X77721054Y-78354310D01*
X77950345Y-78339331D01*
X78180602Y-78328080D01*
X78398697Y-78321463D01*
X78515090Y-78320101D01*
X78660425Y-78323610D01*
X78760057Y-78337124D01*
X78821269Y-78363466D01*
X78851350Y-78405461D01*
X78857895Y-78452947D01*
X78843446Y-78499342D01*
X78810927Y-78551424D01*
X78776580Y-78584640D01*
X78769090Y-78587189D01*
X78742217Y-78588413D01*
X78669494Y-78591537D01*
X78558500Y-78596242D01*
X78416814Y-78602206D01*
X78252014Y-78609110D01*
X78156786Y-78613087D01*
X77782592Y-78633974D01*
X77447007Y-78665198D01*
X77135721Y-78709436D01*
X76834420Y-78769365D01*
X76528792Y-78847663D01*
X76204525Y-78947009D01*
X75997053Y-79017140D01*
X75824295Y-79076858D01*
X75694672Y-79120138D01*
X75600915Y-79148398D01*
X75535755Y-79163056D01*
X75491924Y-79165529D01*
X75462151Y-79157236D01*
X75439168Y-79139595D01*
X75428293Y-79128089D01*
X75397601Y-79086086D01*
X75387284Y-79042027D01*
X75399967Y-78986226D01*
X75438278Y-78908997D01*
X75504842Y-78800652D01*
X75525909Y-78768025D01*
X75564291Y-78704625D01*
X75624984Y-78598800D01*
X75705329Y-78455411D01*
X75802664Y-78279317D01*
X75914328Y-78075379D01*
X76037662Y-77848456D01*
X76170003Y-77603407D01*
X76308691Y-77345094D01*
X76451065Y-77078375D01*
X76452329Y-77076000D01*
X76591159Y-76815594D01*
X76723396Y-76568429D01*
X76846772Y-76338687D01*
X76959021Y-76130549D01*
X77057876Y-75948195D01*
X77141067Y-75795807D01*
X77206329Y-75677565D01*
X77251394Y-75597650D01*
X77273994Y-75560243D01*
X77275195Y-75558684D01*
X77339732Y-75516760D01*
X77412417Y-75525747D01*
X77412417Y-75525747D01*
G37*
X77412417Y-75525747D02*
X77468947Y-75566736D01*
X77508869Y-75632812D01*
X77506865Y-75674899D01*
X77491601Y-75707317D01*
X77453312Y-75782751D01*
X77394176Y-75897052D01*
X77316371Y-76046074D01*
X77222075Y-76225671D01*
X77113466Y-76431695D01*
X76992724Y-76660001D01*
X76862027Y-76906441D01*
X76723552Y-77166869D01*
X76690406Y-77229107D01*
X76551284Y-77490647D01*
X76420110Y-77737978D01*
X76298974Y-77967114D01*
X76189965Y-78174066D01*
X76095172Y-78354850D01*
X76016684Y-78505477D01*
X75956590Y-78621962D01*
X75916978Y-78700316D01*
X75899939Y-78736554D01*
X75899470Y-78738593D01*
X75927095Y-78735021D01*
X75990576Y-78717176D01*
X76066192Y-78692311D01*
X76208866Y-78646808D01*
X76387927Y-78595693D01*
X76587181Y-78543069D01*
X76790430Y-78493040D01*
X76981481Y-78449709D01*
X77144136Y-78417178D01*
X77170242Y-78412600D01*
X77317875Y-78391848D01*
X77505855Y-78372117D01*
X77721054Y-78354310D01*
X77950345Y-78339331D01*
X78180602Y-78328080D01*
X78398697Y-78321463D01*
X78515090Y-78320101D01*
X78660425Y-78323610D01*
X78760057Y-78337124D01*
X78821269Y-78363466D01*
X78851350Y-78405461D01*
X78857895Y-78452947D01*
X78843446Y-78499342D01*
X78810927Y-78551424D01*
X78776580Y-78584640D01*
X78769090Y-78587189D01*
X78742217Y-78588413D01*
X78669494Y-78591537D01*
X78558500Y-78596242D01*
X78416814Y-78602206D01*
X78252014Y-78609110D01*
X78156786Y-78613087D01*
X77782592Y-78633974D01*
X77447007Y-78665198D01*
X77135721Y-78709436D01*
X76834420Y-78769365D01*
X76528792Y-78847663D01*
X76204525Y-78947009D01*
X75997053Y-79017140D01*
X75824295Y-79076858D01*
X75694672Y-79120138D01*
X75600915Y-79148398D01*
X75535755Y-79163056D01*
X75491924Y-79165529D01*
X75462151Y-79157236D01*
X75439168Y-79139595D01*
X75428293Y-79128089D01*
X75397601Y-79086086D01*
X75387284Y-79042027D01*
X75399967Y-78986226D01*
X75438278Y-78908997D01*
X75504842Y-78800652D01*
X75525909Y-78768025D01*
X75564291Y-78704625D01*
X75624984Y-78598800D01*
X75705329Y-78455411D01*
X75802664Y-78279317D01*
X75914328Y-78075379D01*
X76037662Y-77848456D01*
X76170003Y-77603407D01*
X76308691Y-77345094D01*
X76451065Y-77078375D01*
X76452329Y-77076000D01*
X76591159Y-76815594D01*
X76723396Y-76568429D01*
X76846772Y-76338687D01*
X76959021Y-76130549D01*
X77057876Y-75948195D01*
X77141067Y-75795807D01*
X77206329Y-75677565D01*
X77251394Y-75597650D01*
X77273994Y-75560243D01*
X77275195Y-75558684D01*
X77339732Y-75516760D01*
X77412417Y-75525747D01*
G36*
X85189200Y-78832080D02*
X82385040Y-78832080D01*
X82385040Y-77643360D01*
X81623040Y-77643360D01*
X81623040Y-78832080D01*
X81196320Y-78832080D01*
X81196320Y-76454640D01*
X81623040Y-76454640D01*
X81623040Y-77226800D01*
X82385040Y-77226800D01*
X82385040Y-76454640D01*
X82811760Y-76454640D01*
X82811760Y-77226800D01*
X83208000Y-77226800D01*
X83208000Y-77643360D01*
X82811760Y-77643360D01*
X82811760Y-78415520D01*
X83583920Y-78415520D01*
X83583920Y-76454640D01*
X84000480Y-76454640D01*
X84000480Y-78415520D01*
X84772640Y-78415520D01*
X84772640Y-76454640D01*
X84000480Y-76454640D01*
X83583920Y-76454640D01*
X82811760Y-76454640D01*
X82385040Y-76454640D01*
X81623040Y-76454640D01*
X81196320Y-76454640D01*
X80210800Y-76454640D01*
X80210800Y-76038080D01*
X85189200Y-76038080D01*
X85189200Y-78832080D01*
X85189200Y-78832080D01*
G37*
X85189200Y-78832080D02*
X82385040Y-78832080D01*
X82385040Y-77643360D01*
X81623040Y-77643360D01*
X81623040Y-78832080D01*
X81196320Y-78832080D01*
X81196320Y-76454640D01*
X81623040Y-76454640D01*
X81623040Y-77226800D01*
X82385040Y-77226800D01*
X82385040Y-76454640D01*
X82811760Y-76454640D01*
X82811760Y-77226800D01*
X83208000Y-77226800D01*
X83208000Y-77643360D01*
X82811760Y-77643360D01*
X82811760Y-78415520D01*
X83583920Y-78415520D01*
X83583920Y-76454640D01*
X84000480Y-76454640D01*
X84000480Y-78415520D01*
X84772640Y-78415520D01*
X84772640Y-76454640D01*
X84000480Y-76454640D01*
X83583920Y-76454640D01*
X82811760Y-76454640D01*
X82385040Y-76454640D01*
X81623040Y-76454640D01*
X81196320Y-76454640D01*
X80210800Y-76454640D01*
X80210800Y-76038080D01*
X85189200Y-76038080D01*
X85189200Y-78832080D01*
D13*
G04 #@! TO.C,TP3*
X124050000Y-98550000D02*
X126950000Y-98550000D01*
X126950000Y-98550000D02*
X126950000Y-101450000D01*
X126950000Y-101450000D02*
X124050000Y-101450000D01*
X124050000Y-101450000D02*
X124050000Y-98550000D01*
G04 #@! TO.C,TP2*
X73050000Y-103450000D02*
X73050000Y-100550000D01*
X75950000Y-103450000D02*
X73050000Y-103450000D01*
X75950000Y-100550000D02*
X75950000Y-103450000D01*
X73050000Y-100550000D02*
X75950000Y-100550000D01*
G04 #@! TO.C,TP1*
X73050000Y-96550000D02*
X75950000Y-96550000D01*
X75950000Y-96550000D02*
X75950000Y-99450000D01*
X75950000Y-99450000D02*
X73050000Y-99450000D01*
X73050000Y-99450000D02*
X73050000Y-96550000D01*
D15*
G04 #@! TO.C,U1*
X86730000Y-88230000D02*
X90060000Y-88230000D01*
X90060000Y-88230000D02*
X90060000Y-86570000D01*
X90060000Y-86570000D02*
X87160000Y-86570000D01*
X86730000Y-87000000D02*
X87160000Y-86570000D01*
X86730000Y-87000000D02*
X86730000Y-88230000D01*
D16*
G36*
X83700000Y-81200000D02*
X82700000Y-82200000D01*
X82700000Y-81200000D01*
X83700000Y-81200000D01*
G37*
X83700000Y-81200000D02*
X82700000Y-82200000D01*
X82700000Y-81200000D01*
X83700000Y-81200000D01*
D15*
G04 #@! TO.C,U7*
X86730000Y-113430000D02*
X90060000Y-113430000D01*
X90060000Y-113430000D02*
X90060000Y-111770000D01*
X90060000Y-111770000D02*
X87160000Y-111770000D01*
X86730000Y-112200000D02*
X87160000Y-111770000D01*
X86730000Y-112200000D02*
X86730000Y-113430000D01*
D16*
G36*
X83700000Y-106400000D02*
X82700000Y-107400000D01*
X82700000Y-106400000D01*
X83700000Y-106400000D01*
G37*
X83700000Y-106400000D02*
X82700000Y-107400000D01*
X82700000Y-106400000D01*
X83700000Y-106400000D01*
G04 #@! TO.C,U6*
G36*
X106900000Y-106400000D02*
X105900000Y-107400000D01*
X105900000Y-106400000D01*
X106900000Y-106400000D01*
G37*
X106900000Y-106400000D02*
X105900000Y-107400000D01*
X105900000Y-106400000D01*
X106900000Y-106400000D01*
D15*
X109930000Y-112200000D02*
X109930000Y-113430000D01*
X109930000Y-112200000D02*
X110360000Y-111770000D01*
X113260000Y-111770000D02*
X110360000Y-111770000D01*
X113260000Y-113430000D02*
X113260000Y-111770000D01*
X109930000Y-113430000D02*
X113260000Y-113430000D01*
G04 #@! TO.C,U5*
X86730000Y-100830000D02*
X90060000Y-100830000D01*
X90060000Y-100830000D02*
X90060000Y-99170000D01*
X90060000Y-99170000D02*
X87160000Y-99170000D01*
X86730000Y-99600000D02*
X87160000Y-99170000D01*
X86730000Y-99600000D02*
X86730000Y-100830000D01*
D16*
G36*
X83700000Y-93800000D02*
X82700000Y-94800000D01*
X82700000Y-93800000D01*
X83700000Y-93800000D01*
G37*
X83700000Y-93800000D02*
X82700000Y-94800000D01*
X82700000Y-93800000D01*
X83700000Y-93800000D01*
G04 #@! TO.C,U4*
G36*
X106900000Y-93800000D02*
X105900000Y-94800000D01*
X105900000Y-93800000D01*
X106900000Y-93800000D01*
G37*
X106900000Y-93800000D02*
X105900000Y-94800000D01*
X105900000Y-93800000D01*
X106900000Y-93800000D01*
D15*
X109930000Y-99600000D02*
X109930000Y-100830000D01*
X109930000Y-99600000D02*
X110360000Y-99170000D01*
X113260000Y-99170000D02*
X110360000Y-99170000D01*
X113260000Y-100830000D02*
X113260000Y-99170000D01*
X109930000Y-100830000D02*
X113260000Y-100830000D01*
G04 #@! TO.C,U3*
X109930000Y-88230000D02*
X113260000Y-88230000D01*
X113260000Y-88230000D02*
X113260000Y-86570000D01*
X113260000Y-86570000D02*
X110360000Y-86570000D01*
X109930000Y-87000000D02*
X110360000Y-86570000D01*
X109930000Y-87000000D02*
X109930000Y-88230000D01*
D16*
G36*
X106900000Y-81200000D02*
X105900000Y-82200000D01*
X105900000Y-81200000D01*
X106900000Y-81200000D01*
G37*
X106900000Y-81200000D02*
X105900000Y-82200000D01*
X105900000Y-81200000D01*
X106900000Y-81200000D01*
G04 #@! TO.C,U2*
G36*
X95300000Y-81200000D02*
X94300000Y-82200000D01*
X94300000Y-81200000D01*
X95300000Y-81200000D01*
G37*
X95300000Y-81200000D02*
X94300000Y-82200000D01*
X94300000Y-81200000D01*
X95300000Y-81200000D01*
D15*
X98330000Y-87000000D02*
X98330000Y-88230000D01*
X98330000Y-87000000D02*
X98760000Y-86570000D01*
X101660000Y-86570000D02*
X98760000Y-86570000D01*
X101660000Y-88230000D02*
X101660000Y-86570000D01*
X98330000Y-88230000D02*
X101660000Y-88230000D01*
G04 #@! TO.C,D1*
X99261904Y-111402380D02*
X99261904Y-110402380D01*
X99500000Y-110402380D01*
X99642857Y-110450000D01*
X99738095Y-110545238D01*
X99785714Y-110640476D01*
X99833333Y-110830952D01*
X99833333Y-110973809D01*
X99785714Y-111164285D01*
X99738095Y-111259523D01*
X99642857Y-111354761D01*
X99500000Y-111402380D01*
X99261904Y-111402380D01*
X100785714Y-111402380D02*
X100214285Y-111402380D01*
X100500000Y-111402380D02*
X100500000Y-110402380D01*
X100404761Y-110545238D01*
X100309523Y-110640476D01*
X100214285Y-110688095D01*
G04 #@! TO.C,H1*
X122278095Y-90702380D02*
X122278095Y-89702380D01*
X122278095Y-90178571D02*
X122849523Y-90178571D01*
X122849523Y-90702380D02*
X122849523Y-89702380D01*
X123849523Y-90702380D02*
X123278095Y-90702380D01*
X123563809Y-90702380D02*
X123563809Y-89702380D01*
X123468571Y-89845238D01*
X123373333Y-89940476D01*
X123278095Y-89988095D01*
G04 #@! TO.C,H5*
X89718095Y-123532380D02*
X89718095Y-122532380D01*
X89718095Y-123008571D02*
X90289523Y-123008571D01*
X90289523Y-123532380D02*
X90289523Y-122532380D01*
X91241904Y-122532380D02*
X90765714Y-122532380D01*
X90718095Y-123008571D01*
X90765714Y-122960952D01*
X90860952Y-122913333D01*
X91099047Y-122913333D01*
X91194285Y-122960952D01*
X91241904Y-123008571D01*
X91289523Y-123103809D01*
X91289523Y-123341904D01*
X91241904Y-123437142D01*
X91194285Y-123484761D01*
X91099047Y-123532380D01*
X90860952Y-123532380D01*
X90765714Y-123484761D01*
X90718095Y-123437142D01*
G04 #@! TO.C,H4*
X76298095Y-110162380D02*
X76298095Y-109162380D01*
X76298095Y-109638571D02*
X76869523Y-109638571D01*
X76869523Y-110162380D02*
X76869523Y-109162380D01*
X77774285Y-109495714D02*
X77774285Y-110162380D01*
X77536190Y-109114761D02*
X77298095Y-109829047D01*
X77917142Y-109829047D01*
G04 #@! TO.C,H3*
X99308095Y-100392380D02*
X99308095Y-99392380D01*
X99308095Y-99868571D02*
X99879523Y-99868571D01*
X99879523Y-100392380D02*
X99879523Y-99392380D01*
X100260476Y-99392380D02*
X100879523Y-99392380D01*
X100546190Y-99773333D01*
X100689047Y-99773333D01*
X100784285Y-99820952D01*
X100831904Y-99868571D01*
X100879523Y-99963809D01*
X100879523Y-100201904D01*
X100831904Y-100297142D01*
X100784285Y-100344761D01*
X100689047Y-100392380D01*
X100403333Y-100392380D01*
X100308095Y-100344761D01*
X100260476Y-100297142D01*
G04 #@! TO.C,H2*
X108868095Y-77302380D02*
X108868095Y-76302380D01*
X108868095Y-76778571D02*
X109439523Y-76778571D01*
X109439523Y-77302380D02*
X109439523Y-76302380D01*
X109868095Y-76397619D02*
X109915714Y-76350000D01*
X110010952Y-76302380D01*
X110249047Y-76302380D01*
X110344285Y-76350000D01*
X110391904Y-76397619D01*
X110439523Y-76492857D01*
X110439523Y-76588095D01*
X110391904Y-76730952D01*
X109820476Y-77302380D01*
X110439523Y-77302380D01*
G04 #@! TO.C,TP3*
D17*
X125527947Y-99986090D02*
X125542461Y-99986090D01*
X125535204Y-100011490D02*
X125535204Y-99986090D01*
X125550928Y-100011490D02*
X125550928Y-99986090D01*
X125560604Y-99986090D01*
X125563023Y-99987300D01*
X125564233Y-99988509D01*
X125565442Y-99990928D01*
X125565442Y-99994557D01*
X125564233Y-99996976D01*
X125563023Y-99998185D01*
X125560604Y-99999395D01*
X125550928Y-99999395D01*
X125573909Y-99986090D02*
X125589633Y-99986090D01*
X125581166Y-99995766D01*
X125584795Y-99995766D01*
X125587214Y-99996976D01*
X125588423Y-99998185D01*
X125589633Y-100000604D01*
X125589633Y-100006652D01*
X125588423Y-100009071D01*
X125587214Y-100010280D01*
X125584795Y-100011490D01*
X125577538Y-100011490D01*
X125575119Y-100010280D01*
X125573909Y-100009071D01*
G04 #@! TO.C,TP2*
X74517947Y-101956090D02*
X74532461Y-101956090D01*
X74525204Y-101981490D02*
X74525204Y-101956090D01*
X74540928Y-101981490D02*
X74540928Y-101956090D01*
X74550604Y-101956090D01*
X74553023Y-101957300D01*
X74554233Y-101958509D01*
X74555442Y-101960928D01*
X74555442Y-101964557D01*
X74554233Y-101966976D01*
X74553023Y-101968185D01*
X74550604Y-101969395D01*
X74540928Y-101969395D01*
X74565119Y-101958509D02*
X74566328Y-101957300D01*
X74568747Y-101956090D01*
X74574795Y-101956090D01*
X74577214Y-101957300D01*
X74578423Y-101958509D01*
X74579633Y-101960928D01*
X74579633Y-101963347D01*
X74578423Y-101966976D01*
X74563909Y-101981490D01*
X74579633Y-101981490D01*
G04 #@! TO.C,TP1*
X74467947Y-97936090D02*
X74482461Y-97936090D01*
X74475204Y-97961490D02*
X74475204Y-97936090D01*
X74490928Y-97961490D02*
X74490928Y-97936090D01*
X74500604Y-97936090D01*
X74503023Y-97937300D01*
X74504233Y-97938509D01*
X74505442Y-97940928D01*
X74505442Y-97944557D01*
X74504233Y-97946976D01*
X74503023Y-97948185D01*
X74500604Y-97949395D01*
X74490928Y-97949395D01*
X74529633Y-97961490D02*
X74515119Y-97961490D01*
X74522376Y-97961490D02*
X74522376Y-97936090D01*
X74519957Y-97939719D01*
X74517538Y-97942138D01*
X74515119Y-97943347D01*
G04 #@! TO.C,U1*
D15*
X87866666Y-87016666D02*
X87866666Y-87583333D01*
X87900000Y-87650000D01*
X87933333Y-87683333D01*
X88000000Y-87716666D01*
X88133333Y-87716666D01*
X88200000Y-87683333D01*
X88233333Y-87650000D01*
X88266666Y-87583333D01*
X88266666Y-87016666D01*
X88966666Y-87716666D02*
X88566666Y-87716666D01*
X88766666Y-87716666D02*
X88766666Y-87016666D01*
X88700000Y-87116666D01*
X88633333Y-87183333D01*
X88566666Y-87216666D01*
X86860000Y-86200000D02*
X86626666Y-86200000D01*
X86626666Y-86566666D02*
X86626666Y-85866666D01*
X86960000Y-85866666D01*
G04 #@! TO.C,U7*
X87866666Y-112216666D02*
X87866666Y-112783333D01*
X87900000Y-112850000D01*
X87933333Y-112883333D01*
X88000000Y-112916666D01*
X88133333Y-112916666D01*
X88200000Y-112883333D01*
X88233333Y-112850000D01*
X88266666Y-112783333D01*
X88266666Y-112216666D01*
X88533333Y-112216666D02*
X89000000Y-112216666D01*
X88700000Y-112916666D01*
X86860000Y-111400000D02*
X86626666Y-111400000D01*
X86626666Y-111766666D02*
X86626666Y-111066666D01*
X86960000Y-111066666D01*
G04 #@! TO.C,U6*
X111066666Y-112216666D02*
X111066666Y-112783333D01*
X111100000Y-112850000D01*
X111133333Y-112883333D01*
X111200000Y-112916666D01*
X111333333Y-112916666D01*
X111400000Y-112883333D01*
X111433333Y-112850000D01*
X111466666Y-112783333D01*
X111466666Y-112216666D01*
X112100000Y-112216666D02*
X111966666Y-112216666D01*
X111900000Y-112250000D01*
X111866666Y-112283333D01*
X111800000Y-112383333D01*
X111766666Y-112516666D01*
X111766666Y-112783333D01*
X111800000Y-112850000D01*
X111833333Y-112883333D01*
X111900000Y-112916666D01*
X112033333Y-112916666D01*
X112100000Y-112883333D01*
X112133333Y-112850000D01*
X112166666Y-112783333D01*
X112166666Y-112616666D01*
X112133333Y-112550000D01*
X112100000Y-112516666D01*
X112033333Y-112483333D01*
X111900000Y-112483333D01*
X111833333Y-112516666D01*
X111800000Y-112550000D01*
X111766666Y-112616666D01*
X110060000Y-111400000D02*
X109826666Y-111400000D01*
X109826666Y-111766666D02*
X109826666Y-111066666D01*
X110160000Y-111066666D01*
G04 #@! TO.C,U5*
X87866666Y-99616666D02*
X87866666Y-100183333D01*
X87900000Y-100250000D01*
X87933333Y-100283333D01*
X88000000Y-100316666D01*
X88133333Y-100316666D01*
X88200000Y-100283333D01*
X88233333Y-100250000D01*
X88266666Y-100183333D01*
X88266666Y-99616666D01*
X88933333Y-99616666D02*
X88600000Y-99616666D01*
X88566666Y-99950000D01*
X88600000Y-99916666D01*
X88666666Y-99883333D01*
X88833333Y-99883333D01*
X88900000Y-99916666D01*
X88933333Y-99950000D01*
X88966666Y-100016666D01*
X88966666Y-100183333D01*
X88933333Y-100250000D01*
X88900000Y-100283333D01*
X88833333Y-100316666D01*
X88666666Y-100316666D01*
X88600000Y-100283333D01*
X88566666Y-100250000D01*
X86860000Y-98800000D02*
X86626666Y-98800000D01*
X86626666Y-99166666D02*
X86626666Y-98466666D01*
X86960000Y-98466666D01*
G04 #@! TO.C,U4*
X111066666Y-99616666D02*
X111066666Y-100183333D01*
X111100000Y-100250000D01*
X111133333Y-100283333D01*
X111200000Y-100316666D01*
X111333333Y-100316666D01*
X111400000Y-100283333D01*
X111433333Y-100250000D01*
X111466666Y-100183333D01*
X111466666Y-99616666D01*
X112100000Y-99850000D02*
X112100000Y-100316666D01*
X111933333Y-99583333D02*
X111766666Y-100083333D01*
X112200000Y-100083333D01*
X110060000Y-98800000D02*
X109826666Y-98800000D01*
X109826666Y-99166666D02*
X109826666Y-98466666D01*
X110160000Y-98466666D01*
G04 #@! TO.C,U3*
X111066666Y-87016666D02*
X111066666Y-87583333D01*
X111100000Y-87650000D01*
X111133333Y-87683333D01*
X111200000Y-87716666D01*
X111333333Y-87716666D01*
X111400000Y-87683333D01*
X111433333Y-87650000D01*
X111466666Y-87583333D01*
X111466666Y-87016666D01*
X111733333Y-87016666D02*
X112166666Y-87016666D01*
X111933333Y-87283333D01*
X112033333Y-87283333D01*
X112100000Y-87316666D01*
X112133333Y-87350000D01*
X112166666Y-87416666D01*
X112166666Y-87583333D01*
X112133333Y-87650000D01*
X112100000Y-87683333D01*
X112033333Y-87716666D01*
X111833333Y-87716666D01*
X111766666Y-87683333D01*
X111733333Y-87650000D01*
X110060000Y-86200000D02*
X109826666Y-86200000D01*
X109826666Y-86566666D02*
X109826666Y-85866666D01*
X110160000Y-85866666D01*
G04 #@! TO.C,U2*
X99466666Y-87016666D02*
X99466666Y-87583333D01*
X99500000Y-87650000D01*
X99533333Y-87683333D01*
X99600000Y-87716666D01*
X99733333Y-87716666D01*
X99800000Y-87683333D01*
X99833333Y-87650000D01*
X99866666Y-87583333D01*
X99866666Y-87016666D01*
X100166666Y-87083333D02*
X100200000Y-87050000D01*
X100266666Y-87016666D01*
X100433333Y-87016666D01*
X100500000Y-87050000D01*
X100533333Y-87083333D01*
X100566666Y-87150000D01*
X100566666Y-87216666D01*
X100533333Y-87316666D01*
X100133333Y-87716666D01*
X100566666Y-87716666D01*
X98460000Y-86200000D02*
X98226666Y-86200000D01*
X98226666Y-86566666D02*
X98226666Y-85866666D01*
X98560000Y-85866666D01*
G04 #@! TD*
M02*
