G04 #@! TF.GenerationSoftware,KiCad,Pcbnew,5.0.2+dfsg1-1*
G04 #@! TF.CreationDate,2019-02-17T13:53:47+13:00*
G04 #@! TF.ProjectId,1bit-adder,31626974-2d61-4646-9465-722e6b696361,rev?*
G04 #@! TF.SameCoordinates,Original*
G04 #@! TF.FileFunction,Legend,Bot*
G04 #@! TF.FilePolarity,Positive*
%FSLAX46Y46*%
G04 Gerber Fmt 4.6, Leading zero omitted, Abs format (unit mm)*
G04 Created by KiCad (PCBNEW 5.0.2+dfsg1-1) date Sun 17 Feb 2019 13:53:47 NZDT*
%MOMM*%
%LPD*%
G01*
G04 APERTURE LIST*
%ADD10C,0.120000*%
%ADD11C,0.150000*%
G04 APERTURE END LIST*
D10*
G04 #@! TO.C,R1*
X99838733Y-113110000D02*
X100181267Y-113110000D01*
X99838733Y-112090000D02*
X100181267Y-112090000D01*
D11*
X100176666Y-114482380D02*
X100510000Y-114006190D01*
X100748095Y-114482380D02*
X100748095Y-113482380D01*
X100367142Y-113482380D01*
X100271904Y-113530000D01*
X100224285Y-113577619D01*
X100176666Y-113672857D01*
X100176666Y-113815714D01*
X100224285Y-113910952D01*
X100271904Y-113958571D01*
X100367142Y-114006190D01*
X100748095Y-114006190D01*
X99224285Y-114482380D02*
X99795714Y-114482380D01*
X99510000Y-114482380D02*
X99510000Y-113482380D01*
X99605238Y-113625238D01*
X99700476Y-113720476D01*
X99795714Y-113768095D01*
G04 #@! TD*
M02*
