EESchema Schematic File Version 4
LIBS:nand-cache
EELAYER 26 0
EELAYER END
$Descr A4 11693 8268
encoding utf-8
Sheet 1 7
Title ""
Date ""
Rev ""
Comp ""
Comment1 ""
Comment2 ""
Comment3 ""
Comment4 ""
$EndDescr
$Sheet
S 2000 1850 550  250 
U 5C1DC876
F0 "NAND" 50
F1 "heir_nand.sch" 50
F2 "A" I L 2000 1900 50 
F3 "B" I L 2000 2000 50 
F4 "Q" O R 2550 1950 50 
$EndSheet
$Sheet
S 2000 2350 550  250 
U 5C1DCE57
F0 "sheet5C1DCE52" 50
F1 "heir_nand.sch" 50
F2 "A" I L 2000 2400 50 
F3 "B" I L 2000 2500 50 
F4 "Q" O R 2550 2450 50 
$EndSheet
Wire Wire Line
	2550 2450 2600 2450
Wire Wire Line
	2600 2450 2600 2250
Wire Wire Line
	2600 2250 1900 2250
Wire Wire Line
	1900 2250 1900 2000
Wire Wire Line
	1900 2000 2000 2000
Wire Wire Line
	2550 1950 2650 1950
Wire Wire Line
	2650 1950 2650 2200
Wire Wire Line
	2650 2200 1950 2200
Wire Wire Line
	1950 2200 1950 2400
Wire Wire Line
	1950 2400 2000 2400
$Sheet
S 3050 2600 550  250 
U 5C1DCF44
F0 "sheet5C1DCF3E" 50
F1 "heir_nand.sch" 50
F2 "A" I L 3050 2650 50 
F3 "B" I L 3050 2750 50 
F4 "Q" O R 3600 2700 50 
$EndSheet
$Sheet
S 3050 3100 550  250 
U 5C1DCF49
F0 "sheet5C1DCF3F" 50
F1 "heir_nand.sch" 50
F2 "A" I L 3050 3150 50 
F3 "B" I L 3050 3250 50 
F4 "Q" O R 3600 3200 50 
$EndSheet
Wire Wire Line
	3600 3200 3650 3200
Wire Wire Line
	3650 3200 3650 3000
Wire Wire Line
	3650 3000 2950 3000
Wire Wire Line
	2950 3000 2950 2750
Wire Wire Line
	2950 2750 3050 2750
Wire Wire Line
	3600 2700 3700 2700
Wire Wire Line
	3700 2700 3700 2950
Wire Wire Line
	3700 2950 3000 2950
Wire Wire Line
	3000 2950 3000 3150
Wire Wire Line
	3000 3150 3050 3150
$Sheet
S 2000 3450 550  250 
U 5C1DD0C5
F0 "sheet5C1DD0BB" 50
F1 "heir_nand.sch" 50
F2 "A" I L 2000 3500 50 
F3 "B" I L 2000 3600 50 
F4 "Q" O R 2550 3550 50 
$EndSheet
Wire Wire Line
	2550 3550 2600 3550
Wire Wire Line
	2600 3550 2600 3350
Wire Wire Line
	2600 3350 1900 3350
Wire Wire Line
	1900 3350 1900 3150
Wire Wire Line
	1900 3150 2000 3150
Wire Wire Line
	2550 3050 2650 3050
Wire Wire Line
	2650 3050 2650 3150
Wire Wire Line
	2650 3300 1950 3300
Wire Wire Line
	1950 3300 1950 3500
Wire Wire Line
	1950 3500 2000 3500
Wire Wire Line
	2600 2450 2700 2450
Wire Wire Line
	2900 2450 2900 2650
Wire Wire Line
	2900 2650 3050 2650
Connection ~ 2600 2450
Wire Wire Line
	2700 2450 2700 2800
Wire Wire Line
	2700 2800 1900 2800
Wire Wire Line
	1900 2800 1900 2950
Wire Wire Line
	1900 2950 2000 2950
Connection ~ 2700 2450
Wire Wire Line
	2700 2450 2900 2450
$Sheet
S 2000 2900 550  300 
U 5C1DDF73
F0 "3_NAND" 50
F1 "heir-3-nand.sch" 50
F2 "A" I L 2000 2950 50 
F3 "B" I L 2000 3050 50 
F4 "Q" O R 2550 3050 50 
F5 "C" I L 2000 3150 50 
$EndSheet
Wire Wire Line
	2650 3150 2900 3150
Wire Wire Line
	2900 3150 2900 3250
Wire Wire Line
	2900 3250 3050 3250
Connection ~ 2650 3150
Wire Wire Line
	2650 3150 2650 3300
Wire Wire Line
	2600 3550 2600 3850
Wire Wire Line
	2600 3850 1700 3850
Wire Wire Line
	1700 3850 1700 1900
Wire Wire Line
	1700 1900 2000 1900
Connection ~ 2600 3550
$Comp
L Custom:DF37C-10DS-0-4V-51(MALE) J1
U 1 1 5C1E23CB
P 1150 3050
F 0 "J1" H 1150 3315 50  0000 C CNN
F 1 "DF37C-10DS-0-4V-51(MALE)" H 1150 3224 50  0000 C CNN
F 2 "Custom:DF37C-10DP-0.4V-51" H 1150 3050 50  0001 C CNN
F 3 "" H 1150 3050 50  0001 C CNN
	1    1150 3050
	1    0    0    -1  
$EndComp
$Comp
L power:VCC #PWR02
U 1 1 5C1E2400
P 650 2550
F 0 "#PWR02" H 650 2400 50  0001 C CNN
F 1 "VCC" H 667 2723 50  0000 C CNN
F 2 "" H 650 2550 50  0001 C CNN
F 3 "" H 650 2550 50  0001 C CNN
	1    650  2550
	1    0    0    -1  
$EndComp
$Comp
L power:GND #PWR01
U 1 1 5C1E243A
P 600 3550
F 0 "#PWR01" H 600 3300 50  0001 C CNN
F 1 "GND" H 605 3377 50  0000 C CNN
F 2 "" H 600 3550 50  0001 C CNN
F 3 "" H 600 3550 50  0001 C CNN
	1    600  3550
	1    0    0    -1  
$EndComp
Wire Wire Line
	600  3550 600  3200
Wire Wire Line
	600  3200 950  3200
Wire Wire Line
	650  2550 650  3000
Wire Wire Line
	650  3000 950  3000
Wire Wire Line
	950  3050 750  3050
Wire Wire Line
	750  3050 750  2700
Wire Wire Line
	750  2700 1550 2700
Wire Wire Line
	1550 2700 1550 3050
Wire Wire Line
	1550 3050 2000 3050
Wire Wire Line
	1550 2700 1550 2500
Wire Wire Line
	1550 2500 2000 2500
Connection ~ 1550 2700
Wire Wire Line
	950  3100 750  3100
Wire Wire Line
	750  3100 750  3600
Wire Wire Line
	750  3600 2000 3600
Text Label 950  3600 0    50   ~ 0
SIG
Text Label 950  2700 0    50   ~ 0
CLK
Wire Wire Line
	950  3150 800  3150
Wire Wire Line
	800  3150 800  4250
Wire Wire Line
	800  4250 3700 4250
Wire Wire Line
	3700 4250 3700 2950
Connection ~ 3700 2950
Text Label 950  4250 0    50   ~ 0
Q
$EndSCHEMATC
