EESchema Schematic File Version 4
LIBS:nand-cache
EELAYER 26 0
EELAYER END
$Descr A4 11693 8268
encoding utf-8
Sheet 7 7
Title ""
Date ""
Rev ""
Comp ""
Comment1 ""
Comment2 ""
Comment3 ""
Comment4 ""
$EndDescr
$Comp
L Device:R R?
U 1 1 5C1DE909
P 2700 2000
AR Path="/5C1DE909" Ref="R?"  Part="1" 
AR Path="/5C1DC876/5C1DE909" Ref="R?"  Part="1" 
AR Path="/5C1DCE57/5C1DE909" Ref="R?"  Part="1" 
AR Path="/5C1DCF44/5C1DE909" Ref="R?"  Part="1" 
AR Path="/5C1DCF49/5C1DE909" Ref="R?"  Part="1" 
AR Path="/5C1DD0C0/5C1DE909" Ref="R?"  Part="1" 
AR Path="/5C1DD0C5/5C1DE909" Ref="R?"  Part="1" 
AR Path="/5C1DDF73/5C1DE909" Ref="R11"  Part="1" 
F 0 "R11" H 2770 2046 50  0000 L CNN
F 1 "4.7K" H 2770 1955 50  0000 L CNN
F 2 "Resistor_SMD:R_0402_1005Metric" V 2630 2000 50  0001 C CNN
F 3 "~" H 2700 2000 50  0001 C CNN
	1    2700 2000
	1    0    0    -1  
$EndComp
$Comp
L Device:Q_NPN_BEC Q?
U 1 1 5C1DE910
P 2700 2450
AR Path="/5C1DE910" Ref="Q?"  Part="1" 
AR Path="/5C1DC876/5C1DE910" Ref="Q?"  Part="1" 
AR Path="/5C1DCE57/5C1DE910" Ref="Q?"  Part="1" 
AR Path="/5C1DCF44/5C1DE910" Ref="Q?"  Part="1" 
AR Path="/5C1DCF49/5C1DE910" Ref="Q?"  Part="1" 
AR Path="/5C1DD0C0/5C1DE910" Ref="Q?"  Part="1" 
AR Path="/5C1DD0C5/5C1DE910" Ref="Q?"  Part="1" 
AR Path="/5C1DDF73/5C1DE910" Ref="Q16"  Part="1" 
F 0 "Q16" V 2936 2450 50  0000 C CNN
F 1 "Q_NPN_BEC" V 3027 2450 50  0000 C CNN
F 2 "Custom:SOT-23" H 2900 2550 50  0001 C CNN
F 3 "~" H 2700 2450 50  0001 C CNN
	1    2700 2450
	0    1    1    0   
$EndComp
$Comp
L Device:Q_NPN_BEC Q?
U 1 1 5C1DE917
P 3350 2550
AR Path="/5C1DE917" Ref="Q?"  Part="1" 
AR Path="/5C1DC876/5C1DE917" Ref="Q?"  Part="1" 
AR Path="/5C1DCE57/5C1DE917" Ref="Q?"  Part="1" 
AR Path="/5C1DCF44/5C1DE917" Ref="Q?"  Part="1" 
AR Path="/5C1DCF49/5C1DE917" Ref="Q?"  Part="1" 
AR Path="/5C1DD0C0/5C1DE917" Ref="Q?"  Part="1" 
AR Path="/5C1DD0C5/5C1DE917" Ref="Q?"  Part="1" 
AR Path="/5C1DDF73/5C1DE917" Ref="Q19"  Part="1" 
F 0 "Q19" H 3541 2596 50  0000 L CNN
F 1 "Q_NPN_BEC" H 3541 2505 50  0000 L CNN
F 2 "Custom:SOT-23" H 3550 2650 50  0001 C CNN
F 3 "~" H 3350 2550 50  0001 C CNN
	1    3350 2550
	1    0    0    -1  
$EndComp
$Comp
L Device:R R?
U 1 1 5C1DE91E
P 3450 2000
AR Path="/5C1DE91E" Ref="R?"  Part="1" 
AR Path="/5C1DC876/5C1DE91E" Ref="R?"  Part="1" 
AR Path="/5C1DCE57/5C1DE91E" Ref="R?"  Part="1" 
AR Path="/5C1DCF44/5C1DE91E" Ref="R?"  Part="1" 
AR Path="/5C1DCF49/5C1DE91E" Ref="R?"  Part="1" 
AR Path="/5C1DD0C0/5C1DE91E" Ref="R?"  Part="1" 
AR Path="/5C1DD0C5/5C1DE91E" Ref="R?"  Part="1" 
AR Path="/5C1DDF73/5C1DE91E" Ref="R12"  Part="1" 
F 0 "R12" H 3520 2046 50  0000 L CNN
F 1 "1K" H 3520 1955 50  0000 L CNN
F 2 "Resistor_SMD:R_0402_1005Metric" V 3380 2000 50  0001 C CNN
F 3 "~" H 3450 2000 50  0001 C CNN
	1    3450 2000
	1    0    0    -1  
$EndComp
Wire Wire Line
	3450 1850 3450 1700
Wire Wire Line
	3450 1700 2700 1700
Wire Wire Line
	2700 1850 2700 1700
Wire Wire Line
	2700 2250 2700 2200
Wire Wire Line
	3450 2150 3450 2250
Wire Wire Line
	2700 2200 2950 2200
Wire Wire Line
	2950 2200 2950 2700
Connection ~ 2700 2200
Wire Wire Line
	2700 2200 2700 2150
$Comp
L Device:Q_NPN_BEC Q?
U 1 1 5C1DE92E
P 2950 3000
AR Path="/5C1DE92E" Ref="Q?"  Part="1" 
AR Path="/5C1DC876/5C1DE92E" Ref="Q?"  Part="1" 
AR Path="/5C1DCE57/5C1DE92E" Ref="Q?"  Part="1" 
AR Path="/5C1DCF44/5C1DE92E" Ref="Q?"  Part="1" 
AR Path="/5C1DCF49/5C1DE92E" Ref="Q?"  Part="1" 
AR Path="/5C1DD0C0/5C1DE92E" Ref="Q?"  Part="1" 
AR Path="/5C1DD0C5/5C1DE92E" Ref="Q?"  Part="1" 
AR Path="/5C1DDF73/5C1DE92E" Ref="Q17"  Part="1" 
F 0 "Q17" V 3186 3000 50  0000 C CNN
F 1 "Q_NPN_BEC" V 3277 3000 50  0000 C CNN
F 2 "Custom:SOT-23" H 3150 3100 50  0001 C CNN
F 3 "~" H 2950 3000 50  0001 C CNN
	1    2950 3000
	0    1    1    0   
$EndComp
Wire Wire Line
	2900 2550 3150 2550
Wire Wire Line
	3150 3100 3150 2550
Connection ~ 3150 2550
Wire Wire Line
	3450 2750 3450 3850
Text Label 2350 3100 0    50   ~ 0
B
Text Label 2350 2550 0    50   ~ 0
A
Wire Wire Line
	3450 2250 4150 2250
Wire Wire Line
	4150 2250 4150 4250
Connection ~ 3450 2250
Wire Wire Line
	3450 2250 3450 2350
Text Label 2350 4250 0    50   ~ 0
Q
Wire Wire Line
	2250 2550 2500 2550
Connection ~ 2700 1700
Wire Wire Line
	2250 1700 2700 1700
Wire Wire Line
	4150 4250 2250 4250
Wire Wire Line
	2750 3100 2250 3100
$Comp
L power:GND #PWR?
U 1 1 5C1DE945
P 3450 3850
AR Path="/5C1DC876/5C1DE945" Ref="#PWR?"  Part="1" 
AR Path="/5C1DCE57/5C1DE945" Ref="#PWR?"  Part="1" 
AR Path="/5C1DCF44/5C1DE945" Ref="#PWR?"  Part="1" 
AR Path="/5C1DCF49/5C1DE945" Ref="#PWR?"  Part="1" 
AR Path="/5C1DD0C0/5C1DE945" Ref="#PWR?"  Part="1" 
AR Path="/5C1DD0C5/5C1DE945" Ref="#PWR?"  Part="1" 
AR Path="/5C1DDF73/5C1DE945" Ref="#PWR014"  Part="1" 
F 0 "#PWR014" H 3450 3600 50  0001 C CNN
F 1 "GND" H 3455 3677 50  0000 C CNN
F 2 "" H 3450 3850 50  0001 C CNN
F 3 "" H 3450 3850 50  0001 C CNN
	1    3450 3850
	1    0    0    -1  
$EndComp
$Comp
L power:VCC #PWR?
U 1 1 5C1DE94B
P 2250 1700
AR Path="/5C1DC876/5C1DE94B" Ref="#PWR?"  Part="1" 
AR Path="/5C1DCE57/5C1DE94B" Ref="#PWR?"  Part="1" 
AR Path="/5C1DCF44/5C1DE94B" Ref="#PWR?"  Part="1" 
AR Path="/5C1DCF49/5C1DE94B" Ref="#PWR?"  Part="1" 
AR Path="/5C1DD0C0/5C1DE94B" Ref="#PWR?"  Part="1" 
AR Path="/5C1DD0C5/5C1DE94B" Ref="#PWR?"  Part="1" 
AR Path="/5C1DDF73/5C1DE94B" Ref="#PWR013"  Part="1" 
F 0 "#PWR013" H 2250 1550 50  0001 C CNN
F 1 "VCC" H 2267 1873 50  0000 C CNN
F 2 "" H 2250 1700 50  0001 C CNN
F 3 "" H 2250 1700 50  0001 C CNN
	1    2250 1700
	1    0    0    -1  
$EndComp
Text HLabel 2250 2550 0    50   Input ~ 0
A
Text HLabel 2250 3100 0    50   Input ~ 0
B
Text HLabel 2250 4250 0    50   Output ~ 0
Q
$Comp
L Device:Q_NPN_BEC Q18
U 1 1 5C1DEC1D
P 2950 3600
F 0 "Q18" V 3186 3600 50  0000 C CNN
F 1 "Q_NPN_BEC" V 3277 3600 50  0000 C CNN
F 2 "Custom:SOT-23" H 3150 3700 50  0001 C CNN
F 3 "~" H 2950 3600 50  0001 C CNN
	1    2950 3600
	0    1    1    0   
$EndComp
Wire Wire Line
	3150 3700 3150 3100
Connection ~ 3150 3100
Text Label 2350 3700 0    50   ~ 0
C
Wire Wire Line
	2250 3700 2750 3700
Text HLabel 2250 3700 0    50   Input ~ 0
C
Wire Wire Line
	2950 3400 2650 3400
Wire Wire Line
	2650 3400 2650 2700
Wire Wire Line
	2650 2700 2950 2700
Connection ~ 2950 2700
Wire Wire Line
	2950 2700 2950 2800
$EndSCHEMATC
