EESchema Schematic File Version 4
EELAYER 26 0
EELAYER END
$Descr A4 11693 8268
encoding utf-8
Sheet 1 3
Title ""
Date ""
Rev ""
Comp ""
Comment1 ""
Comment2 ""
Comment3 ""
Comment4 ""
$EndDescr
$Sheet
S 3500 1550 550  400 
U 5C1F4F24
F0 "SRAM 1-Bit" 50
F1 "srambit.sch" 50
F2 "~BE" I L 3500 1650 50 
F3 "DI" I L 3500 1750 50 
F4 "~DI" I L 3500 1850 50 
F5 "DO" I R 4050 1750 50 
$EndSheet
$Sheet
S 1150 1550 550  400 
U 5C1F73C3
F0 "sheet5C1F73BD" 50
F1 "srambit.sch" 50
F2 "~BE" I R 1700 1650 50 
F3 "DI" I R 1700 1750 50 
F4 "~DI" I R 1700 1850 50 
F5 "DO" I L 1150 1750 50 
$EndSheet
Wire Wire Line
	2550 1850 2450 1850
Wire Wire Line
	2450 1850 2450 2050
$Comp
L power:GND #PWR0101
U 1 1 5C1F749A
P 2450 2050
F 0 "#PWR0101" H 2450 1800 50  0001 C CNN
F 1 "GND" H 2455 1877 50  0000 C CNN
F 2 "" H 2450 2050 50  0001 C CNN
F 3 "" H 2450 2050 50  0001 C CNN
	1    2450 2050
	1    0    0    -1  
$EndComp
Wire Wire Line
	2950 1650 3100 1650
Wire Wire Line
	3100 1650 3100 1350
$Comp
L power:VCC #PWR0102
U 1 1 5C1F74F3
P 3100 1350
F 0 "#PWR0102" H 3100 1200 50  0001 C CNN
F 1 "VCC" H 3117 1523 50  0000 C CNN
F 2 "" H 3100 1350 50  0001 C CNN
F 3 "" H 3100 1350 50  0001 C CNN
	1    3100 1350
	1    0    0    -1  
$EndComp
Wire Wire Line
	3500 1650 3300 1650
Wire Wire Line
	3300 1650 3300 1700
Wire Wire Line
	3300 1700 2950 1700
Wire Wire Line
	3500 1750 2950 1750
Wire Wire Line
	3500 1850 3300 1850
Wire Wire Line
	3300 1850 3300 1800
Wire Wire Line
	3300 1800 2950 1800
Wire Wire Line
	4050 1750 4250 1750
Wire Wire Line
	4250 1750 4250 2050
Wire Wire Line
	4250 2050 3050 2050
Wire Wire Line
	3050 2050 3050 1850
Wire Wire Line
	3050 1850 2950 1850
Wire Wire Line
	1700 1650 2550 1650
Wire Wire Line
	1700 1750 1750 1750
Wire Wire Line
	1750 1750 1750 1700
Wire Wire Line
	1750 1700 2550 1700
Wire Wire Line
	1700 1850 1800 1850
Wire Wire Line
	1800 1850 1800 1750
Wire Wire Line
	1800 1750 2550 1750
Wire Wire Line
	1150 1750 1100 1750
Wire Wire Line
	1100 1750 1100 2100
Wire Wire Line
	1100 2100 1850 2100
Wire Wire Line
	1850 2100 1850 1800
Wire Wire Line
	1850 1800 2550 1800
$Comp
L Custom:DF37C-10DS-0-4V-51(MALE) J1
U 1 1 5C1F8D3B
P 2750 1700
F 0 "J1" H 2750 1965 50  0000 C CNN
F 1 "DF37C-10DS-0-4V-51(MALE)" H 2750 1874 50  0000 C CNN
F 2 "Custom:DF37C-10DP-0.4V-51" H 2750 1700 50  0001 C CNN
F 3 "" H 2750 1700 50  0001 C CNN
	1    2750 1700
	1    0    0    -1  
$EndComp
$EndSCHEMATC
