EESchema Schematic File Version 4
EELAYER 26 0
EELAYER END
$Descr A4 11693 8268
encoding utf-8
Sheet 2 3
Title ""
Date ""
Rev ""
Comp ""
Comment1 ""
Comment2 ""
Comment3 ""
Comment4 ""
$EndDescr
$Comp
L Device:Q_NMOS_GSD Q6
U 1 1 5C1F5080
P 2800 1850
AR Path="/5C1F4F24/5C1F5080" Ref="Q6"  Part="1" 
AR Path="/5C1F73C3/5C1F5080" Ref="Q12"  Part="1" 
F 0 "Q6" H 3005 1896 50  0000 L CNN
F 1 "C332103" H 3005 1805 50  0000 L CNN
F 2 "Package_TO_SOT_SMD:SOT-23" H 3000 1950 50  0001 C CNN
F 3 "~" H 2800 1850 50  0001 C CNN
	1    2800 1850
	1    0    0    -1  
$EndComp
$Comp
L Device:Q_NMOS_GSD Q5
U 1 1 5C1F50D2
P 2100 1850
AR Path="/5C1F4F24/5C1F50D2" Ref="Q5"  Part="1" 
AR Path="/5C1F73C3/5C1F50D2" Ref="Q11"  Part="1" 
F 0 "Q5" H 2306 1896 50  0000 L CNN
F 1 "C332103" H 2306 1805 50  0000 L CNN
F 2 "Package_TO_SOT_SMD:SOT-23" H 2300 1950 50  0001 C CNN
F 3 "~" H 2100 1850 50  0001 C CNN
	1    2100 1850
	-1   0    0    -1  
$EndComp
$Comp
L Device:Q_PMOS_GSD Q1
U 1 1 5C1F5261
P 2100 1250
AR Path="/5C1F4F24/5C1F5261" Ref="Q1"  Part="1" 
AR Path="/5C1F73C3/5C1F5261" Ref="Q7"  Part="1" 
F 0 "Q1" H 2306 1204 50  0000 L CNN
F 1 "C193020" H 2306 1295 50  0000 L CNN
F 2 "Package_TO_SOT_SMD:SOT-23" H 2300 1350 50  0001 C CNN
F 3 "~" H 2100 1250 50  0001 C CNN
	1    2100 1250
	-1   0    0    1   
$EndComp
$Comp
L Device:Q_PMOS_GSD Q2
U 1 1 5C1F52C6
P 2800 1250
AR Path="/5C1F4F24/5C1F52C6" Ref="Q2"  Part="1" 
AR Path="/5C1F73C3/5C1F52C6" Ref="Q8"  Part="1" 
F 0 "Q2" H 3005 1204 50  0000 L CNN
F 1 "C193020" H 3005 1295 50  0000 L CNN
F 2 "Package_TO_SOT_SMD:SOT-23" H 3000 1350 50  0001 C CNN
F 3 "~" H 2800 1250 50  0001 C CNN
	1    2800 1250
	1    0    0    1   
$EndComp
$Comp
L Device:Q_PMOS_GSD Q4
U 1 1 5C1F5308
P 3700 1500
AR Path="/5C1F4F24/5C1F5308" Ref="Q4"  Part="1" 
AR Path="/5C1F73C3/5C1F5308" Ref="Q10"  Part="1" 
F 0 "Q4" V 3950 1500 50  0000 C CNN
F 1 "C193020" V 4041 1500 50  0000 C CNN
F 2 "Package_TO_SOT_SMD:SOT-23" H 3900 1600 50  0001 C CNN
F 3 "~" H 3700 1500 50  0001 C CNN
	1    3700 1500
	0    -1   1    0   
$EndComp
$Comp
L Device:Q_PMOS_GSD Q3
U 1 1 5C1F53E7
P 1400 1450
AR Path="/5C1F4F24/5C1F53E7" Ref="Q3"  Part="1" 
AR Path="/5C1F73C3/5C1F53E7" Ref="Q9"  Part="1" 
F 0 "Q3" V 1650 1450 50  0000 C CNN
F 1 "C193020" V 1741 1450 50  0000 C CNN
F 2 "Package_TO_SOT_SMD:SOT-23" H 1600 1550 50  0001 C CNN
F 3 "~" H 1400 1450 50  0001 C CNN
	1    1400 1450
	0    1    1    0   
$EndComp
Wire Wire Line
	2300 1850 2300 1600
Wire Wire Line
	2600 1250 2600 1550
Wire Wire Line
	2900 1650 2900 1600
Wire Wire Line
	2000 1450 2000 1550
Wire Wire Line
	3500 1600 2900 1600
Connection ~ 2300 1600
Wire Wire Line
	2300 1600 2300 1250
Connection ~ 2900 1600
Wire Wire Line
	2900 1600 2900 1450
Wire Wire Line
	2900 1600 2300 1600
Wire Wire Line
	1600 1550 2000 1550
Connection ~ 2600 1550
Wire Wire Line
	2600 1550 2600 1850
Connection ~ 2000 1550
Wire Wire Line
	2000 1550 2000 1650
Wire Wire Line
	2000 1550 2600 1550
Wire Wire Line
	1400 1250 1400 750 
Wire Wire Line
	3700 1300 3700 750 
Wire Wire Line
	3700 750  1400 750 
Wire Wire Line
	1400 750  900  750 
Connection ~ 1400 750 
Text HLabel 900  750  0    50   Input ~ 0
~BE
Wire Wire Line
	2000 1050 2450 1050
$Comp
L power:VCC #PWR0103
U 1 1 5C1F607D
P 2450 1050
AR Path="/5C1F4F24/5C1F607D" Ref="#PWR0103"  Part="1" 
AR Path="/5C1F73C3/5C1F607D" Ref="#PWR0105"  Part="1" 
F 0 "#PWR0103" H 2450 900 50  0001 C CNN
F 1 "VCC" H 2467 1223 50  0000 C CNN
F 2 "" H 2450 1050 50  0001 C CNN
F 3 "" H 2450 1050 50  0001 C CNN
	1    2450 1050
	1    0    0    -1  
$EndComp
Connection ~ 2450 1050
Wire Wire Line
	2450 1050 2900 1050
Wire Wire Line
	2000 2050 2450 2050
$Comp
L power:GND #PWR0104
U 1 1 5C1F6275
P 2450 2050
AR Path="/5C1F4F24/5C1F6275" Ref="#PWR0104"  Part="1" 
AR Path="/5C1F73C3/5C1F6275" Ref="#PWR0106"  Part="1" 
F 0 "#PWR0104" H 2450 1800 50  0001 C CNN
F 1 "GND" H 2455 1877 50  0000 C CNN
F 2 "" H 2450 2050 50  0001 C CNN
F 3 "" H 2450 2050 50  0001 C CNN
	1    2450 2050
	1    0    0    -1  
$EndComp
Connection ~ 2450 2050
Wire Wire Line
	2450 2050 2900 2050
Wire Wire Line
	1200 1550 1050 1550
Wire Wire Line
	3900 1600 4050 1600
Wire Wire Line
	4050 1600 4050 2300
Wire Wire Line
	4050 2300 900  2300
Text HLabel 900  1550 0    50   Input ~ 0
DI
Text HLabel 900  2300 0    50   Input ~ 0
~DI
Wire Wire Line
	1050 1550 1050 1700
Wire Wire Line
	1050 1700 900  1700
Connection ~ 1050 1550
Wire Wire Line
	1050 1550 900  1550
Text HLabel 900  1700 0    50   Input ~ 0
DO
$EndSCHEMATC
