EESchema Schematic File Version 4
LIBS:1b-reg-cache
EELAYER 26 0
EELAYER END
$Descr A4 11693 8268
encoding utf-8
Sheet 1 1
Title ""
Date ""
Rev ""
Comp ""
Comment1 ""
Comment2 ""
Comment3 ""
Comment4 ""
$EndDescr
$Comp
L Custom:2NAND_1NOT_BoB U2
U 2 1 5C536904
P 2300 1850
F 0 "U2" H 2300 2175 50  0000 C CNN
F 1 "2NAND_1NOT_BoB" H 2300 2084 50  0000 C CNN
F 2 "Custom:2NAND_1NOT_BoB" H 2250 1850 50  0001 C CNN
F 3 "" H 2250 1850 50  0001 C CNN
	2    2300 1850
	1    0    0    -1  
$EndComp
$Comp
L Custom:2NAND_1NOT_BoB U2
U 4 1 5C536986
P 2250 2150
F 0 "U2" H 2400 2000 50  0000 C CNN
F 1 "2NAND_1NOT_BoB" H 2850 2000 50  0000 C CNN
F 2 "Custom:2NAND_1NOT_BoB" H 2200 2150 50  0001 C CNN
F 3 "" H 2200 2150 50  0001 C CNN
	4    2250 2150
	1    0    0    -1  
$EndComp
$Comp
L Custom:2NAND_1NOT_BoB U2
U 3 1 5C5369C5
P 3050 2000
F 0 "U2" H 3050 2325 50  0000 C CNN
F 1 "2NAND_1NOT_BoB" H 3050 2234 50  0000 C CNN
F 2 "Custom:2NAND_1NOT_BoB" H 3000 2000 50  0001 C CNN
F 3 "" H 3000 2000 50  0001 C CNN
	3    3050 2000
	1    0    0    -1  
$EndComp
Wire Wire Line
	2600 2150 2600 2100
Wire Wire Line
	2600 2100 2750 2100
Wire Wire Line
	2750 1900 2600 1900
Wire Wire Line
	2600 1900 2600 1850
$Comp
L Custom:2NAND_1NOT_BoB U3
U 2 1 5C536B8C
P 2300 3000
F 0 "U3" H 2300 3325 50  0000 C CNN
F 1 "2NAND_1NOT_BoB" H 2300 3234 50  0000 C CNN
F 2 "Custom:2NAND_1NOT_BoB" H 2250 3000 50  0001 C CNN
F 3 "" H 2250 3000 50  0001 C CNN
	2    2300 3000
	1    0    0    -1  
$EndComp
$Comp
L Custom:2NAND_1NOT_BoB U3
U 4 1 5C536B93
P 2250 3300
F 0 "U3" H 2400 3150 50  0000 C CNN
F 1 "2NAND_1NOT_BoB" H 2850 3150 50  0000 C CNN
F 2 "Custom:2NAND_1NOT_BoB" H 2200 3300 50  0001 C CNN
F 3 "" H 2200 3300 50  0001 C CNN
	4    2250 3300
	1    0    0    -1  
$EndComp
$Comp
L Custom:2NAND_1NOT_BoB U3
U 3 1 5C536B9A
P 3050 3150
F 0 "U3" H 3050 3475 50  0000 C CNN
F 1 "2NAND_1NOT_BoB" H 3050 3384 50  0000 C CNN
F 2 "Custom:2NAND_1NOT_BoB" H 3000 3150 50  0001 C CNN
F 3 "" H 3000 3150 50  0001 C CNN
	3    3050 3150
	1    0    0    -1  
$EndComp
Wire Wire Line
	2600 3300 2600 3250
Wire Wire Line
	2600 3250 2750 3250
Wire Wire Line
	2750 3050 2600 3050
Wire Wire Line
	2600 3050 2600 3000
$Comp
L Custom:2NAND_1NOT_BoB U4
U 2 1 5C536CBA
P 2300 3950
F 0 "U4" H 2300 4275 50  0000 C CNN
F 1 "2NAND_1NOT_BoB" H 2300 4184 50  0000 C CNN
F 2 "Custom:2NAND_1NOT_BoB" H 2250 3950 50  0001 C CNN
F 3 "" H 2250 3950 50  0001 C CNN
	2    2300 3950
	1    0    0    -1  
$EndComp
$Comp
L Custom:2NAND_1NOT_BoB U4
U 4 1 5C536CC1
P 2250 4250
F 0 "U4" H 2400 4100 50  0000 C CNN
F 1 "2NAND_1NOT_BoB" H 2850 4100 50  0000 C CNN
F 2 "Custom:2NAND_1NOT_BoB" H 2200 4250 50  0001 C CNN
F 3 "" H 2200 4250 50  0001 C CNN
	4    2250 4250
	1    0    0    -1  
$EndComp
$Comp
L Custom:2NAND_1NOT_BoB U4
U 3 1 5C536CC8
P 3050 4100
F 0 "U4" H 3050 4425 50  0000 C CNN
F 1 "2NAND_1NOT_BoB" H 3050 4334 50  0000 C CNN
F 2 "Custom:2NAND_1NOT_BoB" H 3000 4100 50  0001 C CNN
F 3 "" H 3000 4100 50  0001 C CNN
	3    3050 4100
	1    0    0    -1  
$EndComp
Wire Wire Line
	2600 4250 2600 4200
Wire Wire Line
	2600 4200 2750 4200
Wire Wire Line
	2750 4000 2600 4000
Wire Wire Line
	2600 4000 2600 3950
$Comp
L Custom:2NAND_1NOT_BoB U5
U 2 1 5C536DDB
P 4200 3050
F 0 "U5" H 4200 3375 50  0000 C CNN
F 1 "2NAND_1NOT_BoB" H 4200 3284 50  0000 C CNN
F 2 "Custom:2NAND_1NOT_BoB" H 4150 3050 50  0001 C CNN
F 3 "" H 4150 3050 50  0001 C CNN
	2    4200 3050
	1    0    0    -1  
$EndComp
$Comp
L Custom:2NAND_1NOT_BoB U5
U 4 1 5C536DE2
P 4150 3350
F 0 "U5" H 4300 3200 50  0000 C CNN
F 1 "2NAND_1NOT_BoB" H 4750 3200 50  0000 C CNN
F 2 "Custom:2NAND_1NOT_BoB" H 4100 3350 50  0001 C CNN
F 3 "" H 4100 3350 50  0001 C CNN
	4    4150 3350
	1    0    0    -1  
$EndComp
$Comp
L Custom:2NAND_1NOT_BoB U5
U 3 1 5C536DE9
P 4950 3200
F 0 "U5" H 4950 3525 50  0000 C CNN
F 1 "2NAND_1NOT_BoB" H 4950 3434 50  0000 C CNN
F 2 "Custom:2NAND_1NOT_BoB" H 4900 3200 50  0001 C CNN
F 3 "" H 4900 3200 50  0001 C CNN
	3    4950 3200
	1    0    0    -1  
$EndComp
Wire Wire Line
	4500 3350 4500 3300
Wire Wire Line
	4500 3300 4650 3300
Wire Wire Line
	4650 3100 4500 3100
Wire Wire Line
	4500 3100 4500 3050
$Comp
L Custom:2NAND_1NOT_BoB U1
U 2 1 5C53703A
P 2700 1150
F 0 "U1" H 2700 1475 50  0000 C CNN
F 1 "2NAND_1NOT_BoB" H 2700 1384 50  0000 C CNN
F 2 "Custom:2NAND_1NOT_BoB" H 2650 1150 50  0001 C CNN
F 3 "" H 2650 1150 50  0001 C CNN
	2    2700 1150
	1    0    0    -1  
$EndComp
$Comp
L Custom:2NAND_1NOT_BoB U1
U 3 1 5C5370CC
P 4600 2100
F 0 "U1" H 4600 2425 50  0000 C CNN
F 1 "2NAND_1NOT_BoB" H 4600 2334 50  0000 C CNN
F 2 "Custom:2NAND_1NOT_BoB" H 4550 2100 50  0001 C CNN
F 3 "" H 4550 2100 50  0001 C CNN
	3    4600 2100
	1    0    0    -1  
$EndComp
Wire Wire Line
	950  4600 1700 4600
Wire Wire Line
	3600 4600 3600 3350
Wire Wire Line
	3600 3350 3900 3350
Wire Wire Line
	1700 4600 1700 4250
Wire Wire Line
	1700 4250 2000 4250
Connection ~ 1700 4600
Wire Wire Line
	1700 4600 3600 4600
Wire Wire Line
	1700 4250 1700 2150
Wire Wire Line
	1700 2150 2000 2150
Connection ~ 1700 4250
Wire Wire Line
	2000 4050 950  4050
Wire Wire Line
	2000 3850 1950 3850
Wire Wire Line
	1950 3850 1950 3550
Wire Wire Line
	1950 3550 3350 3550
Wire Wire Line
	3350 3550 3350 3150
Wire Wire Line
	3350 4100 3350 3600
Wire Wire Line
	3350 3600 2000 3600
Wire Wire Line
	2000 3600 2000 3300
Wire Wire Line
	2000 3600 1500 3600
Wire Wire Line
	1500 3600 1500 1050
Wire Wire Line
	1500 1050 2400 1050
Connection ~ 2000 3600
Wire Wire Line
	3350 2000 3450 2000
Wire Wire Line
	3450 2000 3450 1400
Wire Wire Line
	3450 1400 2250 1400
Wire Wire Line
	2250 1400 2250 1250
Wire Wire Line
	2250 1250 2400 1250
Wire Wire Line
	2000 1750 2000 1450
Wire Wire Line
	2000 1450 3000 1450
Wire Wire Line
	3000 1450 3000 1150
Wire Wire Line
	2000 1950 1600 1950
Wire Wire Line
	1600 1950 1600 2500
Wire Wire Line
	1600 3100 2000 3100
Wire Wire Line
	1600 2500 950  2500
Connection ~ 1600 2500
Wire Wire Line
	1600 2500 1600 3100
Text Label 1050 2500 0    50   ~ 0
CLK
Wire Wire Line
	3450 2000 3450 2500
Wire Wire Line
	3450 2500 1800 2500
Wire Wire Line
	1800 2500 1800 2900
Wire Wire Line
	1800 2900 2000 2900
Connection ~ 3450 2000
Connection ~ 3350 3150
Wire Wire Line
	3350 3150 3900 3150
Wire Wire Line
	4300 2000 3450 2000
Wire Wire Line
	4900 2100 4900 2500
Wire Wire Line
	4900 2500 3900 2500
Wire Wire Line
	3900 2500 3900 2950
Wire Wire Line
	5250 3200 5300 3200
Wire Wire Line
	5300 3200 5300 2550
Wire Wire Line
	5300 2550 3800 2550
Wire Wire Line
	3800 2550 3800 2200
Wire Wire Line
	3800 2200 4300 2200
Text Label 1050 4600 0    50   ~ 0
~RST
Text Label 1050 4050 0    50   ~ 0
D
Wire Wire Line
	4900 2100 6000 2100
Connection ~ 4900 2100
Text Label 5900 2100 0    50   ~ 0
Q
$Comp
L Custom:2NAND_1NOT_BoB U1
U 4 1 5C58228F
P 4100 1350
F 0 "U1" H 4150 1667 50  0000 C CNN
F 1 "2NAND_1NOT_BoB" H 4100 1550 50  0000 C CNN
F 2 "Custom:2NAND_1NOT_BoB" H 4050 1350 50  0001 C CNN
F 3 "" H 4050 1350 50  0001 C CNN
	4    4100 1350
	1    0    0    -1  
$EndComp
NoConn ~ 3850 1350
NoConn ~ 4450 1350
$Comp
L Custom:2NAND_1NOT_BoB U1
U 1 1 5C5845D7
P 4150 4950
F 0 "U1" H 4150 5175 50  0000 C CNN
F 1 "2NAND_1NOT_BoB" H 4150 5084 50  0000 C CNN
F 2 "Custom:2NAND_1NOT_BoB" H 4100 4950 50  0001 C CNN
F 3 "" H 4100 4950 50  0001 C CNN
	1    4150 4950
	1    0    0    -1  
$EndComp
$Comp
L power:GND #PWR0101
U 1 1 5C584636
P 3900 4950
F 0 "#PWR0101" H 3900 4700 50  0001 C CNN
F 1 "GND" H 3905 4777 50  0000 C CNN
F 2 "" H 3900 4950 50  0001 C CNN
F 3 "" H 3900 4950 50  0001 C CNN
	1    3900 4950
	1    0    0    -1  
$EndComp
$Comp
L power:VCC #PWR0102
U 1 1 5C584729
P 4400 4950
F 0 "#PWR0102" H 4400 4800 50  0001 C CNN
F 1 "VCC" V 4417 5078 50  0000 L CNN
F 2 "" H 4400 4950 50  0001 C CNN
F 3 "" H 4400 4950 50  0001 C CNN
	1    4400 4950
	0    1    1    0   
$EndComp
$Comp
L Custom:2NAND_1NOT_BoB U2
U 1 1 5C5859C3
P 4150 5550
F 0 "U2" H 4150 5775 50  0000 C CNN
F 1 "2NAND_1NOT_BoB" H 4150 5684 50  0000 C CNN
F 2 "Custom:2NAND_1NOT_BoB" H 4100 5550 50  0001 C CNN
F 3 "" H 4100 5550 50  0001 C CNN
	1    4150 5550
	1    0    0    -1  
$EndComp
$Comp
L power:GND #PWR0103
U 1 1 5C5859CA
P 3900 5550
F 0 "#PWR0103" H 3900 5300 50  0001 C CNN
F 1 "GND" H 3905 5377 50  0000 C CNN
F 2 "" H 3900 5550 50  0001 C CNN
F 3 "" H 3900 5550 50  0001 C CNN
	1    3900 5550
	1    0    0    -1  
$EndComp
$Comp
L power:VCC #PWR0104
U 1 1 5C5859D0
P 4400 5550
F 0 "#PWR0104" H 4400 5400 50  0001 C CNN
F 1 "VCC" V 4417 5678 50  0000 L CNN
F 2 "" H 4400 5550 50  0001 C CNN
F 3 "" H 4400 5550 50  0001 C CNN
	1    4400 5550
	0    1    1    0   
$EndComp
$Comp
L Custom:2NAND_1NOT_BoB U3
U 1 1 5C586ACF
P 4200 6150
F 0 "U3" H 4200 6375 50  0000 C CNN
F 1 "2NAND_1NOT_BoB" H 4200 6284 50  0000 C CNN
F 2 "Custom:2NAND_1NOT_BoB" H 4150 6150 50  0001 C CNN
F 3 "" H 4150 6150 50  0001 C CNN
	1    4200 6150
	1    0    0    -1  
$EndComp
$Comp
L power:GND #PWR0105
U 1 1 5C586AD6
P 3950 6150
F 0 "#PWR0105" H 3950 5900 50  0001 C CNN
F 1 "GND" H 3955 5977 50  0000 C CNN
F 2 "" H 3950 6150 50  0001 C CNN
F 3 "" H 3950 6150 50  0001 C CNN
	1    3950 6150
	1    0    0    -1  
$EndComp
$Comp
L power:VCC #PWR0106
U 1 1 5C586ADC
P 4450 6150
F 0 "#PWR0106" H 4450 6000 50  0001 C CNN
F 1 "VCC" V 4467 6278 50  0000 L CNN
F 2 "" H 4450 6150 50  0001 C CNN
F 3 "" H 4450 6150 50  0001 C CNN
	1    4450 6150
	0    1    1    0   
$EndComp
$Comp
L Custom:2NAND_1NOT_BoB U4
U 1 1 5C587BD7
P 4200 6600
F 0 "U4" H 4200 6825 50  0000 C CNN
F 1 "2NAND_1NOT_BoB" H 4200 6734 50  0000 C CNN
F 2 "Custom:2NAND_1NOT_BoB" H 4150 6600 50  0001 C CNN
F 3 "" H 4150 6600 50  0001 C CNN
	1    4200 6600
	1    0    0    -1  
$EndComp
$Comp
L power:GND #PWR0107
U 1 1 5C587BDE
P 3950 6600
F 0 "#PWR0107" H 3950 6350 50  0001 C CNN
F 1 "GND" H 3955 6427 50  0000 C CNN
F 2 "" H 3950 6600 50  0001 C CNN
F 3 "" H 3950 6600 50  0001 C CNN
	1    3950 6600
	1    0    0    -1  
$EndComp
$Comp
L power:VCC #PWR0108
U 1 1 5C587BE4
P 4450 6600
F 0 "#PWR0108" H 4450 6450 50  0001 C CNN
F 1 "VCC" V 4467 6728 50  0000 L CNN
F 2 "" H 4450 6600 50  0001 C CNN
F 3 "" H 4450 6600 50  0001 C CNN
	1    4450 6600
	0    1    1    0   
$EndComp
$Comp
L Custom:2NAND_1NOT_BoB U5
U 1 1 5C588CD9
P 5000 5000
F 0 "U5" H 5000 5225 50  0000 C CNN
F 1 "2NAND_1NOT_BoB" H 5000 5134 50  0000 C CNN
F 2 "Custom:2NAND_1NOT_BoB" H 4950 5000 50  0001 C CNN
F 3 "" H 4950 5000 50  0001 C CNN
	1    5000 5000
	1    0    0    -1  
$EndComp
$Comp
L power:GND #PWR0109
U 1 1 5C588CE0
P 4750 5000
F 0 "#PWR0109" H 4750 4750 50  0001 C CNN
F 1 "GND" H 4755 4827 50  0000 C CNN
F 2 "" H 4750 5000 50  0001 C CNN
F 3 "" H 4750 5000 50  0001 C CNN
	1    4750 5000
	1    0    0    -1  
$EndComp
$Comp
L power:VCC #PWR0110
U 1 1 5C588CE6
P 5250 5000
F 0 "#PWR0110" H 5250 4850 50  0001 C CNN
F 1 "VCC" V 5267 5128 50  0000 L CNN
F 2 "" H 5250 5000 50  0001 C CNN
F 3 "" H 5250 5000 50  0001 C CNN
	1    5250 5000
	0    1    1    0   
$EndComp
$Comp
L Mechanical:MountingHole_Pad H4
U 1 1 5C58A38B
P 850 2500
F 0 "H4" V 1087 2505 50  0000 C CNN
F 1 "MountingHole_Pad" V 996 2505 50  0000 C CNN
F 2 "MountingHole:MountingHole_3.2mm_M3_Pad_Via" H 850 2500 50  0001 C CNN
F 3 "~" H 850 2500 50  0001 C CNN
	1    850  2500
	0    -1   -1   0   
$EndComp
$Comp
L Mechanical:MountingHole_Pad H3
U 1 1 5C58A4F5
P 850 4600
F 0 "H3" V 1087 4605 50  0000 C CNN
F 1 "MountingHole_Pad" V 996 4605 50  0000 C CNN
F 2 "MountingHole:MountingHole_3.2mm_M3_Pad_Via" H 850 4600 50  0001 C CNN
F 3 "~" H 850 4600 50  0001 C CNN
	1    850  4600
	0    -1   -1   0   
$EndComp
$Comp
L Mechanical:MountingHole_Pad H1
U 1 1 5C58B663
P 1750 5950
F 0 "H1" V 1987 5955 50  0000 C CNN
F 1 "MountingHole_Pad" V 1896 5955 50  0000 C CNN
F 2 "MountingHole:MountingHole_3.2mm_M3_Pad_Via" H 1750 5950 50  0001 C CNN
F 3 "~" H 1750 5950 50  0001 C CNN
	1    1750 5950
	0    -1   -1   0   
$EndComp
$Comp
L Mechanical:MountingHole_Pad H2
U 1 1 5C58C7B5
P 2250 5950
F 0 "H2" V 2204 6100 50  0000 L CNN
F 1 "MountingHole_Pad" V 2295 6100 50  0000 L CNN
F 2 "MountingHole:MountingHole_3.2mm_M3_Pad_Via" H 2250 5950 50  0001 C CNN
F 3 "~" H 2250 5950 50  0001 C CNN
	1    2250 5950
	0    1    1    0   
$EndComp
$Comp
L power:GND #PWR0111
U 1 1 5C58FB70
P 1850 5950
F 0 "#PWR0111" H 1850 5700 50  0001 C CNN
F 1 "GND" H 1855 5777 50  0000 C CNN
F 2 "" H 1850 5950 50  0001 C CNN
F 3 "" H 1850 5950 50  0001 C CNN
	1    1850 5950
	1    0    0    -1  
$EndComp
$Comp
L power:VCC #PWR0112
U 1 1 5C58FC93
P 2150 5950
F 0 "#PWR0112" H 2150 5800 50  0001 C CNN
F 1 "VCC" H 2167 6123 50  0000 C CNN
F 2 "" H 2150 5950 50  0001 C CNN
F 3 "" H 2150 5950 50  0001 C CNN
	1    2150 5950
	1    0    0    -1  
$EndComp
$Comp
L Connector:TestPoint TP1
U 1 1 5C590352
P 950 4050
F 0 "TP1" V 1145 4124 50  0000 C CNN
F 1 "TestPoint" V 1054 4124 50  0000 C CNN
F 2 "TestPoint:TestPoint_Pad_2.5x2.5mm" H 1150 4050 50  0001 C CNN
F 3 "~" H 1150 4050 50  0001 C CNN
	1    950  4050
	0    -1   -1   0   
$EndComp
$Comp
L Connector:TestPoint TP2
U 1 1 5C590782
P 6000 2100
F 0 "TP2" V 6000 2300 50  0000 L CNN
F 1 "TestPoint" V 5900 2050 50  0000 L CNN
F 2 "TestPoint:TestPoint_Pad_2.5x2.5mm" H 6200 2100 50  0001 C CNN
F 3 "~" H 6200 2100 50  0001 C CNN
	1    6000 2100
	0    1    1    0   
$EndComp
$Comp
L Device:LED_ALT D1
U 1 1 5C590DFF
P 6000 2250
F 0 "D1" V 6038 2133 50  0000 R CNN
F 1 "C264341" V 5947 2133 50  0000 R CNN
F 2 "LED_SMD:LED_0805_2012Metric_Pad1.15x1.40mm_HandSolder" H 6000 2250 50  0001 C CNN
F 3 "~" H 6000 2250 50  0001 C CNN
	1    6000 2250
	0    -1   -1   0   
$EndComp
Connection ~ 6000 2100
$Comp
L Device:R R1
U 1 1 5C590EF7
P 6000 2550
F 0 "R1" H 6070 2596 50  0000 L CNN
F 1 "250" H 6070 2505 50  0000 L CNN
F 2 "Resistor_SMD:R_0603_1608Metric_Pad1.05x0.95mm_HandSolder" V 5930 2550 50  0001 C CNN
F 3 "~" H 6000 2550 50  0001 C CNN
	1    6000 2550
	1    0    0    -1  
$EndComp
$Comp
L power:GND #PWR0113
U 1 1 5C591076
P 6000 2700
F 0 "#PWR0113" H 6000 2450 50  0001 C CNN
F 1 "GND" H 6005 2527 50  0000 C CNN
F 2 "" H 6000 2700 50  0001 C CNN
F 3 "" H 6000 2700 50  0001 C CNN
	1    6000 2700
	1    0    0    -1  
$EndComp
$EndSCHEMATC
