Manufacturer Part Number,Manufacturer,Quantity,Description,LCSC Part #,Comments
EEE1HA010SR,Panasonic Electronic Components,1,CAP ALUM 1UF 20% 35V SMD,C178506,
EEE-1CA100SR,Panasonic Electronic Components,1,CAP ALUM 10UF 20% 16V SMD,C178496,
LTST-C190GKT,Lite-On Inc.,12,LED GREEN CLEAR CHIP SMD,C125093,
LTST-C191KSKT,Lite-On Inc.,8,LED YELLOW CLEAR SMD,C125100,
ESR03EZPJ103,Rohm Semiconductor,12,10KOhms ±5% 1/4W 0603 RoHS,C253330,
ESR03EZPJ102,Rohm Semiconductor,9,RES SMD 1K OHM 5% 1/4W 0603,C253329,
ESR03EZPJ105,Rohm Semiconductor,1,RES SMD 1M OHM 5% 1/4W 0603,C253332,
PTS645SL50SMTR92 LFS,C&K,3,SWITCH TACTILE SPST-NO 0.05A 12V,C221877,
K8-7071D-N1,Korean Hroparts Elec,2,DPDT Push Switch 30V 0.1A,C136692,
EMR-08-V,Diptronics,1,SWITCH SLIDE DIP SPST 25MA 25V,C89709,
EM-04KP,Korean Hroparts Elec,1,SWITCH SLIDE DIP SPST 25MA 25V,C129080,
FJ3191BH,Shenzhen Zhihao Elec,2,7-SEG. DISPLAY THROUGH HOLE,C60554,
CL10F104ZB8NNNC,Samsung Electro-Mechanics,20,CAP CER 0.1UF 50V Y5V 0603,C1688,
CL10B103KB8WPNC,Samsung Electro-Mechanics,4,CAP CER 10000PF 50V X7R 0603,C307346,
U254-051N-4BH806,XKB Enterprise,1,CONN USB2.0 MICRO B SMD R/A,C319170,
SST39VF400A-70-4C-EK,Microchip Technology,2,IC FLASH 4M PARALLEL 48TSOP,C60989,Tied pin 17 Low to account for extra storage space
NE555PSR,Texas Instruments,3,IC OSC SINGLE TIMER 1MHZ 8-SOIC,C105601,
MC74HC02ADR2G,ON Semiconductor,1,IC GATE NOR 4CH 2-INP 14SOIC,C7328,
SN74HC32DR,Texas Instruments,1,IC GATE OR 4CH 2-INP 14SOIC,C6838,
MC74HC86ADR2G,ON Semiconductor,2,IC GATE XOR 4CH 2-INP 14SOIC,C152540,
SN74HC138DR,Texas Instruments,1,IC 3-8 LINE DECOD/DEMUX 16-SOIC,C6818,
SN74HC157DR,Texas Instruments,4,IC QUAD 2-1LN DATASEL/MUX 16SOIC,C6823,
SN74HC161DR,Texas Instruments,2,IC 4BIT SYNC BINRY COUNTR 16SOIC,C6824,
CD74HC173M96,Texas Instruments,8,IC FF D-TYPE SNGL 4BIT 16SOIC,GET FROM DIGIKEY,
SN74HC245DWR,Texas Instruments,9,IC TRANSCVR NON-INVERT 6V 20SOIC,C10093,
SN74HC273DWR,Texas Instruments,1,IC FF D-TYPE SNGL 8BIT 20TSSOP,C131486,
CD74HC283M96,Texas Instruments,2,IC 4BIT BINARY FULL ADDER 16SOIC,GET FROM DIGIKEY,
74HC595T16-13,Diodes Incorporated,8,IC 8BIT SHIFT REGISTER 16TSSOP,C148115,
74HC04D,Toshiba Semiconductor and Storage,3,IC INVERTER 6CH 6-INP 14SOIC,C86613,
"74AHC1G04GV,125",Nexperia USA Inc.,2,IC INVERTER 1CH 1-INP 5TSOP,C12484,
SN74AHC1G08DBVR,Texas Instruments,1,IC GATE AND 1CH 2-INP SOT23-5,C7467,
PS22F02L-2B1-21,GANGYUAN,1,SWITCH DPDT 300mA @ 50VDC,C231737,
MR06X221JTL,Walsin Tech Corp,84,RES SMD 220 OHM 5% 1/8W 0603,C327834,
SN74HC08DR,Texas Instruments,2,IC GATE AND 4CH 2-INP 14SOIC,C337768,
VXO7803-500,CUI Inc.,1,DC DC CONVERTER 3.3V 1.65W,GET FROM DIGIKEY,
MF-FSMF050X-2,Bourns Inc.,1,FUSE BOARD MOUNT 1A 6V 0603,C210357,
A2541WV-9P,Changjiang Connectors,2,CONN HEADER 9 POS 2.54,C225484,
3386P-1-105TLF,Bourns Inc.,1,TRIMMER 1M OHM 0.2W PC PIN TOP,C116305,
FC-DA1608BK-470H10,Foshan NationStar Optoelectronics,21,LED BLUE CLEAR 0603 SMD,C84266,
FC-DA1608HRK-620D,Foshan NationStar Optoelectronics,45,LED RED CLEAR CHIP SMD,C84263,
