(module DF37NC-10DS-0-4V-51 (layer F.Cu) (tedit 5C1DDB8D)
  (fp_text reference REF** (at 0 0) (layer F.SilkS)
    (effects (font (size 0.7 0.7) (thickness 0.15)))
  )
  (fp_text value DF37NC-10DS-0-4V-51 (at 0.01 -0.55) (layer F.Fab)
    (effects (font (size 0.1 0.1) (thickness 0.025)))
  )
  (fp_line (start -2.11 -1.85) (end 2.11 -1.85) (layer F.CrtYd) (width 0.15))
  (fp_line (start 2.11 -1.85) (end 2.11 1.85) (layer F.CrtYd) (width 0.15))
  (fp_line (start 2.11 1.85) (end -2.11 1.85) (layer F.CrtYd) (width 0.15))
  (fp_line (start -2.11 1.85) (end -2.11 -1.85) (layer F.CrtYd) (width 0.15))
  (fp_line (start -1.67 -0.4) (end -1.67 0.83) (layer F.SilkS) (width 0.15))
  (fp_line (start -1.67 -0.4) (end -1.24 -0.83) (layer F.SilkS) (width 0.15))
  (fp_line (start 1.66 -0.83) (end -1.24 -0.83) (layer F.SilkS) (width 0.15))
  (fp_line (start 1.66 0.83) (end 1.66 -0.83) (layer F.SilkS) (width 0.15))
  (fp_line (start -1.67 0.83) (end 1.66 0.83) (layer F.SilkS) (width 0.15))
  (fp_text user F (at -1.64 -1.15 180) (layer F.SilkS)
    (effects (font (size 0.7 0.7) (thickness 0.15)))
  )
  (pad 8 smd rect (at 0 -1.325) (size 0.23 0.63) (layers F.Cu F.Paste F.Mask))
  (pad 7 smd rect (at 0.4 -1.325) (size 0.23 0.63) (layers F.Cu F.Paste F.Mask))
  (pad 6 smd rect (at 0.8 -1.325) (size 0.23 0.63) (layers F.Cu F.Paste F.Mask))
  (pad 1 smd rect (at -0.8 1.325) (size 0.23 0.63) (layers F.Cu F.Paste F.Mask))
  (pad 2 smd rect (at -0.4 1.325) (size 0.23 0.63) (layers F.Cu F.Paste F.Mask))
  (pad 3 smd rect (at 0 1.325) (size 0.23 0.63) (layers F.Cu F.Paste F.Mask))
  (pad 4 smd rect (at 0.4 1.325) (size 0.23 0.63) (layers F.Cu F.Paste F.Mask))
  (pad 5 smd rect (at 0.8 1.325) (size 0.23 0.63) (layers F.Cu F.Paste F.Mask))
  (pad 10 smd rect (at -0.8 -1.325) (size 0.23 0.63) (layers F.Cu F.Paste F.Mask))
  (pad 9 smd rect (at -0.4 -1.325) (size 0.23 0.63) (layers F.Cu F.Paste F.Mask))
)
