EESchema Schematic File Version 4
LIBS:1bit-adder-cache
EELAYER 26 0
EELAYER END
$Descr A4 11693 8268
encoding utf-8
Sheet 4 6
Title ""
Date ""
Rev ""
Comp ""
Comment1 ""
Comment2 ""
Comment3 ""
Comment4 ""
$EndDescr
$Comp
L Custom:2NAND_1NOT_BoB U5
U 1 1 5C452517
P 1900 1900
AR Path="/5C4524F7/5C452517" Ref="U5"  Part="1" 
AR Path="/5C4528E1/5C452517" Ref="U6"  Part="1" 
F 0 "U5" H 1900 2125 50  0000 C CNN
F 1 "2NAND_1NOT_BoB" H 1900 2034 50  0000 C CNN
F 2 "Custom:2NAND_1NOT_BoB" H 1850 1900 50  0001 C CNN
F 3 "" H 1850 1900 50  0001 C CNN
	1    1900 1900
	1    0    0    -1  
$EndComp
$Comp
L Custom:2NAND_1NOT_BoB U5
U 2 1 5C452568
P 1350 1400
AR Path="/5C4524F7/5C452568" Ref="U5"  Part="2" 
AR Path="/5C4528E1/5C452568" Ref="U6"  Part="2" 
F 0 "U5" H 1350 1725 50  0000 C CNN
F 1 "2NAND_1NOT_BoB" H 1350 1634 50  0000 C CNN
F 2 "Custom:2NAND_1NOT_BoB" H 1300 1400 50  0001 C CNN
F 3 "" H 1300 1400 50  0001 C CNN
	2    1350 1400
	1    0    0    -1  
$EndComp
$Comp
L Custom:2NAND_1NOT_BoB U5
U 4 1 5C4525A3
P 2400 1400
AR Path="/5C4524F7/5C4525A3" Ref="U5"  Part="4" 
AR Path="/5C4528E1/5C4525A3" Ref="U6"  Part="4" 
F 0 "U5" H 2450 1717 50  0000 C CNN
F 1 "2NAND_1NOT_BoB" H 2450 1626 50  0000 C CNN
F 2 "Custom:2NAND_1NOT_BoB" H 2350 1400 50  0001 C CNN
F 3 "" H 2350 1400 50  0001 C CNN
	4    2400 1400
	1    0    0    -1  
$EndComp
$Comp
L Custom:2NAND_1NOT_BoB U5
U 3 1 5C4525EB
P 1900 2450
AR Path="/5C4524F7/5C4525EB" Ref="U5"  Part="3" 
AR Path="/5C4528E1/5C4525EB" Ref="U6"  Part="3" 
F 0 "U5" H 1900 2775 50  0000 C CNN
F 1 "2NAND_1NOT_BoB" H 1900 2684 50  0000 C CNN
F 2 "Custom:2NAND_1NOT_BoB" H 1850 2450 50  0001 C CNN
F 3 "" H 1850 2450 50  0001 C CNN
	3    1900 2450
	1    0    0    -1  
$EndComp
NoConn ~ 1600 2350
NoConn ~ 1600 2550
NoConn ~ 2200 2450
$Comp
L power:VCC #PWR0111
U 1 1 5C45267D
P 2150 1900
AR Path="/5C4524F7/5C45267D" Ref="#PWR0111"  Part="1" 
AR Path="/5C4528E1/5C45267D" Ref="#PWR0117"  Part="1" 
F 0 "#PWR0117" H 2150 1750 50  0001 C CNN
F 1 "VCC" H 2167 2073 50  0000 C CNN
F 2 "" H 2150 1900 50  0001 C CNN
F 3 "" H 2150 1900 50  0001 C CNN
	1    2150 1900
	1    0    0    -1  
$EndComp
$Comp
L power:GND #PWR0112
U 1 1 5C4526C0
P 1650 1900
AR Path="/5C4524F7/5C4526C0" Ref="#PWR0112"  Part="1" 
AR Path="/5C4528E1/5C4526C0" Ref="#PWR0118"  Part="1" 
F 0 "#PWR0118" H 1650 1650 50  0001 C CNN
F 1 "GND" H 1655 1727 50  0000 C CNN
F 2 "" H 1650 1900 50  0001 C CNN
F 3 "" H 1650 1900 50  0001 C CNN
	1    1650 1900
	1    0    0    -1  
$EndComp
Wire Wire Line
	1650 1400 2150 1400
Wire Wire Line
	2750 1400 2950 1400
Wire Wire Line
	1050 1300 850  1300
Wire Wire Line
	1050 1500 850  1500
Text HLabel 850  1300 0    50   Input ~ 0
A
Text HLabel 850  1500 0    50   Input ~ 0
B
Text HLabel 2950 1400 2    50   Output ~ 0
Q
$EndSCHEMATC
