EESchema Schematic File Version 4
LIBS:1bit-adder-cache
EELAYER 26 0
EELAYER END
$Descr A4 11693 8268
encoding utf-8
Sheet 3 6
Title ""
Date ""
Rev ""
Comp ""
Comment1 ""
Comment2 ""
Comment3 ""
Comment4 ""
$EndDescr
$Comp
L Custom:2NAND_1NOT_BoB U7
U 1 1 5C452104
P 2500 2500
F 0 "U7" H 2500 2725 50  0000 C CNN
F 1 "2NAND_1NOT_BoB" H 2500 2634 50  0000 C CNN
F 2 "Custom:2NAND_1NOT_BoB" H 2450 2500 50  0001 C CNN
F 3 "" H 2450 2500 50  0001 C CNN
	1    2500 2500
	1    0    0    -1  
$EndComp
$Comp
L power:GND #PWR0109
U 1 1 5C452164
P 2250 2500
F 0 "#PWR0109" H 2250 2250 50  0001 C CNN
F 1 "GND" H 2255 2327 50  0000 C CNN
F 2 "" H 2250 2500 50  0001 C CNN
F 3 "" H 2250 2500 50  0001 C CNN
	1    2250 2500
	1    0    0    -1  
$EndComp
$Comp
L power:VCC #PWR0110
U 1 1 5C45219E
P 2750 2500
F 0 "#PWR0110" H 2750 2350 50  0001 C CNN
F 1 "VCC" H 2767 2673 50  0000 C CNN
F 2 "" H 2750 2500 50  0001 C CNN
F 3 "" H 2750 2500 50  0001 C CNN
	1    2750 2500
	1    0    0    -1  
$EndComp
$Comp
L Custom:2NAND_1NOT_BoB U7
U 2 1 5C4521CA
P 2500 1750
F 0 "U7" H 2500 2075 50  0000 C CNN
F 1 "2NAND_1NOT_BoB" H 2500 1984 50  0000 C CNN
F 2 "Custom:2NAND_1NOT_BoB" H 2450 1750 50  0001 C CNN
F 3 "" H 2450 1750 50  0001 C CNN
	2    2500 1750
	1    0    0    -1  
$EndComp
$Comp
L Custom:2NAND_1NOT_BoB U7
U 3 1 5C45225F
P 1700 2050
F 0 "U7" H 1700 2375 50  0000 C CNN
F 1 "2NAND_1NOT_BoB" H 1700 2284 50  0000 C CNN
F 2 "Custom:2NAND_1NOT_BoB" H 1650 2050 50  0001 C CNN
F 3 "" H 1650 2050 50  0001 C CNN
	3    1700 2050
	1    0    0    -1  
$EndComp
$Comp
L Custom:2NAND_1NOT_BoB U7
U 4 1 5C4522C9
P 1650 1550
F 0 "U7" H 1700 1867 50  0000 C CNN
F 1 "2NAND_1NOT_BoB" H 1700 1776 50  0000 C CNN
F 2 "Custom:2NAND_1NOT_BoB" H 1600 1550 50  0001 C CNN
F 3 "" H 1600 1550 50  0001 C CNN
	4    1650 1550
	1    0    0    -1  
$EndComp
Wire Wire Line
	2800 1750 3200 1750
Text HLabel 3200 1750 2    50   Output ~ 0
Q
Wire Wire Line
	1400 1550 950  1550
Wire Wire Line
	1400 1950 1250 1950
Wire Wire Line
	1250 1950 1250 2050
Wire Wire Line
	1250 2150 1400 2150
Wire Wire Line
	1250 2050 950  2050
Connection ~ 1250 2050
Wire Wire Line
	1250 2050 1250 2150
Text HLabel 950  1550 0    50   Input ~ 0
A
Text HLabel 950  2050 0    50   Input ~ 0
B
Wire Wire Line
	2000 2050 2200 2050
Wire Wire Line
	2200 2050 2200 1850
Wire Wire Line
	2200 1650 2000 1650
Wire Wire Line
	2000 1650 2000 1550
$EndSCHEMATC
