EESchema Schematic File Version 4
LIBS:1bit-adder-cache
EELAYER 26 0
EELAYER END
$Descr A4 11693 8268
encoding utf-8
Sheet 2 6
Title ""
Date ""
Rev ""
Comp ""
Comment1 ""
Comment2 ""
Comment3 ""
Comment4 ""
$EndDescr
Text HLabel 1050 1100 0    50   Input ~ 0
A
Text HLabel 1050 2100 0    50   Input ~ 0
B
$Comp
L Custom:2NAND_1NOT_BoB U1
U 2 1 5C450D55
P 1800 1600
AR Path="/5C450B91/5C450D55" Ref="U1"  Part="2" 
AR Path="/5C451DE1/5C450D55" Ref="U3"  Part="2" 
F 0 "U1" H 1800 1925 50  0000 C CNN
F 1 "2NAND_1NOT_BoB" H 1800 1834 50  0000 C CNN
F 2 "Custom:2NAND_1NOT_BoB" H 1750 1600 50  0001 C CNN
F 3 "" H 1750 1600 50  0001 C CNN
	2    1800 1600
	1    0    0    -1  
$EndComp
$Comp
L Custom:2NAND_1NOT_BoB U1
U 3 1 5C450D99
P 3750 1600
AR Path="/5C450B91/5C450D99" Ref="U1"  Part="3" 
AR Path="/5C451DE1/5C450D99" Ref="U3"  Part="3" 
F 0 "U1" H 3750 1925 50  0000 C CNN
F 1 "2NAND_1NOT_BoB" H 3750 1834 50  0000 C CNN
F 2 "Custom:2NAND_1NOT_BoB" H 3700 1600 50  0001 C CNN
F 3 "" H 3700 1600 50  0001 C CNN
	3    3750 1600
	1    0    0    -1  
$EndComp
$Comp
L Custom:2NAND_1NOT_BoB U2
U 2 1 5C450E18
P 2750 1200
AR Path="/5C450B91/5C450E18" Ref="U2"  Part="2" 
AR Path="/5C451DE1/5C450E18" Ref="U4"  Part="2" 
F 0 "U2" H 2750 1525 50  0000 C CNN
F 1 "2NAND_1NOT_BoB" H 2750 1434 50  0000 C CNN
F 2 "Custom:2NAND_1NOT_BoB" H 2700 1200 50  0001 C CNN
F 3 "" H 2700 1200 50  0001 C CNN
	2    2750 1200
	1    0    0    -1  
$EndComp
$Comp
L Custom:2NAND_1NOT_BoB U2
U 3 1 5C450E54
P 2750 2000
AR Path="/5C450B91/5C450E54" Ref="U2"  Part="3" 
AR Path="/5C451DE1/5C450E54" Ref="U4"  Part="3" 
F 0 "U2" H 2750 2325 50  0000 C CNN
F 1 "2NAND_1NOT_BoB" H 2750 2234 50  0000 C CNN
F 2 "Custom:2NAND_1NOT_BoB" H 2700 2000 50  0001 C CNN
F 3 "" H 2700 2000 50  0001 C CNN
	3    2750 2000
	1    0    0    -1  
$EndComp
Wire Wire Line
	1050 1100 1450 1100
Wire Wire Line
	2450 2100 1450 2100
Wire Wire Line
	1500 1700 1450 1700
Wire Wire Line
	1450 1700 1450 2100
Connection ~ 1450 2100
Wire Wire Line
	1450 2100 1050 2100
Wire Wire Line
	1500 1500 1450 1500
Wire Wire Line
	1450 1500 1450 1100
Connection ~ 1450 1100
Wire Wire Line
	1450 1100 2450 1100
Wire Wire Line
	2100 1600 2100 1300
Wire Wire Line
	2100 1300 2450 1300
Wire Wire Line
	2100 1600 2100 1900
Wire Wire Line
	2100 1900 2450 1900
Connection ~ 2100 1600
Wire Wire Line
	3050 2000 3450 2000
Wire Wire Line
	3450 2000 3450 1700
Wire Wire Line
	3450 1500 3450 1200
Wire Wire Line
	3450 1200 3050 1200
Text HLabel 4700 1600 2    50   Output ~ 0
Q
Wire Wire Line
	4700 1600 4050 1600
$Comp
L Custom:2NAND_1NOT_BoB U1
U 1 1 5C4512D4
P 1750 2550
AR Path="/5C450B91/5C4512D4" Ref="U1"  Part="1" 
AR Path="/5C451DE1/5C4512D4" Ref="U3"  Part="1" 
F 0 "U1" H 1750 2775 50  0000 C CNN
F 1 "2NAND_1NOT_BoB" H 1750 2684 50  0000 C CNN
F 2 "Custom:2NAND_1NOT_BoB" H 1700 2550 50  0001 C CNN
F 3 "" H 1700 2550 50  0001 C CNN
	1    1750 2550
	1    0    0    -1  
$EndComp
$Comp
L Custom:2NAND_1NOT_BoB U2
U 1 1 5C45132B
P 2700 2550
AR Path="/5C450B91/5C45132B" Ref="U2"  Part="1" 
AR Path="/5C451DE1/5C45132B" Ref="U4"  Part="1" 
F 0 "U2" H 2700 2775 50  0000 C CNN
F 1 "2NAND_1NOT_BoB" H 2700 2684 50  0000 C CNN
F 2 "Custom:2NAND_1NOT_BoB" H 2650 2550 50  0001 C CNN
F 3 "" H 2650 2550 50  0001 C CNN
	1    2700 2550
	1    0    0    -1  
$EndComp
$Comp
L Custom:2NAND_1NOT_BoB U1
U 4 1 5C4513CC
P 1650 3150
AR Path="/5C450B91/5C4513CC" Ref="U1"  Part="4" 
AR Path="/5C451DE1/5C4513CC" Ref="U3"  Part="4" 
F 0 "U1" H 1700 3467 50  0000 C CNN
F 1 "2NAND_1NOT_BoB" H 1700 3376 50  0000 C CNN
F 2 "Custom:2NAND_1NOT_BoB" H 1600 3150 50  0001 C CNN
F 3 "" H 1600 3150 50  0001 C CNN
	4    1650 3150
	1    0    0    -1  
$EndComp
$Comp
L Custom:2NAND_1NOT_BoB U2
U 4 1 5C45141B
P 2650 3150
AR Path="/5C450B91/5C45141B" Ref="U2"  Part="4" 
AR Path="/5C451DE1/5C45141B" Ref="U4"  Part="4" 
F 0 "U2" H 2700 3467 50  0000 C CNN
F 1 "2NAND_1NOT_BoB" H 2700 3376 50  0000 C CNN
F 2 "Custom:2NAND_1NOT_BoB" H 2600 3150 50  0001 C CNN
F 3 "" H 2600 3150 50  0001 C CNN
	4    2650 3150
	1    0    0    -1  
$EndComp
$Comp
L power:GND #PWR0105
U 1 1 5C451478
P 1500 2550
AR Path="/5C450B91/5C451478" Ref="#PWR0105"  Part="1" 
AR Path="/5C451DE1/5C451478" Ref="#PWR0113"  Part="1" 
F 0 "#PWR0113" H 1500 2300 50  0001 C CNN
F 1 "GND" H 1505 2377 50  0000 C CNN
F 2 "" H 1500 2550 50  0001 C CNN
F 3 "" H 1500 2550 50  0001 C CNN
	1    1500 2550
	1    0    0    -1  
$EndComp
$Comp
L power:VCC #PWR0106
U 1 1 5C4514DC
P 2000 2550
AR Path="/5C450B91/5C4514DC" Ref="#PWR0106"  Part="1" 
AR Path="/5C451DE1/5C4514DC" Ref="#PWR0114"  Part="1" 
F 0 "#PWR0114" H 2000 2400 50  0001 C CNN
F 1 "VCC" H 2017 2723 50  0000 C CNN
F 2 "" H 2000 2550 50  0001 C CNN
F 3 "" H 2000 2550 50  0001 C CNN
	1    2000 2550
	1    0    0    -1  
$EndComp
$Comp
L power:VCC #PWR0107
U 1 1 5C451516
P 2950 2550
AR Path="/5C450B91/5C451516" Ref="#PWR0107"  Part="1" 
AR Path="/5C451DE1/5C451516" Ref="#PWR0115"  Part="1" 
F 0 "#PWR0115" H 2950 2400 50  0001 C CNN
F 1 "VCC" H 2967 2723 50  0000 C CNN
F 2 "" H 2950 2550 50  0001 C CNN
F 3 "" H 2950 2550 50  0001 C CNN
	1    2950 2550
	1    0    0    -1  
$EndComp
$Comp
L power:GND #PWR0108
U 1 1 5C451565
P 2450 2550
AR Path="/5C450B91/5C451565" Ref="#PWR0108"  Part="1" 
AR Path="/5C451DE1/5C451565" Ref="#PWR0116"  Part="1" 
F 0 "#PWR0116" H 2450 2300 50  0001 C CNN
F 1 "GND" H 2455 2377 50  0000 C CNN
F 2 "" H 2450 2550 50  0001 C CNN
F 3 "" H 2450 2550 50  0001 C CNN
	1    2450 2550
	1    0    0    -1  
$EndComp
NoConn ~ 2400 3150
NoConn ~ 3000 3150
NoConn ~ 2000 3150
NoConn ~ 1400 3150
$EndSCHEMATC
