G04 #@! TF.GenerationSoftware,KiCad,Pcbnew,5.0.2+dfsg1-1*
G04 #@! TF.CreationDate,2019-02-19T08:26:17+13:00*
G04 #@! TF.ProjectId,motherboard,6d6f7468-6572-4626-9f61-72642e6b6963,rev?*
G04 #@! TF.SameCoordinates,Original*
G04 #@! TF.FileFunction,Soldermask,Top*
G04 #@! TF.FilePolarity,Negative*
%FSLAX46Y46*%
G04 Gerber Fmt 4.6, Leading zero omitted, Abs format (unit mm)*
G04 Created by KiCad (PCBNEW 5.0.2+dfsg1-1) date Tue 19 Feb 2019 08:26:17 NZDT*
%MOMM*%
%LPD*%
G01*
G04 APERTURE LIST*
%ADD10C,0.100000*%
G04 APERTURE END LIST*
D10*
G36*
X194634239Y-121811467D02*
X194948282Y-121873934D01*
X195539926Y-122119001D01*
X195829523Y-122312504D01*
X196072395Y-122474786D01*
X196525214Y-122927605D01*
X196525216Y-122927608D01*
X196880999Y-123460074D01*
X197002724Y-123753944D01*
X197126066Y-124051719D01*
X197251000Y-124679803D01*
X197251000Y-125320197D01*
X197188533Y-125634239D01*
X197126066Y-125948282D01*
X196880999Y-126539926D01*
X196633265Y-126910685D01*
X196525214Y-127072395D01*
X196072395Y-127525214D01*
X196072392Y-127525216D01*
X195539926Y-127880999D01*
X194948282Y-128126066D01*
X194634239Y-128188533D01*
X194320197Y-128251000D01*
X193679803Y-128251000D01*
X193365761Y-128188533D01*
X193051718Y-128126066D01*
X192460074Y-127880999D01*
X191927608Y-127525216D01*
X191927605Y-127525214D01*
X191474786Y-127072395D01*
X191366735Y-126910685D01*
X191119001Y-126539926D01*
X190873934Y-125948282D01*
X190811467Y-125634239D01*
X190749000Y-125320197D01*
X190749000Y-124679803D01*
X190873934Y-124051719D01*
X190997276Y-123753944D01*
X191119001Y-123460074D01*
X191474784Y-122927608D01*
X191474786Y-122927605D01*
X191927605Y-122474786D01*
X192170477Y-122312504D01*
X192460074Y-122119001D01*
X193051718Y-121873934D01*
X193365761Y-121811467D01*
X193679803Y-121749000D01*
X194320197Y-121749000D01*
X194634239Y-121811467D01*
X194634239Y-121811467D01*
G37*
G36*
X151634239Y-121811467D02*
X151948282Y-121873934D01*
X152539926Y-122119001D01*
X152829523Y-122312504D01*
X153072395Y-122474786D01*
X153525214Y-122927605D01*
X153525216Y-122927608D01*
X153880999Y-123460074D01*
X154002724Y-123753944D01*
X154126066Y-124051719D01*
X154251000Y-124679803D01*
X154251000Y-125320197D01*
X154188533Y-125634239D01*
X154126066Y-125948282D01*
X153880999Y-126539926D01*
X153633265Y-126910685D01*
X153525214Y-127072395D01*
X153072395Y-127525214D01*
X153072392Y-127525216D01*
X152539926Y-127880999D01*
X151948282Y-128126066D01*
X151634239Y-128188533D01*
X151320197Y-128251000D01*
X150679803Y-128251000D01*
X150365761Y-128188533D01*
X150051718Y-128126066D01*
X149460074Y-127880999D01*
X148927608Y-127525216D01*
X148927605Y-127525214D01*
X148474786Y-127072395D01*
X148366735Y-126910685D01*
X148119001Y-126539926D01*
X147873934Y-125948282D01*
X147811467Y-125634239D01*
X147749000Y-125320197D01*
X147749000Y-124679803D01*
X147873934Y-124051719D01*
X147997276Y-123753944D01*
X148119001Y-123460074D01*
X148474784Y-122927608D01*
X148474786Y-122927605D01*
X148927605Y-122474786D01*
X149170477Y-122312504D01*
X149460074Y-122119001D01*
X150051718Y-121873934D01*
X150365761Y-121811467D01*
X150679803Y-121749000D01*
X151320197Y-121749000D01*
X151634239Y-121811467D01*
X151634239Y-121811467D01*
G37*
G36*
X201051000Y-128051000D02*
X198949000Y-128051000D01*
X198949000Y-125949000D01*
X201051000Y-125949000D01*
X201051000Y-128051000D01*
X201051000Y-128051000D01*
G37*
G36*
X143875256Y-123891298D02*
X143981579Y-123912447D01*
X144282042Y-124036903D01*
X144548852Y-124215180D01*
X144552454Y-124217587D01*
X144782413Y-124447546D01*
X144782415Y-124447549D01*
X144963097Y-124717958D01*
X145087553Y-125018421D01*
X145108702Y-125124744D01*
X145141076Y-125287496D01*
X145151000Y-125337391D01*
X145151000Y-125662609D01*
X145087553Y-125981579D01*
X144963097Y-126282042D01*
X144877892Y-126409560D01*
X144782413Y-126552454D01*
X144552454Y-126782413D01*
X144552451Y-126782415D01*
X144282042Y-126963097D01*
X143981579Y-127087553D01*
X143935458Y-127096727D01*
X143662611Y-127151000D01*
X143337389Y-127151000D01*
X143064542Y-127096727D01*
X143018421Y-127087553D01*
X142717958Y-126963097D01*
X142447549Y-126782415D01*
X142447546Y-126782413D01*
X142217587Y-126552454D01*
X142122108Y-126409560D01*
X142036903Y-126282042D01*
X141912447Y-125981579D01*
X141849000Y-125662609D01*
X141849000Y-125337391D01*
X141858925Y-125287496D01*
X141891298Y-125124744D01*
X141912447Y-125018421D01*
X142036903Y-124717958D01*
X142217585Y-124447549D01*
X142217587Y-124447546D01*
X142447546Y-124217587D01*
X142451148Y-124215180D01*
X142717958Y-124036903D01*
X143018421Y-123912447D01*
X143124744Y-123891298D01*
X143337389Y-123849000D01*
X143662611Y-123849000D01*
X143875256Y-123891298D01*
X143875256Y-123891298D01*
G37*
G36*
X78875256Y-123891298D02*
X78981579Y-123912447D01*
X79282042Y-124036903D01*
X79548852Y-124215180D01*
X79552454Y-124217587D01*
X79782413Y-124447546D01*
X79782415Y-124447549D01*
X79963097Y-124717958D01*
X80087553Y-125018421D01*
X80108702Y-125124744D01*
X80141076Y-125287496D01*
X80151000Y-125337391D01*
X80151000Y-125662609D01*
X80087553Y-125981579D01*
X79963097Y-126282042D01*
X79877892Y-126409560D01*
X79782413Y-126552454D01*
X79552454Y-126782413D01*
X79552451Y-126782415D01*
X79282042Y-126963097D01*
X78981579Y-127087553D01*
X78935458Y-127096727D01*
X78662611Y-127151000D01*
X78337389Y-127151000D01*
X78064542Y-127096727D01*
X78018421Y-127087553D01*
X77717958Y-126963097D01*
X77447549Y-126782415D01*
X77447546Y-126782413D01*
X77217587Y-126552454D01*
X77122108Y-126409560D01*
X77036903Y-126282042D01*
X76912447Y-125981579D01*
X76849000Y-125662609D01*
X76849000Y-125337391D01*
X76858925Y-125287496D01*
X76891298Y-125124744D01*
X76912447Y-125018421D01*
X77036903Y-124717958D01*
X77217585Y-124447549D01*
X77217587Y-124447546D01*
X77447546Y-124217587D01*
X77451148Y-124215180D01*
X77717958Y-124036903D01*
X78018421Y-123912447D01*
X78124744Y-123891298D01*
X78337389Y-123849000D01*
X78662611Y-123849000D01*
X78875256Y-123891298D01*
X78875256Y-123891298D01*
G37*
G36*
X133551000Y-121751000D02*
X129449000Y-121751000D01*
X129449000Y-117649000D01*
X133551000Y-117649000D01*
X133551000Y-121751000D01*
X133551000Y-121751000D01*
G37*
G36*
X138551000Y-121751000D02*
X134449000Y-121751000D01*
X134449000Y-117649000D01*
X138551000Y-117649000D01*
X138551000Y-121751000D01*
X138551000Y-121751000D01*
G37*
G36*
X201051000Y-115717333D02*
X198949000Y-115717333D01*
X198949000Y-113615333D01*
X201051000Y-113615333D01*
X201051000Y-115717333D01*
X201051000Y-115717333D01*
G37*
G36*
X143051000Y-110551000D02*
X140949000Y-110551000D01*
X140949000Y-108449000D01*
X143051000Y-108449000D01*
X143051000Y-110551000D01*
X143051000Y-110551000D01*
G37*
G36*
X98566000Y-110291000D02*
X96634000Y-110291000D01*
X96634000Y-109559000D01*
X98566000Y-109559000D01*
X98566000Y-110291000D01*
X98566000Y-110291000D01*
G37*
G36*
X110166000Y-110291000D02*
X108234000Y-110291000D01*
X108234000Y-109559000D01*
X110166000Y-109559000D01*
X110166000Y-110291000D01*
X110166000Y-110291000D01*
G37*
G36*
X121766000Y-110291000D02*
X119834000Y-110291000D01*
X119834000Y-109559000D01*
X121766000Y-109559000D01*
X121766000Y-110291000D01*
X121766000Y-110291000D01*
G37*
G36*
X133366000Y-110291000D02*
X131434000Y-110291000D01*
X131434000Y-109559000D01*
X133366000Y-109559000D01*
X133366000Y-110291000D01*
X133366000Y-110291000D01*
G37*
G36*
X121766000Y-107641000D02*
X119834000Y-107641000D01*
X119834000Y-106909000D01*
X121766000Y-106909000D01*
X121766000Y-107641000D01*
X121766000Y-107641000D01*
G37*
G36*
X133366000Y-107641000D02*
X131434000Y-107641000D01*
X131434000Y-106909000D01*
X133366000Y-106909000D01*
X133366000Y-107641000D01*
X133366000Y-107641000D01*
G37*
G36*
X98566000Y-107641000D02*
X96634000Y-107641000D01*
X96634000Y-106909000D01*
X98566000Y-106909000D01*
X98566000Y-107641000D01*
X98566000Y-107641000D01*
G37*
G36*
X110166000Y-107641000D02*
X108234000Y-107641000D01*
X108234000Y-106909000D01*
X110166000Y-106909000D01*
X110166000Y-107641000D01*
X110166000Y-107641000D01*
G37*
G36*
X143051000Y-106051000D02*
X140949000Y-106051000D01*
X140949000Y-103949000D01*
X143051000Y-103949000D01*
X143051000Y-106051000D01*
X143051000Y-106051000D01*
G37*
G36*
X201051000Y-103384333D02*
X198949000Y-103384333D01*
X198949000Y-101282333D01*
X201051000Y-101282333D01*
X201051000Y-103384333D01*
X201051000Y-103384333D01*
G37*
G36*
X133366000Y-97691000D02*
X131434000Y-97691000D01*
X131434000Y-96959000D01*
X133366000Y-96959000D01*
X133366000Y-97691000D01*
X133366000Y-97691000D01*
G37*
G36*
X86966000Y-97691000D02*
X85034000Y-97691000D01*
X85034000Y-96959000D01*
X86966000Y-96959000D01*
X86966000Y-97691000D01*
X86966000Y-97691000D01*
G37*
G36*
X110166000Y-97691000D02*
X108234000Y-97691000D01*
X108234000Y-96959000D01*
X110166000Y-96959000D01*
X110166000Y-97691000D01*
X110166000Y-97691000D01*
G37*
G36*
X121766000Y-97691000D02*
X119834000Y-97691000D01*
X119834000Y-96959000D01*
X121766000Y-96959000D01*
X121766000Y-97691000D01*
X121766000Y-97691000D01*
G37*
G36*
X98566000Y-97691000D02*
X96634000Y-97691000D01*
X96634000Y-96959000D01*
X98566000Y-96959000D01*
X98566000Y-97691000D01*
X98566000Y-97691000D01*
G37*
G36*
X194634239Y-88811467D02*
X194948282Y-88873934D01*
X195539926Y-89119001D01*
X195829523Y-89312504D01*
X196072395Y-89474786D01*
X196525214Y-89927605D01*
X196525216Y-89927608D01*
X196880999Y-90460074D01*
X197126066Y-91051718D01*
X197126066Y-91051719D01*
X197251000Y-91679803D01*
X197251000Y-92320197D01*
X197188533Y-92634239D01*
X197126066Y-92948282D01*
X196880999Y-93539926D01*
X196633265Y-93910685D01*
X196525214Y-94072395D01*
X196072395Y-94525214D01*
X196072392Y-94525216D01*
X195539926Y-94880999D01*
X194948282Y-95126066D01*
X194634239Y-95188533D01*
X194320197Y-95251000D01*
X193679803Y-95251000D01*
X193365761Y-95188533D01*
X193051718Y-95126066D01*
X192460074Y-94880999D01*
X191927608Y-94525216D01*
X191927605Y-94525214D01*
X191474786Y-94072395D01*
X191366735Y-93910685D01*
X191119001Y-93539926D01*
X190873934Y-92948282D01*
X190811467Y-92634239D01*
X190749000Y-92320197D01*
X190749000Y-91679803D01*
X190873934Y-91051719D01*
X190873934Y-91051718D01*
X191119001Y-90460074D01*
X191474784Y-89927608D01*
X191474786Y-89927605D01*
X191927605Y-89474786D01*
X192170477Y-89312504D01*
X192460074Y-89119001D01*
X193051718Y-88873934D01*
X193365761Y-88811467D01*
X193679803Y-88749000D01*
X194320197Y-88749000D01*
X194634239Y-88811467D01*
X194634239Y-88811467D01*
G37*
G36*
X151634239Y-88811467D02*
X151948282Y-88873934D01*
X152539926Y-89119001D01*
X152829523Y-89312504D01*
X153072395Y-89474786D01*
X153525214Y-89927605D01*
X153525216Y-89927608D01*
X153880999Y-90460074D01*
X154126066Y-91051718D01*
X154126066Y-91051719D01*
X154251000Y-91679803D01*
X154251000Y-92320197D01*
X154188533Y-92634239D01*
X154126066Y-92948282D01*
X153880999Y-93539926D01*
X153633265Y-93910685D01*
X153525214Y-94072395D01*
X153072395Y-94525214D01*
X153072392Y-94525216D01*
X152539926Y-94880999D01*
X151948282Y-95126066D01*
X151634239Y-95188533D01*
X151320197Y-95251000D01*
X150679803Y-95251000D01*
X150365761Y-95188533D01*
X150051718Y-95126066D01*
X149460074Y-94880999D01*
X148927608Y-94525216D01*
X148927605Y-94525214D01*
X148474786Y-94072395D01*
X148366735Y-93910685D01*
X148119001Y-93539926D01*
X147873934Y-92948282D01*
X147811467Y-92634239D01*
X147749000Y-92320197D01*
X147749000Y-91679803D01*
X147873934Y-91051719D01*
X147873934Y-91051718D01*
X148119001Y-90460074D01*
X148474784Y-89927608D01*
X148474786Y-89927605D01*
X148927605Y-89474786D01*
X149170477Y-89312504D01*
X149460074Y-89119001D01*
X150051718Y-88873934D01*
X150365761Y-88811467D01*
X150679803Y-88749000D01*
X151320197Y-88749000D01*
X151634239Y-88811467D01*
X151634239Y-88811467D01*
G37*
G36*
X133366000Y-95041000D02*
X131434000Y-95041000D01*
X131434000Y-94309000D01*
X133366000Y-94309000D01*
X133366000Y-95041000D01*
X133366000Y-95041000D01*
G37*
G36*
X121766000Y-95041000D02*
X119834000Y-95041000D01*
X119834000Y-94309000D01*
X121766000Y-94309000D01*
X121766000Y-95041000D01*
X121766000Y-95041000D01*
G37*
G36*
X86966000Y-95041000D02*
X85034000Y-95041000D01*
X85034000Y-94309000D01*
X86966000Y-94309000D01*
X86966000Y-95041000D01*
X86966000Y-95041000D01*
G37*
G36*
X98566000Y-95041000D02*
X96634000Y-95041000D01*
X96634000Y-94309000D01*
X98566000Y-94309000D01*
X98566000Y-95041000D01*
X98566000Y-95041000D01*
G37*
G36*
X110166000Y-95041000D02*
X108234000Y-95041000D01*
X108234000Y-94309000D01*
X110166000Y-94309000D01*
X110166000Y-95041000D01*
X110166000Y-95041000D01*
G37*
G36*
X201051000Y-91051000D02*
X198949000Y-91051000D01*
X198949000Y-88949000D01*
X201051000Y-88949000D01*
X201051000Y-91051000D01*
X201051000Y-91051000D01*
G37*
G36*
X201051000Y-87051000D02*
X198949000Y-87051000D01*
X198949000Y-84949000D01*
X201051000Y-84949000D01*
X201051000Y-87051000D01*
X201051000Y-87051000D01*
G37*
G36*
X146051000Y-87051000D02*
X143949000Y-87051000D01*
X143949000Y-84949000D01*
X146051000Y-84949000D01*
X146051000Y-87051000D01*
X146051000Y-87051000D01*
G37*
G36*
X86051000Y-86051000D02*
X83949000Y-86051000D01*
X83949000Y-83949000D01*
X86051000Y-83949000D01*
X86051000Y-86051000D01*
X86051000Y-86051000D01*
G37*
G36*
X89051000Y-86051000D02*
X86949000Y-86051000D01*
X86949000Y-83949000D01*
X89051000Y-83949000D01*
X89051000Y-86051000D01*
X89051000Y-86051000D01*
G37*
G36*
X92051000Y-86051000D02*
X89949000Y-86051000D01*
X89949000Y-83949000D01*
X92051000Y-83949000D01*
X92051000Y-86051000D01*
X92051000Y-86051000D01*
G37*
G36*
X101051000Y-86051000D02*
X98949000Y-86051000D01*
X98949000Y-83949000D01*
X101051000Y-83949000D01*
X101051000Y-86051000D01*
X101051000Y-86051000D01*
G37*
G36*
X98051000Y-86051000D02*
X95949000Y-86051000D01*
X95949000Y-83949000D01*
X98051000Y-83949000D01*
X98051000Y-86051000D01*
X98051000Y-86051000D01*
G37*
G36*
X113051000Y-86051000D02*
X110949000Y-86051000D01*
X110949000Y-83949000D01*
X113051000Y-83949000D01*
X113051000Y-86051000D01*
X113051000Y-86051000D01*
G37*
G36*
X104051000Y-86051000D02*
X101949000Y-86051000D01*
X101949000Y-83949000D01*
X104051000Y-83949000D01*
X104051000Y-86051000D01*
X104051000Y-86051000D01*
G37*
G36*
X121051000Y-86051000D02*
X118949000Y-86051000D01*
X118949000Y-83949000D01*
X121051000Y-83949000D01*
X121051000Y-86051000D01*
X121051000Y-86051000D01*
G37*
G36*
X107051000Y-86051000D02*
X104949000Y-86051000D01*
X104949000Y-83949000D01*
X107051000Y-83949000D01*
X107051000Y-86051000D01*
X107051000Y-86051000D01*
G37*
G36*
X110051000Y-86051000D02*
X107949000Y-86051000D01*
X107949000Y-83949000D01*
X110051000Y-83949000D01*
X110051000Y-86051000D01*
X110051000Y-86051000D01*
G37*
G36*
X95051000Y-86051000D02*
X92949000Y-86051000D01*
X92949000Y-83949000D01*
X95051000Y-83949000D01*
X95051000Y-86051000D01*
X95051000Y-86051000D01*
G37*
G36*
X201051000Y-84051000D02*
X198949000Y-84051000D01*
X198949000Y-81949000D01*
X201051000Y-81949000D01*
X201051000Y-84051000D01*
X201051000Y-84051000D01*
G37*
G36*
X146051000Y-84051000D02*
X143949000Y-84051000D01*
X143949000Y-81949000D01*
X146051000Y-81949000D01*
X146051000Y-84051000D01*
X146051000Y-84051000D01*
G37*
G36*
X97901000Y-82131000D02*
X96099000Y-82131000D01*
X96099000Y-80529000D01*
X97901000Y-80529000D01*
X97901000Y-82131000D01*
X97901000Y-82131000D01*
G37*
G36*
X112901000Y-82131000D02*
X111099000Y-82131000D01*
X111099000Y-80529000D01*
X112901000Y-80529000D01*
X112901000Y-82131000D01*
X112901000Y-82131000D01*
G37*
G36*
X109901000Y-82131000D02*
X108099000Y-82131000D01*
X108099000Y-80529000D01*
X109901000Y-80529000D01*
X109901000Y-82131000D01*
X109901000Y-82131000D01*
G37*
G36*
X88901000Y-82131000D02*
X87099000Y-82131000D01*
X87099000Y-80529000D01*
X88901000Y-80529000D01*
X88901000Y-82131000D01*
X88901000Y-82131000D01*
G37*
G36*
X106901000Y-82131000D02*
X105099000Y-82131000D01*
X105099000Y-80529000D01*
X106901000Y-80529000D01*
X106901000Y-82131000D01*
X106901000Y-82131000D01*
G37*
G36*
X94901000Y-82131000D02*
X93099000Y-82131000D01*
X93099000Y-80529000D01*
X94901000Y-80529000D01*
X94901000Y-82131000D01*
X94901000Y-82131000D01*
G37*
G36*
X91901000Y-82131000D02*
X90099000Y-82131000D01*
X90099000Y-80529000D01*
X91901000Y-80529000D01*
X91901000Y-82131000D01*
X91901000Y-82131000D01*
G37*
G36*
X85901000Y-82131000D02*
X84099000Y-82131000D01*
X84099000Y-80529000D01*
X85901000Y-80529000D01*
X85901000Y-82131000D01*
X85901000Y-82131000D01*
G37*
G36*
X103901000Y-82131000D02*
X102099000Y-82131000D01*
X102099000Y-80529000D01*
X103901000Y-80529000D01*
X103901000Y-82131000D01*
X103901000Y-82131000D01*
G37*
G36*
X100901000Y-82131000D02*
X99099000Y-82131000D01*
X99099000Y-80529000D01*
X100901000Y-80529000D01*
X100901000Y-82131000D01*
X100901000Y-82131000D01*
G37*
G36*
X201051000Y-81051000D02*
X198949000Y-81051000D01*
X198949000Y-78949000D01*
X201051000Y-78949000D01*
X201051000Y-81051000D01*
X201051000Y-81051000D01*
G37*
G36*
X146051000Y-80051000D02*
X143949000Y-80051000D01*
X143949000Y-77949000D01*
X146051000Y-77949000D01*
X146051000Y-80051000D01*
X146051000Y-80051000D01*
G37*
G36*
X111601000Y-79471000D02*
X111099000Y-79471000D01*
X111099000Y-77869000D01*
X111601000Y-77869000D01*
X111601000Y-79471000D01*
X111601000Y-79471000D01*
G37*
G36*
X112901000Y-79471000D02*
X112399000Y-79471000D01*
X112399000Y-77869000D01*
X112901000Y-77869000D01*
X112901000Y-79471000D01*
X112901000Y-79471000D01*
G37*
G36*
X85901000Y-79471000D02*
X85399000Y-79471000D01*
X85399000Y-77869000D01*
X85901000Y-77869000D01*
X85901000Y-79471000D01*
X85901000Y-79471000D01*
G37*
G36*
X84601000Y-79471000D02*
X84099000Y-79471000D01*
X84099000Y-77869000D01*
X84601000Y-77869000D01*
X84601000Y-79471000D01*
X84601000Y-79471000D01*
G37*
G36*
X87601000Y-79471000D02*
X87099000Y-79471000D01*
X87099000Y-77869000D01*
X87601000Y-77869000D01*
X87601000Y-79471000D01*
X87601000Y-79471000D01*
G37*
G36*
X94901000Y-79471000D02*
X94399000Y-79471000D01*
X94399000Y-77869000D01*
X94901000Y-77869000D01*
X94901000Y-79471000D01*
X94901000Y-79471000D01*
G37*
G36*
X93601000Y-79471000D02*
X93099000Y-79471000D01*
X93099000Y-77869000D01*
X93601000Y-77869000D01*
X93601000Y-79471000D01*
X93601000Y-79471000D01*
G37*
G36*
X91901000Y-79471000D02*
X91399000Y-79471000D01*
X91399000Y-77869000D01*
X91901000Y-77869000D01*
X91901000Y-79471000D01*
X91901000Y-79471000D01*
G37*
G36*
X90601000Y-79471000D02*
X90099000Y-79471000D01*
X90099000Y-77869000D01*
X90601000Y-77869000D01*
X90601000Y-79471000D01*
X90601000Y-79471000D01*
G37*
G36*
X88901000Y-79471000D02*
X88399000Y-79471000D01*
X88399000Y-77869000D01*
X88901000Y-77869000D01*
X88901000Y-79471000D01*
X88901000Y-79471000D01*
G37*
G36*
X99601000Y-79471000D02*
X99099000Y-79471000D01*
X99099000Y-77869000D01*
X99601000Y-77869000D01*
X99601000Y-79471000D01*
X99601000Y-79471000D01*
G37*
G36*
X109901000Y-79471000D02*
X109399000Y-79471000D01*
X109399000Y-77869000D01*
X109901000Y-77869000D01*
X109901000Y-79471000D01*
X109901000Y-79471000D01*
G37*
G36*
X108601000Y-79471000D02*
X108099000Y-79471000D01*
X108099000Y-77869000D01*
X108601000Y-77869000D01*
X108601000Y-79471000D01*
X108601000Y-79471000D01*
G37*
G36*
X96601000Y-79471000D02*
X96099000Y-79471000D01*
X96099000Y-77869000D01*
X96601000Y-77869000D01*
X96601000Y-79471000D01*
X96601000Y-79471000D01*
G37*
G36*
X97901000Y-79471000D02*
X97399000Y-79471000D01*
X97399000Y-77869000D01*
X97901000Y-77869000D01*
X97901000Y-79471000D01*
X97901000Y-79471000D01*
G37*
G36*
X106901000Y-79471000D02*
X106399000Y-79471000D01*
X106399000Y-77869000D01*
X106901000Y-77869000D01*
X106901000Y-79471000D01*
X106901000Y-79471000D01*
G37*
G36*
X103901000Y-79471000D02*
X103399000Y-79471000D01*
X103399000Y-77869000D01*
X103901000Y-77869000D01*
X103901000Y-79471000D01*
X103901000Y-79471000D01*
G37*
G36*
X102601000Y-79471000D02*
X102099000Y-79471000D01*
X102099000Y-77869000D01*
X102601000Y-77869000D01*
X102601000Y-79471000D01*
X102601000Y-79471000D01*
G37*
G36*
X100901000Y-79471000D02*
X100399000Y-79471000D01*
X100399000Y-77869000D01*
X100901000Y-77869000D01*
X100901000Y-79471000D01*
X100901000Y-79471000D01*
G37*
G36*
X105601000Y-79471000D02*
X105099000Y-79471000D01*
X105099000Y-77869000D01*
X105601000Y-77869000D01*
X105601000Y-79471000D01*
X105601000Y-79471000D01*
G37*
G36*
X78051000Y-78051000D02*
X75949000Y-78051000D01*
X75949000Y-75949000D01*
X78051000Y-75949000D01*
X78051000Y-78051000D01*
X78051000Y-78051000D01*
G37*
G36*
X201051000Y-78051000D02*
X198949000Y-78051000D01*
X198949000Y-75949000D01*
X201051000Y-75949000D01*
X201051000Y-78051000D01*
X201051000Y-78051000D01*
G37*
G36*
X146051000Y-77051000D02*
X143949000Y-77051000D01*
X143949000Y-74949000D01*
X146051000Y-74949000D01*
X146051000Y-77051000D01*
X146051000Y-77051000D01*
G37*
G36*
X78051000Y-75051000D02*
X75949000Y-75051000D01*
X75949000Y-72949000D01*
X78051000Y-72949000D01*
X78051000Y-75051000D01*
X78051000Y-75051000D01*
G37*
G36*
X201051000Y-75051000D02*
X198949000Y-75051000D01*
X198949000Y-72949000D01*
X201051000Y-72949000D01*
X201051000Y-75051000D01*
X201051000Y-75051000D01*
G37*
G36*
X146051000Y-73051000D02*
X143949000Y-73051000D01*
X143949000Y-70949000D01*
X146051000Y-70949000D01*
X146051000Y-73051000D01*
X146051000Y-73051000D01*
G37*
G36*
X78051000Y-72051000D02*
X75949000Y-72051000D01*
X75949000Y-69949000D01*
X78051000Y-69949000D01*
X78051000Y-72051000D01*
X78051000Y-72051000D01*
G37*
G36*
X201051000Y-72051000D02*
X198949000Y-72051000D01*
X198949000Y-69949000D01*
X201051000Y-69949000D01*
X201051000Y-72051000D01*
X201051000Y-72051000D01*
G37*
G36*
X146051000Y-70051000D02*
X143949000Y-70051000D01*
X143949000Y-67949000D01*
X146051000Y-67949000D01*
X146051000Y-70051000D01*
X146051000Y-70051000D01*
G37*
G36*
X78051000Y-69051000D02*
X75949000Y-69051000D01*
X75949000Y-66949000D01*
X78051000Y-66949000D01*
X78051000Y-69051000D01*
X78051000Y-69051000D01*
G37*
G36*
X201051000Y-69051000D02*
X198949000Y-69051000D01*
X198949000Y-66949000D01*
X201051000Y-66949000D01*
X201051000Y-69051000D01*
X201051000Y-69051000D01*
G37*
G36*
X201051000Y-66051000D02*
X198949000Y-66051000D01*
X198949000Y-63949000D01*
X201051000Y-63949000D01*
X201051000Y-66051000D01*
X201051000Y-66051000D01*
G37*
G36*
X146051000Y-66051000D02*
X143949000Y-66051000D01*
X143949000Y-63949000D01*
X146051000Y-63949000D01*
X146051000Y-66051000D01*
X146051000Y-66051000D01*
G37*
G36*
X78051000Y-66051000D02*
X75949000Y-66051000D01*
X75949000Y-63949000D01*
X78051000Y-63949000D01*
X78051000Y-66051000D01*
X78051000Y-66051000D01*
G37*
G36*
X201051000Y-63051000D02*
X198949000Y-63051000D01*
X198949000Y-60949000D01*
X201051000Y-60949000D01*
X201051000Y-63051000D01*
X201051000Y-63051000D01*
G37*
G36*
X146051000Y-63051000D02*
X143949000Y-63051000D01*
X143949000Y-60949000D01*
X146051000Y-60949000D01*
X146051000Y-63051000D01*
X146051000Y-63051000D01*
G37*
G36*
X78051000Y-63051000D02*
X75949000Y-63051000D01*
X75949000Y-60949000D01*
X78051000Y-60949000D01*
X78051000Y-63051000D01*
X78051000Y-63051000D01*
G37*
G36*
X85037359Y-55878567D02*
X85351402Y-55941034D01*
X85943046Y-56186101D01*
X86232643Y-56379604D01*
X86475515Y-56541886D01*
X86928334Y-56994705D01*
X86928336Y-56994708D01*
X87284119Y-57527174D01*
X87405844Y-57821044D01*
X87529186Y-58118819D01*
X87654120Y-58746903D01*
X87654120Y-59387297D01*
X87591653Y-59701339D01*
X87529186Y-60015382D01*
X87284119Y-60607026D01*
X87055619Y-60949000D01*
X86928334Y-61139495D01*
X86475515Y-61592314D01*
X86475512Y-61592316D01*
X85943046Y-61948099D01*
X85351402Y-62193166D01*
X85037359Y-62255633D01*
X84723317Y-62318100D01*
X84082923Y-62318100D01*
X83768881Y-62255633D01*
X83454838Y-62193166D01*
X82863194Y-61948099D01*
X82330728Y-61592316D01*
X82330725Y-61592314D01*
X81877906Y-61139495D01*
X81750621Y-60949000D01*
X81522121Y-60607026D01*
X81277054Y-60015382D01*
X81214587Y-59701339D01*
X81152120Y-59387297D01*
X81152120Y-58746903D01*
X81277054Y-58118819D01*
X81400396Y-57821044D01*
X81522121Y-57527174D01*
X81877904Y-56994708D01*
X81877906Y-56994705D01*
X82330725Y-56541886D01*
X82573597Y-56379604D01*
X82863194Y-56186101D01*
X83454838Y-55941034D01*
X83768881Y-55878567D01*
X84082923Y-55816100D01*
X84723317Y-55816100D01*
X85037359Y-55878567D01*
X85037359Y-55878567D01*
G37*
G36*
X78051000Y-60051000D02*
X75949000Y-60051000D01*
X75949000Y-57949000D01*
X78051000Y-57949000D01*
X78051000Y-60051000D01*
X78051000Y-60051000D01*
G37*
G36*
X201051000Y-60051000D02*
X198949000Y-60051000D01*
X198949000Y-57949000D01*
X201051000Y-57949000D01*
X201051000Y-60051000D01*
X201051000Y-60051000D01*
G37*
G36*
X146051000Y-59051000D02*
X143949000Y-59051000D01*
X143949000Y-56949000D01*
X146051000Y-56949000D01*
X146051000Y-59051000D01*
X146051000Y-59051000D01*
G37*
G36*
X78051000Y-57051000D02*
X75949000Y-57051000D01*
X75949000Y-54949000D01*
X78051000Y-54949000D01*
X78051000Y-57051000D01*
X78051000Y-57051000D01*
G37*
G36*
X146051000Y-56051000D02*
X143949000Y-56051000D01*
X143949000Y-53949000D01*
X146051000Y-53949000D01*
X146051000Y-56051000D01*
X146051000Y-56051000D01*
G37*
G36*
X198875256Y-51391298D02*
X198981579Y-51412447D01*
X199282042Y-51536903D01*
X199448394Y-51648056D01*
X199552454Y-51717587D01*
X199782413Y-51947546D01*
X199782415Y-51947549D01*
X199834311Y-52025216D01*
X199963098Y-52217960D01*
X200087553Y-52518422D01*
X200151000Y-52837389D01*
X200151000Y-53162611D01*
X200087553Y-53481578D01*
X199963098Y-53782040D01*
X199782413Y-54052454D01*
X199552454Y-54282413D01*
X199552451Y-54282415D01*
X199282042Y-54463097D01*
X198981579Y-54587553D01*
X198875256Y-54608702D01*
X198662611Y-54651000D01*
X198337389Y-54651000D01*
X198124744Y-54608702D01*
X198018421Y-54587553D01*
X197717958Y-54463097D01*
X197447549Y-54282415D01*
X197447546Y-54282413D01*
X197217587Y-54052454D01*
X197036902Y-53782040D01*
X196912447Y-53481578D01*
X196849000Y-53162611D01*
X196849000Y-52837389D01*
X196912447Y-52518422D01*
X197036902Y-52217960D01*
X197165690Y-52025216D01*
X197217585Y-51947549D01*
X197217587Y-51947546D01*
X197447546Y-51717587D01*
X197551606Y-51648056D01*
X197717958Y-51536903D01*
X198018421Y-51412447D01*
X198124744Y-51391298D01*
X198337389Y-51349000D01*
X198662611Y-51349000D01*
X198875256Y-51391298D01*
X198875256Y-51391298D01*
G37*
G36*
X78051000Y-54051000D02*
X75949000Y-54051000D01*
X75949000Y-51949000D01*
X78051000Y-51949000D01*
X78051000Y-54051000D01*
X78051000Y-54051000D01*
G37*
G36*
X108063444Y-46297385D02*
X108448282Y-46373934D01*
X109039926Y-46619001D01*
X109440073Y-46886371D01*
X109572395Y-46974786D01*
X110025214Y-47427605D01*
X110025216Y-47427608D01*
X110380999Y-47960074D01*
X110502724Y-48253944D01*
X110626066Y-48551719D01*
X110751000Y-49179803D01*
X110751000Y-49820197D01*
X110688533Y-50134239D01*
X110626066Y-50448282D01*
X110380999Y-51039926D01*
X110174482Y-51349000D01*
X110025214Y-51572395D01*
X109572395Y-52025214D01*
X109572392Y-52025216D01*
X109039926Y-52380999D01*
X108448282Y-52626066D01*
X108134239Y-52688533D01*
X107820197Y-52751000D01*
X107179803Y-52751000D01*
X106865761Y-52688533D01*
X106551718Y-52626066D01*
X105960074Y-52380999D01*
X105427608Y-52025216D01*
X105427605Y-52025214D01*
X104974786Y-51572395D01*
X104825518Y-51349000D01*
X104619001Y-51039926D01*
X104373934Y-50448282D01*
X104311467Y-50134239D01*
X104249000Y-49820197D01*
X104249000Y-49179803D01*
X104373934Y-48551719D01*
X104497276Y-48253944D01*
X104619001Y-47960074D01*
X104974784Y-47427608D01*
X104974786Y-47427605D01*
X105427605Y-46974786D01*
X105559927Y-46886371D01*
X105960074Y-46619001D01*
X106551718Y-46373934D01*
X106936556Y-46297385D01*
X107179803Y-46249000D01*
X107820197Y-46249000D01*
X108063444Y-46297385D01*
X108063444Y-46297385D01*
G37*
G36*
X146051000Y-52051000D02*
X143949000Y-52051000D01*
X143949000Y-49949000D01*
X146051000Y-49949000D01*
X146051000Y-52051000D01*
X146051000Y-52051000D01*
G37*
G36*
X78051000Y-51051000D02*
X75949000Y-51051000D01*
X75949000Y-48949000D01*
X78051000Y-48949000D01*
X78051000Y-51051000D01*
X78051000Y-51051000D01*
G37*
G36*
X146051000Y-49051000D02*
X143949000Y-49051000D01*
X143949000Y-46949000D01*
X146051000Y-46949000D01*
X146051000Y-49051000D01*
X146051000Y-49051000D01*
G37*
G36*
X182134239Y-41811467D02*
X182448282Y-41873934D01*
X183039926Y-42119001D01*
X183440073Y-42386371D01*
X183572395Y-42474786D01*
X184025214Y-42927605D01*
X184025216Y-42927608D01*
X184380999Y-43460074D01*
X184502724Y-43753944D01*
X184626066Y-44051719D01*
X184751000Y-44679803D01*
X184751000Y-45320197D01*
X184688533Y-45634239D01*
X184626066Y-45948282D01*
X184380999Y-46539926D01*
X184149511Y-46886371D01*
X184025214Y-47072395D01*
X183572395Y-47525214D01*
X183572392Y-47525216D01*
X183039926Y-47880999D01*
X182448282Y-48126066D01*
X182134239Y-48188533D01*
X181820197Y-48251000D01*
X181179803Y-48251000D01*
X180865761Y-48188533D01*
X180551718Y-48126066D01*
X179960074Y-47880999D01*
X179427608Y-47525216D01*
X179427605Y-47525214D01*
X178974786Y-47072395D01*
X178850489Y-46886371D01*
X178619001Y-46539926D01*
X178373934Y-45948282D01*
X178311467Y-45634239D01*
X178249000Y-45320197D01*
X178249000Y-44679803D01*
X178373934Y-44051719D01*
X178497276Y-43753944D01*
X178619001Y-43460074D01*
X178974784Y-42927608D01*
X178974786Y-42927605D01*
X179427605Y-42474786D01*
X179559927Y-42386371D01*
X179960074Y-42119001D01*
X180551718Y-41873934D01*
X180865761Y-41811467D01*
X181179803Y-41749000D01*
X181820197Y-41749000D01*
X182134239Y-41811467D01*
X182134239Y-41811467D01*
G37*
G36*
X201051000Y-48051000D02*
X198949000Y-48051000D01*
X198949000Y-45949000D01*
X201051000Y-45949000D01*
X201051000Y-48051000D01*
X201051000Y-48051000D01*
G37*
G36*
X191051000Y-48051000D02*
X188949000Y-48051000D01*
X188949000Y-45949000D01*
X191051000Y-45949000D01*
X191051000Y-48051000D01*
X191051000Y-48051000D01*
G37*
G36*
X161051000Y-48051000D02*
X158949000Y-48051000D01*
X158949000Y-45949000D01*
X161051000Y-45949000D01*
X161051000Y-48051000D01*
X161051000Y-48051000D01*
G37*
G36*
X191051000Y-45051000D02*
X188949000Y-45051000D01*
X188949000Y-42949000D01*
X191051000Y-42949000D01*
X191051000Y-45051000D01*
X191051000Y-45051000D01*
G37*
G36*
X146051000Y-45051000D02*
X143949000Y-45051000D01*
X143949000Y-42949000D01*
X146051000Y-42949000D01*
X146051000Y-45051000D01*
X146051000Y-45051000D01*
G37*
G36*
X201051000Y-45051000D02*
X198949000Y-45051000D01*
X198949000Y-42949000D01*
X201051000Y-42949000D01*
X201051000Y-45051000D01*
X201051000Y-45051000D01*
G37*
G36*
X161051000Y-45051000D02*
X158949000Y-45051000D01*
X158949000Y-42949000D01*
X161051000Y-42949000D01*
X161051000Y-45051000D01*
X161051000Y-45051000D01*
G37*
G36*
X131231227Y-36744382D02*
X131545270Y-36806849D01*
X132136914Y-37051916D01*
X132426511Y-37245419D01*
X132669383Y-37407701D01*
X133122202Y-37860520D01*
X133122204Y-37860523D01*
X133477987Y-38392989D01*
X133722554Y-38983427D01*
X133723054Y-38984634D01*
X133847988Y-39612718D01*
X133847988Y-40253112D01*
X133785521Y-40567154D01*
X133723054Y-40881197D01*
X133477987Y-41472841D01*
X133230253Y-41843600D01*
X133122202Y-42005310D01*
X132669383Y-42458129D01*
X132669380Y-42458131D01*
X132136914Y-42813914D01*
X131545270Y-43058981D01*
X131231227Y-43121448D01*
X130917185Y-43183915D01*
X130276791Y-43183915D01*
X129962749Y-43121448D01*
X129648706Y-43058981D01*
X129057062Y-42813914D01*
X128524596Y-42458131D01*
X128524593Y-42458129D01*
X128071774Y-42005310D01*
X127963723Y-41843600D01*
X127715989Y-41472841D01*
X127470922Y-40881197D01*
X127408455Y-40567154D01*
X127345988Y-40253112D01*
X127345988Y-39612718D01*
X127470922Y-38984634D01*
X127471422Y-38983427D01*
X127715989Y-38392989D01*
X128071772Y-37860523D01*
X128071774Y-37860520D01*
X128524593Y-37407701D01*
X128767465Y-37245419D01*
X129057062Y-37051916D01*
X129648706Y-36806849D01*
X129962749Y-36744382D01*
X130276791Y-36681915D01*
X130917185Y-36681915D01*
X131231227Y-36744382D01*
X131231227Y-36744382D01*
G37*
G36*
X161051000Y-42051000D02*
X158949000Y-42051000D01*
X158949000Y-39949000D01*
X161051000Y-39949000D01*
X161051000Y-42051000D01*
X161051000Y-42051000D01*
G37*
G36*
X201051000Y-42051000D02*
X198949000Y-42051000D01*
X198949000Y-39949000D01*
X201051000Y-39949000D01*
X201051000Y-42051000D01*
X201051000Y-42051000D01*
G37*
G36*
X191051000Y-42051000D02*
X188949000Y-42051000D01*
X188949000Y-39949000D01*
X191051000Y-39949000D01*
X191051000Y-42051000D01*
X191051000Y-42051000D01*
G37*
G36*
X146051000Y-42051000D02*
X143949000Y-42051000D01*
X143949000Y-39949000D01*
X146051000Y-39949000D01*
X146051000Y-42051000D01*
X146051000Y-42051000D01*
G37*
G36*
X182134239Y-34311467D02*
X182448282Y-34373934D01*
X183039926Y-34619001D01*
X183329523Y-34812504D01*
X183572395Y-34974786D01*
X184025214Y-35427605D01*
X184025216Y-35427608D01*
X184380999Y-35960074D01*
X184502724Y-36253944D01*
X184626066Y-36551719D01*
X184751000Y-37179803D01*
X184751000Y-37820197D01*
X184721882Y-37966583D01*
X184626066Y-38448282D01*
X184380999Y-39039926D01*
X184133265Y-39410685D01*
X184025214Y-39572395D01*
X183572395Y-40025214D01*
X183572392Y-40025216D01*
X183039926Y-40380999D01*
X182448282Y-40626066D01*
X182134239Y-40688533D01*
X181820197Y-40751000D01*
X181179803Y-40751000D01*
X180865761Y-40688533D01*
X180551718Y-40626066D01*
X179960074Y-40380999D01*
X179427608Y-40025216D01*
X179427605Y-40025214D01*
X178974786Y-39572395D01*
X178866735Y-39410685D01*
X178619001Y-39039926D01*
X178373934Y-38448282D01*
X178278118Y-37966583D01*
X178249000Y-37820197D01*
X178249000Y-37179803D01*
X178373934Y-36551719D01*
X178497276Y-36253944D01*
X178619001Y-35960074D01*
X178974784Y-35427608D01*
X178974786Y-35427605D01*
X179427605Y-34974786D01*
X179670477Y-34812504D01*
X179960074Y-34619001D01*
X180551718Y-34373934D01*
X180865761Y-34311467D01*
X181179803Y-34249000D01*
X181820197Y-34249000D01*
X182134239Y-34311467D01*
X182134239Y-34311467D01*
G37*
G36*
X201051000Y-39051000D02*
X198949000Y-39051000D01*
X198949000Y-36949000D01*
X201051000Y-36949000D01*
X201051000Y-39051000D01*
X201051000Y-39051000D01*
G37*
G36*
X161051000Y-39051000D02*
X158949000Y-39051000D01*
X158949000Y-36949000D01*
X161051000Y-36949000D01*
X161051000Y-39051000D01*
X161051000Y-39051000D01*
G37*
G36*
X191051000Y-39051000D02*
X188949000Y-39051000D01*
X188949000Y-36949000D01*
X191051000Y-36949000D01*
X191051000Y-39051000D01*
X191051000Y-39051000D01*
G37*
G36*
X146051000Y-38051000D02*
X143949000Y-38051000D01*
X143949000Y-35949000D01*
X146051000Y-35949000D01*
X146051000Y-38051000D01*
X146051000Y-38051000D01*
G37*
G36*
X161051000Y-36051000D02*
X158949000Y-36051000D01*
X158949000Y-33949000D01*
X161051000Y-33949000D01*
X161051000Y-36051000D01*
X161051000Y-36051000D01*
G37*
G36*
X191051000Y-36051000D02*
X188949000Y-36051000D01*
X188949000Y-33949000D01*
X191051000Y-33949000D01*
X191051000Y-36051000D01*
X191051000Y-36051000D01*
G37*
G36*
X201051000Y-36051000D02*
X198949000Y-36051000D01*
X198949000Y-33949000D01*
X201051000Y-33949000D01*
X201051000Y-36051000D01*
X201051000Y-36051000D01*
G37*
G36*
X146051000Y-35051000D02*
X143949000Y-35051000D01*
X143949000Y-32949000D01*
X146051000Y-32949000D01*
X146051000Y-35051000D01*
X146051000Y-35051000D01*
G37*
G36*
X191051000Y-33051000D02*
X188949000Y-33051000D01*
X188949000Y-30949000D01*
X191051000Y-30949000D01*
X191051000Y-33051000D01*
X191051000Y-33051000D01*
G37*
G36*
X161051000Y-33051000D02*
X158949000Y-33051000D01*
X158949000Y-30949000D01*
X161051000Y-30949000D01*
X161051000Y-33051000D01*
X161051000Y-33051000D01*
G37*
G36*
X201051000Y-33051000D02*
X198949000Y-33051000D01*
X198949000Y-30949000D01*
X201051000Y-30949000D01*
X201051000Y-33051000D01*
X201051000Y-33051000D01*
G37*
G36*
X146051000Y-31051000D02*
X143949000Y-31051000D01*
X143949000Y-28949000D01*
X146051000Y-28949000D01*
X146051000Y-31051000D01*
X146051000Y-31051000D01*
G37*
G36*
X191051000Y-30051000D02*
X188949000Y-30051000D01*
X188949000Y-27949000D01*
X191051000Y-27949000D01*
X191051000Y-30051000D01*
X191051000Y-30051000D01*
G37*
G36*
X201051000Y-30051000D02*
X198949000Y-30051000D01*
X198949000Y-27949000D01*
X201051000Y-27949000D01*
X201051000Y-30051000D01*
X201051000Y-30051000D01*
G37*
G36*
X161051000Y-30051000D02*
X158949000Y-30051000D01*
X158949000Y-27949000D01*
X161051000Y-27949000D01*
X161051000Y-30051000D01*
X161051000Y-30051000D01*
G37*
G36*
X117701324Y-23214587D02*
X118015367Y-23277054D01*
X118607011Y-23522121D01*
X118896608Y-23715624D01*
X119139480Y-23877906D01*
X119592299Y-24330725D01*
X119592301Y-24330728D01*
X119948084Y-24863194D01*
X120193151Y-25454838D01*
X120193151Y-25454839D01*
X120318085Y-26082923D01*
X120318085Y-26723317D01*
X120255618Y-27037359D01*
X120193151Y-27351402D01*
X119948084Y-27943046D01*
X119700350Y-28313805D01*
X119592299Y-28475515D01*
X119139480Y-28928334D01*
X119139477Y-28928336D01*
X118607011Y-29284119D01*
X118015367Y-29529186D01*
X117701324Y-29591653D01*
X117387282Y-29654120D01*
X116746888Y-29654120D01*
X116432846Y-29591653D01*
X116118803Y-29529186D01*
X115527159Y-29284119D01*
X114994693Y-28928336D01*
X114994690Y-28928334D01*
X114541871Y-28475515D01*
X114433820Y-28313805D01*
X114186086Y-27943046D01*
X113941019Y-27351402D01*
X113878552Y-27037359D01*
X113816085Y-26723317D01*
X113816085Y-26082923D01*
X113941019Y-25454839D01*
X113941019Y-25454838D01*
X114186086Y-24863194D01*
X114541869Y-24330728D01*
X114541871Y-24330725D01*
X114994690Y-23877906D01*
X115237562Y-23715624D01*
X115527159Y-23522121D01*
X116118803Y-23277054D01*
X116432846Y-23214587D01*
X116746888Y-23152120D01*
X117387282Y-23152120D01*
X117701324Y-23214587D01*
X117701324Y-23214587D01*
G37*
G36*
X146051000Y-28051000D02*
X143949000Y-28051000D01*
X143949000Y-25949000D01*
X146051000Y-25949000D01*
X146051000Y-28051000D01*
X146051000Y-28051000D01*
G37*
G36*
X191051000Y-27051000D02*
X188949000Y-27051000D01*
X188949000Y-24949000D01*
X191051000Y-24949000D01*
X191051000Y-27051000D01*
X191051000Y-27051000D01*
G37*
G36*
X161051000Y-27051000D02*
X158949000Y-27051000D01*
X158949000Y-24949000D01*
X161051000Y-24949000D01*
X161051000Y-27051000D01*
X161051000Y-27051000D01*
G37*
G36*
X201051000Y-27051000D02*
X198949000Y-27051000D01*
X198949000Y-24949000D01*
X201051000Y-24949000D01*
X201051000Y-27051000D01*
X201051000Y-27051000D01*
G37*
G36*
X182134239Y-18811467D02*
X182448282Y-18873934D01*
X183039926Y-19119001D01*
X183329523Y-19312504D01*
X183572395Y-19474786D01*
X184025214Y-19927605D01*
X184025216Y-19927608D01*
X184380999Y-20460074D01*
X184626066Y-21051718D01*
X184626066Y-21051719D01*
X184751000Y-21679803D01*
X184751000Y-22320197D01*
X184704802Y-22552451D01*
X184626066Y-22948282D01*
X184380999Y-23539926D01*
X184133265Y-23910685D01*
X184025214Y-24072395D01*
X183572395Y-24525214D01*
X183572392Y-24525216D01*
X183039926Y-24880999D01*
X182448282Y-25126066D01*
X182379578Y-25139732D01*
X181820197Y-25251000D01*
X181179803Y-25251000D01*
X180620422Y-25139732D01*
X180551718Y-25126066D01*
X179960074Y-24880999D01*
X179427608Y-24525216D01*
X179427605Y-24525214D01*
X178974786Y-24072395D01*
X178866735Y-23910685D01*
X178619001Y-23539926D01*
X178373934Y-22948282D01*
X178295198Y-22552451D01*
X178249000Y-22320197D01*
X178249000Y-21679803D01*
X178373934Y-21051719D01*
X178373934Y-21051718D01*
X178619001Y-20460074D01*
X178974784Y-19927608D01*
X178974786Y-19927605D01*
X179427605Y-19474786D01*
X179670477Y-19312504D01*
X179960074Y-19119001D01*
X180551718Y-18873934D01*
X180865761Y-18811467D01*
X181179803Y-18749000D01*
X181820197Y-18749000D01*
X182134239Y-18811467D01*
X182134239Y-18811467D01*
G37*
G36*
X191051000Y-24051000D02*
X188949000Y-24051000D01*
X188949000Y-21949000D01*
X191051000Y-21949000D01*
X191051000Y-24051000D01*
X191051000Y-24051000D01*
G37*
G36*
X161051000Y-24051000D02*
X158949000Y-24051000D01*
X158949000Y-21949000D01*
X161051000Y-21949000D01*
X161051000Y-24051000D01*
X161051000Y-24051000D01*
G37*
G36*
X201051000Y-24051000D02*
X198949000Y-24051000D01*
X198949000Y-21949000D01*
X201051000Y-21949000D01*
X201051000Y-24051000D01*
X201051000Y-24051000D01*
G37*
G36*
X146051000Y-24051000D02*
X143949000Y-24051000D01*
X143949000Y-21949000D01*
X146051000Y-21949000D01*
X146051000Y-24051000D01*
X146051000Y-24051000D01*
G37*
G36*
X78856142Y-19887496D02*
X78981579Y-19912447D01*
X79282042Y-20036903D01*
X79360482Y-20089315D01*
X79552454Y-20217587D01*
X79782413Y-20447546D01*
X79782415Y-20447549D01*
X79919866Y-20653258D01*
X79963098Y-20717960D01*
X80087553Y-21018422D01*
X80151000Y-21337389D01*
X80151000Y-21662611D01*
X80126382Y-21786371D01*
X80087553Y-21981579D01*
X79963097Y-22282042D01*
X79784820Y-22548852D01*
X79782413Y-22552454D01*
X79552454Y-22782413D01*
X79552451Y-22782415D01*
X79282042Y-22963097D01*
X78981579Y-23087553D01*
X78875256Y-23108702D01*
X78662611Y-23151000D01*
X78337389Y-23151000D01*
X78124744Y-23108702D01*
X78018421Y-23087553D01*
X77717958Y-22963097D01*
X77447549Y-22782415D01*
X77447546Y-22782413D01*
X77217587Y-22552454D01*
X77215180Y-22548852D01*
X77036903Y-22282042D01*
X76912447Y-21981579D01*
X76873618Y-21786371D01*
X76849000Y-21662611D01*
X76849000Y-21337389D01*
X76912447Y-21018422D01*
X77036902Y-20717960D01*
X77080135Y-20653258D01*
X77217585Y-20447549D01*
X77217587Y-20447546D01*
X77447546Y-20217587D01*
X77639518Y-20089315D01*
X77717958Y-20036903D01*
X78018421Y-19912447D01*
X78143858Y-19887496D01*
X78337389Y-19849000D01*
X78662611Y-19849000D01*
X78856142Y-19887496D01*
X78856142Y-19887496D01*
G37*
G36*
X161051000Y-21051000D02*
X158949000Y-21051000D01*
X158949000Y-18949000D01*
X161051000Y-18949000D01*
X161051000Y-21051000D01*
X161051000Y-21051000D01*
G37*
G36*
X191051000Y-21051000D02*
X188949000Y-21051000D01*
X188949000Y-18949000D01*
X191051000Y-18949000D01*
X191051000Y-21051000D01*
X191051000Y-21051000D01*
G37*
G36*
X201051000Y-21051000D02*
X198949000Y-21051000D01*
X198949000Y-18949000D01*
X201051000Y-18949000D01*
X201051000Y-21051000D01*
X201051000Y-21051000D01*
G37*
G36*
X146051000Y-21051000D02*
X143949000Y-21051000D01*
X143949000Y-18949000D01*
X146051000Y-18949000D01*
X146051000Y-21051000D01*
X146051000Y-21051000D01*
G37*
M02*
