M48
;DRILL file {KiCad 5.0.2+dfsg1-1} date Tue 19 Feb 2019 08:26:21 NZDT
;FORMAT={-:-/ absolute / metric / decimal}
FMAT,2
METRIC,TZ
T1C3.200
%
G90
G05
T1
X198.5Y-53.
X143.5Y-125.5
X78.5Y-21.5
X78.5Y-125.5
T0
M30
