EESchema Schematic File Version 4
LIBS:8bit-computer-cache
EELAYER 26 0
EELAYER END
$Descr USLetter 11000 8500
encoding utf-8
Sheet 3 13
Title ""
Date ""
Rev ""
Comp ""
Comment1 ""
Comment2 ""
Comment3 ""
Comment4 ""
$EndDescr
$Comp
L 8bit-computer-rescue:74LS173-8bit-computer-rescue U8
U 1 1 5B53469D
P 5250 2700
F 0 "U8" H 5350 2800 50  0000 C CNN
F 1 "74LS173" H 5350 2650 50  0000 C CNN
F 2 "Package_SO:SOIC-16_3.9x9.9mm_P1.27mm" H 5250 2700 50  0001 C CNN
F 3 "" H 5250 2700 50  0001 C CNN
	1    5250 2700
	0    1    1    0   
$EndComp
$Comp
L 8bit-computer-rescue:74LS173-8bit-computer-rescue U9
U 1 1 5B61AC18
P 6850 2700
F 0 "U9" H 6950 2800 50  0000 C CNN
F 1 "74LS173" H 6950 2650 50  0000 C CNN
F 2 "Package_SO:SOIC-16_3.9x9.9mm_P1.27mm" H 6850 2700 50  0001 C CNN
F 3 "" H 6850 2700 50  0001 C CNN
	1    6850 2700
	0    1    1    0   
$EndComp
$Comp
L 8bit-computer-rescue:74LS245-8bit-computer-rescue U7
U 1 1 5B61AC1A
P 3600 2700
F 0 "U7" H 3700 3275 50  0000 L BNN
F 1 "74LS245" H 3650 2125 50  0000 L TNN
F 2 "Package_SO:SOIC-20W_7.5x12.8mm_P1.27mm" H 3600 2700 50  0001 C CNN
F 3 "" H 3600 2700 50  0001 C CNN
	1    3600 2700
	0    -1   -1   0   
$EndComp
Text HLabel 1500 700  0    60   BiDi ~ 0
BUS_0
Text HLabel 1500 800  0    60   BiDi ~ 0
BUS_1
Text HLabel 1500 900  0    60   BiDi ~ 0
BUS_2
Text HLabel 1500 1000 0    60   BiDi ~ 0
BUS_3
Text HLabel 1500 1100 0    60   BiDi ~ 0
BUS_4
Text HLabel 1500 1200 0    60   BiDi ~ 0
BUS_5
Text HLabel 1500 1300 0    60   BiDi ~ 0
BUS_6
Text HLabel 1500 1400 0    60   BiDi ~ 0
BUS_7
$Comp
L Device:LED_ALT D10
U 1 1 5B61AC1D
P 3900 5600
F 0 "D10" H 3900 5700 50  0000 C CNN
F 1 "RED" H 3900 5500 50  0000 C CNN
F 2 "8bit-smd-custom:LED_0603_1608Metric_SMLTXT" H 3900 5600 50  0001 C CNN
F 3 "" H 3900 5600 50  0001 C CNN
	1    3900 5600
	0    -1   -1   0   
$EndComp
$Comp
L Device:LED_ALT D11
U 1 1 5B61AC1F
P 4200 5600
F 0 "D11" H 4200 5700 50  0000 C CNN
F 1 "RED" H 4200 5500 50  0000 C CNN
F 2 "8bit-smd-custom:LED_0603_1608Metric_SMLTXT" H 4200 5600 50  0001 C CNN
F 3 "" H 4200 5600 50  0001 C CNN
	1    4200 5600
	0    -1   -1   0   
$EndComp
$Comp
L Device:LED_ALT D12
U 1 1 5B53538E
P 4500 5600
F 0 "D12" H 4500 5700 50  0000 C CNN
F 1 "RED" H 4500 5500 50  0000 C CNN
F 2 "8bit-smd-custom:LED_0603_1608Metric_SMLTXT" H 4500 5600 50  0001 C CNN
F 3 "" H 4500 5600 50  0001 C CNN
	1    4500 5600
	0    -1   -1   0   
$EndComp
$Comp
L Device:LED_ALT D13
U 1 1 5B61AC22
P 4800 5600
F 0 "D13" H 4800 5700 50  0000 C CNN
F 1 "RED" H 4800 5500 50  0000 C CNN
F 2 "8bit-smd-custom:LED_0603_1608Metric_SMLTXT" H 4800 5600 50  0001 C CNN
F 3 "" H 4800 5600 50  0001 C CNN
	1    4800 5600
	0    -1   -1   0   
$EndComp
$Comp
L Device:LED_ALT D14
U 1 1 5B61AC25
P 5100 5600
F 0 "D14" H 5100 5700 50  0000 C CNN
F 1 "RED" H 5100 5500 50  0000 C CNN
F 2 "8bit-smd-custom:LED_0603_1608Metric_SMLTXT" H 5100 5600 50  0001 C CNN
F 3 "" H 5100 5600 50  0001 C CNN
	1    5100 5600
	0    -1   -1   0   
$EndComp
$Comp
L Device:LED_ALT D15
U 1 1 5B61AC27
P 5400 5600
F 0 "D15" H 5400 5700 50  0000 C CNN
F 1 "RED" H 5400 5500 50  0000 C CNN
F 2 "8bit-smd-custom:LED_0603_1608Metric_SMLTXT" H 5400 5600 50  0001 C CNN
F 3 "" H 5400 5600 50  0001 C CNN
	1    5400 5600
	0    -1   -1   0   
$EndComp
$Comp
L Device:LED_ALT D16
U 1 1 5B535434
P 5700 5600
F 0 "D16" H 5700 5700 50  0000 C CNN
F 1 "RED" H 5700 5500 50  0000 C CNN
F 2 "8bit-smd-custom:LED_0603_1608Metric_SMLTXT" H 5700 5600 50  0001 C CNN
F 3 "" H 5700 5600 50  0001 C CNN
	1    5700 5600
	0    -1   -1   0   
$EndComp
$Comp
L Device:LED_ALT D17
U 1 1 5B535463
P 6000 5600
F 0 "D17" H 6000 5700 50  0000 C CNN
F 1 "RED" H 6000 5500 50  0000 C CNN
F 2 "8bit-smd-custom:LED_0603_1608Metric_SMLTXT" H 6000 5600 50  0001 C CNN
F 3 "" H 6000 5600 50  0001 C CNN
	1    6000 5600
	0    -1   -1   0   
$EndComp
$Comp
L Device:R R24
U 1 1 5B61AC2D
P 3900 6050
F 0 "R24" V 3980 6050 50  0000 C CNN
F 1 "220" V 3900 6050 50  0000 C CNN
F 2 "8bit-smd-custom:R_0603_1608Metric_Pad1.05x0.95mm_HandSolder" V 3830 6050 50  0001 C CNN
F 3 "" H 3900 6050 50  0001 C CNN
	1    3900 6050
	1    0    0    -1  
$EndComp
$Comp
L Device:R R25
U 1 1 5B61AC2F
P 4200 6050
F 0 "R25" V 4280 6050 50  0000 C CNN
F 1 "220" V 4200 6050 50  0000 C CNN
F 2 "8bit-smd-custom:R_0603_1608Metric_Pad1.05x0.95mm_HandSolder" V 4130 6050 50  0001 C CNN
F 3 "" H 4200 6050 50  0001 C CNN
	1    4200 6050
	1    0    0    -1  
$EndComp
$Comp
L Device:R R26
U 1 1 5B535B5B
P 4500 6050
F 0 "R26" V 4580 6050 50  0000 C CNN
F 1 "220" V 4500 6050 50  0000 C CNN
F 2 "8bit-smd-custom:R_0603_1608Metric_Pad1.05x0.95mm_HandSolder" V 4430 6050 50  0001 C CNN
F 3 "" H 4500 6050 50  0001 C CNN
	1    4500 6050
	1    0    0    -1  
$EndComp
$Comp
L Device:R R27
U 1 1 5B535B97
P 4800 6050
F 0 "R27" V 4880 6050 50  0000 C CNN
F 1 "220" V 4800 6050 50  0000 C CNN
F 2 "8bit-smd-custom:R_0603_1608Metric_Pad1.05x0.95mm_HandSolder" V 4730 6050 50  0001 C CNN
F 3 "" H 4800 6050 50  0001 C CNN
	1    4800 6050
	1    0    0    -1  
$EndComp
$Comp
L Device:R R28
U 1 1 5B61AC35
P 5100 6050
F 0 "R28" V 5180 6050 50  0000 C CNN
F 1 "220" V 5100 6050 50  0000 C CNN
F 2 "8bit-smd-custom:R_0603_1608Metric_Pad1.05x0.95mm_HandSolder" V 5030 6050 50  0001 C CNN
F 3 "" H 5100 6050 50  0001 C CNN
	1    5100 6050
	1    0    0    -1  
$EndComp
$Comp
L Device:R R29
U 1 1 5B535C1A
P 5400 6050
F 0 "R29" V 5480 6050 50  0000 C CNN
F 1 "220" V 5400 6050 50  0000 C CNN
F 2 "8bit-smd-custom:R_0603_1608Metric_Pad1.05x0.95mm_HandSolder" V 5330 6050 50  0001 C CNN
F 3 "" H 5400 6050 50  0001 C CNN
	1    5400 6050
	1    0    0    -1  
$EndComp
$Comp
L Device:R R30
U 1 1 5B61AC39
P 5700 6050
F 0 "R30" V 5780 6050 50  0000 C CNN
F 1 "220" V 5700 6050 50  0000 C CNN
F 2 "8bit-smd-custom:R_0603_1608Metric_Pad1.05x0.95mm_HandSolder" V 5630 6050 50  0001 C CNN
F 3 "" H 5700 6050 50  0001 C CNN
	1    5700 6050
	1    0    0    -1  
$EndComp
$Comp
L Device:R R31
U 1 1 5B535CA5
P 6000 6050
F 0 "R31" V 6080 6050 50  0000 C CNN
F 1 "220" V 6000 6050 50  0000 C CNN
F 2 "8bit-smd-custom:R_0603_1608Metric_Pad1.05x0.95mm_HandSolder" V 5930 6050 50  0001 C CNN
F 3 "" H 6000 6050 50  0001 C CNN
	1    6000 6050
	1    0    0    -1  
$EndComp
$Comp
L power:GND #PWR014
U 1 1 5B61AC3D
P 4950 6550
F 0 "#PWR014" H 4950 6300 50  0001 C CNN
F 1 "GND" H 4950 6400 50  0000 C CNN
F 2 "" H 4950 6550 50  0001 C CNN
F 3 "" H 4950 6550 50  0001 C CNN
	1    4950 6550
	1    0    0    -1  
$EndComp
Text HLabel 6500 4650 2    60   Output ~ 0
A_0
Text HLabel 6500 4750 2    60   Output ~ 0
A_1
Text HLabel 6500 4850 2    60   Output ~ 0
A_2
Text HLabel 6500 4950 2    60   Output ~ 0
A_3
Text HLabel 6500 5050 2    60   Output ~ 0
A_4
Text HLabel 6500 5150 2    60   Output ~ 0
A_5
Text HLabel 6500 5250 2    60   Output ~ 0
A_6
Text HLabel 6500 5350 2    60   Output ~ 0
A_7
Wire Wire Line
	1500 1400 3100 1400
Wire Wire Line
	3100 1400 3100 2000
Wire Wire Line
	1500 1300 3200 1300
Wire Wire Line
	3200 1300 3200 2000
Wire Wire Line
	1500 1200 3300 1200
Wire Wire Line
	3300 1200 3300 2000
Wire Wire Line
	3400 2000 3400 1100
Wire Wire Line
	1500 1100 3400 1100
Wire Wire Line
	1500 1000 3500 1000
Wire Wire Line
	3500 1000 3500 2000
Wire Wire Line
	1500 900  3600 900 
Wire Wire Line
	3600 900  3600 2000
Wire Wire Line
	1500 800  3700 800 
Wire Wire Line
	3700 800  3700 2000
Wire Wire Line
	1500 700  3800 700 
Wire Wire Line
	3800 700  3800 2000
Wire Wire Line
	3800 3400 3800 4200
Wire Wire Line
	3700 3400 3700 4300
Wire Wire Line
	3600 3400 3600 4400
Wire Wire Line
	3500 3400 3500 4500
Wire Wire Line
	3400 3400 3400 3800
Wire Wire Line
	3300 3400 3300 3900
Wire Wire Line
	3200 3400 3200 4000
Wire Wire Line
	3200 4000 4200 4000
Wire Wire Line
	3100 3400 3100 4100
Wire Wire Line
	3100 4100 3900 4100
Connection ~ 3100 1400
Connection ~ 3200 1300
Connection ~ 3300 1200
Connection ~ 3400 1100
Connection ~ 3500 1000
Connection ~ 3600 900 
Connection ~ 3700 800 
Connection ~ 3800 700 
Wire Wire Line
	5800 4100 5800 3400
Wire Wire Line
	5700 4000 5700 3400
Wire Wire Line
	3300 3900 4500 3900
Wire Wire Line
	5600 3900 5600 3400
Wire Wire Line
	3400 3800 4800 3800
Wire Wire Line
	5500 3800 5500 3400
Wire Wire Line
	3500 4500 5100 4500
Wire Wire Line
	7400 4500 7400 3400
Wire Wire Line
	3600 4400 5400 4400
Wire Wire Line
	7300 4400 7300 3400
Wire Wire Line
	3700 4300 5700 4300
Wire Wire Line
	7200 4300 7200 3400
Wire Wire Line
	3800 4200 6000 4200
Wire Wire Line
	7100 4200 7100 3400
Wire Wire Line
	5800 1400 5800 2000
Wire Wire Line
	5700 1300 5700 2000
Wire Wire Line
	5600 1200 5600 2000
Wire Wire Line
	5500 1100 5500 2000
Wire Wire Line
	7400 1000 7400 2000
Wire Wire Line
	7300 900  7300 2000
Wire Wire Line
	7200 800  7200 2000
Wire Wire Line
	7100 700  7100 2000
Wire Wire Line
	6000 4200 6000 4650
Connection ~ 6000 4200
Wire Wire Line
	5700 4300 5700 4750
Connection ~ 5700 4300
Wire Wire Line
	5400 4400 5400 4850
Connection ~ 5400 4400
Wire Wire Line
	5100 4500 5100 4950
Connection ~ 5100 4500
Wire Wire Line
	4800 3800 4800 5050
Connection ~ 4800 3800
Wire Wire Line
	4500 3900 4500 5150
Connection ~ 4500 3900
Wire Wire Line
	4200 4000 4200 5250
Connection ~ 4200 4000
Wire Wire Line
	3900 4100 3900 5350
Connection ~ 3900 4100
Wire Wire Line
	3900 5750 3900 5900
Wire Wire Line
	4200 5750 4200 5900
Wire Wire Line
	4500 5750 4500 5900
Wire Wire Line
	4800 5750 4800 5900
Wire Wire Line
	5100 5750 5100 5900
Wire Wire Line
	5400 5750 5400 5900
Wire Wire Line
	5700 5750 5700 5900
Wire Wire Line
	6000 5750 6000 5900
Wire Wire Line
	3900 6200 3900 6350
Wire Wire Line
	3900 6350 4200 6350
Wire Wire Line
	6000 6350 6000 6200
Wire Wire Line
	5700 6200 5700 6350
Connection ~ 5700 6350
Wire Wire Line
	5400 6200 5400 6350
Connection ~ 5400 6350
Wire Wire Line
	5100 6200 5100 6350
Connection ~ 5100 6350
Wire Wire Line
	4800 6200 4800 6350
Connection ~ 4800 6350
Wire Wire Line
	4500 6200 4500 6350
Connection ~ 4500 6350
Wire Wire Line
	4200 6200 4200 6350
Connection ~ 4200 6350
Wire Wire Line
	4950 6550 4950 6350
Connection ~ 4950 6350
Wire Wire Line
	6500 4650 6000 4650
Connection ~ 6000 4650
Wire Wire Line
	6500 4750 5700 4750
Connection ~ 5700 4750
Connection ~ 5400 4850
Connection ~ 5100 4950
Connection ~ 4800 5050
Connection ~ 4500 5150
Wire Wire Line
	6500 5350 3900 5350
Connection ~ 3900 5350
Text HLabel 1500 1600 0    60   Input ~ 0
CLK
Wire Wire Line
	1500 1600 4900 1600
Wire Wire Line
	4900 1600 4900 2000
Wire Wire Line
	6500 1600 6500 2000
Connection ~ 4900 1600
$Comp
L power:VCC #PWR015
U 1 1 5B537572
P 4300 3050
F 0 "#PWR015" H 4300 2900 50  0001 C CNN
F 1 "VCC" H 4300 3200 50  0000 C CNN
F 2 "" H 4300 3050 50  0001 C CNN
F 3 "" H 4300 3050 50  0001 C CNN
	1    4300 3050
	1    0    0    -1  
$EndComp
Wire Wire Line
	4000 3400 4000 3500
Wire Wire Line
	4000 3500 4300 3500
Wire Wire Line
	4300 3500 4300 3050
Wire Wire Line
	4100 3400 4100 3700
Wire Wire Line
	4100 3700 8200 3700
Text HLabel 8200 3700 2    60   Input ~ 0
~AO
Wire Wire Line
	5250 2000 5250 1900
Wire Wire Line
	5250 1900 5350 1900
Wire Wire Line
	5350 1900 5350 2000
Wire Wire Line
	6850 1900 6850 2000
Connection ~ 5350 1900
Wire Wire Line
	6950 1900 6950 2000
Connection ~ 6850 1900
Wire Wire Line
	7700 1900 7700 2200
Connection ~ 6950 1900
$Comp
L power:GND #PWR016
U 1 1 5B61AC40
P 7700 2200
F 0 "#PWR016" H 7700 1950 50  0001 C CNN
F 1 "GND" H 7700 2050 50  0000 C CNN
F 2 "" H 7700 2200 50  0001 C CNN
F 3 "" H 7700 2200 50  0001 C CNN
	1    7700 2200
	1    0    0    -1  
$EndComp
Wire Wire Line
	5000 2000 5000 1800
Wire Wire Line
	5000 1800 5100 1800
Wire Wire Line
	5100 1800 5100 2000
Wire Wire Line
	6600 1800 6600 2000
Connection ~ 5100 1800
Wire Wire Line
	6700 1800 6700 2000
Connection ~ 6600 1800
Connection ~ 6700 1800
Text HLabel 8200 1800 2    60   Input ~ 0
~AI
Wire Wire Line
	4700 2000 4700 1700
Wire Wire Line
	4700 1700 6300 1700
Wire Wire Line
	6300 1700 6300 2000
Wire Wire Line
	7700 1700 7700 1500
Wire Wire Line
	7700 1500 8200 1500
Connection ~ 6300 1700
Text HLabel 8200 1500 2    60   Input ~ 0
CLR
$Comp
L Device:C C11
U 1 1 5B632B84
P 9100 2650
F 0 "C11" H 9125 2750 50  0000 L CNN
F 1 "0.1µF" H 9125 2550 50  0000 L CNN
F 2 "Capacitor_SMD:C_0603_1608Metric" H 9138 2500 50  0001 C CNN
F 3 "" H 9100 2650 50  0001 C CNN
	1    9100 2650
	1    0    0    -1  
$EndComp
$Comp
L power:GND #PWR017
U 1 1 5B632BEC
P 9100 2900
F 0 "#PWR017" H 9100 2650 50  0001 C CNN
F 1 "GND" H 9100 2750 50  0000 C CNN
F 2 "" H 9100 2900 50  0001 C CNN
F 3 "" H 9100 2900 50  0001 C CNN
	1    9100 2900
	1    0    0    -1  
$EndComp
$Comp
L power:VCC #PWR018
U 1 1 5B632C28
P 9100 2400
F 0 "#PWR018" H 9100 2250 50  0001 C CNN
F 1 "VCC" H 9100 2550 50  0000 C CNN
F 2 "" H 9100 2400 50  0001 C CNN
F 3 "" H 9100 2400 50  0001 C CNN
	1    9100 2400
	1    0    0    -1  
$EndComp
Wire Wire Line
	9100 2400 9100 2500
Wire Wire Line
	9100 2800 9100 2900
Wire Wire Line
	6500 4850 5400 4850
Wire Wire Line
	5100 4950 6500 4950
Wire Wire Line
	4800 5050 6500 5050
Wire Wire Line
	4500 5150 6500 5150
Wire Wire Line
	6500 5250 4200 5250
Connection ~ 4200 5250
Wire Wire Line
	3100 1400 5800 1400
Wire Wire Line
	3200 1300 5700 1300
Wire Wire Line
	3300 1200 5600 1200
Wire Wire Line
	3400 1100 5500 1100
Wire Wire Line
	3500 1000 7400 1000
Wire Wire Line
	3600 900  7300 900 
Wire Wire Line
	3700 800  7200 800 
Wire Wire Line
	3800 700  7100 700 
Wire Wire Line
	6000 4200 7100 4200
Wire Wire Line
	5700 4300 7200 4300
Wire Wire Line
	5400 4400 7300 4400
Wire Wire Line
	5100 4500 7400 4500
Wire Wire Line
	4800 3800 5500 3800
Wire Wire Line
	4500 3900 5600 3900
Wire Wire Line
	4200 4000 5700 4000
Wire Wire Line
	3900 4100 5800 4100
Wire Wire Line
	5700 6350 6000 6350
Wire Wire Line
	5400 6350 5700 6350
Wire Wire Line
	5100 6350 5400 6350
Wire Wire Line
	4800 6350 4950 6350
Wire Wire Line
	4500 6350 4800 6350
Wire Wire Line
	4200 6350 4500 6350
Wire Wire Line
	4950 6350 5100 6350
Wire Wire Line
	6000 4650 6000 5450
Wire Wire Line
	5700 4750 5700 5450
Wire Wire Line
	5400 4850 5400 5450
Wire Wire Line
	5100 4950 5100 5450
Wire Wire Line
	4800 5050 4800 5450
Wire Wire Line
	4500 5150 4500 5450
Wire Wire Line
	3900 5350 3900 5450
Wire Wire Line
	4900 1600 6500 1600
Wire Wire Line
	5350 1900 6850 1900
Wire Wire Line
	6850 1900 6950 1900
Wire Wire Line
	6950 1900 7700 1900
Wire Wire Line
	5100 1800 6600 1800
Wire Wire Line
	6600 1800 6700 1800
Wire Wire Line
	6700 1800 8200 1800
Wire Wire Line
	6300 1700 7700 1700
Wire Wire Line
	4200 5250 4200 5450
$EndSCHEMATC
