EESchema Schematic File Version 4
LIBS:8bit-computer-cache
EELAYER 26 0
EELAYER END
$Descr USLetter 11000 8500
encoding utf-8
Sheet 6 13
Title ""
Date ""
Rev ""
Comp ""
Comment1 ""
Comment2 ""
Comment3 ""
Comment4 ""
$EndDescr
$Comp
L 8bit-computer-rescue:74LS245-8bit-computer-rescue U17
U 1 1 5B5453F7
P 4650 2300
F 0 "U17" H 4750 2875 50  0000 L BNN
F 1 "74LS245" H 4700 1725 50  0000 L TNN
F 2 "Package_SO:SOIC-20W_7.5x12.8mm_P1.27mm" H 4650 2300 50  0001 C CNN
F 3 "" H 4650 2300 50  0001 C CNN
	1    4650 2300
	0    -1   -1   0   
$EndComp
$Comp
L 8bit-computer-rescue:74LS283-8bit-computer-rescue U20
U 1 1 5B545450
P 6050 3700
F 0 "U20" H 6050 3700 50  0000 C CNN
F 1 "74LS283" H 6100 3350 50  0000 C CNN
F 2 "Package_SO:SOIC-16_3.9x9.9mm_P1.27mm" H 6050 3700 50  0001 C CNN
F 3 "" H 6050 3700 50  0001 C CNN
	1    6050 3700
	-1   0    0    1   
$EndComp
$Comp
L 8bit-computer-rescue:74LS283-8bit-computer-rescue U21
U 1 1 5B545474
P 6050 4900
F 0 "U21" H 6050 4900 50  0000 C CNN
F 1 "74LS283" H 6100 4550 50  0000 C CNN
F 2 "Package_SO:SOIC-16_3.9x9.9mm_P1.27mm" H 6050 4900 50  0001 C CNN
F 3 "" H 6050 4900 50  0001 C CNN
	1    6050 4900
	-1   0    0    1   
$EndComp
$Comp
L 8bit-computer-rescue:74LS86-8bit-computer-rescue U18
U 3 1 5B545492
P 8950 4250
F 0 "U18" H 9000 4300 50  0000 C CNN
F 1 "74LS86" H 9000 4200 50  0000 C CNN
F 2 "Package_SO:SOIC-14_3.9x8.7mm_P1.27mm" H 8950 4250 50  0001 C CNN
F 3 "" H 8950 4250 50  0001 C CNN
	3    8950 4250
	-1   0    0    1   
$EndComp
$Comp
L 8bit-computer-rescue:74LS86-8bit-computer-rescue U18
U 4 1 5B5454C3
P 8950 4750
F 0 "U18" H 9000 4800 50  0000 C CNN
F 1 "74LS86" H 9000 4700 50  0000 C CNN
F 2 "Package_SO:SOIC-14_3.9x8.7mm_P1.27mm" H 8950 4750 50  0001 C CNN
F 3 "" H 8950 4750 50  0001 C CNN
	4    8950 4750
	-1   0    0    1   
$EndComp
$Comp
L 8bit-computer-rescue:74LS86-8bit-computer-rescue U18
U 1 1 5B5454E3
P 8950 3250
F 0 "U18" H 9000 3300 50  0000 C CNN
F 1 "74LS86" H 9000 3200 50  0000 C CNN
F 2 "Package_SO:SOIC-14_3.9x8.7mm_P1.27mm" H 8950 3250 50  0001 C CNN
F 3 "" H 8950 3250 50  0001 C CNN
	1    8950 3250
	-1   0    0    1   
$EndComp
$Comp
L 8bit-computer-rescue:74LS86-8bit-computer-rescue U18
U 2 1 5B545505
P 8950 3750
F 0 "U18" H 9000 3800 50  0000 C CNN
F 1 "74LS86" H 9000 3700 50  0000 C CNN
F 2 "Package_SO:SOIC-14_3.9x8.7mm_P1.27mm" H 8950 3750 50  0001 C CNN
F 3 "" H 8950 3750 50  0001 C CNN
	2    8950 3750
	-1   0    0    1   
$EndComp
$Comp
L 8bit-computer-rescue:74LS86-8bit-computer-rescue U16
U 3 1 5B545571
P 8950 2250
F 0 "U16" H 9000 2300 50  0000 C CNN
F 1 "74LS86" H 9000 2200 50  0000 C CNN
F 2 "Package_SO:SOIC-14_3.9x8.7mm_P1.27mm" H 8950 2250 50  0001 C CNN
F 3 "" H 8950 2250 50  0001 C CNN
	3    8950 2250
	-1   0    0    1   
$EndComp
$Comp
L 8bit-computer-rescue:74LS86-8bit-computer-rescue U16
U 4 1 5B545596
P 8950 2750
F 0 "U16" H 9000 2800 50  0000 C CNN
F 1 "74LS86" H 9000 2700 50  0000 C CNN
F 2 "Package_SO:SOIC-14_3.9x8.7mm_P1.27mm" H 8950 2750 50  0001 C CNN
F 3 "" H 8950 2750 50  0001 C CNN
	4    8950 2750
	-1   0    0    1   
$EndComp
$Comp
L 8bit-computer-rescue:74LS86-8bit-computer-rescue U16
U 1 1 5B5455CA
P 8950 1250
F 0 "U16" H 9000 1300 50  0000 C CNN
F 1 "74LS86" H 9000 1200 50  0000 C CNN
F 2 "Package_SO:SOIC-14_3.9x8.7mm_P1.27mm" H 8950 1250 50  0001 C CNN
F 3 "" H 8950 1250 50  0001 C CNN
	1    8950 1250
	-1   0    0    1   
$EndComp
$Comp
L 8bit-computer-rescue:74LS86-8bit-computer-rescue U16
U 2 1 5B5455F7
P 8950 1750
F 0 "U16" H 9000 1800 50  0000 C CNN
F 1 "74LS86" H 9000 1700 50  0000 C CNN
F 2 "Package_SO:SOIC-14_3.9x8.7mm_P1.27mm" H 8950 1750 50  0001 C CNN
F 3 "" H 8950 1750 50  0001 C CNN
	2    8950 1750
	-1   0    0    1   
$EndComp
Text HLabel 3850 900  0    60   3State ~ 0
BUS_1
Text HLabel 3850 800  0    60   3State ~ 0
BUS_0
Text HLabel 3850 1000 0    60   3State ~ 0
BUS_2
Text HLabel 3850 1100 0    60   3State ~ 0
BUS_3
Text HLabel 3850 1200 0    60   3State ~ 0
BUS_4
Text HLabel 3850 1300 0    60   3State ~ 0
BUS_5
Text HLabel 3850 1400 0    60   3State ~ 0
BUS_6
Text HLabel 3850 1500 0    60   3State ~ 0
BUS_7
$Comp
L power:VCC #PWR030
U 1 1 5B54591A
P 5350 2700
F 0 "#PWR030" H 5350 2550 50  0001 C CNN
F 1 "VCC" H 5350 2850 50  0000 C CNN
F 2 "" H 5350 2700 50  0001 C CNN
F 3 "" H 5350 2700 50  0001 C CNN
	1    5350 2700
	1    0    0    -1  
$EndComp
Text HLabel 10250 5800 2    60   Input ~ 0
A_0
Text HLabel 10250 5700 2    60   Input ~ 0
A_1
Text HLabel 10250 5600 2    60   Input ~ 0
A_2
Text HLabel 10250 5500 2    60   Input ~ 0
A_3
Text HLabel 10250 5400 2    60   Input ~ 0
A_4
Text HLabel 10250 5300 2    60   Input ~ 0
A_5
Text HLabel 10250 5200 2    60   Input ~ 0
A_6
Text HLabel 10250 5100 2    60   Input ~ 0
A_7
Text HLabel 10250 4200 2    60   Input ~ 0
B_0
Text HLabel 10250 4100 2    60   Input ~ 0
B_1
Text HLabel 10250 4000 2    60   Input ~ 0
B_2
Text HLabel 10250 3900 2    60   Input ~ 0
B_3
Text HLabel 10250 3800 2    60   Input ~ 0
B_4
Text HLabel 10250 3700 2    60   Input ~ 0
B_5
Text HLabel 10250 3600 2    60   Input ~ 0
B_6
Text HLabel 10250 3500 2    60   Input ~ 0
B_7
Wire Wire Line
	3850 800  4850 800 
Wire Wire Line
	4850 800  4850 1600
Wire Wire Line
	3850 900  4750 900 
Wire Wire Line
	4750 900  4750 1600
Wire Wire Line
	3850 1000 4650 1000
Wire Wire Line
	4650 1000 4650 1600
Wire Wire Line
	3850 1100 4550 1100
Wire Wire Line
	4550 1100 4550 1600
Wire Wire Line
	3850 1200 4450 1200
Wire Wire Line
	4450 1200 4450 1600
Wire Wire Line
	3850 1300 4350 1300
Wire Wire Line
	4350 1300 4350 1600
Wire Wire Line
	3850 1400 4250 1400
Wire Wire Line
	4250 1400 4250 1600
Wire Wire Line
	3850 1500 4150 1500
Wire Wire Line
	4150 1500 4150 1600
Wire Wire Line
	5050 3000 5050 3200
Wire Wire Line
	5050 3200 5350 3200
Wire Wire Line
	5350 3200 5350 2700
Wire Wire Line
	4850 3000 4850 4450
Wire Wire Line
	4850 5200 5350 5200
Wire Wire Line
	4750 3000 4750 4250
Wire Wire Line
	4750 5100 5350 5100
Wire Wire Line
	4650 3000 4650 4050
Wire Wire Line
	4650 5000 5350 5000
Wire Wire Line
	4550 3000 4550 3850
Wire Wire Line
	4550 4900 5350 4900
Wire Wire Line
	4450 3000 4450 3650
Wire Wire Line
	4450 4000 5350 4000
Wire Wire Line
	4350 3000 4350 3450
Wire Wire Line
	4350 3900 5350 3900
Wire Wire Line
	4250 3000 4250 3250
Wire Wire Line
	4250 3800 5350 3800
Wire Wire Line
	4150 3000 4150 3050
Wire Wire Line
	4150 3700 5350 3700
Wire Wire Line
	5350 4700 5250 4700
Wire Wire Line
	5250 4700 5250 4300
Wire Wire Line
	5250 4300 6850 4300
Wire Wire Line
	6850 4300 6850 4150
Wire Wire Line
	6850 4150 6750 4150
Wire Wire Line
	7250 5800 10250 5800
Wire Wire Line
	7350 5700 10250 5700
Wire Wire Line
	7450 5600 10250 5600
Wire Wire Line
	7550 5500 10250 5500
Wire Wire Line
	6750 4750 8350 4750
Wire Wire Line
	7950 2750 8350 2750
Wire Wire Line
	7850 2250 8350 2250
Wire Wire Line
	7750 1750 8350 1750
Wire Wire Line
	7650 1250 8350 1250
Wire Wire Line
	6750 4650 8250 4650
Wire Wire Line
	8250 4650 8250 4250
Wire Wire Line
	8250 4250 8350 4250
Wire Wire Line
	6750 4550 8150 4550
Wire Wire Line
	8150 4550 8150 3750
Wire Wire Line
	8150 3750 8350 3750
Wire Wire Line
	6750 4450 8050 4450
Wire Wire Line
	8050 4450 8050 3250
Wire Wire Line
	8050 3250 8350 3250
Wire Wire Line
	6750 3550 7950 3550
Wire Wire Line
	7950 3550 7950 2750
Wire Wire Line
	6750 3450 7850 3450
Wire Wire Line
	7850 3450 7850 2250
Wire Wire Line
	6750 3350 7750 3350
Wire Wire Line
	7750 3350 7750 1750
Wire Wire Line
	6750 3250 7650 3250
Wire Wire Line
	7650 3250 7650 1250
Wire Wire Line
	9600 4650 9550 4650
Wire Wire Line
	9600 1000 9600 1150
Wire Wire Line
	9600 4150 9550 4150
Wire Wire Line
	9600 3650 9550 3650
Connection ~ 9600 4150
Wire Wire Line
	9600 3150 9550 3150
Connection ~ 9600 3650
Wire Wire Line
	9600 2650 9550 2650
Connection ~ 9600 3150
Wire Wire Line
	9600 2150 9550 2150
Connection ~ 9600 2650
Wire Wire Line
	9600 1650 9550 1650
Connection ~ 9600 2150
Wire Wire Line
	9600 1150 9550 1150
Connection ~ 9600 1650
Wire Wire Line
	6750 3700 7950 3700
Wire Wire Line
	7950 3700 7950 5100
Wire Wire Line
	7950 5100 10250 5100
Wire Wire Line
	6750 3800 7850 3800
Wire Wire Line
	7850 3800 7850 5200
Wire Wire Line
	7850 5200 10250 5200
Wire Wire Line
	6750 3900 7750 3900
Wire Wire Line
	7750 3900 7750 5300
Wire Wire Line
	7750 5300 10250 5300
Wire Wire Line
	6750 4000 7650 4000
Wire Wire Line
	7650 4000 7650 5400
Wire Wire Line
	7650 5400 10250 5400
Wire Wire Line
	6750 4900 7550 4900
Wire Wire Line
	7550 4900 7550 5500
Wire Wire Line
	6750 5000 7450 5000
Wire Wire Line
	7450 5000 7450 5600
Wire Wire Line
	6750 5100 7350 5100
Wire Wire Line
	7350 5100 7350 5700
Wire Wire Line
	6750 5200 7250 5200
Wire Wire Line
	7250 5200 7250 5800
Wire Wire Line
	10250 4200 9800 4200
Wire Wire Line
	9800 4200 9800 4850
Wire Wire Line
	9800 4850 9550 4850
Wire Wire Line
	9550 4350 9700 4350
Wire Wire Line
	9700 4350 9700 4100
Wire Wire Line
	9700 4100 10250 4100
Wire Wire Line
	9550 3850 9700 3850
Wire Wire Line
	9700 3850 9700 4000
Wire Wire Line
	9700 4000 10250 4000
Wire Wire Line
	9550 1350 10200 1350
Wire Wire Line
	10200 1350 10200 3500
Wire Wire Line
	10200 3500 10250 3500
Wire Wire Line
	9550 1850 10100 1850
Wire Wire Line
	10100 1850 10100 3600
Wire Wire Line
	10100 3600 10250 3600
Wire Wire Line
	9550 2350 10000 2350
Wire Wire Line
	10000 2350 10000 3700
Wire Wire Line
	10000 3700 10250 3700
Wire Wire Line
	9550 2850 9900 2850
Wire Wire Line
	9900 2850 9900 3800
Wire Wire Line
	9900 3800 10250 3800
Wire Wire Line
	9550 3350 9800 3350
Wire Wire Line
	9800 3350 9800 3900
Wire Wire Line
	9800 3900 10250 3900
Wire Wire Line
	9600 5900 6850 5900
Wire Wire Line
	6850 5900 6850 5350
Wire Wire Line
	6850 5350 6750 5350
Connection ~ 9600 4650
Text HLabel 10250 1000 2    60   Input ~ 0
SU
Text HLabel 10250 900  2    60   Input ~ 0
~EO
Wire Wire Line
	10250 900  5550 900 
Wire Wire Line
	5550 900  5550 3100
Wire Wire Line
	5150 3000 5150 3100
Wire Wire Line
	5150 3100 5550 3100
Wire Wire Line
	9600 1000 10250 1000
Connection ~ 9600 1150
$Comp
L 8bit-computer-rescue:74LS02-8bit-computer-rescue U22
U 1 1 5B547C0C
P 3550 5600
F 0 "U22" H 3550 5650 50  0000 C CNN
F 1 "74LS02" H 3600 5550 50  0000 C CNN
F 2 "Package_SO:SOIC-14_3.9x8.7mm_P1.27mm" H 3550 5600 50  0001 C CNN
F 3 "" H 3550 5600 50  0001 C CNN
	1    3550 5600
	-1   0    0    -1  
$EndComp
$Comp
L 8bit-computer-rescue:74LS02-8bit-computer-rescue U22
U 2 1 5B547C39
P 3550 6100
F 0 "U22" H 3550 6150 50  0000 C CNN
F 1 "74LS02" H 3600 6050 50  0000 C CNN
F 2 "Package_SO:SOIC-14_3.9x8.7mm_P1.27mm" H 3550 6100 50  0001 C CNN
F 3 "" H 3550 6100 50  0001 C CNN
	2    3550 6100
	-1   0    0    -1  
$EndComp
$Comp
L 8bit-computer-rescue:74LS02-8bit-computer-rescue U22
U 3 1 5B547C68
P 3550 6600
F 0 "U22" H 3550 6650 50  0000 C CNN
F 1 "74LS02" H 3600 6550 50  0000 C CNN
F 2 "Package_SO:SOIC-14_3.9x8.7mm_P1.27mm" H 3550 6600 50  0001 C CNN
F 3 "" H 3550 6600 50  0001 C CNN
	3    3550 6600
	-1   0    0    -1  
$EndComp
$Comp
L 8bit-computer-rescue:74LS02-8bit-computer-rescue U22
U 4 1 5B547C99
P 3550 7100
F 0 "U22" H 3550 7150 50  0000 C CNN
F 1 "74LS02" H 3600 7050 50  0000 C CNN
F 2 "Package_SO:SOIC-14_3.9x8.7mm_P1.27mm" H 3550 7100 50  0001 C CNN
F 3 "" H 3550 7100 50  0001 C CNN
	4    3550 7100
	-1   0    0    -1  
$EndComp
$Comp
L 8bit-computer-rescue:74LS08-8bit-computer-rescue U23
U 1 1 5B54802E
P 2350 5850
F 0 "U23" H 2350 5900 50  0000 C CNN
F 1 "74LS08" H 2350 5800 50  0000 C CNN
F 2 "Package_SO:SOIC-14_3.9x8.7mm_P1.27mm" H 2350 5850 50  0001 C CNN
F 3 "" H 2350 5850 50  0001 C CNN
	1    2350 5850
	-1   0    0    -1  
$EndComp
$Comp
L 8bit-computer-rescue:74LS08-8bit-computer-rescue U23
U 4 1 5B54808E
P 1150 7400
F 0 "U23" H 1150 7450 50  0000 C CNN
F 1 "74LS08" H 1150 7350 50  0000 C CNN
F 2 "Package_SO:SOIC-14_3.9x8.7mm_P1.27mm" H 1150 7400 50  0001 C CNN
F 3 "" H 1150 7400 50  0001 C CNN
	4    1150 7400
	-1   0    0    -1  
$EndComp
$Comp
L 8bit-computer-rescue:74LS08-8bit-computer-rescue U23
U 2 1 5B5480CC
P 1150 6350
F 0 "U23" H 1150 6400 50  0000 C CNN
F 1 "74LS08" H 1150 6300 50  0000 C CNN
F 2 "Package_SO:SOIC-14_3.9x8.7mm_P1.27mm" H 1150 6350 50  0001 C CNN
F 3 "" H 1150 6350 50  0001 C CNN
	2    1150 6350
	-1   0    0    -1  
$EndComp
$Comp
L 8bit-computer-rescue:74LS08-8bit-computer-rescue U23
U 3 1 5B548105
P 2350 6850
F 0 "U23" H 2350 6900 50  0000 C CNN
F 1 "74LS08" H 2350 6800 50  0000 C CNN
F 2 "Package_SO:SOIC-14_3.9x8.7mm_P1.27mm" H 2350 6850 50  0001 C CNN
F 3 "" H 2350 6850 50  0001 C CNN
	3    2350 6850
	-1   0    0    -1  
$EndComp
Connection ~ 4150 3700
Wire Wire Line
	4250 5700 4150 5700
Connection ~ 4250 3800
Wire Wire Line
	4350 6000 4150 6000
Connection ~ 4350 3900
Wire Wire Line
	4450 6200 4150 6200
Connection ~ 4450 4000
Wire Wire Line
	4550 6500 4150 6500
Connection ~ 4550 4900
Wire Wire Line
	4650 6700 4150 6700
Connection ~ 4650 5000
Wire Wire Line
	4750 7000 4150 7000
Connection ~ 4750 5100
Wire Wire Line
	4850 7200 4150 7200
Connection ~ 4850 5200
Wire Wire Line
	2950 5600 2950 5750
Wire Wire Line
	2950 5950 2950 6100
Wire Wire Line
	2950 6600 2950 6750
Wire Wire Line
	2950 6950 2950 7100
Wire Wire Line
	1750 5850 1750 6250
Wire Wire Line
	1750 6850 1750 6450
NoConn ~ 550  7400
NoConn ~ 1750 7500
NoConn ~ 1750 7300
$Comp
L 8bit-computer-rescue:74LS173-8bit-computer-rescue U19
U 1 1 5B5497BB
P 1850 3500
F 0 "U19" H 1950 3600 50  0000 C CNN
F 1 "74LS173" H 1950 3450 50  0000 C CNN
F 2 "Package_SO:SOIC-16_3.9x9.9mm_P1.27mm" H 1850 3500 50  0001 C CNN
F 3 "" H 1850 3500 50  0001 C CNN
	1    1850 3500
	0    -1   -1   0   
$EndComp
Wire Wire Line
	550  6350 550  5600
Wire Wire Line
	550  5600 1400 5600
Wire Wire Line
	1400 5600 1400 4200
Wire Wire Line
	5350 3500 4000 3500
Wire Wire Line
	4000 3500 4000 5300
Wire Wire Line
	4000 5300 1300 5300
Wire Wire Line
	1300 5300 1300 4200
NoConn ~ 1500 4200
NoConn ~ 1600 4200
NoConn ~ 1600 2800
NoConn ~ 1500 2800
Wire Wire Line
	1750 4200 1750 4300
Wire Wire Line
	1750 4300 1800 4300
Wire Wire Line
	1850 4300 1850 4200
$Comp
L power:GND #PWR031
U 1 1 5B549C6E
P 1800 4900
F 0 "#PWR031" H 1800 4650 50  0001 C CNN
F 1 "GND" H 1800 4750 50  0000 C CNN
F 2 "" H 1800 4900 50  0001 C CNN
F 3 "" H 1800 4900 50  0001 C CNN
	1    1800 4900
	1    0    0    -1  
$EndComp
Connection ~ 1800 4300
Text HLabel 900  4600 0    60   Input ~ 0
CLK
Text HLabel 900  4800 0    60   Input ~ 0
CLR
Text HLabel 900  4400 0    60   Input ~ 0
~FI
Wire Wire Line
	900  4400 2050 4400
Wire Wire Line
	2050 4400 2050 4300
Wire Wire Line
	2000 4300 2050 4300
Wire Wire Line
	2100 4300 2100 4200
Wire Wire Line
	2000 4300 2000 4200
Connection ~ 2050 4300
Wire Wire Line
	900  4600 2200 4600
Wire Wire Line
	2200 4600 2200 4200
Wire Wire Line
	900  4800 2400 4800
Wire Wire Line
	2400 4800 2400 4200
Wire Wire Line
	1800 4300 1800 4900
$Comp
L Device:LED_ALT D34
U 1 1 5B54A3BF
P 1850 1900
F 0 "D34" H 1850 2000 50  0000 C CNN
F 1 "GREEN" H 1850 1800 50  0000 C CNN
F 2 "8bit-smd-custom:LED_0603_1608Metric_SMLTXT" H 1850 1900 50  0001 C CNN
F 3 "" H 1850 1900 50  0001 C CNN
	1    1850 1900
	-1   0    0    1   
$EndComp
$Comp
L Device:LED_ALT D35
U 1 1 5B54A440
P 1850 2200
F 0 "D35" H 1850 2300 50  0000 C CNN
F 1 "GREEN" H 1850 2100 50  0000 C CNN
F 2 "8bit-smd-custom:LED_0603_1608Metric_SMLTXT" H 1850 2200 50  0001 C CNN
F 3 "" H 1850 2200 50  0001 C CNN
	1    1850 2200
	-1   0    0    1   
$EndComp
Wire Wire Line
	1700 1900 1300 1900
Wire Wire Line
	1300 1200 1300 1900
Wire Wire Line
	1700 2200 1400 2200
Wire Wire Line
	1400 1400 1400 2200
$Comp
L Device:R R48
U 1 1 5B54A66A
P 2350 1900
F 0 "R48" V 2430 1900 50  0000 C CNN
F 1 "220" V 2350 1900 50  0000 C CNN
F 2 "8bit-smd-custom:R_0603_1608Metric_Pad1.05x0.95mm_HandSolder" V 2280 1900 50  0001 C CNN
F 3 "" H 2350 1900 50  0001 C CNN
	1    2350 1900
	0    1    1    0   
$EndComp
$Comp
L Device:R R49
U 1 1 5B54A71D
P 2350 2200
F 0 "R49" V 2430 2200 50  0000 C CNN
F 1 "220" V 2350 2200 50  0000 C CNN
F 2 "8bit-smd-custom:R_0603_1608Metric_Pad1.05x0.95mm_HandSolder" V 2280 2200 50  0001 C CNN
F 3 "" H 2350 2200 50  0001 C CNN
	1    2350 2200
	0    1    1    0   
$EndComp
Wire Wire Line
	2200 2200 2000 2200
Wire Wire Line
	2000 1900 2200 1900
Wire Wire Line
	2500 1900 2800 1900
Wire Wire Line
	2800 1900 2800 2200
Wire Wire Line
	2800 2200 2500 2200
Connection ~ 2800 2200
$Comp
L power:GND #PWR032
U 1 1 5B54AAAD
P 2800 2400
F 0 "#PWR032" H 2800 2150 50  0001 C CNN
F 1 "GND" H 2800 2250 50  0000 C CNN
F 2 "" H 2800 2400 50  0001 C CNN
F 3 "" H 2800 2400 50  0001 C CNN
	1    2800 2400
	1    0    0    -1  
$EndComp
Text HLabel 1800 1200 2    60   Output ~ 0
CF
Text HLabel 1800 1400 2    60   Output ~ 0
ZF
Wire Wire Line
	1800 1200 1300 1200
Connection ~ 1300 1900
Wire Wire Line
	1400 1400 1800 1400
Connection ~ 1400 2200
$Comp
L Device:C C14
U 1 1 5B634590
P 5700 6450
F 0 "C14" H 5725 6550 50  0000 L CNN
F 1 "0.1µF" H 5725 6350 50  0000 L CNN
F 2 "Capacitor_SMD:C_0603_1608Metric" H 5738 6300 50  0001 C CNN
F 3 "" H 5700 6450 50  0001 C CNN
	1    5700 6450
	1    0    0    -1  
$EndComp
$Comp
L power:VCC #PWR033
U 1 1 5B6345DA
P 5900 6100
F 0 "#PWR033" H 5900 5950 50  0001 C CNN
F 1 "VCC" H 5900 6250 50  0000 C CNN
F 2 "" H 5900 6100 50  0001 C CNN
F 3 "" H 5900 6100 50  0001 C CNN
	1    5900 6100
	1    0    0    -1  
$EndComp
$Comp
L power:GND #PWR034
U 1 1 5B634620
P 5900 6800
F 0 "#PWR034" H 5900 6550 50  0001 C CNN
F 1 "GND" H 5900 6650 50  0000 C CNN
F 2 "" H 5900 6800 50  0001 C CNN
F 3 "" H 5900 6800 50  0001 C CNN
	1    5900 6800
	1    0    0    -1  
$EndComp
$Comp
L Device:C C15
U 1 1 5B64D76A
P 6050 6450
F 0 "C15" H 6075 6550 50  0000 L CNN
F 1 "0.1µF" H 6075 6350 50  0000 L CNN
F 2 "Capacitor_SMD:C_0603_1608Metric" H 6088 6300 50  0001 C CNN
F 3 "" H 6050 6450 50  0001 C CNN
	1    6050 6450
	1    0    0    -1  
$EndComp
Wire Wire Line
	5700 6300 5700 6200
Wire Wire Line
	5700 6200 5900 6200
Wire Wire Line
	6050 6200 6050 6300
Wire Wire Line
	5900 6100 5900 6200
Connection ~ 5900 6200
Wire Wire Line
	5700 6600 5700 6700
Wire Wire Line
	5700 6700 5900 6700
Wire Wire Line
	6050 6700 6050 6600
Wire Wire Line
	5900 6700 5900 6800
Connection ~ 5900 6700
$Comp
L Device:LED_ALT D74
U 1 1 5B65F144
P 3450 3050
F 0 "D74" H 3450 3150 50  0000 C CNN
F 1 "RED" H 3450 2950 50  0000 C CNN
F 2 "8bit-smd-custom:LED_0603_1608Metric_SMLTXT" H 3450 3050 50  0001 C CNN
F 3 "" H 3450 3050 50  0001 C CNN
	1    3450 3050
	1    0    0    -1  
$EndComp
$Comp
L Device:LED_ALT D75
U 1 1 5B65F212
P 3450 3250
F 0 "D75" H 3450 3350 50  0000 C CNN
F 1 "RED" H 3450 3150 50  0000 C CNN
F 2 "8bit-smd-custom:LED_0603_1608Metric_SMLTXT" H 3450 3250 50  0001 C CNN
F 3 "" H 3450 3250 50  0001 C CNN
	1    3450 3250
	1    0    0    -1  
$EndComp
$Comp
L Device:LED_ALT D76
U 1 1 5B65F276
P 3450 3450
F 0 "D76" H 3450 3550 50  0000 C CNN
F 1 "RED" H 3450 3350 50  0000 C CNN
F 2 "8bit-smd-custom:LED_0603_1608Metric_SMLTXT" H 3450 3450 50  0001 C CNN
F 3 "" H 3450 3450 50  0001 C CNN
	1    3450 3450
	1    0    0    -1  
$EndComp
$Comp
L Device:LED_ALT D77
U 1 1 5B65F2DD
P 3450 3650
F 0 "D77" H 3450 3750 50  0000 C CNN
F 1 "RED" H 3450 3550 50  0000 C CNN
F 2 "8bit-smd-custom:LED_0603_1608Metric_SMLTXT" H 3450 3650 50  0001 C CNN
F 3 "" H 3450 3650 50  0001 C CNN
	1    3450 3650
	1    0    0    -1  
$EndComp
$Comp
L Device:LED_ALT D78
U 1 1 5B65F349
P 3450 3850
F 0 "D78" H 3450 3950 50  0000 C CNN
F 1 "RED" H 3450 3750 50  0000 C CNN
F 2 "8bit-smd-custom:LED_0603_1608Metric_SMLTXT" H 3450 3850 50  0001 C CNN
F 3 "" H 3450 3850 50  0001 C CNN
	1    3450 3850
	1    0    0    -1  
$EndComp
$Comp
L Device:LED_ALT D79
U 1 1 5B65F3B8
P 3450 4050
F 0 "D79" H 3450 4150 50  0000 C CNN
F 1 "RED" H 3450 3950 50  0000 C CNN
F 2 "8bit-smd-custom:LED_0603_1608Metric_SMLTXT" H 3450 4050 50  0001 C CNN
F 3 "" H 3450 4050 50  0001 C CNN
	1    3450 4050
	1    0    0    -1  
$EndComp
$Comp
L Device:LED_ALT D80
U 1 1 5B65F42A
P 3450 4250
F 0 "D80" H 3450 4350 50  0000 C CNN
F 1 "RED" H 3450 4150 50  0000 C CNN
F 2 "8bit-smd-custom:LED_0603_1608Metric_SMLTXT" H 3450 4250 50  0001 C CNN
F 3 "" H 3450 4250 50  0001 C CNN
	1    3450 4250
	1    0    0    -1  
$EndComp
$Comp
L Device:LED_ALT D81
U 1 1 5B65F4A1
P 3450 4450
F 0 "D81" H 3450 4550 50  0000 C CNN
F 1 "RED" H 3450 4350 50  0000 C CNN
F 2 "8bit-smd-custom:LED_0603_1608Metric_SMLTXT" H 3450 4450 50  0001 C CNN
F 3 "" H 3450 4450 50  0001 C CNN
	1    3450 4450
	1    0    0    -1  
$EndComp
$Comp
L Device:R R92
U 1 1 5B65F519
P 3050 3050
F 0 "R92" V 3130 3050 50  0000 C CNN
F 1 "220" V 3050 3050 50  0000 C CNN
F 2 "8bit-smd-custom:R_0603_1608Metric_Pad1.05x0.95mm_HandSolder" V 2980 3050 50  0001 C CNN
F 3 "" H 3050 3050 50  0001 C CNN
	1    3050 3050
	0    1    1    0   
$EndComp
$Comp
L Device:R R93
U 1 1 5B65F5CB
P 3050 3250
F 0 "R93" V 3130 3250 50  0000 C CNN
F 1 "220" V 3050 3250 50  0000 C CNN
F 2 "8bit-smd-custom:R_0603_1608Metric_Pad1.05x0.95mm_HandSolder" V 2980 3250 50  0001 C CNN
F 3 "" H 3050 3250 50  0001 C CNN
	1    3050 3250
	0    1    1    0   
$EndComp
$Comp
L Device:R R94
U 1 1 5B65F647
P 3050 3450
F 0 "R94" V 3130 3450 50  0000 C CNN
F 1 "220" V 3050 3450 50  0000 C CNN
F 2 "8bit-smd-custom:R_0603_1608Metric_Pad1.05x0.95mm_HandSolder" V 2980 3450 50  0001 C CNN
F 3 "" H 3050 3450 50  0001 C CNN
	1    3050 3450
	0    1    1    0   
$EndComp
$Comp
L Device:R R95
U 1 1 5B65F6C8
P 3050 3650
F 0 "R95" V 3130 3650 50  0000 C CNN
F 1 "220" V 3050 3650 50  0000 C CNN
F 2 "8bit-smd-custom:R_0603_1608Metric_Pad1.05x0.95mm_HandSolder" V 2980 3650 50  0001 C CNN
F 3 "" H 3050 3650 50  0001 C CNN
	1    3050 3650
	0    1    1    0   
$EndComp
$Comp
L Device:R R96
U 1 1 5B65F74C
P 3050 3850
F 0 "R96" V 3130 3850 50  0000 C CNN
F 1 "220" V 3050 3850 50  0000 C CNN
F 2 "8bit-smd-custom:R_0603_1608Metric_Pad1.05x0.95mm_HandSolder" V 2980 3850 50  0001 C CNN
F 3 "" H 3050 3850 50  0001 C CNN
	1    3050 3850
	0    1    1    0   
$EndComp
$Comp
L Device:R R97
U 1 1 5B65F7D1
P 3050 4050
F 0 "R97" V 3130 4050 50  0000 C CNN
F 1 "220" V 3050 4050 50  0000 C CNN
F 2 "8bit-smd-custom:R_0603_1608Metric_Pad1.05x0.95mm_HandSolder" V 2980 4050 50  0001 C CNN
F 3 "" H 3050 4050 50  0001 C CNN
	1    3050 4050
	0    1    1    0   
$EndComp
$Comp
L Device:R R98
U 1 1 5B65F859
P 3050 4250
F 0 "R98" V 3130 4250 50  0000 C CNN
F 1 "220" V 3050 4250 50  0000 C CNN
F 2 "8bit-smd-custom:R_0603_1608Metric_Pad1.05x0.95mm_HandSolder" V 2980 4250 50  0001 C CNN
F 3 "" H 3050 4250 50  0001 C CNN
	1    3050 4250
	0    1    1    0   
$EndComp
$Comp
L Device:R R99
U 1 1 5B65F8E5
P 3050 4450
F 0 "R99" V 3130 4450 50  0000 C CNN
F 1 "220" V 3050 4450 50  0000 C CNN
F 2 "8bit-smd-custom:R_0603_1608Metric_Pad1.05x0.95mm_HandSolder" V 2980 4450 50  0001 C CNN
F 3 "" H 3050 4450 50  0001 C CNN
	1    3050 4450
	0    1    1    0   
$EndComp
Wire Wire Line
	3200 3050 3300 3050
Wire Wire Line
	3200 3250 3300 3250
Wire Wire Line
	3200 3450 3300 3450
Wire Wire Line
	3200 3650 3300 3650
Wire Wire Line
	3200 3850 3300 3850
Wire Wire Line
	3200 4050 3300 4050
Wire Wire Line
	3200 4250 3300 4250
Wire Wire Line
	3200 4450 3300 4450
Wire Wire Line
	3600 3050 4150 3050
Connection ~ 4150 3050
Wire Wire Line
	3600 3250 4250 3250
Connection ~ 4250 3250
Wire Wire Line
	3600 3450 4350 3450
Connection ~ 4350 3450
Wire Wire Line
	3600 3650 4450 3650
Connection ~ 4450 3650
Wire Wire Line
	3600 3850 4550 3850
Connection ~ 4550 3850
Wire Wire Line
	3600 4050 4650 4050
Connection ~ 4650 4050
Wire Wire Line
	3600 4250 4750 4250
Connection ~ 4750 4250
Wire Wire Line
	3600 4450 4850 4450
Connection ~ 4850 4450
$Comp
L power:GND #PWR035
U 1 1 5B660B0C
P 2800 4600
F 0 "#PWR035" H 2800 4350 50  0001 C CNN
F 1 "GND" H 2800 4450 50  0000 C CNN
F 2 "" H 2800 4600 50  0001 C CNN
F 3 "" H 2800 4600 50  0001 C CNN
	1    2800 4600
	1    0    0    -1  
$EndComp
Wire Wire Line
	2800 4600 2800 4450
Wire Wire Line
	2800 3050 2900 3050
Wire Wire Line
	2900 4450 2800 4450
Connection ~ 2800 4450
Wire Wire Line
	2900 4250 2800 4250
Connection ~ 2800 4250
Wire Wire Line
	2800 4050 2900 4050
Connection ~ 2800 4050
Wire Wire Line
	2900 3850 2800 3850
Connection ~ 2800 3850
Wire Wire Line
	2800 3650 2900 3650
Connection ~ 2800 3650
Wire Wire Line
	2900 3450 2800 3450
Connection ~ 2800 3450
Wire Wire Line
	2800 3250 2900 3250
Connection ~ 2800 3250
Wire Wire Line
	9600 4150 9600 4650
Wire Wire Line
	9600 3650 9600 4150
Wire Wire Line
	9600 3150 9600 3650
Wire Wire Line
	9600 2650 9600 3150
Wire Wire Line
	9600 2150 9600 2650
Wire Wire Line
	9600 1650 9600 2150
Wire Wire Line
	9600 4650 9600 5900
Wire Wire Line
	9600 1150 9600 1650
Wire Wire Line
	4150 3700 4150 5500
Wire Wire Line
	4250 3800 4250 5700
Wire Wire Line
	4350 3900 4350 6000
Wire Wire Line
	4450 4000 4450 6200
Wire Wire Line
	4550 4900 4550 6500
Wire Wire Line
	4650 5000 4650 6700
Wire Wire Line
	4750 5100 4750 7000
Wire Wire Line
	4850 5200 4850 7200
Wire Wire Line
	1800 4300 1850 4300
Wire Wire Line
	2050 4300 2100 4300
Wire Wire Line
	2800 2200 2800 2400
Wire Wire Line
	1300 1900 1300 2800
Wire Wire Line
	1400 2200 1400 2800
Wire Wire Line
	5900 6200 6050 6200
Wire Wire Line
	5900 6700 6050 6700
Wire Wire Line
	4150 3050 4150 3700
Wire Wire Line
	4250 3250 4250 3800
Wire Wire Line
	4350 3450 4350 3900
Wire Wire Line
	4450 3650 4450 4000
Wire Wire Line
	4550 3850 4550 4900
Wire Wire Line
	4650 4050 4650 5000
Wire Wire Line
	4750 4250 4750 5100
Wire Wire Line
	4850 4450 4850 5200
Wire Wire Line
	2800 4450 2800 4250
Wire Wire Line
	2800 4250 2800 4050
Wire Wire Line
	2800 4050 2800 3850
Wire Wire Line
	2800 3850 2800 3650
Wire Wire Line
	2800 3650 2800 3450
Wire Wire Line
	2800 3450 2800 3250
Wire Wire Line
	2800 3250 2800 3050
$EndSCHEMATC
