EESchema Schematic File Version 4
LIBS:8bit-computer-cache
EELAYER 26 0
EELAYER END
$Descr USLetter 11000 8500
encoding utf-8
Sheet 4 13
Title ""
Date ""
Rev ""
Comp ""
Comment1 ""
Comment2 ""
Comment3 ""
Comment4 ""
$EndDescr
$Comp
L 8bit-computer-rescue:74LS173-8bit-computer-rescue U11
U 1 1 5B61AC16
P 5250 2600
F 0 "U11" H 5350 2700 50  0000 C CNN
F 1 "74LS173" H 5350 2550 50  0000 C CNN
F 2 "Package_SO:SOIC-16_3.9x9.9mm_P1.27mm" H 5250 2600 50  0001 C CNN
F 3 "" H 5250 2600 50  0001 C CNN
	1    5250 2600
	0    1    1    0   
$EndComp
$Comp
L 8bit-computer-rescue:74LS173-8bit-computer-rescue U12
U 1 1 5B5346C7
P 6850 2600
F 0 "U12" H 6950 2700 50  0000 C CNN
F 1 "74LS173" H 6950 2550 50  0000 C CNN
F 2 "Package_SO:SOIC-16_3.9x9.9mm_P1.27mm" H 6850 2600 50  0001 C CNN
F 3 "" H 6850 2600 50  0001 C CNN
	1    6850 2600
	0    1    1    0   
$EndComp
$Comp
L 8bit-computer-rescue:74LS245-8bit-computer-rescue U10
U 1 1 5B5346E8
P 3600 2600
F 0 "U10" H 3700 3175 50  0000 L BNN
F 1 "74LS245" H 3650 2025 50  0000 L TNN
F 2 "Package_SO:SOIC-20W_7.5x12.8mm_P1.27mm" H 3600 2600 50  0001 C CNN
F 3 "" H 3600 2600 50  0001 C CNN
	1    3600 2600
	0    -1   -1   0   
$EndComp
Text HLabel 1500 600  0    60   BiDi ~ 0
BUS_0
Text HLabel 1500 700  0    60   BiDi ~ 0
BUS_1
Text HLabel 1500 800  0    60   BiDi ~ 0
BUS_2
Text HLabel 1500 900  0    60   BiDi ~ 0
BUS_3
Text HLabel 1500 1000 0    60   BiDi ~ 0
BUS_4
Text HLabel 1500 1100 0    60   BiDi ~ 0
BUS_5
Text HLabel 1500 1200 0    60   BiDi ~ 0
BUS_6
Text HLabel 1500 1300 0    60   BiDi ~ 0
BUS_7
$Comp
L Device:LED_ALT D18
U 1 1 5B61AC1C
P 3900 5500
F 0 "D18" H 3900 5600 50  0000 C CNN
F 1 "RED" H 3900 5400 50  0000 C CNN
F 2 "8bit-smd-custom:LED_0603_1608Metric_SMLTXT" H 3900 5500 50  0001 C CNN
F 3 "" H 3900 5500 50  0001 C CNN
	1    3900 5500
	0    -1   -1   0   
$EndComp
$Comp
L Device:LED_ALT D19
U 1 1 5B53536E
P 4200 5500
F 0 "D19" H 4200 5600 50  0000 C CNN
F 1 "RED" H 4200 5400 50  0000 C CNN
F 2 "8bit-smd-custom:LED_0603_1608Metric_SMLTXT" H 4200 5500 50  0001 C CNN
F 3 "" H 4200 5500 50  0001 C CNN
	1    4200 5500
	0    -1   -1   0   
$EndComp
$Comp
L Device:LED_ALT D20
U 1 1 5B61AC20
P 4500 5500
F 0 "D20" H 4500 5600 50  0000 C CNN
F 1 "RED" H 4500 5400 50  0000 C CNN
F 2 "8bit-smd-custom:LED_0603_1608Metric_SMLTXT" H 4500 5500 50  0001 C CNN
F 3 "" H 4500 5500 50  0001 C CNN
	1    4500 5500
	0    -1   -1   0   
$EndComp
$Comp
L Device:LED_ALT D21
U 1 1 5B61AC23
P 4800 5500
F 0 "D21" H 4800 5600 50  0000 C CNN
F 1 "RED" H 4800 5400 50  0000 C CNN
F 2 "8bit-smd-custom:LED_0603_1608Metric_SMLTXT" H 4800 5500 50  0001 C CNN
F 3 "" H 4800 5500 50  0001 C CNN
	1    4800 5500
	0    -1   -1   0   
$EndComp
$Comp
L Device:LED_ALT D22
U 1 1 5B61AC24
P 5100 5500
F 0 "D22" H 5100 5600 50  0000 C CNN
F 1 "RED" H 5100 5400 50  0000 C CNN
F 2 "8bit-smd-custom:LED_0603_1608Metric_SMLTXT" H 5100 5500 50  0001 C CNN
F 3 "" H 5100 5500 50  0001 C CNN
	1    5100 5500
	0    -1   -1   0   
$EndComp
$Comp
L Device:LED_ALT D23
U 1 1 5B61AC26
P 5400 5500
F 0 "D23" H 5400 5600 50  0000 C CNN
F 1 "RED" H 5400 5400 50  0000 C CNN
F 2 "8bit-smd-custom:LED_0603_1608Metric_SMLTXT" H 5400 5500 50  0001 C CNN
F 3 "" H 5400 5500 50  0001 C CNN
	1    5400 5500
	0    -1   -1   0   
$EndComp
$Comp
L Device:LED_ALT D24
U 1 1 5B61AC28
P 5700 5500
F 0 "D24" H 5700 5600 50  0000 C CNN
F 1 "RED" H 5700 5400 50  0000 C CNN
F 2 "8bit-smd-custom:LED_0603_1608Metric_SMLTXT" H 5700 5500 50  0001 C CNN
F 3 "" H 5700 5500 50  0001 C CNN
	1    5700 5500
	0    -1   -1   0   
$EndComp
$Comp
L Device:LED_ALT D25
U 1 1 5B61AC2A
P 6000 5500
F 0 "D25" H 6000 5600 50  0000 C CNN
F 1 "RED" H 6000 5400 50  0000 C CNN
F 2 "8bit-smd-custom:LED_0603_1608Metric_SMLTXT" H 6000 5500 50  0001 C CNN
F 3 "" H 6000 5500 50  0001 C CNN
	1    6000 5500
	0    -1   -1   0   
$EndComp
$Comp
L Device:R R32
U 1 1 5B535A9D
P 3900 5950
F 0 "R32" V 3980 5950 50  0000 C CNN
F 1 "220" V 3900 5950 50  0000 C CNN
F 2 "8bit-smd-custom:R_0603_1608Metric_Pad1.05x0.95mm_HandSolder" V 3830 5950 50  0001 C CNN
F 3 "" H 3900 5950 50  0001 C CNN
	1    3900 5950
	1    0    0    -1  
$EndComp
$Comp
L Device:R R33
U 1 1 5B535B22
P 4200 5950
F 0 "R33" V 4280 5950 50  0000 C CNN
F 1 "220" V 4200 5950 50  0000 C CNN
F 2 "8bit-smd-custom:R_0603_1608Metric_Pad1.05x0.95mm_HandSolder" V 4130 5950 50  0001 C CNN
F 3 "" H 4200 5950 50  0001 C CNN
	1    4200 5950
	1    0    0    -1  
$EndComp
$Comp
L Device:R R34
U 1 1 5B61AC31
P 4500 5950
F 0 "R34" V 4580 5950 50  0000 C CNN
F 1 "220" V 4500 5950 50  0000 C CNN
F 2 "8bit-smd-custom:R_0603_1608Metric_Pad1.05x0.95mm_HandSolder" V 4430 5950 50  0001 C CNN
F 3 "" H 4500 5950 50  0001 C CNN
	1    4500 5950
	1    0    0    -1  
$EndComp
$Comp
L Device:R R35
U 1 1 5B61AC33
P 4800 5950
F 0 "R35" V 4880 5950 50  0000 C CNN
F 1 "220" V 4800 5950 50  0000 C CNN
F 2 "8bit-smd-custom:R_0603_1608Metric_Pad1.05x0.95mm_HandSolder" V 4730 5950 50  0001 C CNN
F 3 "" H 4800 5950 50  0001 C CNN
	1    4800 5950
	1    0    0    -1  
$EndComp
$Comp
L Device:R R36
U 1 1 5B61AC34
P 5100 5950
F 0 "R36" V 5180 5950 50  0000 C CNN
F 1 "220" V 5100 5950 50  0000 C CNN
F 2 "8bit-smd-custom:R_0603_1608Metric_Pad1.05x0.95mm_HandSolder" V 5030 5950 50  0001 C CNN
F 3 "" H 5100 5950 50  0001 C CNN
	1    5100 5950
	1    0    0    -1  
$EndComp
$Comp
L Device:R R37
U 1 1 5B61AC37
P 5400 5950
F 0 "R37" V 5480 5950 50  0000 C CNN
F 1 "220" V 5400 5950 50  0000 C CNN
F 2 "8bit-smd-custom:R_0603_1608Metric_Pad1.05x0.95mm_HandSolder" V 5330 5950 50  0001 C CNN
F 3 "" H 5400 5950 50  0001 C CNN
	1    5400 5950
	1    0    0    -1  
$EndComp
$Comp
L Device:R R38
U 1 1 5B535C5D
P 5700 5950
F 0 "R38" V 5780 5950 50  0000 C CNN
F 1 "220" V 5700 5950 50  0000 C CNN
F 2 "8bit-smd-custom:R_0603_1608Metric_Pad1.05x0.95mm_HandSolder" V 5630 5950 50  0001 C CNN
F 3 "" H 5700 5950 50  0001 C CNN
	1    5700 5950
	1    0    0    -1  
$EndComp
$Comp
L Device:R R39
U 1 1 5B61AC3B
P 6000 5950
F 0 "R39" V 6080 5950 50  0000 C CNN
F 1 "220" V 6000 5950 50  0000 C CNN
F 2 "8bit-smd-custom:R_0603_1608Metric_Pad1.05x0.95mm_HandSolder" V 5930 5950 50  0001 C CNN
F 3 "" H 6000 5950 50  0001 C CNN
	1    6000 5950
	1    0    0    -1  
$EndComp
$Comp
L power:GND #PWR019
U 1 1 5B536319
P 4950 6450
F 0 "#PWR019" H 4950 6200 50  0001 C CNN
F 1 "GND" H 4950 6300 50  0000 C CNN
F 2 "" H 4950 6450 50  0001 C CNN
F 3 "" H 4950 6450 50  0001 C CNN
	1    4950 6450
	1    0    0    -1  
$EndComp
Text HLabel 6500 4550 2    60   Output ~ 0
B_0
Text HLabel 6500 4650 2    60   Output ~ 0
B_1
Text HLabel 6500 4750 2    60   Output ~ 0
B_2
Text HLabel 6500 4850 2    60   Output ~ 0
B_3
Text HLabel 6500 4950 2    60   Output ~ 0
B_4
Text HLabel 6500 5050 2    60   Output ~ 0
B_5
Text HLabel 6500 5150 2    60   Output ~ 0
B_6
Text HLabel 6500 5250 2    60   Output ~ 0
B_7
Wire Wire Line
	1500 1300 3100 1300
Wire Wire Line
	3100 1300 3100 1900
Wire Wire Line
	1500 1200 3200 1200
Wire Wire Line
	3200 1200 3200 1900
Wire Wire Line
	1500 1100 3300 1100
Wire Wire Line
	3300 1100 3300 1900
Wire Wire Line
	3400 1900 3400 1000
Wire Wire Line
	1500 1000 3400 1000
Wire Wire Line
	1500 900  3500 900 
Wire Wire Line
	3500 900  3500 1900
Wire Wire Line
	1500 800  3600 800 
Wire Wire Line
	3600 800  3600 1900
Wire Wire Line
	1500 700  3700 700 
Wire Wire Line
	3700 700  3700 1900
Wire Wire Line
	1500 600  3800 600 
Wire Wire Line
	3800 600  3800 1900
Wire Wire Line
	3800 3300 3800 4100
Wire Wire Line
	3700 3300 3700 4200
Wire Wire Line
	3600 3300 3600 4300
Wire Wire Line
	3500 3300 3500 4400
Wire Wire Line
	3400 3300 3400 3700
Wire Wire Line
	3300 3300 3300 3800
Wire Wire Line
	3200 3300 3200 3900
Wire Wire Line
	3200 3900 4200 3900
Wire Wire Line
	3100 3300 3100 4000
Wire Wire Line
	3100 4000 3900 4000
Connection ~ 3100 1300
Connection ~ 3200 1200
Connection ~ 3300 1100
Connection ~ 3400 1000
Connection ~ 3500 900 
Connection ~ 3600 800 
Connection ~ 3700 700 
Connection ~ 3800 600 
Wire Wire Line
	5800 4000 5800 3300
Wire Wire Line
	5700 3900 5700 3300
Wire Wire Line
	3300 3800 4500 3800
Wire Wire Line
	5600 3800 5600 3300
Wire Wire Line
	3400 3700 4800 3700
Wire Wire Line
	5500 3700 5500 3300
Wire Wire Line
	3500 4400 5100 4400
Wire Wire Line
	7400 4400 7400 3300
Wire Wire Line
	3600 4300 5400 4300
Wire Wire Line
	7300 4300 7300 3300
Wire Wire Line
	3700 4200 5700 4200
Wire Wire Line
	7200 4200 7200 3300
Wire Wire Line
	3800 4100 6000 4100
Wire Wire Line
	7100 4100 7100 3300
Wire Wire Line
	5800 1300 5800 1900
Wire Wire Line
	5700 1200 5700 1900
Wire Wire Line
	5600 1100 5600 1900
Wire Wire Line
	5500 1000 5500 1900
Wire Wire Line
	7400 900  7400 1900
Wire Wire Line
	7300 800  7300 1900
Wire Wire Line
	7200 700  7200 1900
Wire Wire Line
	7100 600  7100 1900
Wire Wire Line
	6000 4100 6000 4550
Connection ~ 6000 4100
Wire Wire Line
	5700 4200 5700 4650
Connection ~ 5700 4200
Wire Wire Line
	5400 4300 5400 4750
Connection ~ 5400 4300
Wire Wire Line
	5100 4400 5100 4850
Connection ~ 5100 4400
Wire Wire Line
	4800 3700 4800 4950
Connection ~ 4800 3700
Wire Wire Line
	4500 3800 4500 5050
Connection ~ 4500 3800
Wire Wire Line
	4200 3900 4200 5150
Connection ~ 4200 3900
Wire Wire Line
	3900 4000 3900 5250
Connection ~ 3900 4000
Wire Wire Line
	3900 5650 3900 5800
Wire Wire Line
	4200 5650 4200 5800
Wire Wire Line
	4500 5650 4500 5800
Wire Wire Line
	4800 5650 4800 5800
Wire Wire Line
	5100 5650 5100 5800
Wire Wire Line
	5400 5650 5400 5800
Wire Wire Line
	5700 5650 5700 5800
Wire Wire Line
	6000 5650 6000 5800
Wire Wire Line
	3900 6100 3900 6250
Wire Wire Line
	3900 6250 4200 6250
Wire Wire Line
	6000 6250 6000 6100
Wire Wire Line
	5700 6100 5700 6250
Connection ~ 5700 6250
Wire Wire Line
	5400 6100 5400 6250
Connection ~ 5400 6250
Wire Wire Line
	5100 6100 5100 6250
Connection ~ 5100 6250
Wire Wire Line
	4800 6100 4800 6250
Connection ~ 4800 6250
Wire Wire Line
	4500 6100 4500 6250
Connection ~ 4500 6250
Wire Wire Line
	4200 6100 4200 6250
Connection ~ 4200 6250
Wire Wire Line
	4950 6450 4950 6250
Connection ~ 4950 6250
Wire Wire Line
	6500 4550 6000 4550
Connection ~ 6000 4550
Wire Wire Line
	6500 4650 5700 4650
Connection ~ 5700 4650
Connection ~ 5400 4750
Connection ~ 5100 4850
Wire Wire Line
	6500 4950 4800 4950
Connection ~ 4800 4950
Wire Wire Line
	6500 5050 4500 5050
Connection ~ 4500 5050
Wire Wire Line
	6500 5150 4200 5150
Connection ~ 4200 5150
Wire Wire Line
	6500 5250 3900 5250
Connection ~ 3900 5250
Text HLabel 1500 1500 0    60   Input ~ 0
CLK
Wire Wire Line
	1500 1500 4900 1500
Wire Wire Line
	4900 1500 4900 1900
Wire Wire Line
	6500 1500 6500 1900
Connection ~ 4900 1500
$Comp
L power:VCC #PWR020
U 1 1 5B61AC3F
P 4300 2950
F 0 "#PWR020" H 4300 2800 50  0001 C CNN
F 1 "VCC" H 4300 3100 50  0000 C CNN
F 2 "" H 4300 2950 50  0001 C CNN
F 3 "" H 4300 2950 50  0001 C CNN
	1    4300 2950
	1    0    0    -1  
$EndComp
Wire Wire Line
	4000 3300 4000 3400
Wire Wire Line
	4000 3400 4300 3400
Wire Wire Line
	4300 3400 4300 2950
Wire Wire Line
	4100 3300 4100 3600
Wire Wire Line
	4100 3600 8200 3600
Text HLabel 8200 3600 2    60   Input ~ 0
~BO
Wire Wire Line
	5250 1900 5250 1800
Wire Wire Line
	5250 1800 5350 1800
Wire Wire Line
	5350 1800 5350 1900
Wire Wire Line
	6850 1800 6850 1900
Connection ~ 5350 1800
Wire Wire Line
	6950 1800 6950 1900
Connection ~ 6850 1800
Wire Wire Line
	7700 1800 7700 2100
Connection ~ 6950 1800
$Comp
L power:GND #PWR021
U 1 1 5B5387F2
P 7700 2100
F 0 "#PWR021" H 7700 1850 50  0001 C CNN
F 1 "GND" H 7700 1950 50  0000 C CNN
F 2 "" H 7700 2100 50  0001 C CNN
F 3 "" H 7700 2100 50  0001 C CNN
	1    7700 2100
	1    0    0    -1  
$EndComp
Wire Wire Line
	5000 1900 5000 1700
Wire Wire Line
	5000 1700 5100 1700
Wire Wire Line
	5100 1700 5100 1900
Wire Wire Line
	6600 1700 6600 1900
Connection ~ 5100 1700
Wire Wire Line
	6700 1700 6700 1900
Connection ~ 6600 1700
Connection ~ 6700 1700
Text HLabel 8200 1700 2    60   Input ~ 0
~BI
Wire Wire Line
	4700 1900 4700 1600
Wire Wire Line
	4700 1600 6300 1600
Wire Wire Line
	6300 1600 6300 1900
Wire Wire Line
	7700 1600 7700 1400
Wire Wire Line
	7700 1400 8200 1400
Connection ~ 6300 1600
Text HLabel 8200 1400 2    60   Input ~ 0
CLR
$Comp
L Device:C C12
U 1 1 5B6331E0
P 9000 2550
F 0 "C12" H 9025 2650 50  0000 L CNN
F 1 "0.1µF" H 9025 2450 50  0000 L CNN
F 2 "Capacitor_SMD:C_0603_1608Metric" H 9038 2400 50  0001 C CNN
F 3 "" H 9000 2550 50  0001 C CNN
	1    9000 2550
	1    0    0    -1  
$EndComp
$Comp
L power:VCC #PWR022
U 1 1 5B633224
P 9000 2300
F 0 "#PWR022" H 9000 2150 50  0001 C CNN
F 1 "VCC" H 9000 2450 50  0000 C CNN
F 2 "" H 9000 2300 50  0001 C CNN
F 3 "" H 9000 2300 50  0001 C CNN
	1    9000 2300
	1    0    0    -1  
$EndComp
$Comp
L power:GND #PWR023
U 1 1 5B633260
P 9000 2800
F 0 "#PWR023" H 9000 2550 50  0001 C CNN
F 1 "GND" H 9000 2650 50  0000 C CNN
F 2 "" H 9000 2800 50  0001 C CNN
F 3 "" H 9000 2800 50  0001 C CNN
	1    9000 2800
	1    0    0    -1  
$EndComp
Wire Wire Line
	9000 2800 9000 2700
Wire Wire Line
	9000 2400 9000 2300
Wire Wire Line
	5100 4850 6500 4850
Wire Wire Line
	6500 4750 5400 4750
Wire Wire Line
	3100 1300 5800 1300
Wire Wire Line
	3200 1200 5700 1200
Wire Wire Line
	3300 1100 5600 1100
Wire Wire Line
	3400 1000 5500 1000
Wire Wire Line
	3500 900  7400 900 
Wire Wire Line
	3600 800  7300 800 
Wire Wire Line
	3700 700  7200 700 
Wire Wire Line
	3800 600  7100 600 
Wire Wire Line
	6000 4100 7100 4100
Wire Wire Line
	5700 4200 7200 4200
Wire Wire Line
	5400 4300 7300 4300
Wire Wire Line
	5100 4400 7400 4400
Wire Wire Line
	4800 3700 5500 3700
Wire Wire Line
	4500 3800 5600 3800
Wire Wire Line
	4200 3900 5700 3900
Wire Wire Line
	3900 4000 5800 4000
Wire Wire Line
	5700 6250 6000 6250
Wire Wire Line
	5400 6250 5700 6250
Wire Wire Line
	5100 6250 5400 6250
Wire Wire Line
	4800 6250 4950 6250
Wire Wire Line
	4500 6250 4800 6250
Wire Wire Line
	4200 6250 4500 6250
Wire Wire Line
	4950 6250 5100 6250
Wire Wire Line
	6000 4550 6000 5350
Wire Wire Line
	5700 4650 5700 5350
Wire Wire Line
	5400 4750 5400 5350
Wire Wire Line
	5100 4850 5100 5350
Wire Wire Line
	4800 4950 4800 5350
Wire Wire Line
	4500 5050 4500 5350
Wire Wire Line
	4200 5150 4200 5350
Wire Wire Line
	3900 5250 3900 5350
Wire Wire Line
	4900 1500 6500 1500
Wire Wire Line
	5350 1800 6850 1800
Wire Wire Line
	6850 1800 6950 1800
Wire Wire Line
	6950 1800 7700 1800
Wire Wire Line
	5100 1700 6600 1700
Wire Wire Line
	6600 1700 6700 1700
Wire Wire Line
	6700 1700 8200 1700
Wire Wire Line
	6300 1600 7700 1600
$EndSCHEMATC
