EESchema Schematic File Version 4
LIBS:8bit-computer-cache
EELAYER 26 0
EELAYER END
$Descr A4 11693 8268
encoding utf-8
Sheet 13 13
Title ""
Date ""
Rev ""
Comp ""
Comment1 ""
Comment2 ""
Comment3 ""
Comment4 ""
$EndDescr
$Comp
L 74xx:74HC595 U?
U 1 1 5C1D7DA2
P 5500 3400
AR Path="/5B57D8E5/5C1C9688/5C1D7DA2" Ref="U?"  Part="1" 
AR Path="/5B5B7509/5C1D767C/5C1D7DA2" Ref="U55"  Part="1" 
F 0 "U55" H 5500 4178 50  0000 C CNN
F 1 "74HC595" H 5500 4087 50  0000 C CNN
F 2 "Package_SO:TSSOP-16_4.4x5mm_P0.65mm" H 5500 3400 50  0001 C CNN
F 3 "http://www.ti.com/lit/ds/symlink/sn74hc595.pdf" H 5500 3400 50  0001 C CNN
	1    5500 3400
	1    0    0    -1  
$EndComp
Wire Wire Line
	5900 3000 6050 3000
Wire Wire Line
	6050 3000 6050 1300
$Comp
L power:GND #PWR?
U 1 1 5C1D7DAB
P 6950 4950
AR Path="/5B57D8E5/5C1C9688/5C1D7DAB" Ref="#PWR?"  Part="1" 
AR Path="/5B5B7509/5C1D767C/5C1D7DAB" Ref="#PWR0118"  Part="1" 
F 0 "#PWR0118" H 6950 4700 50  0001 C CNN
F 1 "GND" H 6955 4777 50  0000 C CNN
F 2 "" H 6950 4950 50  0001 C CNN
F 3 "" H 6950 4950 50  0001 C CNN
	1    6950 4950
	1    0    0    -1  
$EndComp
$Comp
L power:VCC #PWR?
U 1 1 5C1D7DB2
P 8700 3550
AR Path="/5B57D8E5/5C1C9688/5C1D7DB2" Ref="#PWR?"  Part="1" 
AR Path="/5B5B7509/5C1D767C/5C1D7DB2" Ref="#PWR0119"  Part="1" 
F 0 "#PWR0119" H 8700 3400 50  0001 C CNN
F 1 "VCC" H 8717 3723 50  0000 C CNN
F 2 "" H 8700 3550 50  0001 C CNN
F 3 "" H 8700 3550 50  0001 C CNN
	1    8700 3550
	1    0    0    -1  
$EndComp
Wire Wire Line
	8600 3650 8700 3650
Wire Wire Line
	8700 3650 8700 3600
Wire Wire Line
	8600 3750 8700 3750
Wire Wire Line
	8700 3750 8700 3650
Connection ~ 8700 3650
Wire Wire Line
	5500 2800 5750 2800
$Comp
L power:VCC #PWR?
U 1 1 5C1D7DBE
P 5750 2700
AR Path="/5B57D8E5/5C1C9688/5C1D7DBE" Ref="#PWR?"  Part="1" 
AR Path="/5B5B7509/5C1D767C/5C1D7DBE" Ref="#PWR0120"  Part="1" 
F 0 "#PWR0120" H 5750 2550 50  0001 C CNN
F 1 "VCC" H 5767 2873 50  0000 C CNN
F 2 "" H 5750 2700 50  0001 C CNN
F 3 "" H 5750 2700 50  0001 C CNN
	1    5750 2700
	1    0    0    -1  
$EndComp
$Comp
L 74xx:74HC595 U?
U 1 1 5C1D7DC4
P 9400 4100
AR Path="/5B57D8E5/5C1C9688/5C1D7DC4" Ref="U?"  Part="1" 
AR Path="/5B5B7509/5C1D767C/5C1D7DC4" Ref="U58"  Part="1" 
F 0 "U58" H 9400 4878 50  0000 C CNN
F 1 "74HC595" H 9400 4787 50  0000 C CNN
F 2 "Package_SO:TSSOP-16_4.4x5mm_P0.65mm" H 9400 4100 50  0001 C CNN
F 3 "http://www.ti.com/lit/ds/symlink/sn74hc595.pdf" H 9400 4100 50  0001 C CNN
	1    9400 4100
	1    0    0    -1  
$EndComp
$Comp
L 74xx:74HC245 U?
U 1 1 5C1D7DCB
P 4850 1550
AR Path="/5B57D8E5/5C1C9688/5C1D7DCB" Ref="U?"  Part="1" 
AR Path="/5B5B7509/5C1D767C/5C1D7DCB" Ref="U54"  Part="1" 
F 0 "U54" H 4850 2528 50  0000 C CNN
F 1 "74HC245" H 4850 2437 50  0000 C CNN
F 2 "Package_SO:SOIC-20W_7.5x12.8mm_P1.27mm" H 4850 1550 50  0001 C CNN
F 3 "http://www.ti.com/lit/gpn/sn74HC245" H 4850 1550 50  0001 C CNN
	1    4850 1550
	1    0    0    -1  
$EndComp
Text HLabel 950  1050 0    60   Input ~ 0
A0
Text HLabel 950  1150 0    60   Input ~ 0
A1
Text HLabel 950  1250 0    60   Input ~ 0
A2
Text HLabel 950  1350 0    60   Input ~ 0
A3
Text HLabel 950  1550 0    60   Input ~ 0
A5
Text HLabel 950  1650 0    60   Input ~ 0
A6
Text HLabel 950  1450 0    60   Input ~ 0
A4
Text HLabel 950  1750 0    60   Input ~ 0
A7
$Comp
L power:VCC #PWR?
U 1 1 5C1D7DE2
P 4000 1950
AR Path="/5B57D8E5/5C1C9688/5C1D7DE2" Ref="#PWR?"  Part="1" 
AR Path="/5B5B7509/5C1D767C/5C1D7DE2" Ref="#PWR0121"  Part="1" 
F 0 "#PWR0121" H 4000 1800 50  0001 C CNN
F 1 "VCC" H 4017 2123 50  0000 C CNN
F 2 "" H 4000 1950 50  0001 C CNN
F 3 "" H 4000 1950 50  0001 C CNN
	1    4000 1950
	1    0    0    -1  
$EndComp
$Comp
L power:GND #PWR?
U 1 1 5C1D7DE8
P 4850 2350
AR Path="/5B57D8E5/5C1C9688/5C1D7DE8" Ref="#PWR?"  Part="1" 
AR Path="/5B5B7509/5C1D767C/5C1D7DE8" Ref="#PWR0122"  Part="1" 
F 0 "#PWR0122" H 4850 2100 50  0001 C CNN
F 1 "GND" H 4855 2177 50  0000 C CNN
F 2 "" H 4850 2350 50  0001 C CNN
F 3 "" H 4850 2350 50  0001 C CNN
	1    4850 2350
	1    0    0    -1  
$EndComp
$Comp
L power:VCC #PWR?
U 1 1 5C1D7DEE
P 5150 850
AR Path="/5B57D8E5/5C1C9688/5C1D7DEE" Ref="#PWR?"  Part="1" 
AR Path="/5B5B7509/5C1D767C/5C1D7DEE" Ref="#PWR0123"  Part="1" 
F 0 "#PWR0123" H 5150 700 50  0001 C CNN
F 1 "VCC" H 5167 1023 50  0000 C CNN
F 2 "" H 5150 850 50  0001 C CNN
F 3 "" H 5150 850 50  0001 C CNN
	1    5150 850 
	1    0    0    -1  
$EndComp
Wire Wire Line
	4000 1950 4350 1950
Wire Wire Line
	4200 3600 4100 3600
Wire Wire Line
	4100 2050 4350 2050
Wire Wire Line
	4750 3600 4750 4950
Text HLabel 10950 1000 2    60   Output ~ 0
D0
Text HLabel 10950 1100 2    60   Output ~ 0
D1
Text HLabel 10950 1200 2    60   Output ~ 0
D2
Text HLabel 10950 1300 2    60   Output ~ 0
D3
Text HLabel 10950 1400 2    60   Output ~ 0
D4
Text HLabel 10950 1500 2    60   Output ~ 0
D5
Text HLabel 10950 1600 2    60   Output ~ 0
D6
Text HLabel 10950 1700 2    60   Output ~ 0
D7
Text HLabel 10950 1800 2    60   Output ~ 0
D8
Text HLabel 10950 1900 2    60   Output ~ 0
D9
Text HLabel 10950 2000 2    60   Output ~ 0
D10
Text HLabel 10950 2100 2    60   Output ~ 0
D11
Text HLabel 10950 2200 2    60   Output ~ 0
D12
Text HLabel 10950 2300 2    60   Output ~ 0
D13
Text HLabel 10950 2500 2    60   Output ~ 0
D15
Wire Wire Line
	8800 3500 8800 3600
Wire Wire Line
	8800 3600 8700 3600
Connection ~ 8700 3600
Wire Wire Line
	8700 3600 8700 3550
Wire Wire Line
	9400 4800 8200 4800
Connection ~ 6950 4800
Wire Wire Line
	6950 4800 6950 4950
Wire Wire Line
	8650 5500 8650 4300
Wire Wire Line
	8650 4300 9000 4300
Wire Wire Line
	10950 1200 9900 1200
Wire Wire Line
	10950 1400 10000 1400
Wire Wire Line
	10950 1600 10100 1600
Wire Wire Line
	10950 1800 10200 1800
Text HLabel 10950 2400 2    60   Output ~ 0
D14
Wire Wire Line
	9850 3800 9800 3800
Wire Wire Line
	9800 3900 9900 3900
Wire Wire Line
	9950 4000 9800 4000
Wire Wire Line
	9800 4100 10000 4100
Wire Wire Line
	10050 4200 9800 4200
Wire Wire Line
	9800 4300 10100 4300
Wire Wire Line
	10150 4400 9800 4400
$Comp
L 74xx:74HC595 U?
U 1 1 5C1D7E26
P 9400 5550
AR Path="/5B57D8E5/5C1C9688/5C1D7E26" Ref="U?"  Part="1" 
AR Path="/5B5B7509/5C1D767C/5C1D7E26" Ref="U59"  Part="1" 
F 0 "U59" H 9400 4672 50  0000 C CNN
F 1 "74HC595" H 9400 4763 50  0000 C CNN
F 2 "Package_SO:TSSOP-16_4.4x5mm_P0.65mm" H 9400 5550 50  0001 C CNN
F 3 "http://www.ti.com/lit/ds/symlink/sn74hc595.pdf" H 9400 5550 50  0001 C CNN
	1    9400 5550
	1    0    0    -1  
$EndComp
Wire Wire Line
	8600 2500 10550 2500
Connection ~ 10550 2500
Wire Wire Line
	10550 2500 10950 2500
Connection ~ 9800 1000
Wire Wire Line
	9800 1000 10950 1000
Connection ~ 9850 1100
Wire Wire Line
	9850 1100 10950 1100
Connection ~ 9900 1200
Connection ~ 9950 1300
Wire Wire Line
	9950 1300 10950 1300
Connection ~ 10000 1400
Connection ~ 10050 1500
Wire Wire Line
	10050 1500 10950 1500
Connection ~ 10100 1600
Connection ~ 10150 1700
Wire Wire Line
	10150 1700 10950 1700
Connection ~ 10200 1800
Connection ~ 10250 1900
Wire Wire Line
	10250 1900 10950 1900
Connection ~ 10300 2000
Wire Wire Line
	10300 2000 10950 2000
Connection ~ 10350 2100
Wire Wire Line
	10350 2100 10950 2100
Connection ~ 10400 2200
Wire Wire Line
	10400 2200 10950 2200
Connection ~ 10450 2300
Wire Wire Line
	10450 2300 10950 2300
Connection ~ 10500 2400
Wire Wire Line
	10500 2400 10950 2400
Wire Wire Line
	8600 1000 9800 1000
Wire Wire Line
	8600 1100 9850 1100
Wire Wire Line
	8600 1300 9950 1300
Wire Wire Line
	8600 1500 10050 1500
Wire Wire Line
	8600 1700 10150 1700
Wire Wire Line
	8600 1900 10250 1900
Wire Wire Line
	8600 2000 10300 2000
Wire Wire Line
	8600 2100 10350 2100
Wire Wire Line
	8600 2200 10400 2200
Wire Wire Line
	8600 2300 10450 2300
Wire Wire Line
	8600 2400 10500 2400
Wire Wire Line
	9800 1000 9800 3700
Wire Wire Line
	9900 1200 9900 3900
Wire Wire Line
	8600 1200 9900 1200
Wire Wire Line
	10000 1400 10000 4100
Wire Wire Line
	8600 1400 10000 1400
Wire Wire Line
	10100 1600 10100 4300
Wire Wire Line
	8600 1600 10100 1600
Wire Wire Line
	8600 1800 10200 1800
Wire Wire Line
	9850 1100 9850 3800
Wire Wire Line
	9950 1300 9950 4000
Wire Wire Line
	10050 1500 10050 4200
Wire Wire Line
	10150 1700 10150 4400
Wire Wire Line
	10200 5150 9800 5150
Wire Wire Line
	10200 1800 10200 5150
Wire Wire Line
	9800 5250 10250 5250
Wire Wire Line
	10250 1900 10250 5250
Wire Wire Line
	10300 5350 9800 5350
Wire Wire Line
	10300 2000 10300 5350
Wire Wire Line
	9800 5450 10350 5450
Wire Wire Line
	10350 2100 10350 5450
Wire Wire Line
	10400 5550 9800 5550
Wire Wire Line
	10400 2200 10400 5550
Wire Wire Line
	9800 5650 10450 5650
Wire Wire Line
	10450 2300 10450 5650
Wire Wire Line
	10500 5750 9800 5750
Wire Wire Line
	10500 2400 10500 5750
Wire Wire Line
	9800 5850 10550 5850
Wire Wire Line
	10550 2500 10550 5850
NoConn ~ 9800 6050
Wire Wire Line
	9400 6250 8200 6250
Wire Wire Line
	8200 6250 8200 4800
Connection ~ 8200 4800
Wire Wire Line
	9000 5750 8650 5750
Wire Wire Line
	8650 5750 8650 5500
Connection ~ 8650 5500
Wire Wire Line
	4100 2050 4100 3600
Wire Wire Line
	5100 3000 4850 3000
Wire Wire Line
	4850 5850 3950 5850
Wire Wire Line
	9000 3700 8800 3700
Wire Wire Line
	8800 3700 8800 3850
Wire Wire Line
	8800 3850 8450 3850
Wire Wire Line
	8450 3850 8450 5950
Wire Wire Line
	8450 5950 3950 5950
Wire Wire Line
	3950 6050 5000 6050
Wire Wire Line
	8600 6050 8600 5650
Wire Wire Line
	8600 5650 9000 5650
Wire Wire Line
	8600 5650 8600 4200
Wire Wire Line
	8600 4200 9000 4200
Connection ~ 8600 5650
Wire Wire Line
	5100 3500 5000 3500
Wire Wire Line
	5000 3500 5000 4850
Wire Wire Line
	8800 3500 9400 3500
Text Label 7100 5500 2    60   ~ 0
ShiftOutENABLE
Text Label 4350 5850 2    60   ~ 0
ASerial
Text Label 4350 5950 2    60   ~ 0
DSerial
Text Label 4400 6050 2    60   ~ 0
ShiftCLK
Wire Wire Line
	3950 6150 4900 6150
Wire Wire Line
	8100 6150 8100 6350
Wire Wire Line
	8100 6350 8850 6350
Wire Wire Line
	8850 6350 8850 5350
Wire Wire Line
	8850 3900 9000 3900
Wire Wire Line
	9000 5350 8850 5350
Connection ~ 8850 5350
Wire Wire Line
	8850 5350 8850 3900
Text Label 4200 6150 2    60   ~ 0
CLK
Wire Wire Line
	5100 3200 4900 3200
Wire Wire Line
	4900 3200 4900 4550
Wire Wire Line
	8000 6250 8000 6450
Wire Wire Line
	8000 6450 8950 6450
Wire Wire Line
	8950 6450 8950 5450
Wire Wire Line
	8950 4000 9000 4000
Wire Wire Line
	9000 5450 8950 5450
Connection ~ 8950 5450
Wire Wire Line
	8950 5450 8950 4000
Wire Wire Line
	5100 3300 4950 3300
Wire Wire Line
	4950 3300 4950 4650
Text Label 4300 6250 2    60   ~ 0
~Reset
Wire Wire Line
	4100 3600 4100 3900
Wire Wire Line
	4100 4000 4650 4000
Wire Wire Line
	4650 4000 4650 5750
Wire Wire Line
	3950 5750 4650 5750
Connection ~ 4100 3600
Text Label 4450 5750 2    60   ~ 0
ProgMode
Wire Wire Line
	4500 6350 4500 6450
$Comp
L power:GND #PWR?
U 1 1 5C1D7EAA
P 4500 6450
AR Path="/5B57D8E5/5C1C9688/5C1D7EAA" Ref="#PWR?"  Part="1" 
AR Path="/5B5B7509/5C1D767C/5C1D7EAA" Ref="#PWR0124"  Part="1" 
F 0 "#PWR0124" H 4500 6200 50  0001 C CNN
F 1 "GND" H 4505 6277 50  0000 C CNN
F 2 "" H 4500 6450 50  0001 C CNN
F 3 "" H 4500 6450 50  0001 C CNN
	1    4500 6450
	1    0    0    -1  
$EndComp
Wire Wire Line
	9400 4950 9600 4950
$Comp
L power:VCC #PWR?
U 1 1 5C1D7EB1
P 9600 4950
AR Path="/5B57D8E5/5C1C9688/5C1D7EB1" Ref="#PWR?"  Part="1" 
AR Path="/5B5B7509/5C1D767C/5C1D7EB1" Ref="#PWR0125"  Part="1" 
F 0 "#PWR0125" H 9600 4800 50  0001 C CNN
F 1 "VCC" H 9617 5123 50  0000 C CNN
F 2 "" H 9600 4950 50  0001 C CNN
F 3 "" H 9600 4950 50  0001 C CNN
	1    9600 4950
	1    0    0    -1  
$EndComp
Wire Wire Line
	5750 2800 5750 2700
Wire Wire Line
	4950 6250 8000 6250
Connection ~ 4950 6250
Wire Wire Line
	4900 6150 8100 6150
Connection ~ 4900 6150
Wire Wire Line
	5000 6050 8600 6050
Connection ~ 5000 6050
Wire Wire Line
	6050 1300 7000 1300
$Comp
L 74xx:74HC595 U?
U 1 1 5C1D7EC1
P 5750 4750
AR Path="/5B57D8E5/5C1C9688/5C1D7EC1" Ref="U?"  Part="1" 
AR Path="/5B5B7509/5C1D767C/5C1D7EC1" Ref="U56"  Part="1" 
F 0 "U56" H 5750 5528 50  0000 C CNN
F 1 "74HC595" H 5750 5437 50  0000 C CNN
F 2 "Package_SO:TSSOP-16_4.4x5mm_P0.65mm" H 5750 4750 50  0001 C CNN
F 3 "http://www.ti.com/lit/ds/symlink/sn74hc595.pdf" H 5750 4750 50  0001 C CNN
	1    5750 4750
	1    0    0    -1  
$EndComp
Wire Wire Line
	4750 5500 8650 5500
Wire Wire Line
	5350 4350 5350 4200
Wire Wire Line
	5350 4200 5650 4200
Wire Wire Line
	5650 4200 5650 4050
Wire Wire Line
	5650 4050 5950 4050
Wire Wire Line
	5950 4050 5950 3900
Wire Wire Line
	5950 3900 5900 3900
Wire Wire Line
	9800 4600 9800 4750
Wire Wire Line
	9800 4750 9450 4750
Wire Wire Line
	9450 4750 9450 4850
Wire Wire Line
	9450 4850 9000 4850
Wire Wire Line
	9000 4850 9000 5150
Wire Wire Line
	5900 3100 6100 3100
Wire Wire Line
	6100 3100 6100 1400
Wire Wire Line
	6100 1400 7000 1400
Wire Wire Line
	6150 1500 6150 3200
Wire Wire Line
	6150 3200 5900 3200
Wire Wire Line
	6150 1500 7000 1500
Wire Wire Line
	5900 3300 6200 3300
Wire Wire Line
	6200 3300 6200 1600
Wire Wire Line
	6200 1600 7000 1600
Wire Wire Line
	6250 1700 6250 3400
Wire Wire Line
	6250 3400 5900 3400
Wire Wire Line
	6250 1700 7000 1700
Wire Wire Line
	5900 3500 6300 3500
Wire Wire Line
	6300 3500 6300 1800
Wire Wire Line
	6300 1800 7000 1800
Wire Wire Line
	5900 3600 6350 3600
Wire Wire Line
	6350 3600 6350 1900
Wire Wire Line
	6350 1900 7000 1900
Wire Wire Line
	5900 3700 6400 3700
Wire Wire Line
	6400 3700 6400 2000
Wire Wire Line
	6400 2000 7000 2000
Wire Wire Line
	6150 4350 6450 4350
Wire Wire Line
	6450 4350 6450 2100
Wire Wire Line
	6450 2100 7000 2100
Wire Wire Line
	7000 2200 6500 2200
Wire Wire Line
	6500 2200 6500 4450
Wire Wire Line
	6500 4450 6150 4450
Wire Wire Line
	6150 4550 6550 4550
Wire Wire Line
	6550 4550 6550 2300
Wire Wire Line
	6550 2300 7000 2300
Wire Wire Line
	7000 2400 6600 2400
Wire Wire Line
	6600 2400 6600 4650
Wire Wire Line
	6600 4650 6150 4650
Wire Wire Line
	6150 4750 6650 4750
Wire Wire Line
	6650 4750 6650 2500
Wire Wire Line
	6650 2500 7000 2500
Wire Wire Line
	7000 2600 6700 2600
Wire Wire Line
	6700 2600 6700 4850
Wire Wire Line
	6700 4850 6150 4850
Wire Wire Line
	6150 4950 6750 4950
Wire Wire Line
	6750 4950 6750 2700
Wire Wire Line
	6750 2700 7000 2700
Wire Wire Line
	7000 2800 6800 2800
Wire Wire Line
	6800 2800 6800 5050
Wire Wire Line
	6800 5050 6150 5050
Wire Wire Line
	6950 900  6950 550 
Wire Wire Line
	6950 550  6850 550 
Wire Wire Line
	6850 550  6850 650 
Wire Wire Line
	6950 900  7000 900 
$Comp
L power:GND #PWR?
U 1 1 5C1D7F16
P 6850 650
AR Path="/5B57D8E5/5C1C9688/5C1D7F16" Ref="#PWR?"  Part="1" 
AR Path="/5B5B7509/5C1D767C/5C1D7F16" Ref="#PWR0126"  Part="1" 
F 0 "#PWR0126" H 6850 400 50  0001 C CNN
F 1 "GND" H 6855 477 50  0000 C CNN
F 2 "" H 6850 650 50  0001 C CNN
F 3 "" H 6850 650 50  0001 C CNN
	1    6850 650 
	1    0    0    -1  
$EndComp
Wire Wire Line
	5400 1000 5400 700 
Wire Wire Line
	5400 700  3850 700 
Wire Wire Line
	3850 700  3850 2900
Wire Wire Line
	3850 2900 4000 2900
Wire Wire Line
	4000 2900 4000 4100
Wire Wire Line
	4000 4100 4550 4100
Wire Wire Line
	4550 4100 4550 5650
Wire Wire Line
	4550 5650 3950 5650
Wire Wire Line
	5500 900  5500 600 
Wire Wire Line
	5500 600  3750 600 
Wire Wire Line
	3750 600  3750 3000
Wire Wire Line
	3750 3000 3900 3000
Wire Wire Line
	3900 3000 3900 4200
Wire Wire Line
	3900 4200 4450 4200
Wire Wire Line
	4450 4200 4450 5550
Wire Wire Line
	4450 5550 3950 5550
Text Label 4200 5650 2    60   ~ 0
~WE
Text Label 4200 5550 2    60   ~ 0
~OE
Wire Wire Line
	3950 6250 4950 6250
Wire Wire Line
	3950 6350 4500 6350
$Comp
L power:GND #PWR?
U 1 1 5C1D7F32
P 3500 3300
AR Path="/5B57D8E5/5C1C9688/5C1D7F32" Ref="#PWR?"  Part="1" 
AR Path="/5B5B7509/5C1D767C/5C1D7F32" Ref="#PWR0127"  Part="1" 
F 0 "#PWR0127" H 3500 3050 50  0001 C CNN
F 1 "GND" H 3505 3127 50  0000 C CNN
F 2 "" H 3500 3300 50  0001 C CNN
F 3 "" H 3500 3300 50  0001 C CNN
	1    3500 3300
	1    0    0    -1  
$EndComp
$Comp
L Device:R R?
U 1 1 5C1D7F38
P 3500 3150
AR Path="/5B57D8E5/5C1C9688/5C1D7F38" Ref="R?"  Part="1" 
AR Path="/5B5B7509/5C1D767C/5C1D7F38" Ref="R105"  Part="1" 
F 0 "R105" H 3570 3196 50  0000 L CNN
F 1 "10K" H 3570 3105 50  0000 L CNN
F 2 "8bit-smd-custom:R_0603_1608Metric_Pad1.05x0.95mm_HandSolder" V 3430 3150 50  0001 C CNN
F 3 "~" H 3500 3150 50  0001 C CNN
	1    3500 3150
	1    0    0    -1  
$EndComp
Wire Wire Line
	3500 3000 3750 3000
Connection ~ 3750 3000
Connection ~ 3850 2900
$Comp
L Device:R R?
U 1 1 5C1D7F42
P 3350 2900
AR Path="/5B57D8E5/5C1C9688/5C1D7F42" Ref="R?"  Part="1" 
AR Path="/5B5B7509/5C1D767C/5C1D7F42" Ref="R104"  Part="1" 
F 0 "R104" H 3420 2946 50  0000 L CNN
F 1 "10K" H 3420 2855 50  0000 L CNN
F 2 "8bit-smd-custom:R_0603_1608Metric_Pad1.05x0.95mm_HandSolder" V 3280 2900 50  0001 C CNN
F 3 "~" H 3350 2900 50  0001 C CNN
	1    3350 2900
	0    1    1    0   
$EndComp
Wire Wire Line
	3500 2900 3850 2900
$Comp
L power:VCC #PWR?
U 1 1 5C1D7F4A
P 6150 4150
AR Path="/5B57D8E5/5C1C9688/5C1D7F4A" Ref="#PWR?"  Part="1" 
AR Path="/5B5B7509/5C1D767C/5C1D7F4A" Ref="#PWR0128"  Part="1" 
F 0 "#PWR0128" H 6150 4000 50  0001 C CNN
F 1 "VCC" H 6167 4323 50  0000 C CNN
F 2 "" H 6150 4150 50  0001 C CNN
F 3 "" H 6150 4150 50  0001 C CNN
	1    6150 4150
	1    0    0    -1  
$EndComp
Wire Wire Line
	5750 4150 6150 4150
$Comp
L power:GND #PWR?
U 1 1 5C1D7F51
P 5100 4100
AR Path="/5B57D8E5/5C1C9688/5C1D7F51" Ref="#PWR?"  Part="1" 
AR Path="/5B5B7509/5C1D767C/5C1D7F51" Ref="#PWR0129"  Part="1" 
F 0 "#PWR0129" H 5100 3850 50  0001 C CNN
F 1 "GND" H 5105 3927 50  0000 C CNN
F 2 "" H 5100 4100 50  0001 C CNN
F 3 "" H 5100 4100 50  0001 C CNN
	1    5100 4100
	1    0    0    -1  
$EndComp
Wire Wire Line
	5100 4100 5500 4100
$Comp
L power:VCC #PWR?
U 1 1 5C1D7F58
P 3200 2900
AR Path="/5B57D8E5/5C1C9688/5C1D7F58" Ref="#PWR?"  Part="1" 
AR Path="/5B5B7509/5C1D767C/5C1D7F58" Ref="#PWR0130"  Part="1" 
F 0 "#PWR0130" H 3200 2750 50  0001 C CNN
F 1 "VCC" H 3217 3073 50  0000 C CNN
F 2 "" H 3200 2900 50  0001 C CNN
F 3 "" H 3200 2900 50  0001 C CNN
	1    3200 2900
	1    0    0    -1  
$EndComp
NoConn ~ 6150 5250
Wire Wire Line
	6950 4800 7150 4800
Wire Wire Line
	7150 4800 7150 5300
Wire Wire Line
	7150 5300 6250 5300
Wire Wire Line
	6250 5300 6250 5450
Wire Wire Line
	6250 5450 5750 5450
Connection ~ 7150 4800
Wire Wire Line
	7150 4800 8200 4800
Text Label 3800 3650 2    60   ~ 0
DefaultRead
$Comp
L Connector_Generic:Conn_01x09 J?
U 1 1 5C1D7F67
P 3750 5950
AR Path="/5B57D8E5/5C1C9688/5C1D7F67" Ref="J?"  Part="1" 
AR Path="/5B5B7509/5C1D767C/5C1D7F67" Ref="J3"  Part="1" 
F 0 "J3" H 3830 5992 50  0000 L CNN
F 1 "Conn_01x09" H 3830 5901 50  0000 L CNN
F 2 "Connector_PinHeader_2.54mm:PinHeader_1x09_P2.54mm_Vertical" H 3750 5950 50  0001 C CNN
F 3 "~" H 3750 5950 50  0001 C CNN
	1    3750 5950
	-1   0    0    1   
$EndComp
Wire Wire Line
	4850 750  4900 750 
Wire Wire Line
	4900 750  4900 850 
Wire Wire Line
	4900 850  5150 850 
Wire Wire Line
	5500 900  6750 900 
Wire Wire Line
	6750 900  6750 1000
Wire Wire Line
	6750 1000 7000 1000
Wire Wire Line
	7000 1100 6650 1100
Wire Wire Line
	6650 1100 6650 1000
Wire Wire Line
	6650 1000 5400 1000
Wire Wire Line
	5350 1050 5800 1050
Wire Wire Line
	5800 1050 5800 1300
Wire Wire Line
	5800 1300 6050 1300
Connection ~ 6050 1300
Wire Wire Line
	6100 1400 5750 1400
Wire Wire Line
	5750 1400 5750 1150
Wire Wire Line
	5750 1150 5350 1150
Connection ~ 6100 1400
Wire Wire Line
	5350 1250 5700 1250
Wire Wire Line
	5700 1250 5700 1500
Wire Wire Line
	5700 1500 6150 1500
Connection ~ 6150 1500
Wire Wire Line
	6200 1600 5650 1600
Wire Wire Line
	5650 1600 5650 1350
Wire Wire Line
	5650 1350 5350 1350
Connection ~ 6200 1600
Wire Wire Line
	5350 1450 5600 1450
Wire Wire Line
	5600 1450 5600 1700
Wire Wire Line
	5600 1700 6250 1700
Connection ~ 6250 1700
Wire Wire Line
	6300 1800 5550 1800
Wire Wire Line
	5550 1800 5550 1550
Wire Wire Line
	5550 1550 5350 1550
Connection ~ 6300 1800
Wire Wire Line
	5350 1650 5500 1650
Wire Wire Line
	5500 1650 5500 1900
Wire Wire Line
	5500 1900 6350 1900
Connection ~ 6350 1900
Wire Wire Line
	6400 2000 5450 2000
Wire Wire Line
	5450 2000 5450 1750
Wire Wire Line
	5450 1750 5350 1750
Connection ~ 6400 2000
Wire Wire Line
	950  1050 4350 1050
Wire Wire Line
	950  1150 4350 1150
Wire Wire Line
	950  1250 4350 1250
Wire Wire Line
	950  1350 4350 1350
Wire Wire Line
	950  1450 4350 1450
Wire Wire Line
	950  1550 4350 1550
Wire Wire Line
	950  1650 4350 1650
Wire Wire Line
	950  1750 4350 1750
$Comp
L 74xx:74HC245 U?
U 1 1 5C4F507C
P 2400 2750
AR Path="/5B57D8E5/5C1C9688/5C4F507C" Ref="U?"  Part="1" 
AR Path="/5B5B7509/5C1D767C/5C4F507C" Ref="U47"  Part="1" 
F 0 "U47" H 2400 3728 50  0000 C CNN
F 1 "74HC245" H 2400 3637 50  0000 C CNN
F 2 "Package_SO:SOIC-20W_7.5x12.8mm_P1.27mm" H 2400 2750 50  0001 C CNN
F 3 "http://www.ti.com/lit/gpn/sn74HC245" H 2400 2750 50  0001 C CNN
	1    2400 2750
	1    0    0    -1  
$EndComp
$Comp
L power:GND #PWR0131
U 1 1 5C50D50B
P 2400 3550
F 0 "#PWR0131" H 2400 3300 50  0001 C CNN
F 1 "GND" H 2405 3377 50  0000 C CNN
F 2 "" H 2400 3550 50  0001 C CNN
F 3 "" H 2400 3550 50  0001 C CNN
	1    2400 3550
	1    0    0    -1  
$EndComp
Text HLabel 950  1850 0    60   Input ~ 0
A8
Text HLabel 950  1950 0    60   Input ~ 0
A9
Text HLabel 950  2050 0    60   Input ~ 0
A10
Wire Wire Line
	950  1850 1750 1850
Wire Wire Line
	1750 1850 1750 2250
Wire Wire Line
	1750 2250 1900 2250
Wire Wire Line
	1900 2350 1650 2350
Wire Wire Line
	1650 2350 1650 1950
Wire Wire Line
	1650 1950 950  1950
Wire Wire Line
	950  2050 1550 2050
Wire Wire Line
	1550 2050 1550 2450
Wire Wire Line
	1550 2450 1900 2450
NoConn ~ 1900 2550
NoConn ~ 1900 2650
NoConn ~ 1900 2750
NoConn ~ 1900 2850
NoConn ~ 1900 2950
NoConn ~ 2900 2550
NoConn ~ 2900 2650
NoConn ~ 2900 2750
NoConn ~ 2900 2850
NoConn ~ 2900 2950
Wire Wire Line
	2900 2250 4550 2250
Wire Wire Line
	4550 2250 4550 2600
Wire Wire Line
	4550 2600 5250 2600
Wire Wire Line
	5250 2600 5250 2100
Wire Wire Line
	5250 2100 6450 2100
Connection ~ 6450 2100
Wire Wire Line
	6500 2200 5300 2200
Wire Wire Line
	5300 2200 5300 2650
Wire Wire Line
	5300 2650 4500 2650
Wire Wire Line
	4500 2650 4500 2350
Wire Wire Line
	4500 2350 2900 2350
Connection ~ 6500 2200
Wire Wire Line
	2900 2450 4450 2450
Wire Wire Line
	4450 2450 4450 2700
Wire Wire Line
	4450 2700 5350 2700
Wire Wire Line
	5350 2700 5350 2300
Wire Wire Line
	5350 2300 6550 2300
Connection ~ 6550 2300
$Comp
L power:VCC #PWR0132
U 1 1 5C7E79B0
P 2650 1950
F 0 "#PWR0132" H 2650 1800 50  0001 C CNN
F 1 "VCC" H 2667 2123 50  0000 C CNN
F 2 "" H 2650 1950 50  0001 C CNN
F 3 "" H 2650 1950 50  0001 C CNN
	1    2650 1950
	1    0    0    -1  
$EndComp
Wire Wire Line
	2400 1950 2650 1950
$Comp
L power:VCC #PWR0133
U 1 1 5C805117
P 1650 3150
F 0 "#PWR0133" H 1650 3000 50  0001 C CNN
F 1 "VCC" H 1667 3323 50  0000 C CNN
F 2 "" H 1650 3150 50  0001 C CNN
F 3 "" H 1650 3150 50  0001 C CNN
	1    1650 3150
	1    0    0    -1  
$EndComp
Wire Wire Line
	1900 3150 1650 3150
Wire Wire Line
	1900 3250 1900 3900
Wire Wire Line
	1900 3900 4100 3900
Connection ~ 4100 3900
Wire Wire Line
	4100 3900 4100 4000
Text Label 4000 6350 0    60   ~ 0
GND
$Comp
L power:GND #PWR060
U 1 1 5CD76646
P 1000 6700
F 0 "#PWR060" H 1000 6450 50  0001 C CNN
F 1 "GND" H 1005 6527 50  0000 C CNN
F 2 "" H 1000 6700 50  0001 C CNN
F 3 "" H 1000 6700 50  0001 C CNN
	1    1000 6700
	1    0    0    -1  
$EndComp
$Comp
L power:VCC #PWR059
U 1 1 5CD76693
P 1000 5800
F 0 "#PWR059" H 1000 5650 50  0001 C CNN
F 1 "VCC" H 1017 5973 50  0000 C CNN
F 2 "" H 1000 5800 50  0001 C CNN
F 3 "" H 1000 5800 50  0001 C CNN
	1    1000 5800
	1    0    0    -1  
$EndComp
$Comp
L pspice:CAP C26
U 1 1 5CD7673B
P 1250 6250
F 0 "C26" H 1428 6296 50  0000 L CNN
F 1 "0.1uF" H 1428 6205 50  0000 L CNN
F 2 "Capacitor_SMD:C_0603_1608Metric" H 1250 6250 50  0001 C CNN
F 3 "~" H 1250 6250 50  0001 C CNN
	1    1250 6250
	1    0    0    -1  
$EndComp
$Comp
L pspice:CAP C25
U 1 1 5CD76794
P 750 6250
F 0 "C25" H 928 6296 50  0000 L CNN
F 1 "0.1uF" H 928 6205 50  0000 L CNN
F 2 "Capacitor_SMD:C_0603_1608Metric" H 750 6250 50  0001 C CNN
F 3 "~" H 750 6250 50  0001 C CNN
	1    750  6250
	1    0    0    -1  
$EndComp
Wire Wire Line
	1000 5800 1250 5800
Wire Wire Line
	1250 5800 1250 6000
Wire Wire Line
	1000 5800 750  5800
Wire Wire Line
	750  5800 750  6000
Connection ~ 1000 5800
Wire Wire Line
	750  6500 750  6700
Wire Wire Line
	750  6700 1000 6700
Wire Wire Line
	1000 6700 1250 6700
Wire Wire Line
	1250 6700 1250 6500
Connection ~ 1000 6700
$Comp
L 74xGxx:74AHC1G04 U52
U 1 1 5C3E6A5D
P 4500 3600
F 0 "U52" H 4475 3867 50  0000 C CNN
F 1 "74AHC1G04" H 4475 3776 50  0000 C CNN
F 2 "Package_TO_SOT_SMD:SOT-353_SC-70-5_Handsoldering" H 4500 3600 50  0001 C CNN
F 3 "http://www.ti.com/lit/sg/scyt129e/scyt129e.pdf" H 4500 3600 50  0001 C CNN
	1    4500 3600
	1    0    0    -1  
$EndComp
Wire Wire Line
	4750 3600 5100 3600
Connection ~ 4750 3600
Wire Wire Line
	5350 4950 4750 4950
Connection ~ 4750 4950
Wire Wire Line
	4750 4950 4750 5500
Wire Wire Line
	5350 4850 5000 4850
Connection ~ 5000 4850
Wire Wire Line
	5000 4850 5000 6050
Wire Wire Line
	5350 4650 4950 4650
Connection ~ 4950 4650
Wire Wire Line
	4950 4650 4950 6250
Wire Wire Line
	4850 3000 4850 5850
Wire Wire Line
	5350 4550 4900 4550
Connection ~ 4900 4550
Wire Wire Line
	4900 4550 4900 6150
$Comp
L 8bit-smd-custom:SST39VF400A-70-4C-EK U57
U 1 1 5C319672
P 7000 900
F 0 "U57" H 7800 1287 60  0000 C CNN
F 1 "SST39VF400A-70-4C-EK" H 7800 1181 60  0000 C CNN
F 2 "Package_SO:TSOP-I-48_18.4x12mm_P0.5mm" H 7800 1140 60  0001 C CNN
F 3 "" H 7000 900 60  0000 C CNN
	1    7000 900 
	1    0    0    -1  
$EndComp
$Comp
L 8bit-smd-custom:SST39VF400A-70-4C-EK U57
U 2 1 5C319A53
P 7000 3550
F 0 "U57" H 7800 3937 60  0000 C CNN
F 1 "SST39VF400A-70-4C-EK" H 7800 3831 60  0000 C CNN
F 2 "Package_SO:TSOP-I-48_18.4x12mm_P0.5mm" H 7800 3790 60  0001 C CNN
F 3 "" H 7000 3550 60  0000 C CNN
	2    7000 3550
	1    0    0    -1  
$EndComp
Wire Wire Line
	6950 4350 7000 4350
Wire Wire Line
	6950 4350 6950 4800
Wire Wire Line
	6950 4350 6950 3000
Wire Wire Line
	6950 2900 7000 2900
Connection ~ 6950 4350
Wire Wire Line
	7000 3000 6950 3000
Connection ~ 6950 3000
Wire Wire Line
	6950 3000 6950 2900
$EndSCHEMATC
