EESchema Schematic File Version 4
LIBS:8bit-computer-cache
EELAYER 26 0
EELAYER END
$Descr USLetter 11000 8500
encoding utf-8
Sheet 12 13
Title ""
Date ""
Rev ""
Comp ""
Comment1 ""
Comment2 ""
Comment3 ""
Comment4 ""
$EndDescr
$Comp
L 8bit-computer-rescue:74LS161-8bit-computer-rescue U48
U 1 1 5B5B76B0
P 2500 2350
F 0 "U48" H 2500 2400 50  0000 C CNN
F 1 "74LS161" H 2500 2300 50  0000 C CNN
F 2 "Package_SO:SOIC-16_3.9x9.9mm_P1.27mm" H 2500 2350 50  0001 C CNN
F 3 "" H 2500 2350 50  0001 C CNN
	1    2500 2350
	1    0    0    -1  
$EndComp
$Comp
L 8bit-computer-rescue:74LS138-8bit-computer-rescue U50
U 1 1 5B5B76C7
P 2600 3550
F 0 "U50" H 2550 3600 50  0000 C CNN
F 1 "74LS138" H 2550 3500 50  0000 C CNN
F 2 "Package_SO:SOIC-16_3.9x9.9mm_P1.27mm" H 2600 3550 50  0001 C CNN
F 3 "" H 2600 3550 50  0001 C CNN
	1    2600 3550
	-1   0    0    -1  
$EndComp
$Comp
L Device:LED_ALT D58
U 1 1 5B5B775C
P 3100 6900
F 0 "D58" H 3100 7000 50  0000 C CNN
F 1 "BLUE" H 3100 6800 50  0000 C CNN
F 2 "8bit-smd-custom:LED_0603_1608Metric_SMLTXT" H 3100 6900 50  0001 C CNN
F 3 "" H 3100 6900 50  0001 C CNN
	1    3100 6900
	0    -1   -1   0   
$EndComp
$Comp
L Device:LED_ALT D59
U 1 1 5B5B7842
P 3300 6900
F 0 "D59" H 3300 7000 50  0000 C CNN
F 1 "BLUE" H 3300 6800 50  0000 C CNN
F 2 "8bit-smd-custom:LED_0603_1608Metric_SMLTXT" H 3300 6900 50  0001 C CNN
F 3 "" H 3300 6900 50  0001 C CNN
	1    3300 6900
	0    -1   -1   0   
$EndComp
$Comp
L Device:LED_ALT D60
U 1 1 5B5B7864
P 3500 6900
F 0 "D60" H 3500 7000 50  0000 C CNN
F 1 "BLUE" H 3500 6800 50  0000 C CNN
F 2 "8bit-smd-custom:LED_0603_1608Metric_SMLTXT" H 3500 6900 50  0001 C CNN
F 3 "" H 3500 6900 50  0001 C CNN
	1    3500 6900
	0    -1   -1   0   
$EndComp
$Comp
L Device:LED_ALT D61
U 1 1 5B5B788C
P 3700 6900
F 0 "D61" H 3700 7000 50  0000 C CNN
F 1 "BLUE" H 3700 6800 50  0000 C CNN
F 2 "8bit-smd-custom:LED_0603_1608Metric_SMLTXT" H 3700 6900 50  0001 C CNN
F 3 "" H 3700 6900 50  0001 C CNN
	1    3700 6900
	0    -1   -1   0   
$EndComp
$Comp
L Device:LED_ALT D62
U 1 1 5B5B78B4
P 3900 6900
F 0 "D62" H 3900 7000 50  0000 C CNN
F 1 "BLUE" H 3900 6800 50  0000 C CNN
F 2 "8bit-smd-custom:LED_0603_1608Metric_SMLTXT" H 3900 6900 50  0001 C CNN
F 3 "" H 3900 6900 50  0001 C CNN
	1    3900 6900
	0    -1   -1   0   
$EndComp
$Comp
L Device:LED_ALT D63
U 1 1 5B5B78E0
P 4100 6900
F 0 "D63" H 4100 7000 50  0000 C CNN
F 1 "BLUE" H 4100 6800 50  0000 C CNN
F 2 "8bit-smd-custom:LED_0603_1608Metric_SMLTXT" H 4100 6900 50  0001 C CNN
F 3 "" H 4100 6900 50  0001 C CNN
	1    4100 6900
	0    -1   -1   0   
$EndComp
$Comp
L Device:LED_ALT D64
U 1 1 5B5B790E
P 4300 6900
F 0 "D64" H 4300 7000 50  0000 C CNN
F 1 "BLUE" H 4300 6800 50  0000 C CNN
F 2 "8bit-smd-custom:LED_0603_1608Metric_SMLTXT" H 4300 6900 50  0001 C CNN
F 3 "" H 4300 6900 50  0001 C CNN
	1    4300 6900
	0    -1   -1   0   
$EndComp
$Comp
L Device:LED_ALT D65
U 1 1 5B5B793F
P 4500 6900
F 0 "D65" H 4500 7000 50  0000 C CNN
F 1 "BLUE" H 4500 6800 50  0000 C CNN
F 2 "8bit-smd-custom:LED_0603_1608Metric_SMLTXT" H 4500 6900 50  0001 C CNN
F 3 "" H 4500 6900 50  0001 C CNN
	1    4500 6900
	0    -1   -1   0   
$EndComp
$Comp
L Device:LED_ALT D66
U 1 1 5B5B7974
P 4700 6900
F 0 "D66" H 4700 7000 50  0000 C CNN
F 1 "BLUE" H 4700 6800 50  0000 C CNN
F 2 "8bit-smd-custom:LED_0603_1608Metric_SMLTXT" H 4700 6900 50  0001 C CNN
F 3 "" H 4700 6900 50  0001 C CNN
	1    4700 6900
	0    -1   -1   0   
$EndComp
$Comp
L Device:LED_ALT D67
U 1 1 5B5B79AB
P 4900 6900
F 0 "D67" H 4900 7000 50  0000 C CNN
F 1 "BLUE" H 4900 6800 50  0000 C CNN
F 2 "8bit-smd-custom:LED_0603_1608Metric_SMLTXT" H 4900 6900 50  0001 C CNN
F 3 "" H 4900 6900 50  0001 C CNN
	1    4900 6900
	0    -1   -1   0   
$EndComp
$Comp
L Device:LED_ALT D68
U 1 1 5B5B79E5
P 5100 6900
F 0 "D68" H 5100 7000 50  0000 C CNN
F 1 "BLUE" H 5100 6800 50  0000 C CNN
F 2 "8bit-smd-custom:LED_0603_1608Metric_SMLTXT" H 5100 6900 50  0001 C CNN
F 3 "" H 5100 6900 50  0001 C CNN
	1    5100 6900
	0    -1   -1   0   
$EndComp
$Comp
L Device:LED_ALT D69
U 1 1 5B5B7A22
P 5300 6900
F 0 "D69" H 5300 7000 50  0000 C CNN
F 1 "BLUE" H 5300 6800 50  0000 C CNN
F 2 "8bit-smd-custom:LED_0603_1608Metric_SMLTXT" H 5300 6900 50  0001 C CNN
F 3 "" H 5300 6900 50  0001 C CNN
	1    5300 6900
	0    -1   -1   0   
$EndComp
$Comp
L Device:LED_ALT D70
U 1 1 5B5B7A62
P 5500 6900
F 0 "D70" H 5500 7000 50  0000 C CNN
F 1 "BLUE" H 5500 6800 50  0000 C CNN
F 2 "8bit-smd-custom:LED_0603_1608Metric_SMLTXT" H 5500 6900 50  0001 C CNN
F 3 "" H 5500 6900 50  0001 C CNN
	1    5500 6900
	0    -1   -1   0   
$EndComp
$Comp
L Device:LED_ALT D71
U 1 1 5B5B7AA5
P 5700 6900
F 0 "D71" H 5700 7000 50  0000 C CNN
F 1 "BLUE" H 5700 6800 50  0000 C CNN
F 2 "8bit-smd-custom:LED_0603_1608Metric_SMLTXT" H 5700 6900 50  0001 C CNN
F 3 "" H 5700 6900 50  0001 C CNN
	1    5700 6900
	0    -1   -1   0   
$EndComp
$Comp
L Device:LED_ALT D72
U 1 1 5B5B7AEB
P 5900 6900
F 0 "D72" H 5900 7000 50  0000 C CNN
F 1 "BLUE" H 5900 6800 50  0000 C CNN
F 2 "8bit-smd-custom:LED_0603_1608Metric_SMLTXT" H 5900 6900 50  0001 C CNN
F 3 "" H 5900 6900 50  0001 C CNN
	1    5900 6900
	0    -1   -1   0   
$EndComp
$Comp
L Device:LED_ALT D73
U 1 1 5B5B7B79
P 6100 6900
F 0 "D73" H 6100 7000 50  0000 C CNN
F 1 "BLUE" H 6100 6800 50  0000 C CNN
F 2 "8bit-smd-custom:LED_0603_1608Metric_SMLTXT" H 6100 6900 50  0001 C CNN
F 3 "" H 6100 6900 50  0001 C CNN
	1    6100 6900
	0    -1   -1   0   
$EndComp
Text HLabel 8600 1550 2    60   Output ~ 0
HLT
Text HLabel 8600 1750 2    60   Output ~ 0
~MI
Text HLabel 8600 1950 2    60   Output ~ 0
RI
Text HLabel 8600 2150 2    60   Output ~ 0
~RO
Text HLabel 8600 2500 2    60   Output ~ 0
~IO
Text HLabel 8600 2850 2    60   Output ~ 0
~II
Text HLabel 8600 3200 2    60   Output ~ 0
~AI
Text HLabel 8600 3550 2    60   Output ~ 0
~AO
Text HLabel 8600 4350 2    60   Output ~ 0
~EO
Text HLabel 8600 4550 2    60   Output ~ 0
SU
Text HLabel 8600 4750 2    60   Output ~ 0
~BI
Text HLabel 8600 4950 2    60   Output ~ 0
OI
Text HLabel 8600 5050 2    60   Output ~ 0
CE
Text HLabel 8600 5250 2    60   Output ~ 0
~CO
Text HLabel 8600 5600 2    60   Output ~ 0
~J
Text HLabel 8600 5950 2    60   Output ~ 0
~FI
$Comp
L 8bit-computer-rescue:74LS04-8bit-computer-rescue U49
U 1 1 5B5BA607
P 8050 1750
F 0 "U49" H 8245 1865 50  0000 C CNN
F 1 "74LS04" H 8240 1625 50  0000 C CNN
F 2 "Package_SO:SOIC-14_3.9x8.7mm_P1.27mm" H 8050 1750 50  0001 C CNN
F 3 "" H 8050 1750 50  0001 C CNN
	1    8050 1750
	1    0    0    -1  
$EndComp
$Comp
L 8bit-computer-rescue:74LS04-8bit-computer-rescue U49
U 2 1 5B5BA6D2
P 8050 2150
F 0 "U49" H 8245 2265 50  0000 C CNN
F 1 "74LS04" H 8240 2025 50  0000 C CNN
F 2 "Package_SO:SOIC-14_3.9x8.7mm_P1.27mm" H 8050 2150 50  0001 C CNN
F 3 "" H 8050 2150 50  0001 C CNN
	2    8050 2150
	1    0    0    -1  
$EndComp
$Comp
L 8bit-computer-rescue:74LS04-8bit-computer-rescue U49
U 3 1 5B5BA7D7
P 8050 2500
F 0 "U49" H 8245 2615 50  0000 C CNN
F 1 "74LS04" H 8240 2375 50  0000 C CNN
F 2 "Package_SO:SOIC-14_3.9x8.7mm_P1.27mm" H 8050 2500 50  0001 C CNN
F 3 "" H 8050 2500 50  0001 C CNN
	3    8050 2500
	1    0    0    -1  
$EndComp
$Comp
L 8bit-computer-rescue:74LS04-8bit-computer-rescue U49
U 6 1 5B5BA8CE
P 8050 2850
F 0 "U49" H 8245 2965 50  0000 C CNN
F 1 "74LS04" H 8240 2725 50  0000 C CNN
F 2 "Package_SO:SOIC-14_3.9x8.7mm_P1.27mm" H 8050 2850 50  0001 C CNN
F 3 "" H 8050 2850 50  0001 C CNN
	6    8050 2850
	1    0    0    -1  
$EndComp
$Comp
L 8bit-computer-rescue:74LS04-8bit-computer-rescue U49
U 5 1 5B5BAA1C
P 8050 3200
F 0 "U49" H 8245 3315 50  0000 C CNN
F 1 "74LS04" H 8240 3075 50  0000 C CNN
F 2 "Package_SO:SOIC-14_3.9x8.7mm_P1.27mm" H 8050 3200 50  0001 C CNN
F 3 "" H 8050 3200 50  0001 C CNN
	5    8050 3200
	1    0    0    -1  
$EndComp
$Comp
L 8bit-computer-rescue:74LS04-8bit-computer-rescue U49
U 4 1 5B5BAB33
P 8050 3550
F 0 "U49" H 8245 3665 50  0000 C CNN
F 1 "74LS04" H 8240 3425 50  0000 C CNN
F 2 "Package_SO:SOIC-14_3.9x8.7mm_P1.27mm" H 8050 3550 50  0001 C CNN
F 3 "" H 8050 3550 50  0001 C CNN
	4    8050 3550
	1    0    0    -1  
$EndComp
$Comp
L 8bit-computer-rescue:74LS04-8bit-computer-rescue U53
U 1 1 5B5BAD55
P 8050 4350
F 0 "U53" H 8245 4465 50  0000 C CNN
F 1 "74LS04" H 8240 4225 50  0000 C CNN
F 2 "Package_SO:SOIC-14_3.9x8.7mm_P1.27mm" H 8050 4350 50  0001 C CNN
F 3 "" H 8050 4350 50  0001 C CNN
	1    8050 4350
	1    0    0    -1  
$EndComp
$Comp
L 8bit-computer-rescue:74LS04-8bit-computer-rescue U53
U 2 1 5B5BAE3C
P 8050 4750
F 0 "U53" H 8245 4865 50  0000 C CNN
F 1 "74LS04" H 8240 4625 50  0000 C CNN
F 2 "Package_SO:SOIC-14_3.9x8.7mm_P1.27mm" H 8050 4750 50  0001 C CNN
F 3 "" H 8050 4750 50  0001 C CNN
	2    8050 4750
	1    0    0    -1  
$EndComp
$Comp
L 8bit-computer-rescue:74LS04-8bit-computer-rescue U53
U 6 1 5B5BAFB6
P 8050 5250
F 0 "U53" H 8245 5365 50  0000 C CNN
F 1 "74LS04" H 8240 5125 50  0000 C CNN
F 2 "Package_SO:SOIC-14_3.9x8.7mm_P1.27mm" H 8050 5250 50  0001 C CNN
F 3 "" H 8050 5250 50  0001 C CNN
	6    8050 5250
	1    0    0    -1  
$EndComp
$Comp
L 8bit-computer-rescue:74LS04-8bit-computer-rescue U53
U 5 1 5B5BB043
P 8050 5600
F 0 "U53" H 8245 5715 50  0000 C CNN
F 1 "74LS04" H 8240 5475 50  0000 C CNN
F 2 "Package_SO:SOIC-14_3.9x8.7mm_P1.27mm" H 8050 5600 50  0001 C CNN
F 3 "" H 8050 5600 50  0001 C CNN
	5    8050 5600
	1    0    0    -1  
$EndComp
$Comp
L 8bit-computer-rescue:74LS04-8bit-computer-rescue U53
U 3 1 5B5BB0D0
P 8050 5950
F 0 "U53" H 8245 6065 50  0000 C CNN
F 1 "74LS04" H 8240 5825 50  0000 C CNN
F 2 "Package_SO:SOIC-14_3.9x8.7mm_P1.27mm" H 8050 5950 50  0001 C CNN
F 3 "" H 8050 5950 50  0001 C CNN
	3    8050 5950
	1    0    0    -1  
$EndComp
Text HLabel 3200 4350 0    60   Input ~ 0
IR_4
Text HLabel 3200 4450 0    60   Input ~ 0
IR_5
Text HLabel 3200 4550 0    60   Input ~ 0
IR_6
Text HLabel 3200 4650 0    60   Input ~ 0
IR_7
$Comp
L 8bit-computer-rescue:74LS00-8bit-computer-rescue U51
U 2 1 5B5BFFB1
P 1800 4550
F 0 "U51" H 1800 4600 50  0000 C CNN
F 1 "74LS00" H 1800 4450 50  0000 C CNN
F 2 "Package_SO:SOIC-14_3.9x8.7mm_P1.27mm" H 1800 4550 50  0001 C CNN
F 3 "" H 1800 4550 50  0001 C CNN
	2    1800 4550
	-1   0    0    1   
$EndComp
$Comp
L 8bit-computer-rescue:74LS00-8bit-computer-rescue U51
U 1 1 5B5C004E
P 800 3850
F 0 "U51" H 800 3900 50  0000 C CNN
F 1 "74LS00" H 800 3750 50  0000 C CNN
F 2 "Package_SO:SOIC-14_3.9x8.7mm_P1.27mm" H 800 3850 50  0001 C CNN
F 3 "" H 800 3850 50  0001 C CNN
	1    800  3850
	0    -1   -1   0   
$EndComp
$Comp
L 8bit-computer-rescue:74LS00-8bit-computer-rescue U51
U 4 1 5B5C00E8
P 2950 5600
F 0 "U51" H 2950 5650 50  0000 C CNN
F 1 "74LS00" H 2950 5500 50  0000 C CNN
F 2 "Package_SO:SOIC-14_3.9x8.7mm_P1.27mm" H 2950 5600 50  0001 C CNN
F 3 "" H 2950 5600 50  0001 C CNN
	4    2950 5600
	1    0    0    -1  
$EndComp
$Comp
L 8bit-computer-rescue:74LS00-8bit-computer-rescue U51
U 3 1 5B5C0194
P 1650 5600
F 0 "U51" H 1650 5650 50  0000 C CNN
F 1 "74LS00" H 1650 5500 50  0000 C CNN
F 2 "Package_SO:SOIC-14_3.9x8.7mm_P1.27mm" H 1650 5600 50  0001 C CNN
F 3 "" H 1650 5600 50  0001 C CNN
	3    1650 5600
	1    0    0    -1  
$EndComp
$Comp
L 8bit-computer-rescue:SW_Push-8bit-computer-rescue SW8
U 1 1 5B5C0243
P 1200 5150
F 0 "SW8" H 1250 5250 50  0000 L CNN
F 1 "Reset" H 1200 5090 50  0000 C CNN
F 2 "Button_Switch_SMD:SW_SPST_PTS645" H 1200 5350 50  0001 C CNN
F 3 "" H 1200 5350 50  0001 C CNN
	1    1200 5150
	1    0    0    -1  
$EndComp
$Comp
L Device:R R74
U 1 1 5B5C02EF
P 2650 1450
F 0 "R74" V 2730 1450 50  0000 C CNN
F 1 "220" V 2650 1450 50  0000 C CNN
F 2 "8bit-smd-custom:R_0603_1608Metric_Pad1.05x0.95mm_HandSolder" V 2580 1450 50  0001 C CNN
F 3 "" H 2650 1450 50  0001 C CNN
	1    2650 1450
	0    1    1    0   
$EndComp
$Comp
L power:GND #PWR070
U 1 1 5B5C0471
P 950 6250
F 0 "#PWR070" H 950 6000 50  0001 C CNN
F 1 "GND" H 950 6100 50  0000 C CNN
F 2 "" H 950 6250 50  0001 C CNN
F 3 "" H 950 6250 50  0001 C CNN
	1    950  6250
	1    0    0    -1  
$EndComp
$Comp
L power:VCC #PWR071
U 1 1 5B5C05A1
P 1600 5050
F 0 "#PWR071" H 1600 4900 50  0001 C CNN
F 1 "VCC" H 1600 5200 50  0000 C CNN
F 2 "" H 1600 5050 50  0001 C CNN
F 3 "" H 1600 5050 50  0001 C CNN
	1    1600 5050
	1    0    0    -1  
$EndComp
NoConn ~ 3200 2150
NoConn ~ 3200 2350
Text HLabel 1600 2650 0    60   Input ~ 0
~CLK
NoConn ~ 1800 2150
NoConn ~ 1800 2050
NoConn ~ 1800 1950
NoConn ~ 1800 1850
$Comp
L power:VCC #PWR072
U 1 1 5B5C2A0B
P 1600 2250
F 0 "#PWR072" H 1600 2100 50  0001 C CNN
F 1 "VCC" H 1600 2400 50  0000 C CNN
F 2 "" H 1600 2250 50  0001 C CNN
F 3 "" H 1600 2250 50  0001 C CNN
	1    1600 2250
	1    0    0    -1  
$EndComp
NoConn ~ 2000 3900
NoConn ~ 2000 3800
Text HLabel 3700 5600 2    60   Output ~ 0
CLR
Text HLabel 3700 5250 2    60   Output ~ 0
~CLR
$Comp
L Device:R R75
U 1 1 5B5C5A2E
P 950 6000
F 0 "R75" V 1030 6000 50  0000 C CNN
F 1 "1K" V 950 6000 50  0000 C CNN
F 2 "8bit-smd-custom:R_0603_1608Metric_Pad1.05x0.95mm_HandSolder" V 880 6000 50  0001 C CNN
F 3 "" H 950 6000 50  0001 C CNN
	1    950  6000
	1    0    0    -1  
$EndComp
$Comp
L Device:R R76
U 1 1 5B5C9C2A
P 3100 7300
F 0 "R76" V 3180 7300 50  0000 C CNN
F 1 "220" V 3100 7300 50  0000 C CNN
F 2 "8bit-smd-custom:R_0603_1608Metric_Pad1.05x0.95mm_HandSolder" V 3030 7300 50  0001 C CNN
F 3 "" H 3100 7300 50  0001 C CNN
	1    3100 7300
	1    0    0    -1  
$EndComp
$Comp
L Device:R R77
U 1 1 5B5C9CAF
P 3300 7300
F 0 "R77" V 3380 7300 50  0000 C CNN
F 1 "220" V 3300 7300 50  0000 C CNN
F 2 "8bit-smd-custom:R_0603_1608Metric_Pad1.05x0.95mm_HandSolder" V 3230 7300 50  0001 C CNN
F 3 "" H 3300 7300 50  0001 C CNN
	1    3300 7300
	1    0    0    -1  
$EndComp
$Comp
L Device:R R78
U 1 1 5B5C9D38
P 3500 7300
F 0 "R78" V 3580 7300 50  0000 C CNN
F 1 "220" V 3500 7300 50  0000 C CNN
F 2 "8bit-smd-custom:R_0603_1608Metric_Pad1.05x0.95mm_HandSolder" V 3430 7300 50  0001 C CNN
F 3 "" H 3500 7300 50  0001 C CNN
	1    3500 7300
	1    0    0    -1  
$EndComp
$Comp
L Device:R R79
U 1 1 5B5C9DC3
P 3700 7300
F 0 "R79" V 3780 7300 50  0000 C CNN
F 1 "220" V 3700 7300 50  0000 C CNN
F 2 "8bit-smd-custom:R_0603_1608Metric_Pad1.05x0.95mm_HandSolder" V 3630 7300 50  0001 C CNN
F 3 "" H 3700 7300 50  0001 C CNN
	1    3700 7300
	1    0    0    -1  
$EndComp
$Comp
L Device:R R80
U 1 1 5B5C9E51
P 3900 7300
F 0 "R80" V 3980 7300 50  0000 C CNN
F 1 "220" V 3900 7300 50  0000 C CNN
F 2 "8bit-smd-custom:R_0603_1608Metric_Pad1.05x0.95mm_HandSolder" V 3830 7300 50  0001 C CNN
F 3 "" H 3900 7300 50  0001 C CNN
	1    3900 7300
	1    0    0    -1  
$EndComp
$Comp
L Device:R R81
U 1 1 5B5C9EE2
P 4100 7300
F 0 "R81" V 4180 7300 50  0000 C CNN
F 1 "220" V 4100 7300 50  0000 C CNN
F 2 "8bit-smd-custom:R_0603_1608Metric_Pad1.05x0.95mm_HandSolder" V 4030 7300 50  0001 C CNN
F 3 "" H 4100 7300 50  0001 C CNN
	1    4100 7300
	1    0    0    -1  
$EndComp
$Comp
L Device:R R82
U 1 1 5B5C9F76
P 4300 7300
F 0 "R82" V 4380 7300 50  0000 C CNN
F 1 "220" V 4300 7300 50  0000 C CNN
F 2 "8bit-smd-custom:R_0603_1608Metric_Pad1.05x0.95mm_HandSolder" V 4230 7300 50  0001 C CNN
F 3 "" H 4300 7300 50  0001 C CNN
	1    4300 7300
	1    0    0    -1  
$EndComp
$Comp
L Device:R R83
U 1 1 5B5CA00D
P 4500 7300
F 0 "R83" V 4580 7300 50  0000 C CNN
F 1 "220" V 4500 7300 50  0000 C CNN
F 2 "8bit-smd-custom:R_0603_1608Metric_Pad1.05x0.95mm_HandSolder" V 4430 7300 50  0001 C CNN
F 3 "" H 4500 7300 50  0001 C CNN
	1    4500 7300
	1    0    0    -1  
$EndComp
$Comp
L Device:R R84
U 1 1 5B5CA0A7
P 4700 7300
F 0 "R84" V 4780 7300 50  0000 C CNN
F 1 "220" V 4700 7300 50  0000 C CNN
F 2 "8bit-smd-custom:R_0603_1608Metric_Pad1.05x0.95mm_HandSolder" V 4630 7300 50  0001 C CNN
F 3 "" H 4700 7300 50  0001 C CNN
	1    4700 7300
	1    0    0    -1  
$EndComp
$Comp
L Device:R R85
U 1 1 5B5CA144
P 4900 7300
F 0 "R85" V 4980 7300 50  0000 C CNN
F 1 "220" V 4900 7300 50  0000 C CNN
F 2 "8bit-smd-custom:R_0603_1608Metric_Pad1.05x0.95mm_HandSolder" V 4830 7300 50  0001 C CNN
F 3 "" H 4900 7300 50  0001 C CNN
	1    4900 7300
	1    0    0    -1  
$EndComp
$Comp
L Device:R R86
U 1 1 5B5CA1E4
P 5100 7300
F 0 "R86" V 5180 7300 50  0000 C CNN
F 1 "220" V 5100 7300 50  0000 C CNN
F 2 "8bit-smd-custom:R_0603_1608Metric_Pad1.05x0.95mm_HandSolder" V 5030 7300 50  0001 C CNN
F 3 "" H 5100 7300 50  0001 C CNN
	1    5100 7300
	1    0    0    -1  
$EndComp
$Comp
L Device:R R87
U 1 1 5B5CA287
P 5300 7300
F 0 "R87" V 5380 7300 50  0000 C CNN
F 1 "220" V 5300 7300 50  0000 C CNN
F 2 "8bit-smd-custom:R_0603_1608Metric_Pad1.05x0.95mm_HandSolder" V 5230 7300 50  0001 C CNN
F 3 "" H 5300 7300 50  0001 C CNN
	1    5300 7300
	1    0    0    -1  
$EndComp
$Comp
L Device:R R88
U 1 1 5B5CA32D
P 5500 7300
F 0 "R88" V 5580 7300 50  0000 C CNN
F 1 "220" V 5500 7300 50  0000 C CNN
F 2 "8bit-smd-custom:R_0603_1608Metric_Pad1.05x0.95mm_HandSolder" V 5430 7300 50  0001 C CNN
F 3 "" H 5500 7300 50  0001 C CNN
	1    5500 7300
	1    0    0    -1  
$EndComp
$Comp
L Device:R R89
U 1 1 5B5CA3D6
P 5700 7300
F 0 "R89" V 5780 7300 50  0000 C CNN
F 1 "220" V 5700 7300 50  0000 C CNN
F 2 "8bit-smd-custom:R_0603_1608Metric_Pad1.05x0.95mm_HandSolder" V 5630 7300 50  0001 C CNN
F 3 "" H 5700 7300 50  0001 C CNN
	1    5700 7300
	1    0    0    -1  
$EndComp
$Comp
L Device:R R90
U 1 1 5B5CA482
P 5900 7300
F 0 "R90" V 5980 7300 50  0000 C CNN
F 1 "220" V 5900 7300 50  0000 C CNN
F 2 "8bit-smd-custom:R_0603_1608Metric_Pad1.05x0.95mm_HandSolder" V 5830 7300 50  0001 C CNN
F 3 "" H 5900 7300 50  0001 C CNN
	1    5900 7300
	1    0    0    -1  
$EndComp
$Comp
L power:GND #PWR073
U 1 1 5B5CC752
P 4600 7700
F 0 "#PWR073" H 4600 7450 50  0001 C CNN
F 1 "GND" H 4600 7550 50  0000 C CNN
F 2 "" H 4600 7700 50  0001 C CNN
F 3 "" H 4600 7700 50  0001 C CNN
	1    4600 7700
	1    0    0    -1  
$EndComp
$Comp
L Device:LED_ALT D57
U 1 1 5B5CC936
P 3050 1450
F 0 "D57" H 3050 1550 50  0000 C CNN
F 1 "RED" H 3050 1350 50  0000 C CNN
F 2 "8bit-smd-custom:LED_0603_1608Metric_SMLTXT" H 3050 1450 50  0001 C CNN
F 3 "" H 3050 1450 50  0001 C CNN
	1    3050 1450
	1    0    0    -1  
$EndComp
$Comp
L Device:LED_ALT D54
U 1 1 5B5CCA37
P 3050 1150
F 0 "D54" H 3050 1250 50  0000 C CNN
F 1 "RED" H 3050 1050 50  0000 C CNN
F 2 "8bit-smd-custom:LED_0603_1608Metric_SMLTXT" H 3050 1150 50  0001 C CNN
F 3 "" H 3050 1150 50  0001 C CNN
	1    3050 1150
	1    0    0    -1  
$EndComp
$Comp
L Device:LED_ALT D51
U 1 1 5B5CCAF0
P 3050 850
F 0 "D51" H 3050 950 50  0000 C CNN
F 1 "RED" H 3050 750 50  0000 C CNN
F 2 "8bit-smd-custom:LED_0603_1608Metric_SMLTXT" H 3050 850 50  0001 C CNN
F 3 "" H 3050 850 50  0001 C CNN
	1    3050 850 
	1    0    0    -1  
$EndComp
$Comp
L Device:R R67
U 1 1 5B5CD0B6
P 2000 850
F 0 "R67" V 2080 850 50  0000 C CNN
F 1 "220" V 2000 850 50  0000 C CNN
F 2 "8bit-smd-custom:R_0603_1608Metric_Pad1.05x0.95mm_HandSolder" V 1930 850 50  0001 C CNN
F 3 "" H 2000 850 50  0001 C CNN
	1    2000 850 
	0    1    1    0   
$EndComp
$Comp
L Device:R R70
U 1 1 5B5CD1DD
P 2000 1300
F 0 "R70" V 2080 1300 50  0000 C CNN
F 1 "220" V 2000 1300 50  0000 C CNN
F 2 "8bit-smd-custom:R_0603_1608Metric_Pad1.05x0.95mm_HandSolder" V 1930 1300 50  0001 C CNN
F 3 "" H 2000 1300 50  0001 C CNN
	1    2000 1300
	0    1    1    0   
$EndComp
$Comp
L Device:R R73
U 1 1 5B5CD29F
P 2650 1150
F 0 "R73" V 2730 1150 50  0000 C CNN
F 1 "220" V 2650 1150 50  0000 C CNN
F 2 "8bit-smd-custom:R_0603_1608Metric_Pad1.05x0.95mm_HandSolder" V 2580 1150 50  0001 C CNN
F 3 "" H 2650 1150 50  0001 C CNN
	1    2650 1150
	0    1    1    0   
$EndComp
$Comp
L power:GND #PWR074
U 1 1 5B5CD9EA
P 2400 1550
F 0 "#PWR074" H 2400 1300 50  0001 C CNN
F 1 "GND" H 2400 1400 50  0000 C CNN
F 2 "" H 2400 1550 50  0001 C CNN
F 3 "" H 2400 1550 50  0001 C CNN
	1    2400 1550
	1    0    0    -1  
$EndComp
$Comp
L Device:LED_ALT D50
U 1 1 5B5CDBF5
P 1600 850
F 0 "D50" H 1600 950 50  0000 C CNN
F 1 "GREEN" H 1600 750 50  0000 C CNN
F 2 "8bit-smd-custom:LED_0603_1608Metric_SMLTXT" H 1600 850 50  0001 C CNN
F 3 "" H 1600 850 50  0001 C CNN
	1    1600 850 
	1    0    0    1   
$EndComp
$Comp
L Device:LED_ALT D52
U 1 1 5B5CDD69
P 1600 1000
F 0 "D52" H 1600 1100 50  0000 C CNN
F 1 "GREEN" H 1600 900 50  0000 C CNN
F 2 "8bit-smd-custom:LED_0603_1608Metric_SMLTXT" H 1600 1000 50  0001 C CNN
F 3 "" H 1600 1000 50  0001 C CNN
	1    1600 1000
	1    0    0    1   
$EndComp
$Comp
L Device:LED_ALT D53
U 1 1 5B5CDE2F
P 1600 1150
F 0 "D53" H 1600 1250 50  0000 C CNN
F 1 "GREEN" H 1600 1050 50  0000 C CNN
F 2 "8bit-smd-custom:LED_0603_1608Metric_SMLTXT" H 1600 1150 50  0001 C CNN
F 3 "" H 1600 1150 50  0001 C CNN
	1    1600 1150
	1    0    0    1   
$EndComp
$Comp
L Device:LED_ALT D55
U 1 1 5B5CDFBF
P 1600 1300
F 0 "D55" H 1600 1400 50  0000 C CNN
F 1 "GREEN" H 1600 1200 50  0000 C CNN
F 2 "8bit-smd-custom:LED_0603_1608Metric_SMLTXT" H 1600 1300 50  0001 C CNN
F 3 "" H 1600 1300 50  0001 C CNN
	1    1600 1300
	1    0    0    1   
$EndComp
$Comp
L Device:LED_ALT D56
U 1 1 5B5CE08B
P 1600 1450
F 0 "D56" H 1600 1550 50  0000 C CNN
F 1 "GREEN" H 1600 1350 50  0000 C CNN
F 2 "8bit-smd-custom:LED_0603_1608Metric_SMLTXT" H 1600 1450 50  0001 C CNN
F 3 "" H 1600 1450 50  0001 C CNN
	1    1600 1450
	1    0    0    1   
$EndComp
$Comp
L Device:R R91
U 1 1 5B5CEF57
P 6100 7300
F 0 "R91" V 6180 7300 50  0000 C CNN
F 1 "220" V 6100 7300 50  0000 C CNN
F 2 "8bit-smd-custom:R_0603_1608Metric_Pad1.05x0.95mm_HandSolder" V 6030 7300 50  0001 C CNN
F 3 "" H 6100 7300 50  0001 C CNN
	1    6100 7300
	1    0    0    -1  
$EndComp
$Comp
L Device:R R68
U 1 1 5B5D01F6
P 2000 1000
F 0 "R68" V 2080 1000 50  0000 C CNN
F 1 "220" V 2000 1000 50  0000 C CNN
F 2 "8bit-smd-custom:R_0603_1608Metric_Pad1.05x0.95mm_HandSolder" V 1930 1000 50  0001 C CNN
F 3 "" H 2000 1000 50  0001 C CNN
	1    2000 1000
	0    1    1    0   
$EndComp
$Comp
L Device:R R69
U 1 1 5B5D02CC
P 2000 1150
F 0 "R69" V 2080 1150 50  0000 C CNN
F 1 "220" V 2000 1150 50  0000 C CNN
F 2 "8bit-smd-custom:R_0603_1608Metric_Pad1.05x0.95mm_HandSolder" V 1930 1150 50  0001 C CNN
F 3 "" H 2000 1150 50  0001 C CNN
	1    2000 1150
	0    1    1    0   
$EndComp
$Comp
L Device:R R71
U 1 1 5B5D03A4
P 2000 1450
F 0 "R71" V 2080 1450 50  0000 C CNN
F 1 "220" V 2000 1450 50  0000 C CNN
F 2 "8bit-smd-custom:R_0603_1608Metric_Pad1.05x0.95mm_HandSolder" V 1930 1450 50  0001 C CNN
F 3 "" H 2000 1450 50  0001 C CNN
	1    2000 1450
	0    1    1    0   
$EndComp
$Comp
L Device:R R72
U 1 1 5B5D047F
P 2650 850
F 0 "R72" V 2730 850 50  0000 C CNN
F 1 "220" V 2650 850 50  0000 C CNN
F 2 "8bit-smd-custom:R_0603_1608Metric_Pad1.05x0.95mm_HandSolder" V 2580 850 50  0001 C CNN
F 3 "" H 2650 850 50  0001 C CNN
	1    2650 850 
	0    1    1    0   
$EndComp
Text HLabel 4400 2900 2    60   Input ~ 0
ZF
Text HLabel 4400 2800 2    60   Input ~ 0
CF
$Comp
L power:VCC #PWR075
U 1 1 5B61BCBF
P 3250 3600
F 0 "#PWR075" H 3250 3450 50  0001 C CNN
F 1 "VCC" H 3250 3750 50  0000 C CNN
F 2 "" H 3250 3600 50  0001 C CNN
F 3 "" H 3250 3600 50  0001 C CNN
	1    3250 3600
	1    0    0    -1  
$EndComp
$Comp
L power:GND #PWR076
U 1 1 5B61BF64
P 3250 3950
F 0 "#PWR076" H 3250 3700 50  0001 C CNN
F 1 "GND" H 3250 3800 50  0000 C CNN
F 2 "" H 3250 3950 50  0001 C CNN
F 3 "" H 3250 3950 50  0001 C CNN
	1    3250 3950
	1    0    0    -1  
$EndComp
$Comp
L 8bit-computer-rescue:74LS04-8bit-computer-rescue U53
U 4 1 5B624D8F
P 8050 6450
F 0 "U53" H 8245 6565 50  0000 C CNN
F 1 "74LS04" H 8240 6325 50  0000 C CNN
F 2 "Package_SO:SOIC-14_3.9x8.7mm_P1.27mm" H 8050 6450 50  0001 C CNN
F 3 "" H 8050 6450 50  0001 C CNN
	4    8050 6450
	1    0    0    -1  
$EndComp
NoConn ~ 7600 6450
NoConn ~ 8500 6450
$Comp
L Device:C C22
U 1 1 5B636769
P 1600 6650
F 0 "C22" H 1625 6750 50  0000 L CNN
F 1 "0.1µF" H 1625 6550 50  0000 L CNN
F 2 "Capacitor_SMD:C_0603_1608Metric" H 1638 6500 50  0001 C CNN
F 3 "" H 1600 6650 50  0001 C CNN
	1    1600 6650
	1    0    0    -1  
$EndComp
$Comp
L power:VCC #PWR077
U 1 1 5B63680F
P 1800 6300
F 0 "#PWR077" H 1800 6150 50  0001 C CNN
F 1 "VCC" H 1800 6450 50  0000 C CNN
F 2 "" H 1800 6300 50  0001 C CNN
F 3 "" H 1800 6300 50  0001 C CNN
	1    1800 6300
	1    0    0    -1  
$EndComp
$Comp
L power:GND #PWR078
U 1 1 5B6368B1
P 1800 7000
F 0 "#PWR078" H 1800 6750 50  0001 C CNN
F 1 "GND" H 1800 6850 50  0000 C CNN
F 2 "" H 1800 7000 50  0001 C CNN
F 3 "" H 1800 7000 50  0001 C CNN
	1    1800 7000
	1    0    0    -1  
$EndComp
Wire Wire Line
	8500 1750 8600 1750
Wire Wire Line
	8600 2150 8500 2150
Wire Wire Line
	8600 2500 8500 2500
Wire Wire Line
	8600 2850 8500 2850
Wire Wire Line
	8600 3200 8500 3200
Wire Wire Line
	8600 3550 8500 3550
Wire Wire Line
	8500 4350 8600 4350
Wire Wire Line
	8600 4750 8500 4750
Wire Wire Line
	8600 5250 8500 5250
Wire Wire Line
	8600 5600 8500 5600
Wire Wire Line
	8600 5950 8500 5950
Wire Wire Line
	6000 1750 7600 1750
Wire Wire Line
	6100 1950 8600 1950
Wire Wire Line
	6200 2150 7600 2150
Wire Wire Line
	6300 2500 7600 2500
Wire Wire Line
	6400 2850 7600 2850
Wire Wire Line
	6500 3200 7600 3200
Wire Wire Line
	6600 3550 7600 3550
Wire Wire Line
	6800 4550 8600 4550
Wire Wire Line
	6900 4750 7600 4750
Wire Wire Line
	7000 4950 8600 4950
Wire Wire Line
	7100 5050 8600 5050
Wire Wire Line
	7200 5250 7600 5250
Wire Wire Line
	7300 5600 7600 5600
Wire Wire Line
	7400 5950 7600 5950
Wire Wire Line
	4100 1550 4100 1850
Wire Wire Line
	950  5150 950  5500
Wire Wire Line
	950  6250 950  6150
Wire Wire Line
	950  5500 1050 5500
Wire Wire Line
	950  5700 1050 5700
Connection ~ 950  5700
Wire Wire Line
	1600 5050 1600 5150
Wire Wire Line
	1600 5150 1400 5150
Wire Wire Line
	3500 1050 3500 1450
Wire Wire Line
	3400 950  3400 1150
Wire Wire Line
	3300 850  3300 1850
Wire Wire Line
	3200 850  3300 850 
Wire Wire Line
	3200 1850 3300 1850
Connection ~ 3300 1850
Wire Wire Line
	3200 1950 3400 1950
Connection ~ 3400 1950
Wire Wire Line
	3200 2050 3500 2050
Connection ~ 3500 2050
Wire Wire Line
	1600 2650 1800 2650
Wire Wire Line
	1600 2250 1600 2350
Wire Wire Line
	1600 2350 1800 2350
Wire Wire Line
	1600 2450 1800 2450
Connection ~ 1600 2350
Wire Wire Line
	1600 2550 1800 2550
Connection ~ 1600 2450
Wire Wire Line
	2000 3700 1900 3700
Wire Wire Line
	700  4550 700  4450
Wire Wire Line
	900  4450 900  4550
Connection ~ 900  4550
Wire Wire Line
	1800 2850 800  2850
Wire Wire Line
	800  2850 800  3250
Wire Wire Line
	1000 5150 950  5150
Connection ~ 950  5500
Wire Wire Line
	1900 3700 1900 4250
Wire Wire Line
	1900 4250 2500 4250
Wire Wire Line
	2500 4250 2500 4450
Wire Wire Line
	2500 4450 2400 4450
Wire Wire Line
	700  4550 900  4550
Wire Wire Line
	2300 5600 2250 5600
Wire Wire Line
	2300 5500 2350 5500
Wire Wire Line
	2300 5700 2350 5700
Connection ~ 2300 5600
Wire Wire Line
	2300 4850 2500 4850
Wire Wire Line
	2500 4850 2500 4650
Wire Wire Line
	2500 4650 2400 4650
Connection ~ 2300 5500
Wire Wire Line
	3700 5600 3550 5600
Wire Wire Line
	6100 6750 6100 6650
Wire Wire Line
	6100 6650 7400 6650
Connection ~ 7400 5950
Wire Wire Line
	5900 6750 5900 6600
Wire Wire Line
	5900 6600 7300 6600
Connection ~ 7300 5600
Wire Wire Line
	5700 6750 5700 6550
Wire Wire Line
	5700 6550 7200 6550
Connection ~ 7200 5250
Wire Wire Line
	5500 6750 5500 6500
Wire Wire Line
	5500 6500 7100 6500
Connection ~ 7100 5050
Wire Wire Line
	5300 6750 5300 6450
Wire Wire Line
	5300 6450 7000 6450
Connection ~ 7000 4950
Wire Wire Line
	5100 6750 5100 6400
Wire Wire Line
	5100 6400 6900 6400
Connection ~ 6900 4750
Wire Wire Line
	4900 6750 4900 6350
Wire Wire Line
	4900 6350 6800 6350
Connection ~ 6800 4550
Wire Wire Line
	4700 6750 4700 6300
Wire Wire Line
	4700 6300 6700 6300
Wire Wire Line
	6700 6300 6700 4350
Wire Wire Line
	4500 6750 4500 6250
Wire Wire Line
	4500 6250 6600 6250
Wire Wire Line
	3700 5250 2300 5250
Connection ~ 2300 5250
Wire Wire Line
	2300 4850 2300 5250
Wire Wire Line
	4300 6750 4300 6200
Wire Wire Line
	4300 6200 6500 6200
Wire Wire Line
	4100 6750 4100 6150
Wire Wire Line
	4100 6150 6400 6150
Wire Wire Line
	3900 6750 3900 6100
Wire Wire Line
	3900 6100 6300 6100
Wire Wire Line
	3700 6750 3700 6050
Wire Wire Line
	3700 6050 6200 6050
Wire Wire Line
	3500 6750 3500 6000
Wire Wire Line
	3500 6000 6100 6000
Wire Wire Line
	3300 6750 3300 5950
Wire Wire Line
	3300 5950 6000 5950
Wire Wire Line
	5900 1550 5900 5900
Wire Wire Line
	5900 5900 3100 5900
Wire Wire Line
	3100 5900 3100 6750
Wire Wire Line
	3900 4650 3200 4650
Wire Wire Line
	3800 4550 3200 4550
Wire Wire Line
	3700 4450 3200 4450
Wire Wire Line
	3600 4350 3200 4350
Wire Wire Line
	6100 7050 6100 7150
Wire Wire Line
	5900 7150 5900 7050
Wire Wire Line
	5700 7050 5700 7150
Wire Wire Line
	5500 7150 5500 7050
Wire Wire Line
	5300 7050 5300 7150
Wire Wire Line
	5100 7150 5100 7050
Wire Wire Line
	4900 7050 4900 7150
Wire Wire Line
	4700 7150 4700 7050
Wire Wire Line
	4500 7050 4500 7150
Wire Wire Line
	4300 7150 4300 7050
Wire Wire Line
	4100 7050 4100 7150
Wire Wire Line
	3900 7150 3900 7050
Wire Wire Line
	3700 7050 3700 7150
Wire Wire Line
	3500 7150 3500 7050
Wire Wire Line
	3300 7050 3300 7150
Wire Wire Line
	3100 7150 3100 7050
Wire Wire Line
	6100 7600 6100 7450
Wire Wire Line
	3100 7600 3300 7600
Wire Wire Line
	3100 7600 3100 7450
Wire Wire Line
	3300 7450 3300 7600
Connection ~ 3300 7600
Wire Wire Line
	3500 7600 3500 7450
Connection ~ 3500 7600
Wire Wire Line
	3700 7450 3700 7600
Connection ~ 3700 7600
Wire Wire Line
	3900 7600 3900 7450
Connection ~ 3900 7600
Wire Wire Line
	4100 7450 4100 7600
Connection ~ 4100 7600
Wire Wire Line
	4300 7600 4300 7450
Connection ~ 4300 7600
Wire Wire Line
	4500 7450 4500 7600
Connection ~ 4500 7600
Wire Wire Line
	4700 7600 4700 7450
Connection ~ 4700 7600
Wire Wire Line
	4900 7450 4900 7600
Connection ~ 4900 7600
Wire Wire Line
	5100 7600 5100 7450
Connection ~ 5100 7600
Wire Wire Line
	5300 7450 5300 7600
Connection ~ 5300 7600
Wire Wire Line
	5500 7600 5500 7450
Connection ~ 5500 7600
Wire Wire Line
	5700 7450 5700 7600
Connection ~ 5700 7600
Wire Wire Line
	5900 7600 5900 7450
Connection ~ 5900 7600
Wire Wire Line
	4600 7700 4600 7600
Connection ~ 4600 7600
Connection ~ 3300 850 
Wire Wire Line
	3200 1150 3400 1150
Connection ~ 3400 1150
Wire Wire Line
	3200 1450 3500 1450
Connection ~ 3500 1450
Wire Wire Line
	2800 1450 2900 1450
Wire Wire Line
	2900 1150 2800 1150
Wire Wire Line
	2150 1450 2250 1450
Wire Wire Line
	2150 1150 2250 1150
Connection ~ 2250 1150
Wire Wire Line
	1450 1450 1300 1450
Wire Wire Line
	1300 1450 1300 3200
Wire Wire Line
	1300 3200 2000 3200
Wire Wire Line
	1250 1300 1450 1300
Wire Wire Line
	1250 1300 1250 3300
Wire Wire Line
	1250 3300 2000 3300
Wire Wire Line
	1450 1150 1200 1150
Wire Wire Line
	1200 1150 1200 3400
Wire Wire Line
	1200 3400 2000 3400
Wire Wire Line
	2000 3500 1150 3500
Wire Wire Line
	1150 3500 1150 1000
Wire Wire Line
	1150 1000 1450 1000
Wire Wire Line
	1450 850  1100 850 
Wire Wire Line
	1100 850  1100 3600
Wire Wire Line
	1100 3600 2000 3600
Wire Wire Line
	2150 850  2250 850 
Wire Wire Line
	2800 850  2900 850 
Wire Wire Line
	1750 850  1850 850 
Wire Wire Line
	1850 1000 1750 1000
Wire Wire Line
	1750 1150 1850 1150
Wire Wire Line
	1850 1300 1750 1300
Wire Wire Line
	1750 1450 1850 1450
Wire Wire Line
	2250 1300 2150 1300
Connection ~ 2250 1300
Wire Wire Line
	2250 1000 2150 1000
Connection ~ 2250 1000
Connection ~ 2250 850 
Wire Wire Line
	4300 1750 4300 2900
Wire Wire Line
	4400 2900 4300 2900
Wire Wire Line
	4200 1650 4200 2800
Wire Wire Line
	4400 2800 4200 2800
Wire Wire Line
	3200 3200 3300 3200
Wire Wire Line
	3200 3300 3400 3300
Wire Wire Line
	3200 3400 3500 3400
Wire Wire Line
	3250 3600 3250 3700
Wire Wire Line
	3250 3700 3200 3700
Wire Wire Line
	3200 3800 3250 3800
Wire Wire Line
	3250 3800 3250 3900
Wire Wire Line
	3200 3900 3250 3900
Connection ~ 3250 3900
Wire Wire Line
	1600 6900 1600 6800
Wire Wire Line
	1600 6500 1600 6400
$Comp
L Device:C C23
U 1 1 5B650049
P 1950 6650
F 0 "C23" H 1975 6750 50  0000 L CNN
F 1 "0.1µF" H 1975 6550 50  0000 L CNN
F 2 "Capacitor_SMD:C_0603_1608Metric" H 1988 6500 50  0001 C CNN
F 3 "" H 1950 6650 50  0001 C CNN
	1    1950 6650
	1    0    0    -1  
$EndComp
Wire Wire Line
	1600 6400 1800 6400
Wire Wire Line
	1950 6400 1950 6500
Wire Wire Line
	1600 6900 1800 6900
Wire Wire Line
	1950 6900 1950 6800
Wire Wire Line
	1800 6900 1800 7000
Connection ~ 1800 6900
Wire Wire Line
	1800 6300 1800 6400
Connection ~ 1800 6400
Wire Wire Line
	2500 850  2400 850 
Wire Wire Line
	2400 850  2400 1150
Wire Wire Line
	2400 1450 2500 1450
Wire Wire Line
	2500 1150 2400 1150
Connection ~ 2400 1150
Connection ~ 2400 1450
$Comp
L power:VCC #PWR079
U 1 1 5B667111
P 2250 750
F 0 "#PWR079" H 2250 600 50  0001 C CNN
F 1 "VCC" H 2250 900 50  0000 C CNN
F 2 "" H 2250 750 50  0001 C CNN
F 3 "" H 2250 750 50  0001 C CNN
	1    2250 750 
	1    0    0    -1  
$EndComp
Wire Wire Line
	2250 1450 2250 1300
Wire Wire Line
	5900 1550 8600 1550
Wire Wire Line
	950  5700 950  5850
Wire Wire Line
	3300 1850 3300 3200
Wire Wire Line
	3400 1950 3400 3300
Wire Wire Line
	3500 2050 3500 3400
Wire Wire Line
	1600 2350 1600 2450
Wire Wire Line
	1600 2450 1600 2550
Wire Wire Line
	900  4550 1200 4550
Wire Wire Line
	950  5500 950  5700
Wire Wire Line
	2300 5600 2300 5700
Wire Wire Line
	2300 5500 2300 5600
Wire Wire Line
	7400 5950 7400 6650
Wire Wire Line
	7300 5600 7300 6600
Wire Wire Line
	7200 5250 7200 6550
Wire Wire Line
	7100 5050 7100 6500
Wire Wire Line
	7000 4950 7000 6450
Wire Wire Line
	6900 4750 6900 6400
Wire Wire Line
	6800 4550 6800 6350
Wire Wire Line
	6700 4350 7600 4350
Wire Wire Line
	6600 3550 6600 6250
Wire Wire Line
	2300 5250 2300 5500
Wire Wire Line
	6500 3200 6500 6200
Wire Wire Line
	6400 2850 6400 6150
Wire Wire Line
	6300 2500 6300 6100
Wire Wire Line
	6200 2150 6200 6050
Wire Wire Line
	6100 1950 6100 6000
Wire Wire Line
	3300 7600 3500 7600
Wire Wire Line
	3500 7600 3700 7600
Wire Wire Line
	3700 7600 3900 7600
Wire Wire Line
	3900 7600 4100 7600
Wire Wire Line
	4100 7600 4300 7600
Wire Wire Line
	4300 7600 4500 7600
Wire Wire Line
	4500 7600 4600 7600
Wire Wire Line
	4700 7600 4900 7600
Wire Wire Line
	4900 7600 5100 7600
Wire Wire Line
	5100 7600 5300 7600
Wire Wire Line
	5300 7600 5500 7600
Wire Wire Line
	5500 7600 5700 7600
Wire Wire Line
	5700 7600 5900 7600
Wire Wire Line
	5900 7600 6100 7600
Wire Wire Line
	4600 7600 4700 7600
Wire Wire Line
	3400 1150 3400 1950
Wire Wire Line
	3500 1450 3500 2050
Wire Wire Line
	2250 1150 2250 1000
Wire Wire Line
	2250 1300 2250 1150
Wire Wire Line
	2250 1000 2250 850 
Wire Wire Line
	2250 850  2250 750 
Wire Wire Line
	3250 3900 3250 3950
Wire Wire Line
	1800 6900 1950 6900
Wire Wire Line
	1800 6400 1950 6400
Wire Wire Line
	2400 1150 2400 1450
Wire Wire Line
	2400 1450 2400 1550
$Sheet
S 4450 700  1050 1900
U 5C1D767C
F0 "Control Flash" 60
F1 "control_flash.sch" 60
F2 "A0" I L 4450 850 60 
F3 "A1" I L 4450 950 60 
F4 "A2" I L 4450 1050 60 
F5 "A3" I L 4450 1150 60 
F6 "A5" I L 4450 1350 60 
F7 "A6" I L 4450 1450 60 
F8 "A4" I L 4450 1250 60 
F9 "A7" I L 4450 1550 60 
F10 "D0" O R 5500 850 60 
F11 "D1" O R 5500 950 60 
F12 "D2" O R 5500 1050 60 
F13 "D3" O R 5500 1150 60 
F14 "D4" O R 5500 1250 60 
F15 "D5" O R 5500 1350 60 
F16 "D6" O R 5500 1450 60 
F17 "D7" O R 5500 1550 60 
F18 "D8" O R 5500 1650 60 
F19 "D9" O R 5500 1750 60 
F20 "D10" O R 5500 1850 60 
F21 "D11" O R 5500 1950 60 
F22 "D12" O R 5500 2050 60 
F23 "D13" O R 5500 2150 60 
F24 "D15" O R 5500 2350 60 
F25 "D14" O R 5500 2250 60 
F26 "A8" I L 4450 1650 60 
F27 "A9" I L 4450 1750 60 
F28 "A10" I L 4450 1850 60 
$EndSheet
Wire Wire Line
	6000 1750 6000 5950
Wire Wire Line
	5900 1550 5900 850 
Wire Wire Line
	5900 850  5500 850 
Connection ~ 5900 1550
Wire Wire Line
	6000 1750 6000 950 
Wire Wire Line
	6000 950  5500 950 
Connection ~ 6000 1750
Wire Wire Line
	6100 1950 6100 1050
Wire Wire Line
	6100 1050 5500 1050
Connection ~ 6100 1950
Wire Wire Line
	5500 1150 6200 1150
Wire Wire Line
	6200 1150 6200 2150
Connection ~ 6200 2150
Wire Wire Line
	6300 2500 6300 1250
Wire Wire Line
	6300 1250 5500 1250
Connection ~ 6300 2500
Wire Wire Line
	6400 2850 6400 1350
Wire Wire Line
	6400 1350 5500 1350
Connection ~ 6400 2850
Wire Wire Line
	6500 3200 6500 1450
Wire Wire Line
	6500 1450 5500 1450
Connection ~ 6500 3200
Wire Wire Line
	6600 3550 6600 1500
Wire Wire Line
	6600 1500 5800 1500
Wire Wire Line
	5800 1500 5800 1550
Wire Wire Line
	5800 1550 5500 1550
Connection ~ 6600 3550
Wire Wire Line
	6800 1650 5500 1650
Wire Wire Line
	6800 1650 6800 4550
Wire Wire Line
	6900 1700 5800 1700
Wire Wire Line
	5800 1700 5800 1750
Wire Wire Line
	5800 1750 5500 1750
Wire Wire Line
	6900 1700 6900 4750
Wire Wire Line
	7000 1850 5500 1850
Wire Wire Line
	7000 1850 7000 4950
Wire Wire Line
	7100 1900 5800 1900
Wire Wire Line
	5800 1900 5800 1950
Wire Wire Line
	5800 1950 5500 1950
Wire Wire Line
	7100 1900 7100 5050
Wire Wire Line
	7200 2050 5500 2050
Wire Wire Line
	7200 2050 7200 5250
Wire Wire Line
	7300 2100 5800 2100
Wire Wire Line
	5800 2100 5800 2150
Wire Wire Line
	5800 2150 5500 2150
Wire Wire Line
	7300 2100 7300 5600
Wire Wire Line
	7400 2250 5500 2250
Wire Wire Line
	7400 2250 7400 5950
NoConn ~ 5650 2350
Wire Wire Line
	5500 2350 5650 2350
Wire Wire Line
	3900 1450 3900 4650
Wire Wire Line
	3800 1350 3800 4550
Wire Wire Line
	3700 1250 3700 4450
Wire Wire Line
	3600 1150 3600 4350
$Comp
L power:GND #PWR0117
U 1 1 5CC378D2
P 4100 3000
F 0 "#PWR0117" H 4100 2750 50  0001 C CNN
F 1 "GND" H 4105 2827 50  0000 C CNN
F 2 "" H 4100 3000 50  0001 C CNN
F 3 "" H 4100 3000 50  0001 C CNN
	1    4100 3000
	1    0    0    -1  
$EndComp
Wire Wire Line
	4100 1850 4100 3000
Connection ~ 4100 1850
Wire Wire Line
	3300 850  4450 850 
Wire Wire Line
	3400 950  4450 950 
Wire Wire Line
	3500 1050 4450 1050
Wire Wire Line
	3600 1150 4450 1150
Wire Wire Line
	3700 1250 4450 1250
Wire Wire Line
	3800 1350 4450 1350
Wire Wire Line
	3900 1450 4450 1450
Wire Wire Line
	4100 1550 4450 1550
Wire Wire Line
	4200 1650 4450 1650
Wire Wire Line
	4100 1850 4450 1850
Wire Wire Line
	4300 1750 4450 1750
$EndSCHEMATC
