EESchema Schematic File Version 4
LIBS:8bit-computer-cache
EELAYER 26 0
EELAYER END
$Descr USLetter 11000 8500
encoding utf-8
Sheet 5 13
Title ""
Date ""
Rev ""
Comp ""
Comment1 ""
Comment2 ""
Comment3 ""
Comment4 ""
$EndDescr
$Comp
L 8bit-computer-rescue:74LS173-8bit-computer-rescue U14
U 1 1 5B61AC17
P 5200 2550
F 0 "U14" H 5300 2650 50  0000 C CNN
F 1 "74LS173" H 5300 2500 50  0000 C CNN
F 2 "Package_SO:SOIC-16_3.9x9.9mm_P1.27mm" H 5200 2550 50  0001 C CNN
F 3 "" H 5200 2550 50  0001 C CNN
	1    5200 2550
	0    1    1    0   
$EndComp
$Comp
L 8bit-computer-rescue:74LS173-8bit-computer-rescue U15
U 1 1 5B61AC19
P 6800 2550
F 0 "U15" H 6900 2650 50  0000 C CNN
F 1 "74LS173" H 6900 2500 50  0000 C CNN
F 2 "Package_SO:SOIC-16_3.9x9.9mm_P1.27mm" H 6800 2550 50  0001 C CNN
F 3 "" H 6800 2550 50  0001 C CNN
	1    6800 2550
	0    1    1    0   
$EndComp
$Comp
L 8bit-computer-rescue:74LS245-8bit-computer-rescue U13
U 1 1 5B61AC1B
P 3550 2550
F 0 "U13" H 3650 3125 50  0000 L BNN
F 1 "74LS245" H 3600 1975 50  0000 L TNN
F 2 "Package_SO:SOIC-20W_7.5x12.8mm_P1.27mm" H 3550 2550 50  0001 C CNN
F 3 "" H 3550 2550 50  0001 C CNN
	1    3550 2550
	0    -1   -1   0   
$EndComp
Text HLabel 1450 550  0    60   BiDi ~ 0
BUS_0
Text HLabel 1450 650  0    60   BiDi ~ 0
BUS_1
Text HLabel 1450 750  0    60   BiDi ~ 0
BUS_2
Text HLabel 1450 850  0    60   BiDi ~ 0
BUS_3
Text HLabel 1450 950  0    60   BiDi ~ 0
BUS_4
Text HLabel 1450 1050 0    60   BiDi ~ 0
BUS_5
Text HLabel 1450 1150 0    60   BiDi ~ 0
BUS_6
Text HLabel 1450 1250 0    60   BiDi ~ 0
BUS_7
$Comp
L Device:LED_ALT D26
U 1 1 5B535334
P 3850 5450
F 0 "D26" H 3850 5550 50  0000 C CNN
F 1 "BLUE" H 3850 5350 50  0000 C CNN
F 2 "8bit-smd-custom:LED_0603_1608Metric_SMLTXT" H 3850 5450 50  0001 C CNN
F 3 "" H 3850 5450 50  0001 C CNN
	1    3850 5450
	0    -1   -1   0   
$EndComp
$Comp
L Device:LED_ALT D27
U 1 1 5B61AC1E
P 4150 5450
F 0 "D27" H 4150 5550 50  0000 C CNN
F 1 "BLUE" H 4150 5350 50  0000 C CNN
F 2 "8bit-smd-custom:LED_0603_1608Metric_SMLTXT" H 4150 5450 50  0001 C CNN
F 3 "" H 4150 5450 50  0001 C CNN
	1    4150 5450
	0    -1   -1   0   
$EndComp
$Comp
L Device:LED_ALT D28
U 1 1 5B61AC21
P 4450 5450
F 0 "D28" H 4450 5550 50  0000 C CNN
F 1 "BLUE" H 4450 5350 50  0000 C CNN
F 2 "8bit-smd-custom:LED_0603_1608Metric_SMLTXT" H 4450 5450 50  0001 C CNN
F 3 "" H 4450 5450 50  0001 C CNN
	1    4450 5450
	0    -1   -1   0   
$EndComp
$Comp
L Device:LED_ALT D29
U 1 1 5B5353B3
P 4750 5450
F 0 "D29" H 4750 5550 50  0000 C CNN
F 1 "BLUE" H 4750 5350 50  0000 C CNN
F 2 "8bit-smd-custom:LED_0603_1608Metric_SMLTXT" H 4750 5450 50  0001 C CNN
F 3 "" H 4750 5450 50  0001 C CNN
	1    4750 5450
	0    -1   -1   0   
$EndComp
$Comp
L Device:LED_ALT D30
U 1 1 5B5353DD
P 5050 5450
F 0 "D30" H 5050 5550 50  0000 C CNN
F 1 "YELLOW" H 5050 5350 50  0000 C CNN
F 2 "8bit-smd-custom:LED_0603_1608Metric_SMLTXT" H 5050 5450 50  0001 C CNN
F 3 "" H 5050 5450 50  0001 C CNN
	1    5050 5450
	0    -1   -1   0   
$EndComp
$Comp
L Device:LED_ALT D31
U 1 1 5B535406
P 5350 5450
F 0 "D31" H 5350 5550 50  0000 C CNN
F 1 "YELLOW" H 5350 5350 50  0000 C CNN
F 2 "8bit-smd-custom:LED_0603_1608Metric_SMLTXT" H 5350 5450 50  0001 C CNN
F 3 "" H 5350 5450 50  0001 C CNN
	1    5350 5450
	0    -1   -1   0   
$EndComp
$Comp
L Device:LED_ALT D32
U 1 1 5B61AC29
P 5650 5450
F 0 "D32" H 5650 5550 50  0000 C CNN
F 1 "YELLOW" H 5650 5350 50  0000 C CNN
F 2 "8bit-smd-custom:LED_0603_1608Metric_SMLTXT" H 5650 5450 50  0001 C CNN
F 3 "" H 5650 5450 50  0001 C CNN
	1    5650 5450
	0    -1   -1   0   
$EndComp
$Comp
L Device:LED_ALT D33
U 1 1 5B61AC2B
P 5950 5450
F 0 "D33" H 5950 5550 50  0000 C CNN
F 1 "YELLOW" H 5950 5350 50  0000 C CNN
F 2 "8bit-smd-custom:LED_0603_1608Metric_SMLTXT" H 5950 5450 50  0001 C CNN
F 3 "" H 5950 5450 50  0001 C CNN
	1    5950 5450
	0    -1   -1   0   
$EndComp
$Comp
L Device:R R40
U 1 1 5B61AC2C
P 3850 5900
F 0 "R40" V 3930 5900 50  0000 C CNN
F 1 "220" V 3850 5900 50  0000 C CNN
F 2 "8bit-smd-custom:R_0603_1608Metric_Pad1.05x0.95mm_HandSolder" V 3780 5900 50  0001 C CNN
F 3 "" H 3850 5900 50  0001 C CNN
	1    3850 5900
	1    0    0    -1  
$EndComp
$Comp
L Device:R R41
U 1 1 5B61AC2E
P 4150 5900
F 0 "R41" V 4230 5900 50  0000 C CNN
F 1 "220" V 4150 5900 50  0000 C CNN
F 2 "8bit-smd-custom:R_0603_1608Metric_Pad1.05x0.95mm_HandSolder" V 4080 5900 50  0001 C CNN
F 3 "" H 4150 5900 50  0001 C CNN
	1    4150 5900
	1    0    0    -1  
$EndComp
$Comp
L Device:R R42
U 1 1 5B61AC30
P 4450 5900
F 0 "R42" V 4530 5900 50  0000 C CNN
F 1 "220" V 4450 5900 50  0000 C CNN
F 2 "8bit-smd-custom:R_0603_1608Metric_Pad1.05x0.95mm_HandSolder" V 4380 5900 50  0001 C CNN
F 3 "" H 4450 5900 50  0001 C CNN
	1    4450 5900
	1    0    0    -1  
$EndComp
$Comp
L Device:R R43
U 1 1 5B61AC32
P 4750 5900
F 0 "R43" V 4830 5900 50  0000 C CNN
F 1 "220" V 4750 5900 50  0000 C CNN
F 2 "8bit-smd-custom:R_0603_1608Metric_Pad1.05x0.95mm_HandSolder" V 4680 5900 50  0001 C CNN
F 3 "" H 4750 5900 50  0001 C CNN
	1    4750 5900
	1    0    0    -1  
$EndComp
$Comp
L Device:R R44
U 1 1 5B535BD8
P 5050 5900
F 0 "R44" V 5130 5900 50  0000 C CNN
F 1 "220" V 5050 5900 50  0000 C CNN
F 2 "8bit-smd-custom:R_0603_1608Metric_Pad1.05x0.95mm_HandSolder" V 4980 5900 50  0001 C CNN
F 3 "" H 5050 5900 50  0001 C CNN
	1    5050 5900
	1    0    0    -1  
$EndComp
$Comp
L Device:R R45
U 1 1 5B61AC36
P 5350 5900
F 0 "R45" V 5430 5900 50  0000 C CNN
F 1 "220" V 5350 5900 50  0000 C CNN
F 2 "8bit-smd-custom:R_0603_1608Metric_Pad1.05x0.95mm_HandSolder" V 5280 5900 50  0001 C CNN
F 3 "" H 5350 5900 50  0001 C CNN
	1    5350 5900
	1    0    0    -1  
$EndComp
$Comp
L Device:R R46
U 1 1 5B61AC38
P 5650 5900
F 0 "R46" V 5730 5900 50  0000 C CNN
F 1 "220" V 5650 5900 50  0000 C CNN
F 2 "8bit-smd-custom:R_0603_1608Metric_Pad1.05x0.95mm_HandSolder" V 5580 5900 50  0001 C CNN
F 3 "" H 5650 5900 50  0001 C CNN
	1    5650 5900
	1    0    0    -1  
$EndComp
$Comp
L Device:R R47
U 1 1 5B61AC3A
P 5950 5900
F 0 "R47" V 6030 5900 50  0000 C CNN
F 1 "220" V 5950 5900 50  0000 C CNN
F 2 "8bit-smd-custom:R_0603_1608Metric_Pad1.05x0.95mm_HandSolder" V 5880 5900 50  0001 C CNN
F 3 "" H 5950 5900 50  0001 C CNN
	1    5950 5900
	1    0    0    -1  
$EndComp
$Comp
L power:GND #PWR024
U 1 1 5B61AC3C
P 4900 6400
F 0 "#PWR024" H 4900 6150 50  0001 C CNN
F 1 "GND" H 4900 6250 50  0000 C CNN
F 2 "" H 4900 6400 50  0001 C CNN
F 3 "" H 4900 6400 50  0001 C CNN
	1    4900 6400
	1    0    0    -1  
$EndComp
Text HLabel 6450 4900 2    60   Output ~ 0
IR_4
Text HLabel 6450 5000 2    60   Output ~ 0
IR_5
Text HLabel 6450 5100 2    60   Output ~ 0
IR_6
Text HLabel 6450 5200 2    60   Output ~ 0
IR_7
Wire Wire Line
	1450 1250 3050 1250
Wire Wire Line
	3050 1250 3050 1850
Wire Wire Line
	1450 1150 3150 1150
Wire Wire Line
	3150 1150 3150 1850
Wire Wire Line
	1450 1050 3250 1050
Wire Wire Line
	3250 1050 3250 1850
Wire Wire Line
	3350 1850 3350 950 
Wire Wire Line
	1450 950  3350 950 
Wire Wire Line
	1450 850  3450 850 
Wire Wire Line
	3450 850  3450 1850
Wire Wire Line
	1450 750  3550 750 
Wire Wire Line
	3550 750  3550 1850
Wire Wire Line
	1450 650  3650 650 
Wire Wire Line
	3650 650  3650 1850
Wire Wire Line
	1450 550  3750 550 
Wire Wire Line
	3750 550  3750 1850
Wire Wire Line
	3750 3250 3750 4050
Wire Wire Line
	3650 3250 3650 4150
Wire Wire Line
	3550 3250 3550 4250
Wire Wire Line
	3450 3250 3450 4350
Connection ~ 3050 1250
Connection ~ 3150 1150
Connection ~ 3250 1050
Connection ~ 3350 950 
Connection ~ 3450 850 
Connection ~ 3550 750 
Connection ~ 3650 650 
Connection ~ 3750 550 
Wire Wire Line
	5750 3950 5750 3250
Wire Wire Line
	5650 3850 5650 3250
Wire Wire Line
	5550 3750 5550 3250
Wire Wire Line
	5450 3650 5450 3250
Wire Wire Line
	3450 4350 5050 4350
Wire Wire Line
	7350 4350 7350 3250
Wire Wire Line
	3550 4250 5350 4250
Wire Wire Line
	7250 4250 7250 3250
Wire Wire Line
	3650 4150 5650 4150
Wire Wire Line
	7150 4150 7150 3250
Wire Wire Line
	3750 4050 5950 4050
Wire Wire Line
	7050 4050 7050 3250
Wire Wire Line
	5750 1250 5750 1850
Wire Wire Line
	5650 1150 5650 1850
Wire Wire Line
	5550 1050 5550 1850
Wire Wire Line
	5450 950  5450 1850
Wire Wire Line
	7350 850  7350 1850
Wire Wire Line
	7250 750  7250 1850
Wire Wire Line
	7150 650  7150 1850
Wire Wire Line
	7050 550  7050 1850
Wire Wire Line
	5950 4050 5950 5300
Connection ~ 5950 4050
Wire Wire Line
	5650 4150 5650 5300
Connection ~ 5650 4150
Wire Wire Line
	5350 4250 5350 5300
Connection ~ 5350 4250
Wire Wire Line
	5050 4350 5050 5300
Connection ~ 5050 4350
Wire Wire Line
	4750 3650 4750 4900
Wire Wire Line
	4450 3750 4450 5000
Wire Wire Line
	4150 3850 4150 5100
Wire Wire Line
	3850 3950 3850 5200
Wire Wire Line
	3850 5600 3850 5750
Wire Wire Line
	4150 5600 4150 5750
Wire Wire Line
	4450 5600 4450 5750
Wire Wire Line
	4750 5600 4750 5750
Wire Wire Line
	5050 5600 5050 5750
Wire Wire Line
	5350 5600 5350 5750
Wire Wire Line
	5650 5600 5650 5750
Wire Wire Line
	5950 5600 5950 5750
Wire Wire Line
	3850 6050 3850 6200
Wire Wire Line
	3850 6200 4150 6200
Wire Wire Line
	5950 6200 5950 6050
Wire Wire Line
	5650 6050 5650 6200
Connection ~ 5650 6200
Wire Wire Line
	5350 6050 5350 6200
Connection ~ 5350 6200
Wire Wire Line
	5050 6050 5050 6200
Connection ~ 5050 6200
Wire Wire Line
	4750 6050 4750 6200
Connection ~ 4750 6200
Wire Wire Line
	4450 6050 4450 6200
Connection ~ 4450 6200
Wire Wire Line
	4150 6050 4150 6200
Connection ~ 4150 6200
Wire Wire Line
	4900 6400 4900 6200
Connection ~ 4900 6200
Wire Wire Line
	6450 4900 4750 4900
Connection ~ 4750 4900
Wire Wire Line
	6450 5000 4450 5000
Connection ~ 4450 5000
Wire Wire Line
	6450 5100 4150 5100
Connection ~ 4150 5100
Wire Wire Line
	6450 5200 3850 5200
Connection ~ 3850 5200
Text HLabel 1450 1450 0    60   Input ~ 0
CLK
Wire Wire Line
	1450 1450 4850 1450
Wire Wire Line
	4850 1450 4850 1850
Wire Wire Line
	6450 1450 6450 1850
Connection ~ 4850 1450
$Comp
L power:VCC #PWR025
U 1 1 5B61AC3E
P 4250 2900
F 0 "#PWR025" H 4250 2750 50  0001 C CNN
F 1 "VCC" H 4250 3050 50  0000 C CNN
F 2 "" H 4250 2900 50  0001 C CNN
F 3 "" H 4250 2900 50  0001 C CNN
	1    4250 2900
	1    0    0    -1  
$EndComp
Wire Wire Line
	3950 3250 3950 3350
Wire Wire Line
	3950 3350 4250 3350
Wire Wire Line
	4250 3350 4250 2900
Wire Wire Line
	4050 3250 4050 3550
Wire Wire Line
	4050 3550 8150 3550
Text HLabel 8150 3550 2    60   Input ~ 0
~IO
Wire Wire Line
	5200 1850 5200 1750
Wire Wire Line
	5200 1750 5300 1750
Wire Wire Line
	5300 1750 5300 1850
Wire Wire Line
	6800 1750 6800 1850
Connection ~ 5300 1750
Wire Wire Line
	6900 1750 6900 1850
Connection ~ 6800 1750
Wire Wire Line
	7650 1750 7650 2050
Connection ~ 6900 1750
$Comp
L power:GND #PWR026
U 1 1 5B61AC41
P 7650 2050
F 0 "#PWR026" H 7650 1800 50  0001 C CNN
F 1 "GND" H 7650 1900 50  0000 C CNN
F 2 "" H 7650 2050 50  0001 C CNN
F 3 "" H 7650 2050 50  0001 C CNN
	1    7650 2050
	1    0    0    -1  
$EndComp
Wire Wire Line
	4950 1850 4950 1650
Wire Wire Line
	4950 1650 5050 1650
Wire Wire Line
	5050 1650 5050 1850
Wire Wire Line
	6550 1650 6550 1850
Connection ~ 5050 1650
Wire Wire Line
	6650 1650 6650 1850
Connection ~ 6550 1650
Connection ~ 6650 1650
Text HLabel 8150 1650 2    60   Input ~ 0
~II
Wire Wire Line
	4650 1850 4650 1550
Wire Wire Line
	4650 1550 6250 1550
Wire Wire Line
	6250 1550 6250 1850
Wire Wire Line
	7650 1550 7650 1350
Wire Wire Line
	7650 1350 8150 1350
Connection ~ 6250 1550
Text HLabel 8150 1350 2    60   Input ~ 0
CLR
Wire Wire Line
	4750 3650 5450 3650
Wire Wire Line
	4450 3750 5550 3750
Wire Wire Line
	4150 3850 5650 3850
Wire Wire Line
	3850 3950 5750 3950
Wire Wire Line
	3050 3250 3050 3450
Wire Wire Line
	3050 3450 3150 3450
Wire Wire Line
	3350 3450 3350 3250
Wire Wire Line
	3250 3250 3250 3450
Connection ~ 3250 3450
Wire Wire Line
	3150 3250 3150 3450
Connection ~ 3150 3450
$Comp
L power:GND #PWR027
U 1 1 5B53FEF0
P 3150 3600
F 0 "#PWR027" H 3150 3350 50  0001 C CNN
F 1 "GND" H 3150 3450 50  0000 C CNN
F 2 "" H 3150 3600 50  0001 C CNN
F 3 "" H 3150 3600 50  0001 C CNN
	1    3150 3600
	1    0    0    -1  
$EndComp
$Comp
L Device:C C13
U 1 1 5B633814
P 8550 2500
F 0 "C13" H 8575 2600 50  0000 L CNN
F 1 "0.1µF" H 8575 2400 50  0000 L CNN
F 2 "Capacitor_SMD:C_0603_1608Metric" H 8588 2350 50  0001 C CNN
F 3 "" H 8550 2500 50  0001 C CNN
	1    8550 2500
	1    0    0    -1  
$EndComp
$Comp
L power:GND #PWR028
U 1 1 5B633856
P 8550 2750
F 0 "#PWR028" H 8550 2500 50  0001 C CNN
F 1 "GND" H 8550 2600 50  0000 C CNN
F 2 "" H 8550 2750 50  0001 C CNN
F 3 "" H 8550 2750 50  0001 C CNN
	1    8550 2750
	1    0    0    -1  
$EndComp
$Comp
L power:VCC #PWR029
U 1 1 5B633892
P 8550 2250
F 0 "#PWR029" H 8550 2100 50  0001 C CNN
F 1 "VCC" H 8550 2400 50  0000 C CNN
F 2 "" H 8550 2250 50  0001 C CNN
F 3 "" H 8550 2250 50  0001 C CNN
	1    8550 2250
	1    0    0    -1  
$EndComp
Wire Wire Line
	8550 2250 8550 2350
Wire Wire Line
	8550 2650 8550 2750
Wire Wire Line
	3050 1250 5750 1250
Wire Wire Line
	3150 1150 5650 1150
Wire Wire Line
	3250 1050 5550 1050
Wire Wire Line
	3350 950  5450 950 
Wire Wire Line
	3450 850  7350 850 
Wire Wire Line
	3550 750  7250 750 
Wire Wire Line
	3650 650  7150 650 
Wire Wire Line
	3750 550  7050 550 
Wire Wire Line
	5950 4050 7050 4050
Wire Wire Line
	5650 4150 7150 4150
Wire Wire Line
	5350 4250 7250 4250
Wire Wire Line
	5050 4350 7350 4350
Wire Wire Line
	5650 6200 5950 6200
Wire Wire Line
	5350 6200 5650 6200
Wire Wire Line
	5050 6200 5350 6200
Wire Wire Line
	4750 6200 4900 6200
Wire Wire Line
	4450 6200 4750 6200
Wire Wire Line
	4150 6200 4450 6200
Wire Wire Line
	4900 6200 5050 6200
Wire Wire Line
	4750 4900 4750 5300
Wire Wire Line
	4450 5000 4450 5300
Wire Wire Line
	4150 5100 4150 5300
Wire Wire Line
	3850 5200 3850 5300
Wire Wire Line
	4850 1450 6450 1450
Wire Wire Line
	5300 1750 6800 1750
Wire Wire Line
	6800 1750 6900 1750
Wire Wire Line
	6900 1750 7650 1750
Wire Wire Line
	5050 1650 6550 1650
Wire Wire Line
	6550 1650 6650 1650
Wire Wire Line
	6650 1650 8150 1650
Wire Wire Line
	6250 1550 7650 1550
Wire Wire Line
	3250 3450 3350 3450
Wire Wire Line
	3150 3450 3250 3450
Wire Wire Line
	3150 3450 3150 3600
$EndSCHEMATC
