EESchema Schematic File Version 4
LIBS:8bit-computer-cache
EELAYER 26 0
EELAYER END
$Descr USLetter 11000 8500
encoding utf-8
Sheet 8 13
Title ""
Date ""
Rev ""
Comp ""
Comment1 ""
Comment2 ""
Comment3 ""
Comment4 ""
$EndDescr
$Comp
L 8bit-computer-rescue:74LS157-8bit-computer-rescue U33
U 1 1 5B5601B5
P 4250 2850
F 0 "U33" H 4300 3000 50  0000 C CNN
F 1 "74LS157" H 4300 2700 50  0000 C CNN
F 2 "Package_SO:SOIC-16_3.9x9.9mm_P1.27mm" H 4250 2850 50  0001 C CNN
F 3 "" H 4250 2850 50  0001 C CNN
	1    4250 2850
	0    -1   -1   0   
$EndComp
$Comp
L 8bit-computer-rescue:74LS173-8bit-computer-rescue U34
U 1 1 5B5601E9
P 6950 3000
F 0 "U34" H 7050 3100 50  0000 C CNN
F 1 "74LS173" H 7050 2950 50  0000 C CNN
F 2 "Package_SO:SOIC-16_3.9x9.9mm_P1.27mm" H 6950 3000 50  0001 C CNN
F 3 "" H 6950 3000 50  0001 C CNN
	1    6950 3000
	0    1    1    0   
$EndComp
$Comp
L 8bit-computer-rescue:SW_DIP_x04-8bit-computer-rescue SW5
U 1 1 5B560212
P 4200 4700
F 0 "SW5" H 4200 5050 50  0000 C CNN
F 1 "SW_DIP_x04" H 4200 4450 50  0000 C CNN
F 2 "Button_Switch_SMD:SW_DIP_SPSTx04_Slide_6.7x11.72mm_W8.61mm_P2.54mm_LowProfile" H 4200 4700 50  0001 C CNN
F 3 "" H 4200 4700 50  0001 C CNN
	1    4200 4700
	0    1    1    0   
$EndComp
$Comp
L 8bit-computer-rescue:SW_SPDT-8bit-computer-rescue SW6
U 1 1 5B56024B
P 1400 4800
F 0 "SW6" H 1400 4970 50  0000 C CNN
F 1 "SW_SPDT" H 1400 4600 50  0000 C CNN
F 2 "8bit-custom-footprints:DPDT-pushbutton" H 1400 4800 50  0001 C CNN
F 3 "" H 1400 4800 50  0001 C CNN
	1    1400 4800
	1    0    0    -1  
$EndComp
$Comp
L Device:LED_ALT D48
U 1 1 5B56564B
P 2050 4650
F 0 "D48" H 2050 4750 50  0000 C CNN
F 1 "RED" H 2050 4550 50  0000 C CNN
F 2 "8bit-smd-custom:LED_0603_1608Metric_SMLTXT" H 2050 4650 50  0001 C CNN
F 3 "" H 2050 4650 50  0001 C CNN
	1    2050 4650
	1    0    0    -1  
$EndComp
$Comp
L Device:LED_ALT D49
U 1 1 5B56569F
P 2050 4950
F 0 "D49" H 2050 5050 50  0000 C CNN
F 1 "GREEN" H 2050 4850 50  0000 C CNN
F 2 "8bit-smd-custom:LED_0603_1608Metric_SMLTXT" H 2050 4950 50  0001 C CNN
F 3 "" H 2050 4950 50  0001 C CNN
	1    2050 4950
	1    0    0    -1  
$EndComp
Wire Wire Line
	1600 4700 1750 4700
Wire Wire Line
	1750 4700 1750 4650
Wire Wire Line
	1750 4650 1900 4650
Wire Wire Line
	1600 4900 1750 4900
Wire Wire Line
	1750 4900 1750 4950
Wire Wire Line
	1750 4950 1900 4950
$Comp
L Device:R R63
U 1 1 5B565870
P 2400 4350
F 0 "R63" V 2480 4350 50  0000 C CNN
F 1 "220" V 2400 4350 50  0000 C CNN
F 2 "8bit-smd-custom:R_0603_1608Metric_Pad1.05x0.95mm_HandSolder" V 2330 4350 50  0001 C CNN
F 3 "" H 2400 4350 50  0001 C CNN
	1    2400 4350
	1    0    0    -1  
$EndComp
$Comp
L Device:R R64
U 1 1 5B5658CB
P 2700 4350
F 0 "R64" V 2780 4350 50  0000 C CNN
F 1 "220" V 2700 4350 50  0000 C CNN
F 2 "8bit-smd-custom:R_0603_1608Metric_Pad1.05x0.95mm_HandSolder" V 2630 4350 50  0001 C CNN
F 3 "" H 2700 4350 50  0001 C CNN
	1    2700 4350
	1    0    0    -1  
$EndComp
Wire Wire Line
	2400 4500 2400 4650
Wire Wire Line
	2200 4950 2700 4950
Wire Wire Line
	2700 4950 2700 4500
$Comp
L power:GND #PWR048
U 1 1 5B565911
P 1100 4900
F 0 "#PWR048" H 1100 4650 50  0001 C CNN
F 1 "GND" H 1100 4750 50  0000 C CNN
F 2 "" H 1100 4900 50  0001 C CNN
F 3 "" H 1100 4900 50  0001 C CNN
	1    1100 4900
	1    0    0    -1  
$EndComp
Wire Wire Line
	1100 4900 1100 4800
Wire Wire Line
	1100 4800 1200 4800
$Comp
L power:VCC #PWR049
U 1 1 5B565949
P 2550 4000
F 0 "#PWR049" H 2550 3850 50  0001 C CNN
F 1 "VCC" H 2550 4150 50  0000 C CNN
F 2 "" H 2550 4000 50  0001 C CNN
F 3 "" H 2550 4000 50  0001 C CNN
	1    2550 4000
	1    0    0    -1  
$EndComp
Wire Wire Line
	2400 4200 2400 4100
Wire Wire Line
	2400 4100 2550 4100
Wire Wire Line
	2700 4100 2700 4200
Wire Wire Line
	2550 4000 2550 4100
Connection ~ 2550 4100
Wire Wire Line
	3800 3600 3800 4100
Wire Wire Line
	3800 4100 7500 4100
Wire Wire Line
	7500 4100 7500 3700
Wire Wire Line
	4550 3600 4550 3800
Wire Wire Line
	4550 3800 7200 3800
Wire Wire Line
	7200 3800 7200 3700
Wire Wire Line
	4300 3600 4300 3900
Wire Wire Line
	4300 3900 7300 3900
Wire Wire Line
	7300 3900 7300 3700
Wire Wire Line
	4050 3600 4050 4000
Wire Wire Line
	4050 4000 7400 4000
Wire Wire Line
	7400 4000 7400 3700
Wire Wire Line
	3700 3600 3700 5100
Wire Wire Line
	3700 5100 4100 5100
Wire Wire Line
	4100 5100 4100 5000
Wire Wire Line
	4200 5000 4200 5200
Wire Wire Line
	4200 5200 3800 5200
Wire Wire Line
	3800 5200 3800 4200
Wire Wire Line
	3800 4200 3950 4200
Wire Wire Line
	3950 4200 3950 3600
Wire Wire Line
	4200 3600 4200 4200
Wire Wire Line
	4200 4200 4300 4200
Wire Wire Line
	4300 4200 4300 4400
Wire Wire Line
	4450 3600 4450 4200
Wire Wire Line
	4450 4200 4400 4200
Wire Wire Line
	4400 4200 4400 4400
Wire Wire Line
	4100 4400 4100 4300
Wire Wire Line
	4100 4300 4200 4300
Wire Wire Line
	4800 3600 4800 4300
Wire Wire Line
	4300 5100 4400 5100
Wire Wire Line
	4300 5100 4300 5000
Wire Wire Line
	4400 5000 4400 5100
Connection ~ 4400 5100
Wire Wire Line
	4200 4400 4200 4300
Connection ~ 4200 4300
$Comp
L power:GND #PWR050
U 1 1 5B565CD8
P 4800 5200
F 0 "#PWR050" H 4800 4950 50  0001 C CNN
F 1 "GND" H 4800 5050 50  0000 C CNN
F 2 "" H 4800 5200 50  0001 C CNN
F 3 "" H 4800 5200 50  0001 C CNN
	1    4800 5200
	1    0    0    -1  
$EndComp
Connection ~ 4800 5100
Wire Wire Line
	4700 3700 4700 3600
Connection ~ 4800 4300
Text HLabel 4700 2000 2    60   Output ~ 0
A0
Text HLabel 4700 1900 2    60   Output ~ 0
A1
Text HLabel 4700 1800 2    60   Output ~ 0
A2
Text HLabel 4700 1700 2    60   Output ~ 0
A3
Wire Wire Line
	4500 2100 4500 2000
Wire Wire Line
	3200 2000 4500 2000
Wire Wire Line
	4250 2100 4250 1900
Wire Wire Line
	2900 1900 4250 1900
Wire Wire Line
	4000 2100 4000 1800
Wire Wire Line
	2600 1800 4000 1800
Wire Wire Line
	3750 2100 3750 1700
Wire Wire Line
	2300 1700 3750 1700
$Comp
L Device:LED_ALT D47
U 1 1 5B5660DB
P 3200 2250
F 0 "D47" H 3200 2350 50  0000 C CNN
F 1 "YELLOW" H 3200 2150 50  0000 C CNN
F 2 "8bit-smd-custom:LED_0603_1608Metric_SMLTXT" H 3200 2250 50  0001 C CNN
F 3 "" H 3200 2250 50  0001 C CNN
	1    3200 2250
	0    -1   -1   0   
$EndComp
$Comp
L Device:LED_ALT D46
U 1 1 5B56613C
P 2900 2250
F 0 "D46" H 2900 2350 50  0000 C CNN
F 1 "YELLOW" H 2900 2150 50  0000 C CNN
F 2 "8bit-smd-custom:LED_0603_1608Metric_SMLTXT" H 2900 2250 50  0001 C CNN
F 3 "" H 2900 2250 50  0001 C CNN
	1    2900 2250
	0    -1   -1   0   
$EndComp
$Comp
L Device:LED_ALT D45
U 1 1 5B56616B
P 2600 2250
F 0 "D45" H 2600 2350 50  0000 C CNN
F 1 "YELLOW" H 2600 2150 50  0000 C CNN
F 2 "8bit-smd-custom:LED_0603_1608Metric_SMLTXT" H 2600 2250 50  0001 C CNN
F 3 "" H 2600 2250 50  0001 C CNN
	1    2600 2250
	0    -1   -1   0   
$EndComp
$Comp
L Device:LED_ALT D44
U 1 1 5B5661A0
P 2300 2250
F 0 "D44" H 2300 2350 50  0000 C CNN
F 1 "YELLOW" H 2300 2150 50  0000 C CNN
F 2 "8bit-smd-custom:LED_0603_1608Metric_SMLTXT" H 2300 2250 50  0001 C CNN
F 3 "" H 2300 2250 50  0001 C CNN
	1    2300 2250
	0    -1   -1   0   
$EndComp
$Comp
L Device:R R62
U 1 1 5B566229
P 3200 2650
F 0 "R62" V 3280 2650 50  0000 C CNN
F 1 "220" V 3200 2650 50  0000 C CNN
F 2 "8bit-smd-custom:R_0603_1608Metric_Pad1.05x0.95mm_HandSolder" V 3130 2650 50  0001 C CNN
F 3 "" H 3200 2650 50  0001 C CNN
	1    3200 2650
	1    0    0    -1  
$EndComp
$Comp
L Device:R R61
U 1 1 5B566283
P 2900 2650
F 0 "R61" V 2980 2650 50  0000 C CNN
F 1 "220" V 2900 2650 50  0000 C CNN
F 2 "8bit-smd-custom:R_0603_1608Metric_Pad1.05x0.95mm_HandSolder" V 2830 2650 50  0001 C CNN
F 3 "" H 2900 2650 50  0001 C CNN
	1    2900 2650
	1    0    0    -1  
$EndComp
$Comp
L Device:R R60
U 1 1 5B5662BE
P 2600 2650
F 0 "R60" V 2680 2650 50  0000 C CNN
F 1 "220" V 2600 2650 50  0000 C CNN
F 2 "8bit-smd-custom:R_0603_1608Metric_Pad1.05x0.95mm_HandSolder" V 2530 2650 50  0001 C CNN
F 3 "" H 2600 2650 50  0001 C CNN
	1    2600 2650
	1    0    0    -1  
$EndComp
$Comp
L Device:R R59
U 1 1 5B5662FD
P 2300 2650
F 0 "R59" V 2380 2650 50  0000 C CNN
F 1 "220" V 2300 2650 50  0000 C CNN
F 2 "8bit-smd-custom:R_0603_1608Metric_Pad1.05x0.95mm_HandSolder" V 2230 2650 50  0001 C CNN
F 3 "" H 2300 2650 50  0001 C CNN
	1    2300 2650
	1    0    0    -1  
$EndComp
Wire Wire Line
	2200 4650 2400 4650
Wire Wire Line
	3500 3700 4700 3700
Wire Wire Line
	3200 2000 3200 2100
Connection ~ 4500 2000
Wire Wire Line
	2900 1900 2900 2100
Connection ~ 4250 1900
Wire Wire Line
	2600 1800 2600 2100
Connection ~ 4000 1800
Wire Wire Line
	2300 2100 2300 1700
Connection ~ 3750 1700
Wire Wire Line
	3200 2400 3200 2500
Wire Wire Line
	2900 2400 2900 2500
Wire Wire Line
	2600 2400 2600 2500
Wire Wire Line
	2300 2400 2300 2500
Wire Wire Line
	2300 2800 2300 3000
Wire Wire Line
	2300 3000 2600 3000
Wire Wire Line
	3200 3000 3200 2800
Wire Wire Line
	2900 2800 2900 3000
Connection ~ 2900 3000
Wire Wire Line
	2600 2800 2600 3000
Connection ~ 2600 3000
$Comp
L power:GND #PWR051
U 1 1 5B566978
P 2750 3150
F 0 "#PWR051" H 2750 2900 50  0001 C CNN
F 1 "GND" H 2750 3000 50  0000 C CNN
F 2 "" H 2750 3150 50  0001 C CNN
F 3 "" H 2750 3150 50  0001 C CNN
	1    2750 3150
	1    0    0    -1  
$EndComp
Wire Wire Line
	2750 3150 2750 3000
Connection ~ 2750 3000
Text HLabel 7700 1900 2    60   Input ~ 0
BUS_0
Text HLabel 7700 2000 2    60   Input ~ 0
BUS_1
Text HLabel 7700 2100 2    60   Input ~ 0
BUS_2
Text HLabel 7700 2200 2    60   Input ~ 0
BUS_3
Wire Wire Line
	7700 1900 7200 1900
Wire Wire Line
	7200 1900 7200 2300
Wire Wire Line
	7700 2000 7300 2000
Wire Wire Line
	7300 2000 7300 2300
Wire Wire Line
	7700 2100 7400 2100
Wire Wire Line
	7400 2100 7400 2300
Wire Wire Line
	7700 2200 7500 2200
Wire Wire Line
	7500 2200 7500 2300
Text HLabel 7700 1600 2    60   Input ~ 0
~MI
Text HLabel 7700 1400 2    60   Input ~ 0
CLK
Text HLabel 7700 1200 2    60   Input ~ 0
CLR
Wire Wire Line
	7700 1600 6750 1600
Wire Wire Line
	6750 1600 6750 2200
Wire Wire Line
	6700 2200 6750 2200
Wire Wire Line
	6700 2200 6700 2300
Wire Wire Line
	6800 2200 6800 2300
Connection ~ 6750 2200
Wire Wire Line
	7700 1400 6600 1400
Wire Wire Line
	6600 1400 6600 2300
Wire Wire Line
	7700 1200 6400 1200
Wire Wire Line
	6400 1200 6400 2300
Wire Wire Line
	6950 2300 6950 2200
Wire Wire Line
	6950 2200 7000 2200
Wire Wire Line
	7050 2200 7050 2300
$Comp
L power:GND #PWR052
U 1 1 5B56709E
P 6900 2000
F 0 "#PWR052" H 6900 1750 50  0001 C CNN
F 1 "GND" H 6900 1850 50  0000 C CNN
F 2 "" H 6900 2000 50  0001 C CNN
F 3 "" H 6900 2000 50  0001 C CNN
	1    6900 2000
	1    0    0    -1  
$EndComp
Wire Wire Line
	6900 2000 6900 1950
Wire Wire Line
	6900 1950 7000 1950
Wire Wire Line
	7000 1950 7000 2200
Connection ~ 7000 2200
Text HLabel 3800 5900 2    60   Output ~ 0
PROG
Wire Wire Line
	3500 5900 3800 5900
$Comp
L Device:C C18
U 1 1 5B635507
P 8600 3150
F 0 "C18" H 8625 3250 50  0000 L CNN
F 1 "0.1µF" H 8625 3050 50  0000 L CNN
F 2 "Capacitor_SMD:C_0603_1608Metric" H 8638 3000 50  0001 C CNN
F 3 "" H 8600 3150 50  0001 C CNN
	1    8600 3150
	1    0    0    -1  
$EndComp
$Comp
L power:VCC #PWR053
U 1 1 5B63557C
P 8600 2900
F 0 "#PWR053" H 8600 2750 50  0001 C CNN
F 1 "VCC" H 8600 3050 50  0000 C CNN
F 2 "" H 8600 2900 50  0001 C CNN
F 3 "" H 8600 2900 50  0001 C CNN
	1    8600 2900
	1    0    0    -1  
$EndComp
$Comp
L power:GND #PWR054
U 1 1 5B6355B2
P 8600 3400
F 0 "#PWR054" H 8600 3150 50  0001 C CNN
F 1 "GND" H 8600 3250 50  0000 C CNN
F 2 "" H 8600 3400 50  0001 C CNN
F 3 "" H 8600 3400 50  0001 C CNN
	1    8600 3400
	1    0    0    -1  
$EndComp
Wire Wire Line
	8600 3400 8600 3300
Wire Wire Line
	8600 3000 8600 2900
Wire Wire Line
	2550 4100 2700 4100
Wire Wire Line
	4400 5100 4800 5100
Wire Wire Line
	4200 4300 4800 4300
Wire Wire Line
	4800 5100 4800 5200
Wire Wire Line
	4800 4300 4800 5100
Wire Wire Line
	4500 2000 4700 2000
Wire Wire Line
	4250 1900 4700 1900
Wire Wire Line
	4000 1800 4700 1800
Wire Wire Line
	3750 1700 4700 1700
Wire Wire Line
	2900 3000 3200 3000
Wire Wire Line
	2600 3000 2750 3000
Wire Wire Line
	2750 3000 2900 3000
Wire Wire Line
	6750 2200 6800 2200
Wire Wire Line
	7000 2200 7050 2200
Wire Wire Line
	3500 3700 3500 5900
Wire Wire Line
	1750 4650 1750 3700
Wire Wire Line
	1750 3700 3500 3700
Connection ~ 1750 4650
Connection ~ 3500 3700
$EndSCHEMATC
