EESchema Schematic File Version 4
LIBS:8bit-computer-cache
EELAYER 26 0
EELAYER END
$Descr A4 11693 8268
encoding utf-8
Sheet 11 13
Title ""
Date ""
Rev ""
Comp ""
Comment1 ""
Comment2 ""
Comment3 ""
Comment4 ""
$EndDescr
$Comp
L 74xx:74HC595 U38
U 1 1 5C1C97A3
P 3750 3800
F 0 "U38" H 3750 4578 50  0000 C CNN
F 1 "74HC595" H 3750 4487 50  0000 C CNN
F 2 "Package_SO:TSSOP-16_4.4x5mm_P0.65mm" H 3750 3800 50  0001 C CNN
F 3 "http://www.ti.com/lit/ds/symlink/sn74hc595.pdf" H 3750 3800 50  0001 C CNN
	1    3750 3800
	1    0    0    -1  
$EndComp
Wire Wire Line
	4150 3400 4300 3400
Wire Wire Line
	4300 3400 4300 1700
$Comp
L power:GND #PWR0101
U 1 1 5C1CD923
P 5200 5350
F 0 "#PWR0101" H 5200 5100 50  0001 C CNN
F 1 "GND" H 5205 5177 50  0000 C CNN
F 2 "" H 5200 5350 50  0001 C CNN
F 3 "" H 5200 5350 50  0001 C CNN
	1    5200 5350
	1    0    0    -1  
$EndComp
$Comp
L power:VCC #PWR0105
U 1 1 5C1D3A7B
P 6950 3950
F 0 "#PWR0105" H 6950 3800 50  0001 C CNN
F 1 "VCC" H 6967 4123 50  0000 C CNN
F 2 "" H 6950 3950 50  0001 C CNN
F 3 "" H 6950 3950 50  0001 C CNN
	1    6950 3950
	1    0    0    -1  
$EndComp
Wire Wire Line
	6850 4050 6950 4050
Wire Wire Line
	6950 4050 6950 4000
Wire Wire Line
	6850 4150 6950 4150
Wire Wire Line
	6950 4150 6950 4050
Connection ~ 6950 4050
Wire Wire Line
	3750 3200 4000 3200
$Comp
L power:VCC #PWR0106
U 1 1 5C1D5D87
P 4000 3100
F 0 "#PWR0106" H 4000 2950 50  0001 C CNN
F 1 "VCC" H 4017 3273 50  0000 C CNN
F 2 "" H 4000 3100 50  0001 C CNN
F 3 "" H 4000 3100 50  0001 C CNN
	1    4000 3100
	1    0    0    -1  
$EndComp
$Comp
L 74xx:74HC595 U43
U 1 1 5C210806
P 7650 4500
F 0 "U43" H 7650 5278 50  0000 C CNN
F 1 "74HC595" H 7650 5187 50  0000 C CNN
F 2 "Package_SO:TSSOP-16_4.4x5mm_P0.65mm" H 7650 4500 50  0001 C CNN
F 3 "http://www.ti.com/lit/ds/symlink/sn74hc595.pdf" H 7650 4500 50  0001 C CNN
	1    7650 4500
	1    0    0    -1  
$EndComp
$Comp
L 74xx:74HC245 U37
U 1 1 5C214649
P 3150 2200
F 0 "U37" H 3150 3178 50  0000 C CNN
F 1 "74HC245" H 3150 3087 50  0000 C CNN
F 2 "Package_SO:SOIC-20W_7.5x12.8mm_P1.27mm" H 3150 2200 50  0001 C CNN
F 3 "http://www.ti.com/lit/gpn/sn74HC245" H 3150 2200 50  0001 C CNN
	1    3150 2200
	1    0    0    -1  
$EndComp
Text HLabel 2550 1700 0    60   Input ~ 0
A0
Text HLabel 2550 1800 0    60   Input ~ 0
A1
Text HLabel 2550 1900 0    60   Input ~ 0
A2
Text HLabel 2550 2000 0    60   Input ~ 0
A3
Text HLabel 2550 2200 0    60   Input ~ 0
A5
Text HLabel 2550 2300 0    60   Input ~ 0
A6
Text HLabel 2550 2100 0    60   Input ~ 0
A4
Text HLabel 2550 2400 0    60   Input ~ 0
A7
Wire Wire Line
	2550 2400 2650 2400
Wire Wire Line
	2650 2300 2550 2300
Wire Wire Line
	2550 2200 2650 2200
Wire Wire Line
	2550 2100 2650 2100
Wire Wire Line
	2550 2000 2650 2000
Wire Wire Line
	2550 1900 2650 1900
Wire Wire Line
	2550 1800 2650 1800
Wire Wire Line
	2550 1700 2650 1700
$Comp
L power:VCC #PWR0107
U 1 1 5C225557
P 2250 2600
F 0 "#PWR0107" H 2250 2450 50  0001 C CNN
F 1 "VCC" H 2267 2773 50  0000 C CNN
F 2 "" H 2250 2600 50  0001 C CNN
F 3 "" H 2250 2600 50  0001 C CNN
	1    2250 2600
	1    0    0    -1  
$EndComp
$Comp
L power:GND #PWR0108
U 1 1 5C226D6B
P 3150 3000
F 0 "#PWR0108" H 3150 2750 50  0001 C CNN
F 1 "GND" H 3155 2827 50  0000 C CNN
F 2 "" H 3150 3000 50  0001 C CNN
F 3 "" H 3150 3000 50  0001 C CNN
	1    3150 3000
	1    0    0    -1  
$EndComp
$Comp
L power:VCC #PWR0109
U 1 1 5C226DBC
P 3450 1400
F 0 "#PWR0109" H 3450 1250 50  0001 C CNN
F 1 "VCC" H 3467 1573 50  0000 C CNN
F 2 "" H 3450 1400 50  0001 C CNN
F 3 "" H 3450 1400 50  0001 C CNN
	1    3450 1400
	1    0    0    -1  
$EndComp
Wire Wire Line
	3150 1400 3450 1400
Wire Wire Line
	2250 2600 2650 2600
Wire Wire Line
	2450 4000 2350 4000
Wire Wire Line
	2350 2700 2650 2700
Wire Wire Line
	3000 4000 3000 5900
Text HLabel 9200 1400 2    60   Output ~ 0
D0
Text HLabel 9200 1500 2    60   Output ~ 0
D1
Text HLabel 9200 1600 2    60   Output ~ 0
D2
Text HLabel 9200 1700 2    60   Output ~ 0
D3
Text HLabel 9200 1800 2    60   Output ~ 0
D4
Text HLabel 9200 1900 2    60   Output ~ 0
D5
Text HLabel 9200 2000 2    60   Output ~ 0
D6
Text HLabel 9200 2100 2    60   Output ~ 0
D7
Text HLabel 9200 2200 2    60   Output ~ 0
D8
Text HLabel 9200 2300 2    60   Output ~ 0
D9
Text HLabel 9200 2400 2    60   Output ~ 0
D10
Text HLabel 9200 2500 2    60   Output ~ 0
D11
Text HLabel 9200 2600 2    60   Output ~ 0
D12
Text HLabel 9200 2700 2    60   Output ~ 0
D13
Text HLabel 9200 2900 2    60   Output ~ 0
D15
Wire Wire Line
	7050 3900 7050 4000
Wire Wire Line
	7050 4000 6950 4000
Connection ~ 6950 4000
Wire Wire Line
	6950 4000 6950 3950
Wire Wire Line
	7650 5200 6450 5200
Connection ~ 5200 5200
Wire Wire Line
	5200 5200 5200 5350
Wire Wire Line
	6900 5900 6900 4700
Wire Wire Line
	6900 4700 7250 4700
Wire Wire Line
	9200 1600 8150 1600
Wire Wire Line
	9200 1800 8250 1800
Wire Wire Line
	9200 2000 8350 2000
Wire Wire Line
	9200 2200 8450 2200
Text HLabel 9200 2800 2    60   Output ~ 0
D14
Wire Wire Line
	8100 4200 8050 4200
Wire Wire Line
	8050 4300 8150 4300
Wire Wire Line
	8200 4400 8050 4400
Wire Wire Line
	8050 4500 8250 4500
Wire Wire Line
	8300 4600 8050 4600
Wire Wire Line
	8050 4700 8350 4700
Wire Wire Line
	8400 4800 8050 4800
$Comp
L 74xx:74HC595 U45
U 1 1 5C29FB4F
P 7650 5950
F 0 "U45" H 7650 5072 50  0000 C CNN
F 1 "74HC595" H 7650 5163 50  0000 C CNN
F 2 "Package_SO:TSSOP-16_4.4x5mm_P0.65mm" H 7650 5950 50  0001 C CNN
F 3 "http://www.ti.com/lit/ds/symlink/sn74hc595.pdf" H 7650 5950 50  0001 C CNN
	1    7650 5950
	1    0    0    -1  
$EndComp
Wire Wire Line
	6850 2900 8800 2900
Connection ~ 8800 2900
Wire Wire Line
	8800 2900 9200 2900
Connection ~ 8050 1400
Wire Wire Line
	8050 1400 9200 1400
Connection ~ 8100 1500
Wire Wire Line
	8100 1500 9200 1500
Connection ~ 8150 1600
Connection ~ 8200 1700
Wire Wire Line
	8200 1700 9200 1700
Connection ~ 8250 1800
Connection ~ 8300 1900
Wire Wire Line
	8300 1900 9200 1900
Connection ~ 8350 2000
Connection ~ 8400 2100
Wire Wire Line
	8400 2100 9200 2100
Connection ~ 8450 2200
Connection ~ 8500 2300
Wire Wire Line
	8500 2300 9200 2300
Connection ~ 8550 2400
Wire Wire Line
	8550 2400 9200 2400
Connection ~ 8600 2500
Wire Wire Line
	8600 2500 9200 2500
Connection ~ 8650 2600
Wire Wire Line
	8650 2600 9200 2600
Connection ~ 8700 2700
Wire Wire Line
	8700 2700 9200 2700
Connection ~ 8750 2800
Wire Wire Line
	8750 2800 9200 2800
Wire Wire Line
	6850 1400 8050 1400
Wire Wire Line
	6850 1500 8100 1500
Wire Wire Line
	6850 1700 8200 1700
Wire Wire Line
	6850 1900 8300 1900
Wire Wire Line
	6850 2100 8400 2100
Wire Wire Line
	6850 2300 8500 2300
Wire Wire Line
	6850 2400 8550 2400
Wire Wire Line
	6850 2500 8600 2500
Wire Wire Line
	6850 2600 8650 2600
Wire Wire Line
	6850 2700 8700 2700
Wire Wire Line
	6850 2800 8750 2800
Wire Wire Line
	8050 1400 8050 4100
Wire Wire Line
	8150 1600 8150 4300
Wire Wire Line
	6850 1600 8150 1600
Wire Wire Line
	8250 1800 8250 4500
Wire Wire Line
	6850 1800 8250 1800
Wire Wire Line
	8350 2000 8350 4700
Wire Wire Line
	6850 2000 8350 2000
Wire Wire Line
	6850 2200 8450 2200
Wire Wire Line
	8100 1500 8100 4200
Wire Wire Line
	8200 1700 8200 4400
Wire Wire Line
	8300 1900 8300 4600
Wire Wire Line
	8400 2100 8400 4800
Wire Wire Line
	8450 5550 8050 5550
Wire Wire Line
	8450 2200 8450 5550
Wire Wire Line
	8050 5650 8500 5650
Wire Wire Line
	8500 2300 8500 5650
Wire Wire Line
	8550 5750 8050 5750
Wire Wire Line
	8550 2400 8550 5750
Wire Wire Line
	8050 5850 8600 5850
Wire Wire Line
	8600 2500 8600 5850
Wire Wire Line
	8650 5950 8050 5950
Wire Wire Line
	8650 2600 8650 5950
Wire Wire Line
	8050 6050 8700 6050
Wire Wire Line
	8700 2700 8700 6050
Wire Wire Line
	8750 6150 8050 6150
Wire Wire Line
	8750 2800 8750 6150
Wire Wire Line
	8050 6250 8800 6250
Wire Wire Line
	8800 2900 8800 6250
NoConn ~ 8050 6450
Wire Wire Line
	7650 6650 6450 6650
Wire Wire Line
	6450 6650 6450 5200
Connection ~ 6450 5200
Wire Wire Line
	7250 6150 6900 6150
Wire Wire Line
	6900 6150 6900 5900
Connection ~ 6900 5900
Wire Wire Line
	2350 2700 2350 4000
Wire Wire Line
	3350 3400 3100 3400
Wire Wire Line
	3100 3400 3100 6250
Wire Wire Line
	3100 6250 2200 6250
Wire Wire Line
	7250 4100 7050 4100
Wire Wire Line
	7050 4100 7050 4250
Wire Wire Line
	7050 4250 6700 4250
Wire Wire Line
	6700 4250 6700 6350
Wire Wire Line
	6700 6350 2200 6350
Wire Wire Line
	2200 6450 3250 6450
Wire Wire Line
	6850 6450 6850 6050
Wire Wire Line
	6850 6050 7250 6050
Wire Wire Line
	6850 6050 6850 4600
Wire Wire Line
	6850 4600 7250 4600
Connection ~ 6850 6050
Wire Wire Line
	3350 3900 3250 3900
Wire Wire Line
	3250 3900 3250 6450
Wire Wire Line
	7050 3900 7650 3900
Text Label 5350 5900 2    60   ~ 0
ShiftOutENABLE
Text Label 2600 6250 2    60   ~ 0
ASerial
Text Label 2600 6350 2    60   ~ 0
DSerial
Text Label 2650 6450 2    60   ~ 0
ShiftCLK
Wire Wire Line
	2200 6550 3150 6550
Wire Wire Line
	6350 6550 6350 6750
Wire Wire Line
	6350 6750 7100 6750
Wire Wire Line
	7100 6750 7100 5750
Wire Wire Line
	7100 4300 7250 4300
Wire Wire Line
	7250 5750 7100 5750
Connection ~ 7100 5750
Wire Wire Line
	7100 5750 7100 4300
Text Label 2450 6550 2    60   ~ 0
CLK
Wire Wire Line
	3350 3600 3150 3600
Wire Wire Line
	3150 3600 3150 6550
Wire Wire Line
	6250 6650 6250 6850
Wire Wire Line
	6250 6850 7200 6850
Wire Wire Line
	7200 6850 7200 5850
Wire Wire Line
	7200 4400 7250 4400
Wire Wire Line
	7250 5850 7200 5850
Connection ~ 7200 5850
Wire Wire Line
	7200 5850 7200 4400
Wire Wire Line
	3350 3700 3200 3700
Wire Wire Line
	3200 3700 3200 6650
Text Label 2550 6650 2    60   ~ 0
~Reset
Wire Wire Line
	2350 4000 2350 4400
Wire Wire Line
	2350 4400 2900 4400
Wire Wire Line
	2900 4400 2900 6150
Wire Wire Line
	2200 6150 2900 6150
Connection ~ 2350 4000
Text Label 2700 6150 2    60   ~ 0
ProgMode
Wire Wire Line
	2750 6750 2750 6850
$Comp
L power:GND #PWR0110
U 1 1 5C489FF2
P 2750 6850
F 0 "#PWR0110" H 2750 6600 50  0001 C CNN
F 1 "GND" H 2755 6677 50  0000 C CNN
F 2 "" H 2750 6850 50  0001 C CNN
F 3 "" H 2750 6850 50  0001 C CNN
	1    2750 6850
	1    0    0    -1  
$EndComp
Wire Wire Line
	7650 5350 7850 5350
$Comp
L power:VCC #PWR0111
U 1 1 5C495A5B
P 7850 5350
F 0 "#PWR0111" H 7850 5200 50  0001 C CNN
F 1 "VCC" H 7867 5523 50  0000 C CNN
F 2 "" H 7850 5350 50  0001 C CNN
F 3 "" H 7850 5350 50  0001 C CNN
	1    7850 5350
	1    0    0    -1  
$EndComp
Wire Wire Line
	4000 3200 4000 3100
Wire Wire Line
	3200 6650 3400 6650
Connection ~ 3200 6650
Connection ~ 3150 6550
Connection ~ 3250 6450
Connection ~ 4300 1700
Wire Wire Line
	4300 1700 3650 1700
Wire Wire Line
	4300 1700 5250 1700
Wire Wire Line
	3000 5900 3550 5900
Wire Wire Line
	3600 4750 3600 4600
Wire Wire Line
	3600 4600 3900 4600
Wire Wire Line
	3900 4600 3900 4450
Wire Wire Line
	3900 4450 4200 4450
Wire Wire Line
	4200 4450 4200 4300
Wire Wire Line
	4200 4300 4150 4300
Wire Wire Line
	8050 5000 8050 5150
Wire Wire Line
	8050 5150 7700 5150
Wire Wire Line
	7700 5150 7700 5250
Wire Wire Line
	7700 5250 7250 5250
Wire Wire Line
	7250 5250 7250 5550
Wire Wire Line
	3650 2400 4650 2400
Wire Wire Line
	3650 2300 4600 2300
Wire Wire Line
	3650 2200 4550 2200
Wire Wire Line
	3650 2100 4500 2100
Wire Wire Line
	3650 2000 4450 2000
Wire Wire Line
	3650 1800 4350 1800
Wire Wire Line
	3650 1900 4400 1900
Wire Wire Line
	4150 3500 4350 3500
Wire Wire Line
	4350 3500 4350 1800
Connection ~ 4350 1800
Wire Wire Line
	4350 1800 5250 1800
Wire Wire Line
	4400 1900 4400 3600
Wire Wire Line
	4400 3600 4150 3600
Connection ~ 4400 1900
Wire Wire Line
	4400 1900 5250 1900
Wire Wire Line
	4150 3700 4450 3700
Wire Wire Line
	4450 3700 4450 2000
Connection ~ 4450 2000
Wire Wire Line
	4450 2000 5250 2000
Wire Wire Line
	4500 2100 4500 3800
Wire Wire Line
	4500 3800 4150 3800
Connection ~ 4500 2100
Wire Wire Line
	4500 2100 5250 2100
Wire Wire Line
	4150 3900 4550 3900
Wire Wire Line
	4550 3900 4550 2200
Connection ~ 4550 2200
Wire Wire Line
	4550 2200 5250 2200
Wire Wire Line
	4150 4000 4600 4000
Wire Wire Line
	4600 4000 4600 2300
Connection ~ 4600 2300
Wire Wire Line
	4600 2300 5250 2300
Wire Wire Line
	4150 4100 4650 4100
Wire Wire Line
	4650 4100 4650 2400
Connection ~ 4650 2400
Wire Wire Line
	4650 2400 5250 2400
Wire Wire Line
	4400 4750 4700 4750
Wire Wire Line
	4700 4750 4700 2500
Wire Wire Line
	4700 2500 5250 2500
Wire Wire Line
	5250 2600 4750 2600
Wire Wire Line
	4750 2600 4750 4850
Wire Wire Line
	4750 4850 4400 4850
Wire Wire Line
	4400 4950 4800 4950
Wire Wire Line
	4800 4950 4800 2700
Wire Wire Line
	4800 2700 5250 2700
Wire Wire Line
	5250 2800 4850 2800
Wire Wire Line
	4850 2800 4850 5050
Wire Wire Line
	4850 5050 4400 5050
Wire Wire Line
	4400 5150 4900 5150
Wire Wire Line
	4900 5150 4900 2900
Wire Wire Line
	4900 2900 5250 2900
Wire Wire Line
	5250 3000 4950 3000
Wire Wire Line
	4950 3000 4950 5250
Wire Wire Line
	4950 5250 4400 5250
Wire Wire Line
	4400 5350 5000 5350
Wire Wire Line
	5000 5350 5000 3100
Wire Wire Line
	5000 3100 5250 3100
Wire Wire Line
	5250 3200 5050 3200
Wire Wire Line
	5050 3200 5050 5450
Wire Wire Line
	5050 5450 4400 5450
Wire Wire Line
	5250 3300 5200 3300
Wire Wire Line
	5200 1300 5200 950 
Wire Wire Line
	5200 950  5100 950 
Wire Wire Line
	5100 950  5100 1050
Wire Wire Line
	5200 1300 5250 1300
$Comp
L power:GND #PWR0112
U 1 1 5C77CB3C
P 5100 1050
F 0 "#PWR0112" H 5100 800 50  0001 C CNN
F 1 "GND" H 5105 877 50  0000 C CNN
F 2 "" H 5100 1050 50  0001 C CNN
F 3 "" H 5100 1050 50  0001 C CNN
	1    5100 1050
	1    0    0    -1  
$EndComp
Wire Wire Line
	5250 1500 3650 1500
Wire Wire Line
	3650 1500 3650 1100
Wire Wire Line
	3650 1100 2100 1100
Wire Wire Line
	2100 1100 2100 3300
Wire Wire Line
	2100 3300 2250 3300
Wire Wire Line
	2250 3300 2250 4500
Wire Wire Line
	2250 4500 2800 4500
Wire Wire Line
	2800 4500 2800 6050
Wire Wire Line
	2800 6050 2200 6050
Wire Wire Line
	5250 1400 3750 1400
Wire Wire Line
	3750 1400 3750 1000
Wire Wire Line
	3750 1000 2000 1000
Wire Wire Line
	2000 1000 2000 3400
Wire Wire Line
	2000 3400 2150 3400
Wire Wire Line
	2150 3400 2150 4600
Wire Wire Line
	2150 4600 2700 4600
Wire Wire Line
	2700 4600 2700 5950
Wire Wire Line
	2700 5950 2200 5950
Text Label 2450 6050 2    60   ~ 0
~WE
Text Label 2450 5950 2    60   ~ 0
~OE
Wire Wire Line
	2200 6650 3200 6650
Wire Wire Line
	2200 6750 2750 6750
$Comp
L power:GND #PWR0113
U 1 1 5C8EFB6B
P 1750 3700
F 0 "#PWR0113" H 1750 3450 50  0001 C CNN
F 1 "GND" H 1755 3527 50  0000 C CNN
F 2 "" H 1750 3700 50  0001 C CNN
F 3 "" H 1750 3700 50  0001 C CNN
	1    1750 3700
	1    0    0    -1  
$EndComp
$Comp
L Device:R R66
U 1 1 5C8EFCE2
P 1750 3550
F 0 "R66" H 1820 3596 50  0000 L CNN
F 1 "10K" H 1820 3505 50  0000 L CNN
F 2 "8bit-smd-custom:R_0603_1608Metric_Pad1.05x0.95mm_HandSolder" V 1680 3550 50  0001 C CNN
F 3 "~" H 1750 3550 50  0001 C CNN
	1    1750 3550
	1    0    0    -1  
$EndComp
Wire Wire Line
	1750 3400 2000 3400
Connection ~ 2000 3400
Connection ~ 2100 3300
$Comp
L Device:R R65
U 1 1 5C93B720
P 1750 3150
F 0 "R65" H 1820 3196 50  0000 L CNN
F 1 "10K" H 1820 3105 50  0000 L CNN
F 2 "8bit-smd-custom:R_0603_1608Metric_Pad1.05x0.95mm_HandSolder" V 1680 3150 50  0001 C CNN
F 3 "~" H 1750 3150 50  0001 C CNN
	1    1750 3150
	-1   0    0    1   
$EndComp
Wire Wire Line
	1750 3300 2100 3300
$Comp
L power:VCC #PWR0114
U 1 1 5C9AEEDA
P 4400 4550
F 0 "#PWR0114" H 4400 4400 50  0001 C CNN
F 1 "VCC" H 4417 4723 50  0000 C CNN
F 2 "" H 4400 4550 50  0001 C CNN
F 3 "" H 4400 4550 50  0001 C CNN
	1    4400 4550
	1    0    0    -1  
$EndComp
Wire Wire Line
	4000 4550 4400 4550
$Comp
L power:GND #PWR0115
U 1 1 5C9C2619
P 3350 4500
F 0 "#PWR0115" H 3350 4250 50  0001 C CNN
F 1 "GND" H 3355 4327 50  0000 C CNN
F 2 "" H 3350 4500 50  0001 C CNN
F 3 "" H 3350 4500 50  0001 C CNN
	1    3350 4500
	1    0    0    -1  
$EndComp
Wire Wire Line
	3350 4500 3750 4500
$Comp
L power:VCC #PWR0116
U 1 1 5C9D5FBD
P 1750 3000
F 0 "#PWR0116" H 1750 2850 50  0001 C CNN
F 1 "VCC" H 1767 3173 50  0000 C CNN
F 2 "" H 1750 3000 50  0001 C CNN
F 3 "" H 1750 3000 50  0001 C CNN
	1    1750 3000
	1    0    0    -1  
$EndComp
NoConn ~ 4400 5650
Wire Wire Line
	5200 5200 5400 5200
Wire Wire Line
	5400 5200 5400 5700
Wire Wire Line
	5400 5700 4500 5700
Wire Wire Line
	4500 5700 4500 5850
Wire Wire Line
	4500 5850 4000 5850
Connection ~ 5400 5200
Wire Wire Line
	5400 5200 6450 5200
Text Label 1550 3400 2    60   ~ 0
DefaultRead
$Comp
L Connector_Generic:Conn_01x09 J2
U 1 1 5CA3BAF6
P 2000 6350
F 0 "J2" H 2080 6392 50  0000 L CNN
F 1 "Conn_01x09" H 2080 6301 50  0000 L CNN
F 2 "Connector_PinHeader_2.54mm:PinHeader_1x09_P2.54mm_Vertical" H 2000 6350 50  0001 C CNN
F 3 "~" H 2000 6350 50  0001 C CNN
	1    2000 6350
	-1   0    0    1   
$EndComp
$Comp
L power:GND #PWR?
U 1 1 5CE6D23A
P 1100 7350
AR Path="/5B5B7509/5C1D767C/5CE6D23A" Ref="#PWR?"  Part="1" 
AR Path="/5B57D8E5/5C1C9688/5CE6D23A" Ref="#PWR038"  Part="1" 
F 0 "#PWR038" H 1100 7100 50  0001 C CNN
F 1 "GND" H 1105 7177 50  0000 C CNN
F 2 "" H 1100 7350 50  0001 C CNN
F 3 "" H 1100 7350 50  0001 C CNN
	1    1100 7350
	1    0    0    -1  
$EndComp
$Comp
L power:VCC #PWR?
U 1 1 5CE6D240
P 1100 6450
AR Path="/5B5B7509/5C1D767C/5CE6D240" Ref="#PWR?"  Part="1" 
AR Path="/5B57D8E5/5C1C9688/5CE6D240" Ref="#PWR037"  Part="1" 
F 0 "#PWR037" H 1100 6300 50  0001 C CNN
F 1 "VCC" H 1117 6623 50  0000 C CNN
F 2 "" H 1100 6450 50  0001 C CNN
F 3 "" H 1100 6450 50  0001 C CNN
	1    1100 6450
	1    0    0    -1  
$EndComp
$Comp
L pspice:CAP C?
U 1 1 5CE6D246
P 1350 6900
AR Path="/5B5B7509/5C1D767C/5CE6D246" Ref="C?"  Part="1" 
AR Path="/5B57D8E5/5C1C9688/5CE6D246" Ref="C9"  Part="1" 
F 0 "C9" H 1528 6946 50  0000 L CNN
F 1 "0.1uF" H 1528 6855 50  0000 L CNN
F 2 "Capacitor_SMD:C_0603_1608Metric" H 1350 6900 50  0001 C CNN
F 3 "~" H 1350 6900 50  0001 C CNN
	1    1350 6900
	1    0    0    -1  
$EndComp
$Comp
L pspice:CAP C?
U 1 1 5CE6D24D
P 850 6900
AR Path="/5B5B7509/5C1D767C/5CE6D24D" Ref="C?"  Part="1" 
AR Path="/5B57D8E5/5C1C9688/5CE6D24D" Ref="C8"  Part="1" 
F 0 "C8" H 1028 6946 50  0000 L CNN
F 1 "0.1uF" H 1028 6855 50  0000 L CNN
F 2 "Capacitor_SMD:C_0603_1608Metric" H 850 6900 50  0001 C CNN
F 3 "~" H 850 6900 50  0001 C CNN
	1    850  6900
	1    0    0    -1  
$EndComp
Wire Wire Line
	1100 6450 1350 6450
Wire Wire Line
	1350 6450 1350 6650
Wire Wire Line
	1100 6450 850  6450
Wire Wire Line
	850  6450 850  6650
Connection ~ 1100 6450
Wire Wire Line
	850  7150 850  7350
Wire Wire Line
	850  7350 1100 7350
Wire Wire Line
	1100 7350 1350 7350
Wire Wire Line
	1350 7350 1350 7150
Connection ~ 1100 7350
Wire Wire Line
	3600 5350 3550 5350
Wire Wire Line
	3550 5350 3550 5900
Connection ~ 3550 5900
Wire Wire Line
	3550 5900 6900 5900
Wire Wire Line
	3150 6550 3350 6550
Wire Wire Line
	3600 4950 3350 4950
Wire Wire Line
	3350 4950 3350 6550
Connection ~ 3350 6550
Wire Wire Line
	3350 6550 6350 6550
Wire Wire Line
	3600 5050 3400 5050
Wire Wire Line
	3400 5050 3400 6650
Connection ~ 3400 6650
Wire Wire Line
	3400 6650 6250 6650
Wire Wire Line
	3250 6450 3450 6450
Wire Wire Line
	3450 5250 3450 6450
Wire Wire Line
	3450 5250 3600 5250
Connection ~ 3450 6450
Wire Wire Line
	3450 6450 6850 6450
$Comp
L 74xx:74HC595 U39
U 1 1 5C5F7E33
P 4000 5150
F 0 "U39" H 4000 5928 50  0000 C CNN
F 1 "74HC595" H 4000 5837 50  0000 C CNN
F 2 "Package_SO:TSSOP-16_4.4x5mm_P0.65mm" H 4000 5150 50  0001 C CNN
F 3 "http://www.ti.com/lit/ds/symlink/sn74hc595.pdf" H 4000 5150 50  0001 C CNN
	1    4000 5150
	1    0    0    -1  
$EndComp
$Comp
L 74xGxx:74AHC1G04 U25
U 1 1 5C358230
P 2750 4000
F 0 "U25" H 2725 4267 50  0000 C CNN
F 1 "74AHC1G04" H 2725 4176 50  0000 C CNN
F 2 "Package_TO_SOT_SMD:SOT-353_SC-70-5_Handsoldering" H 2750 4000 50  0001 C CNN
F 3 "http://www.ti.com/lit/sg/scyt129e/scyt129e.pdf" H 2750 4000 50  0001 C CNN
	1    2750 4000
	1    0    0    -1  
$EndComp
Wire Wire Line
	3000 4000 3350 4000
Connection ~ 3000 4000
NoConn ~ 3500 7550
NoConn ~ 3500 7050
$Comp
L 8bit-smd-custom:SST39VF400A-70-4C-EK U42
U 1 1 5C480CF9
P 5250 1300
F 0 "U42" H 6050 1687 60  0000 C CNN
F 1 "SST39VF400A-70-4C-EK" H 6050 1581 60  0000 C CNN
F 2 "Package_SO:TSOP-I-48_18.4x12mm_P0.5mm" H 6050 1540 60  0001 C CNN
F 3 "" H 5250 1300 60  0000 C CNN
	1    5250 1300
	1    0    0    -1  
$EndComp
$Comp
L 8bit-smd-custom:SST39VF400A-70-4C-EK U42
U 2 1 5C49900C
P 5250 3950
F 0 "U42" H 6050 4337 60  0000 C CNN
F 1 "SST39VF400A-70-4C-EK" H 6050 4231 60  0000 C CNN
F 2 "Package_SO:TSOP-I-48_18.4x12mm_P0.5mm" H 6050 4190 60  0001 C CNN
F 3 "" H 5250 3950 60  0000 C CNN
	2    5250 3950
	1    0    0    -1  
$EndComp
Wire Wire Line
	5200 3300 5200 3400
Wire Wire Line
	5200 4750 5250 4750
Connection ~ 5200 4750
Wire Wire Line
	5200 4750 5200 5200
Wire Wire Line
	5250 3400 5200 3400
Connection ~ 5200 3400
Wire Wire Line
	5200 3400 5200 4750
$EndSCHEMATC
