EESchema Schematic File Version 4
LIBS:8bit-computer-cache
EELAYER 26 0
EELAYER END
$Descr USLetter 11000 8500
encoding utf-8
Sheet 10 13
Title ""
Date ""
Rev ""
Comp ""
Comment1 ""
Comment2 ""
Comment3 ""
Comment4 ""
$EndDescr
Wire Wire Line
	7600 3600 7600 4600
Wire Wire Line
	4200 4600 4800 4600
Wire Wire Line
	4800 4500 4200 4500
Wire Wire Line
	4200 4400 4800 4400
Wire Wire Line
	4800 4300 4200 4300
Wire Wire Line
	4200 4200 4800 4200
Wire Wire Line
	4200 4100 4800 4100
Wire Wire Line
	4200 4000 4800 4000
Wire Wire Line
	4200 3900 4800 3900
Text HLabel 1000 4850 0    60   Input ~ 0
OI
Text HLabel 1000 4950 0    60   Input ~ 0
CLK
Text HLabel 1000 5200 0    60   Input ~ 0
~CLR
Wire Wire Line
	1000 5200 2600 5200
Wire Wire Line
	2600 5200 2600 4900
Wire Wire Line
	2600 4900 2800 4900
Text HLabel 1000 3900 0    60   Input ~ 0
BUS_0
Text HLabel 1000 4000 0    60   Input ~ 0
BUS_1
Text HLabel 1000 4100 0    60   Input ~ 0
BUS_2
Text HLabel 1000 4200 0    60   Input ~ 0
BUS_3
Text HLabel 1000 4300 0    60   Input ~ 0
BUS_4
Text HLabel 1000 4400 0    60   Input ~ 0
BUS_5
Text HLabel 1000 4500 0    60   Input ~ 0
BUS_6
Text HLabel 1000 4600 0    60   Input ~ 0
BUS_7
Wire Wire Line
	1000 4600 2800 4600
Wire Wire Line
	2450 4900 2450 4800
Wire Wire Line
	2450 4800 2800 4800
Wire Wire Line
	2800 4500 1000 4500
Wire Wire Line
	1000 4400 2800 4400
Wire Wire Line
	2800 4100 1000 4100
$Comp
L Device:C C20
U 1 1 5B635F85
P 7850 6100
F 0 "C20" H 7875 6200 50  0000 L CNN
F 1 "0.1µF" H 7875 6000 50  0000 L CNN
F 2 "Capacitor_SMD:C_0603_1608Metric" H 7888 5950 50  0001 C CNN
F 3 "" H 7850 6100 50  0001 C CNN
	1    7850 6100
	1    0    0    -1  
$EndComp
$Comp
L power:VCC #PWR066
U 1 1 5B636011
P 8000 5750
F 0 "#PWR066" H 8000 5600 50  0001 C CNN
F 1 "VCC" H 8000 5900 50  0000 C CNN
F 2 "" H 8000 5750 50  0001 C CNN
F 3 "" H 8000 5750 50  0001 C CNN
	1    8000 5750
	1    0    0    -1  
$EndComp
$Comp
L power:GND #PWR067
U 1 1 5B636128
P 8000 6450
F 0 "#PWR067" H 8000 6200 50  0001 C CNN
F 1 "GND" H 8000 6300 50  0000 C CNN
F 2 "" H 8000 6450 50  0001 C CNN
F 3 "" H 8000 6450 50  0001 C CNN
	1    8000 6450
	1    0    0    -1  
$EndComp
$Comp
L Device:C C21
U 1 1 5B64F6D6
P 8150 6100
F 0 "C21" H 8175 6200 50  0000 L CNN
F 1 "0.1µF" H 8175 6000 50  0000 L CNN
F 2 "Capacitor_SMD:C_0603_1608Metric" H 8188 5950 50  0001 C CNN
F 3 "" H 8150 6100 50  0001 C CNN
	1    8150 6100
	1    0    0    -1  
$EndComp
Wire Wire Line
	7850 5950 7850 5850
Wire Wire Line
	7850 5850 8000 5850
Wire Wire Line
	8150 5850 8150 5950
Wire Wire Line
	8000 5750 8000 5850
Connection ~ 8000 5850
Wire Wire Line
	7850 6250 7850 6350
Wire Wire Line
	7850 6350 8000 6350
Wire Wire Line
	8150 6350 8150 6250
Wire Wire Line
	8000 6350 8000 6450
Connection ~ 8000 6350
Wire Wire Line
	8000 5850 8150 5850
Wire Wire Line
	8000 6350 8150 6350
Wire Wire Line
	1000 4300 2800 4300
Wire Wire Line
	1000 4200 2800 4200
Wire Wire Line
	1000 4000 2800 4000
Wire Wire Line
	1000 3900 2800 3900
Wire Wire Line
	8250 2750 8250 2800
Wire Wire Line
	8150 2800 8150 2750
Wire Wire Line
	7300 2750 7300 2800
Wire Wire Line
	7200 2800 7200 2750
$Comp
L 8bit-computer-rescue:7SEGMENT_CC-8bit-computer-rescue U41
U 1 1 5B57E2D4
P 8150 3200
F 0 "U41" H 7650 3575 50  0000 R CNN
F 1 "7SEGMENT_CC" H 7650 3500 50  0000 R CNN
F 2 "Package_DIP:DIP-10_W7.62mm" H 8200 2900 50  0001 L CNN
F 3 "" H 8150 3220 50  0001 L CNN
	1    8150 3200
	1    0    0    1   
$EndComp
$Comp
L 8bit-computer-rescue:7SEGMENT_CC-8bit-computer-rescue U40
U 1 1 5B57E2AC
P 7200 3200
F 0 "U40" H 6700 3575 50  0000 R CNN
F 1 "7SEGMENT_CC" H 6700 3500 50  0000 R CNN
F 2 "Package_DIP:DIP-10_W7.62mm" H 7250 2900 50  0001 L CNN
F 3 "" H 7200 3220 50  0001 L CNN
	1    7200 3200
	1    0    0    1   
$EndComp
$Sheet
S 4800 3800 850  1900
U 5C1C9688
F0 "Output Flash" 60
F1 "output_flash.sch" 60
F2 "A0" I L 4800 3900 60 
F3 "A1" I L 4800 4000 60 
F4 "A2" I L 4800 4100 60 
F5 "A3" I L 4800 4200 60 
F6 "A5" I L 4800 4400 60 
F7 "A6" I L 4800 4500 60 
F8 "A4" I L 4800 4300 60 
F9 "A7" I L 4800 4600 60 
F10 "D0" O R 5650 3900 60 
F11 "D1" O R 5650 4000 60 
F12 "D2" O R 5650 4100 60 
F13 "D3" O R 5650 4200 60 
F14 "D4" O R 5650 4300 60 
F15 "D5" O R 5650 4400 60 
F16 "D6" O R 5650 4500 60 
F17 "D7" O R 5650 4600 60 
F18 "D8" O R 5650 4700 60 
F19 "D9" O R 5650 4800 60 
F20 "D10" O R 5650 4900 60 
F21 "D11" O R 5650 5000 60 
F22 "D12" O R 5650 5100 60 
F23 "D13" O R 5650 5200 60 
F24 "D15" O R 5650 5400 60 
F25 "D14" O R 5650 5300 60 
$EndSheet
Wire Wire Line
	7200 2750 7250 2750
Wire Wire Line
	8150 2750 8200 2750
$Comp
L 8bit-computer-rescue:74LS273-8bit-computer-rescue U44
U 1 1 5B57E544
P 3500 4400
F 0 "U44" H 3500 4250 50  0000 C CNN
F 1 "74LS273" H 3500 4050 50  0000 C CNN
F 2 "Package_SO:TSSOP-20_4.4x6.5mm_P0.65mm" H 3500 4400 50  0001 C CNN
F 3 "" H 3500 4400 50  0001 C CNN
	1    3500 4400
	1    0    0    -1  
$EndComp
Wire Wire Line
	5650 4600 7600 4600
Wire Wire Line
	5650 4700 7750 4700
Wire Wire Line
	7750 3600 7750 4700
Wire Wire Line
	7850 4800 5650 4800
Wire Wire Line
	7850 3600 7850 4800
Wire Wire Line
	5650 4900 7950 4900
Wire Wire Line
	7950 3600 7950 4900
Wire Wire Line
	5650 5000 8050 5000
Wire Wire Line
	8050 3600 8050 5000
Wire Wire Line
	8150 5100 5650 5100
Wire Wire Line
	8150 3600 8150 5100
Wire Wire Line
	5650 5200 8250 5200
Wire Wire Line
	8250 3600 8250 5200
Wire Wire Line
	8350 5300 5650 5300
Wire Wire Line
	8350 3600 8350 5300
Wire Wire Line
	5650 5400 8550 5400
Wire Wire Line
	8550 3600 8550 5400
Wire Wire Line
	5650 4500 7400 4500
Wire Wire Line
	7400 3600 7400 4500
Wire Wire Line
	5650 4400 7300 4400
Wire Wire Line
	7300 4400 7300 3600
Wire Wire Line
	5650 4300 7200 4300
Wire Wire Line
	7200 4300 7200 3600
Wire Wire Line
	5650 4200 7100 4200
Wire Wire Line
	7100 4200 7100 3600
Wire Wire Line
	5650 4100 7000 4100
Wire Wire Line
	7000 4100 7000 3600
Wire Wire Line
	5650 4000 6900 4000
Wire Wire Line
	6900 4000 6900 3600
Wire Wire Line
	5650 3900 6800 3900
Wire Wire Line
	6800 3900 6800 3600
$Comp
L 74xGxx:74AHC1G08 U46
U 1 1 5C3BA6A6
P 1650 4900
F 0 "U46" H 1625 5167 50  0000 C CNN
F 1 "74AHC1G08" H 1625 5076 50  0000 C CNN
F 2 "Package_TO_SOT_SMD:SOT-23-5_HandSoldering" H 1650 4900 50  0001 C CNN
F 3 "http://www.ti.com/lit/sg/scyt129e/scyt129e.pdf" H 1650 4900 50  0001 C CNN
	1    1650 4900
	1    0    0    -1  
$EndComp
Wire Wire Line
	1000 4950 1350 4950
Wire Wire Line
	1000 4850 1350 4850
Wire Wire Line
	1900 4900 2450 4900
$Comp
L power:GND #PWR0103
U 1 1 5C16F582
P 7750 2600
F 0 "#PWR0103" H 7750 2350 50  0001 C CNN
F 1 "GND" H 7755 2427 50  0000 C CNN
F 2 "" H 7750 2600 50  0001 C CNN
F 3 "" H 7750 2600 50  0001 C CNN
	1    7750 2600
	1    0    0    -1  
$EndComp
Wire Wire Line
	7250 2750 7250 2600
Connection ~ 7250 2750
Wire Wire Line
	7250 2750 7300 2750
Wire Wire Line
	7750 2600 8200 2600
Wire Wire Line
	8200 2600 8200 2750
Connection ~ 8200 2750
Wire Wire Line
	8200 2750 8250 2750
Connection ~ 7750 2600
Wire Wire Line
	7250 2600 7750 2600
$EndSCHEMATC
