EESchema Schematic File Version 4
LIBS:8bit-computer-cache
EELAYER 26 0
EELAYER END
$Descr A3 16535 11693
encoding utf-8
Sheet 7 13
Title ""
Date ""
Rev ""
Comp ""
Comment1 ""
Comment2 ""
Comment3 ""
Comment4 ""
$EndDescr
$Comp
L 8bit-computer-rescue:74LS245-8bit-computer-rescue U30
U 1 1 5B55332D
P 10100 6300
F 0 "U30" H 10200 6875 50  0000 L BNN
F 1 "74LS245" H 10150 5725 50  0000 L TNN
F 2 "Package_SO:SOIC-20W_7.5x12.8mm_P1.27mm" H 10100 6300 50  0001 C CNN
F 3 "" H 10100 6300 50  0001 C CNN
	1    10100 6300
	1    0    0    -1  
$EndComp
Wire Wire Line
	6350 5800 6400 5800
Wire Wire Line
	6650 5900 6800 5900
Wire Wire Line
	6950 6000 7200 6000
Wire Wire Line
	7250 6100 7600 6100
Wire Wire Line
	7550 6200 8000 6200
Wire Wire Line
	7850 6300 8400 6300
Wire Wire Line
	8150 6400 8800 6400
Wire Wire Line
	8450 6500 9200 6500
$Comp
L power:VCC #PWR036
U 1 1 5B5534EF
P 9100 6700
F 0 "#PWR036" H 9100 6550 50  0001 C CNN
F 1 "VCC" H 9100 6850 50  0000 C CNN
F 2 "" H 9100 6700 50  0001 C CNN
F 3 "" H 9100 6700 50  0001 C CNN
	1    9100 6700
	1    0    0    -1  
$EndComp
$Comp
L 8bit-computer-rescue:74LS157-8bit-computer-rescue U26
U 1 1 5B553913
P 12200 4850
F 0 "U26" H 12250 5000 50  0000 C CNN
F 1 "74LS157" H 12250 4700 50  0000 C CNN
F 2 "Package_SO:SOIC-16_3.9x9.9mm_P1.27mm" H 12200 4850 50  0001 C CNN
F 3 "" H 12200 4850 50  0001 C CNN
	1    12200 4850
	0    -1   -1   0   
$EndComp
$Comp
L 8bit-computer-rescue:74LS157-8bit-computer-rescue U27
U 1 1 5B5544FA
P 13750 4850
F 0 "U27" H 13800 5000 50  0000 C CNN
F 1 "74LS157" H 13800 4700 50  0000 C CNN
F 2 "Package_SO:SOIC-16_3.9x9.9mm_P1.27mm" H 13750 4850 50  0001 C CNN
F 3 "" H 13750 4850 50  0001 C CNN
	1    13750 4850
	0    -1   -1   0   
$EndComp
$Comp
L 8bit-computer-rescue:74LS157-8bit-computer-rescue U32
U 1 1 5B554531
P 5550 7650
F 0 "U32" H 5600 7800 50  0000 C CNN
F 1 "74LS157" H 5600 7500 50  0000 C CNN
F 2 "Package_SO:SOIC-16_3.9x9.9mm_P1.27mm" H 5550 7650 50  0001 C CNN
F 3 "" H 5550 7650 50  0001 C CNN
	1    5550 7650
	0    -1   -1   0   
$EndComp
$Comp
L 8bit-computer-rescue:SW_DIP_x08-8bit-computer-rescue SW3
U 1 1 5B55457F
P 11950 7600
F 0 "SW3" H 11950 8150 50  0000 C CNN
F 1 "SW_DIP_x08" H 11950 7150 50  0000 C CNN
F 2 "Button_Switch_SMD:SW_DIP_SPSTx08_Slide_6.7x21.88mm_W8.61mm_P2.54mm_LowProfile" H 11950 7600 50  0001 C CNN
F 3 "" H 11950 7600 50  0001 C CNN
	1    11950 7600
	0    1    1    0   
$EndComp
Wire Wire Line
	11300 6600 11900 6600
Wire Wire Line
	11900 6600 11900 5600
Wire Wire Line
	11850 7300 11850 6700
Wire Wire Line
	11850 6700 12150 6700
Wire Wire Line
	12150 6700 12150 5600
Wire Wire Line
	11950 7300 11950 6800
Wire Wire Line
	11950 6800 12400 6800
Wire Wire Line
	12400 6800 12400 5600
Wire Wire Line
	13450 5600 13450 8100
Wire Wire Line
	13700 5600 13700 6900
Wire Wire Line
	13700 6900 12250 6900
Wire Wire Line
	12250 6900 12250 7300
Wire Wire Line
	13950 5600 13950 7000
Wire Wire Line
	13950 7000 12350 7000
Wire Wire Line
	12350 7000 12350 7300
Wire Wire Line
	10800 6500 14050 6500
Wire Wire Line
	14050 6500 14050 5600
Wire Wire Line
	10800 6400 13800 6400
Wire Wire Line
	13800 6400 13800 5600
Wire Wire Line
	10800 6300 13550 6300
Wire Wire Line
	13550 6300 13550 5600
Wire Wire Line
	10800 6200 13300 6200
Wire Wire Line
	13300 6200 13300 5600
Wire Wire Line
	10800 6100 12500 6100
Wire Wire Line
	12500 6100 12500 5600
Wire Wire Line
	10800 6000 12250 6000
Wire Wire Line
	12250 6000 12250 5600
Wire Wire Line
	10800 5900 12000 5900
Wire Wire Line
	12000 5900 12000 5600
Wire Wire Line
	10800 5800 11750 5800
Wire Wire Line
	11750 5800 11750 5600
Text HLabel 14450 6500 2    60   BiDi ~ 0
BUS_0
Text HLabel 14450 6400 2    60   BiDi ~ 0
BUS_1
Text HLabel 14450 6300 2    60   BiDi ~ 0
BUS_2
Text HLabel 14450 6200 2    60   BiDi ~ 0
BUS_3
Text HLabel 14450 6100 2    60   BiDi ~ 0
BUS_4
Text HLabel 14450 6000 2    60   BiDi ~ 0
BUS_5
Text HLabel 14450 5900 2    60   BiDi ~ 0
BUS_6
Text HLabel 14450 5800 2    60   BiDi ~ 0
BUS_7
Connection ~ 14050 6500
Connection ~ 13800 6400
Connection ~ 13550 6300
Connection ~ 13300 6200
Connection ~ 12500 6100
Connection ~ 12250 6000
Connection ~ 12000 5900
Connection ~ 11750 5800
$Comp
L power:GND #PWR039
U 1 1 5B5578F4
P 12950 5450
F 0 "#PWR039" H 12950 5200 50  0001 C CNN
F 1 "GND" H 12950 5300 50  0000 C CNN
F 2 "" H 12950 5450 50  0001 C CNN
F 3 "" H 12950 5450 50  0001 C CNN
	1    12950 5450
	1    0    0    -1  
$EndComp
$Comp
L power:GND #PWR040
U 1 1 5B557933
P 14500 5450
F 0 "#PWR040" H 14500 5200 50  0001 C CNN
F 1 "GND" H 14500 5300 50  0000 C CNN
F 2 "" H 14500 5450 50  0001 C CNN
F 3 "" H 14500 5450 50  0001 C CNN
	1    14500 5450
	1    0    0    -1  
$EndComp
Wire Wire Line
	12750 5600 12850 5600
Wire Wire Line
	12850 5600 12850 5400
Wire Wire Line
	12850 5400 12950 5400
Wire Wire Line
	12950 5400 12950 5450
Wire Wire Line
	14300 5600 14400 5600
Wire Wire Line
	14400 5600 14400 5400
Wire Wire Line
	14400 5400 14500 5400
Wire Wire Line
	14500 5400 14500 5450
$Comp
L power:GND #PWR041
U 1 1 5B557C70
P 6100 8600
F 0 "#PWR041" H 6100 8350 50  0001 C CNN
F 1 "GND" H 6100 8450 50  0000 C CNN
F 2 "" H 6100 8600 50  0001 C CNN
F 3 "" H 6100 8600 50  0001 C CNN
	1    6100 8600
	1    0    0    -1  
$EndComp
Wire Wire Line
	6100 8400 6100 8600
$Comp
L 8bit-computer-rescue:SW_Push-8bit-computer-rescue SW4
U 1 1 5B557D55
P 5200 9100
F 0 "SW4" H 5250 9200 50  0000 L CNN
F 1 "SW_Push" H 5200 9040 50  0000 C CNN
F 2 "Button_Switch_SMD:SW_SPST_PTS645" H 5200 9300 50  0001 C CNN
F 3 "" H 5200 9300 50  0001 C CNN
	1    5200 9100
	1    0    0    -1  
$EndComp
$Comp
L 8bit-computer-rescue:74LS00-8bit-computer-rescue U31
U 1 1 5B557EB4
P 7350 9100
F 0 "U31" H 7350 9150 50  0000 C CNN
F 1 "74LS00" H 7350 9000 50  0000 C CNN
F 2 "Package_SO:SOIC-14_3.9x8.7mm_P1.27mm" H 7350 9100 50  0001 C CNN
F 3 "" H 7350 9100 50  0001 C CNN
	1    7350 9100
	-1   0    0    1   
$EndComp
Wire Wire Line
	5600 8400 5600 9100
Wire Wire Line
	5600 9100 6750 9100
Wire Wire Line
	14200 5700 14200 5600
Wire Wire Line
	10850 5700 12650 5700
Wire Wire Line
	12650 5700 12650 5600
Wire Wire Line
	10850 5700 10850 7200
Wire Wire Line
	10850 8500 6000 8500
Wire Wire Line
	6000 8500 6000 8400
Connection ~ 12650 5700
Text HLabel 8950 7600 0    60   Input ~ 0
RI
Text HLabel 8950 7000 0    60   Input ~ 0
~RO
$Comp
L power:GND #PWR042
U 1 1 5B558384
P 4950 9250
F 0 "#PWR042" H 4950 9000 50  0001 C CNN
F 1 "GND" H 4950 9100 50  0000 C CNN
F 2 "" H 4950 9250 50  0001 C CNN
F 3 "" H 4950 9250 50  0001 C CNN
	1    4950 9250
	1    0    0    -1  
$EndComp
Wire Wire Line
	5000 9100 4950 9100
Wire Wire Line
	4950 9100 4950 9250
Text HLabel 8950 7200 0    60   Input ~ 0
PROG
Wire Wire Line
	8950 7200 10850 7200
Connection ~ 10850 7200
Wire Wire Line
	8950 7400 9250 7400
Text HLabel 8950 7400 0    60   Input ~ 0
CLK
Wire Wire Line
	8950 7600 9050 7600
Wire Wire Line
	9050 7600 9050 9000
Wire Wire Line
	8950 7000 9100 7000
Wire Wire Line
	9100 7000 9100 6800
Wire Wire Line
	9100 6800 9350 6800
$Comp
L Device:C C7
U 1 1 5B558B26
P 9250 8850
F 0 "C7" H 9275 8950 50  0000 L CNN
F 1 "0.01µF" H 9275 8750 50  0000 L CNN
F 2 "Capacitor_SMD:C_0603_1608Metric" H 9288 8700 50  0001 C CNN
F 3 "" H 9250 8850 50  0001 C CNN
	1    9250 8850
	1    0    0    -1  
$EndComp
Wire Wire Line
	9050 9000 7950 9000
Wire Wire Line
	7950 9200 9250 9200
Wire Wire Line
	9250 9200 9250 9000
Wire Wire Line
	9250 7400 9250 8700
$Comp
L Device:R R58
U 1 1 5B559318
P 9650 9200
F 0 "R58" V 9730 9200 50  0000 C CNN
F 1 "1K" V 9650 9200 50  0000 C CNN
F 2 "8bit-smd-custom:R_0603_1608Metric_Pad1.05x0.95mm_HandSolder" V 9580 9200 50  0001 C CNN
F 3 "" H 9650 9200 50  0001 C CNN
	1    9650 9200
	0    1    1    0   
$EndComp
Connection ~ 9250 9200
$Comp
L power:GND #PWR043
U 1 1 5B559471
P 9950 9250
F 0 "#PWR043" H 9950 9000 50  0001 C CNN
F 1 "GND" H 9950 9100 50  0000 C CNN
F 2 "" H 9950 9250 50  0001 C CNN
F 3 "" H 9950 9250 50  0001 C CNN
	1    9950 9250
	1    0    0    -1  
$EndComp
Wire Wire Line
	9800 9200 9950 9200
Wire Wire Line
	9950 9200 9950 9250
Text HLabel 8100 2150 0    60   Input ~ 0
A0
Text HLabel 8100 2250 0    60   Input ~ 0
A1
Text HLabel 8100 2350 0    60   Input ~ 0
A2
Text HLabel 8100 2450 0    60   Input ~ 0
A3
NoConn ~ 5050 6900
NoConn ~ 5300 6900
NoConn ~ 5800 6900
NoConn ~ 5850 8400
NoConn ~ 5750 8400
NoConn ~ 5350 8400
NoConn ~ 5250 8400
NoConn ~ 5100 8400
NoConn ~ 5000 8400
$Comp
L 8bit-computer-rescue:74LS00-8bit-computer-rescue U31
U 2 1 5B559B41
P 14150 7700
F 0 "U31" H 14150 7750 50  0000 C CNN
F 1 "74LS00" H 14150 7600 50  0000 C CNN
F 2 "Package_SO:SOIC-14_3.9x8.7mm_P1.27mm" H 14150 7700 50  0001 C CNN
F 3 "" H 14150 7700 50  0001 C CNN
	2    14150 7700
	-1   0    0    1   
$EndComp
$Comp
L 8bit-computer-rescue:74LS00-8bit-computer-rescue U31
U 3 1 5B559C0B
P 14150 8150
F 0 "U31" H 14150 8200 50  0000 C CNN
F 1 "74LS00" H 14150 8050 50  0000 C CNN
F 2 "Package_SO:SOIC-14_3.9x8.7mm_P1.27mm" H 14150 8150 50  0001 C CNN
F 3 "" H 14150 8150 50  0001 C CNN
	3    14150 8150
	-1   0    0    1   
$EndComp
$Comp
L 8bit-computer-rescue:74LS00-8bit-computer-rescue U31
U 4 1 5B559C51
P 14150 8600
F 0 "U31" H 14150 8650 50  0000 C CNN
F 1 "74LS00" H 14150 8500 50  0000 C CNN
F 2 "Package_SO:SOIC-14_3.9x8.7mm_P1.27mm" H 14150 8600 50  0001 C CNN
F 3 "" H 14150 8600 50  0001 C CNN
	4    14150 8600
	-1   0    0    1   
$EndComp
NoConn ~ 13550 8600
NoConn ~ 13550 8150
NoConn ~ 13550 7700
NoConn ~ 14750 7800
NoConn ~ 14750 7600
NoConn ~ 14750 8250
NoConn ~ 14750 8050
NoConn ~ 14750 8700
NoConn ~ 14750 8500
$Comp
L Device:LED_ALT D43
U 1 1 5B5604FF
P 8450 6750
F 0 "D43" H 8450 6850 50  0000 C CNN
F 1 "RED" H 8450 6650 50  0000 C CNN
F 2 "8bit-smd-custom:LED_0603_1608Metric_SMLTXT" H 8450 6750 50  0001 C CNN
F 3 "" H 8450 6750 50  0001 C CNN
	1    8450 6750
	0    -1   -1   0   
$EndComp
Wire Wire Line
	8450 6500 8450 6600
Wire Wire Line
	9100 6700 9400 6700
$Comp
L Device:LED_ALT D42
U 1 1 5B5608D6
P 8150 6750
F 0 "D42" H 8150 6850 50  0000 C CNN
F 1 "RED" H 8150 6650 50  0000 C CNN
F 2 "8bit-smd-custom:LED_0603_1608Metric_SMLTXT" H 8150 6750 50  0001 C CNN
F 3 "" H 8150 6750 50  0001 C CNN
	1    8150 6750
	0    -1   -1   0   
$EndComp
$Comp
L Device:LED_ALT D41
U 1 1 5B560930
P 7850 6750
F 0 "D41" H 7850 6850 50  0000 C CNN
F 1 "RED" H 7850 6650 50  0000 C CNN
F 2 "8bit-smd-custom:LED_0603_1608Metric_SMLTXT" H 7850 6750 50  0001 C CNN
F 3 "" H 7850 6750 50  0001 C CNN
	1    7850 6750
	0    -1   -1   0   
$EndComp
$Comp
L Device:LED_ALT D40
U 1 1 5B56098D
P 7550 6750
F 0 "D40" H 7550 6850 50  0000 C CNN
F 1 "RED" H 7550 6650 50  0000 C CNN
F 2 "8bit-smd-custom:LED_0603_1608Metric_SMLTXT" H 7550 6750 50  0001 C CNN
F 3 "" H 7550 6750 50  0001 C CNN
	1    7550 6750
	0    -1   -1   0   
$EndComp
$Comp
L Device:LED_ALT D39
U 1 1 5B5609ED
P 7250 6750
F 0 "D39" H 7250 6850 50  0000 C CNN
F 1 "RED" H 7250 6650 50  0000 C CNN
F 2 "8bit-smd-custom:LED_0603_1608Metric_SMLTXT" H 7250 6750 50  0001 C CNN
F 3 "" H 7250 6750 50  0001 C CNN
	1    7250 6750
	0    -1   -1   0   
$EndComp
$Comp
L Device:LED_ALT D38
U 1 1 5B560A50
P 6950 6750
F 0 "D38" H 6950 6850 50  0000 C CNN
F 1 "RED" H 6950 6650 50  0000 C CNN
F 2 "8bit-smd-custom:LED_0603_1608Metric_SMLTXT" H 6950 6750 50  0001 C CNN
F 3 "" H 6950 6750 50  0001 C CNN
	1    6950 6750
	0    -1   -1   0   
$EndComp
$Comp
L Device:LED_ALT D37
U 1 1 5B560AB6
P 6650 6750
F 0 "D37" H 6650 6850 50  0000 C CNN
F 1 "RED" H 6650 6650 50  0000 C CNN
F 2 "8bit-smd-custom:LED_0603_1608Metric_SMLTXT" H 6650 6750 50  0001 C CNN
F 3 "" H 6650 6750 50  0001 C CNN
	1    6650 6750
	0    -1   -1   0   
$EndComp
$Comp
L Device:LED_ALT D36
U 1 1 5B560B21
P 6350 6750
F 0 "D36" H 6350 6850 50  0000 C CNN
F 1 "RED" H 6350 6650 50  0000 C CNN
F 2 "8bit-smd-custom:LED_0603_1608Metric_SMLTXT" H 6350 6750 50  0001 C CNN
F 3 "" H 6350 6750 50  0001 C CNN
	1    6350 6750
	0    -1   -1   0   
$EndComp
Wire Wire Line
	5400 9100 5500 9100
Wire Wire Line
	5500 9100 5500 8400
Wire Wire Line
	8150 6400 8150 6600
Connection ~ 8800 6400
Wire Wire Line
	7850 6300 7850 6600
Connection ~ 8400 6300
Wire Wire Line
	7550 6200 7550 6600
Connection ~ 8000 6200
Wire Wire Line
	7250 6100 7250 6600
Connection ~ 7600 6100
Wire Wire Line
	6950 6000 6950 6600
Connection ~ 7200 6000
Wire Wire Line
	6650 5900 6650 6600
Connection ~ 6800 5900
Wire Wire Line
	6350 5800 6350 6600
Connection ~ 6400 5800
$Comp
L Device:R R50
U 1 1 5B561FEF
P 6350 7150
F 0 "R50" V 6430 7150 50  0000 C CNN
F 1 "220" V 6350 7150 50  0000 C CNN
F 2 "8bit-smd-custom:R_0603_1608Metric_Pad1.05x0.95mm_HandSolder" V 6280 7150 50  0001 C CNN
F 3 "" H 6350 7150 50  0001 C CNN
	1    6350 7150
	1    0    0    -1  
$EndComp
$Comp
L Device:R R51
U 1 1 5B5620D6
P 6650 7150
F 0 "R51" V 6730 7150 50  0000 C CNN
F 1 "220" V 6650 7150 50  0000 C CNN
F 2 "8bit-smd-custom:R_0603_1608Metric_Pad1.05x0.95mm_HandSolder" V 6580 7150 50  0001 C CNN
F 3 "" H 6650 7150 50  0001 C CNN
	1    6650 7150
	1    0    0    -1  
$EndComp
$Comp
L Device:R R52
U 1 1 5B562148
P 6950 7150
F 0 "R52" V 7030 7150 50  0000 C CNN
F 1 "220" V 6950 7150 50  0000 C CNN
F 2 "8bit-smd-custom:R_0603_1608Metric_Pad1.05x0.95mm_HandSolder" V 6880 7150 50  0001 C CNN
F 3 "" H 6950 7150 50  0001 C CNN
	1    6950 7150
	1    0    0    -1  
$EndComp
$Comp
L Device:R R53
U 1 1 5B5621BF
P 7250 7150
F 0 "R53" V 7330 7150 50  0000 C CNN
F 1 "220" V 7250 7150 50  0000 C CNN
F 2 "8bit-smd-custom:R_0603_1608Metric_Pad1.05x0.95mm_HandSolder" V 7180 7150 50  0001 C CNN
F 3 "" H 7250 7150 50  0001 C CNN
	1    7250 7150
	1    0    0    -1  
$EndComp
$Comp
L Device:R R54
U 1 1 5B562237
P 7550 7150
F 0 "R54" V 7630 7150 50  0000 C CNN
F 1 "220" V 7550 7150 50  0000 C CNN
F 2 "8bit-smd-custom:R_0603_1608Metric_Pad1.05x0.95mm_HandSolder" V 7480 7150 50  0001 C CNN
F 3 "" H 7550 7150 50  0001 C CNN
	1    7550 7150
	1    0    0    -1  
$EndComp
$Comp
L Device:R R55
U 1 1 5B5622B2
P 7850 7150
F 0 "R55" V 7930 7150 50  0000 C CNN
F 1 "220" V 7850 7150 50  0000 C CNN
F 2 "8bit-smd-custom:R_0603_1608Metric_Pad1.05x0.95mm_HandSolder" V 7780 7150 50  0001 C CNN
F 3 "" H 7850 7150 50  0001 C CNN
	1    7850 7150
	1    0    0    -1  
$EndComp
$Comp
L Device:R R56
U 1 1 5B56232F
P 8150 7150
F 0 "R56" V 8230 7150 50  0000 C CNN
F 1 "220" V 8150 7150 50  0000 C CNN
F 2 "8bit-smd-custom:R_0603_1608Metric_Pad1.05x0.95mm_HandSolder" V 8080 7150 50  0001 C CNN
F 3 "" H 8150 7150 50  0001 C CNN
	1    8150 7150
	1    0    0    -1  
$EndComp
$Comp
L Device:R R57
U 1 1 5B5623B2
P 8450 7150
F 0 "R57" V 8530 7150 50  0000 C CNN
F 1 "220" V 8450 7150 50  0000 C CNN
F 2 "8bit-smd-custom:R_0603_1608Metric_Pad1.05x0.95mm_HandSolder" V 8380 7150 50  0001 C CNN
F 3 "" H 8450 7150 50  0001 C CNN
	1    8450 7150
	1    0    0    -1  
$EndComp
Wire Wire Line
	6350 7300 6350 7450
Wire Wire Line
	6350 7450 6650 7450
Wire Wire Line
	8450 7450 8450 7300
Wire Wire Line
	8150 7300 8150 7450
Connection ~ 8150 7450
Wire Wire Line
	7850 7300 7850 7450
Connection ~ 7850 7450
Wire Wire Line
	7550 7300 7550 7450
Connection ~ 7550 7450
Wire Wire Line
	7250 7300 7250 7450
Connection ~ 7250 7450
Wire Wire Line
	6950 7300 6950 7450
Connection ~ 6950 7450
Wire Wire Line
	6650 7300 6650 7450
Connection ~ 6650 7450
Wire Wire Line
	6350 6900 6350 7000
Wire Wire Line
	6650 6900 6650 7000
Wire Wire Line
	6950 6900 6950 7000
Wire Wire Line
	7250 6900 7250 7000
Wire Wire Line
	7550 6900 7550 7000
Wire Wire Line
	7850 6900 7850 7000
Wire Wire Line
	8150 6900 8150 7000
Wire Wire Line
	8450 6900 8450 7000
$Comp
L power:GND #PWR044
U 1 1 5B56363F
P 7400 7550
F 0 "#PWR044" H 7400 7300 50  0001 C CNN
F 1 "GND" H 7400 7400 50  0000 C CNN
F 2 "" H 7400 7550 50  0001 C CNN
F 3 "" H 7400 7550 50  0001 C CNN
	1    7400 7550
	1    0    0    -1  
$EndComp
Wire Wire Line
	7400 7550 7400 7450
Connection ~ 7400 7450
Wire Wire Line
	11650 5600 11650 6700
Wire Wire Line
	11650 6700 11400 6700
Wire Wire Line
	11400 6700 11400 8100
Wire Wire Line
	11400 8100 11650 8100
Wire Wire Line
	11650 8100 11650 7900
Wire Wire Line
	11750 7900 11750 8200
Wire Wire Line
	11750 8200 11300 8200
Wire Wire Line
	11300 8200 11300 6600
Wire Wire Line
	12150 7900 12150 8100
Wire Wire Line
	12150 8100 13450 8100
Wire Wire Line
	12050 7900 12050 8200
Wire Wire Line
	12050 8200 13200 8200
Wire Wire Line
	13200 8200 13200 5600
Wire Wire Line
	11650 7300 11650 7200
Wire Wire Line
	11650 7200 11750 7200
Wire Wire Line
	12650 7200 12650 7600
Wire Wire Line
	12650 8000 12350 8000
Wire Wire Line
	11850 8000 11850 7900
Wire Wire Line
	11950 7900 11950 8000
Connection ~ 11950 8000
Wire Wire Line
	12250 7900 12250 8000
Connection ~ 12250 8000
Wire Wire Line
	12350 7900 12350 8000
Connection ~ 12350 8000
Wire Wire Line
	12150 7300 12150 7200
Connection ~ 12150 7200
Wire Wire Line
	12050 7300 12050 7200
Connection ~ 12050 7200
Wire Wire Line
	11750 7300 11750 7200
Connection ~ 11750 7200
$Comp
L power:GND #PWR045
U 1 1 5B564EF4
P 12850 7700
F 0 "#PWR045" H 12850 7450 50  0001 C CNN
F 1 "GND" H 12850 7550 50  0000 C CNN
F 2 "" H 12850 7700 50  0001 C CNN
F 3 "" H 12850 7700 50  0001 C CNN
	1    12850 7700
	1    0    0    -1  
$EndComp
Wire Wire Line
	12650 7600 12850 7600
Wire Wire Line
	12850 7600 12850 7700
Connection ~ 12650 7600
$Comp
L Device:C C17
U 1 1 5B634C8D
P 14550 3350
F 0 "C17" H 14575 3450 50  0000 L CNN
F 1 "0.1µF" H 14575 3250 50  0000 L CNN
F 2 "Capacitor_SMD:C_0603_1608Metric" H 14588 3200 50  0001 C CNN
F 3 "" H 14550 3350 50  0001 C CNN
	1    14550 3350
	1    0    0    -1  
$EndComp
$Comp
L power:GND #PWR046
U 1 1 5B634D2D
P 14400 3700
F 0 "#PWR046" H 14400 3450 50  0001 C CNN
F 1 "GND" H 14400 3550 50  0000 C CNN
F 2 "" H 14400 3700 50  0001 C CNN
F 3 "" H 14400 3700 50  0001 C CNN
	1    14400 3700
	1    0    0    -1  
$EndComp
$Comp
L power:VCC #PWR047
U 1 1 5B634D97
P 14400 3000
F 0 "#PWR047" H 14400 2850 50  0001 C CNN
F 1 "VCC" H 14400 3150 50  0000 C CNN
F 2 "" H 14400 3000 50  0001 C CNN
F 3 "" H 14400 3000 50  0001 C CNN
	1    14400 3000
	1    0    0    -1  
$EndComp
$Comp
L Device:C C16
U 1 1 5B64E398
P 14250 3350
F 0 "C16" H 14275 3450 50  0000 L CNN
F 1 "0.1µF" H 14275 3250 50  0000 L CNN
F 2 "Capacitor_SMD:C_0603_1608Metric" H 14288 3200 50  0001 C CNN
F 3 "" H 14250 3350 50  0001 C CNN
	1    14250 3350
	1    0    0    -1  
$EndComp
Wire Wire Line
	14550 3100 14550 3200
Wire Wire Line
	14250 3100 14400 3100
Wire Wire Line
	14250 3100 14250 3200
Wire Wire Line
	14400 3000 14400 3100
Connection ~ 14400 3100
Wire Wire Line
	14250 3500 14250 3600
Wire Wire Line
	14250 3600 14400 3600
Wire Wire Line
	14550 3600 14550 3500
Wire Wire Line
	14400 3600 14400 3700
Connection ~ 14400 3600
Wire Wire Line
	14050 6500 14450 6500
Wire Wire Line
	13800 6400 14450 6400
Wire Wire Line
	13550 6300 14450 6300
Wire Wire Line
	13300 6200 14450 6200
Wire Wire Line
	12500 6100 14450 6100
Wire Wire Line
	12250 6000 14450 6000
Wire Wire Line
	12000 5900 14450 5900
Wire Wire Line
	11750 5800 14450 5800
Wire Wire Line
	12650 5700 14200 5700
Wire Wire Line
	10850 7200 10850 8500
Wire Wire Line
	9250 9200 9500 9200
Wire Wire Line
	8800 6400 9400 6400
Wire Wire Line
	8400 6300 9400 6300
Wire Wire Line
	8000 6200 9400 6200
Wire Wire Line
	7600 6100 9400 6100
Wire Wire Line
	7200 6000 9400 6000
Wire Wire Line
	6800 5900 9400 5900
Wire Wire Line
	6400 5800 9400 5800
Wire Wire Line
	8150 7450 8450 7450
Wire Wire Line
	7850 7450 8150 7450
Wire Wire Line
	7550 7450 7850 7450
Wire Wire Line
	7250 7450 7400 7450
Wire Wire Line
	6950 7450 7250 7450
Wire Wire Line
	6650 7450 6950 7450
Wire Wire Line
	7400 7450 7550 7450
Wire Wire Line
	11950 8000 11850 8000
Wire Wire Line
	12250 8000 11950 8000
Wire Wire Line
	12350 8000 12250 8000
Wire Wire Line
	12150 7200 12650 7200
Wire Wire Line
	12050 7200 12150 7200
Wire Wire Line
	11750 7200 12050 7200
Wire Wire Line
	12650 7600 12650 8000
Wire Wire Line
	14400 3100 14550 3100
Wire Wire Line
	14400 3600 14550 3600
Wire Wire Line
	5550 1950 8100 1950
Wire Wire Line
	5550 1950 5550 6900
Wire Wire Line
	7500 1400 7500 1850
Wire Wire Line
	7500 1850 8100 1850
$Comp
L power:GND #PWR0102
U 1 1 5C427EBD
P 8000 3750
F 0 "#PWR0102" H 8000 3500 50  0001 C CNN
F 1 "GND" H 8005 3577 50  0000 C CNN
F 2 "" H 8000 3750 50  0001 C CNN
F 3 "" H 8000 3750 50  0001 C CNN
	1    8000 3750
	1    0    0    -1  
$EndComp
Wire Wire Line
	9200 2350 9850 2350
Wire Wire Line
	14000 2350 14000 4100
Wire Wire Line
	13750 4100 13750 2450
Wire Wire Line
	13750 2450 9800 2450
Wire Wire Line
	9200 2550 9750 2550
Wire Wire Line
	13500 2550 13500 4100
Wire Wire Line
	13250 4100 13250 2650
Wire Wire Line
	13250 2650 9700 2650
Wire Wire Line
	12450 4100 12450 2750
Wire Wire Line
	12450 2750 9650 2750
Wire Wire Line
	12200 4100 12200 2850
Wire Wire Line
	12200 2850 9600 2850
Wire Wire Line
	9200 2950 9550 2950
Wire Wire Line
	11950 2950 11950 4100
Wire Wire Line
	11700 4100 11700 3050
Wire Wire Line
	11700 3050 9500 3050
Connection ~ 9200 6500
Wire Wire Line
	9200 6500 9400 6500
Wire Wire Line
	9350 6800 9350 5550
Wire Wire Line
	9350 5550 9950 5550
Wire Wire Line
	9950 5550 9950 1400
Connection ~ 9350 6800
Wire Wire Line
	9350 6800 9400 6800
Wire Wire Line
	7500 1400 9950 1400
Wire Wire Line
	9200 4800 9850 4800
Wire Wire Line
	9850 4800 9850 2350
Connection ~ 9850 2350
Wire Wire Line
	9850 2350 14000 2350
Wire Wire Line
	8800 4750 9800 4750
Wire Wire Line
	9800 4750 9800 2450
Connection ~ 9800 2450
Wire Wire Line
	9800 2450 9200 2450
Wire Wire Line
	8400 4700 9750 4700
Wire Wire Line
	9750 4700 9750 2550
Connection ~ 9750 2550
Wire Wire Line
	9750 2550 13500 2550
Wire Wire Line
	8000 4650 9700 4650
Wire Wire Line
	9700 4650 9700 2650
Connection ~ 9700 2650
Wire Wire Line
	9700 2650 9200 2650
Wire Wire Line
	7600 4600 9650 4600
Wire Wire Line
	9650 4600 9650 2750
Connection ~ 9650 2750
Wire Wire Line
	9650 2750 9200 2750
Wire Wire Line
	7200 4550 9600 4550
Wire Wire Line
	9600 4550 9600 2850
Connection ~ 9600 2850
Wire Wire Line
	9600 2850 9200 2850
Wire Wire Line
	6800 4500 9550 4500
Wire Wire Line
	9550 4500 9550 2950
Connection ~ 9550 2950
Wire Wire Line
	9550 2950 11950 2950
Wire Wire Line
	6400 4450 9500 4450
Wire Wire Line
	9500 4450 9500 3050
Connection ~ 9500 3050
Wire Wire Line
	9500 3050 9200 3050
$Comp
L power:VCC #PWR0104
U 1 1 5CA1F61A
P 9200 1700
F 0 "#PWR0104" H 9200 1550 50  0001 C CNN
F 1 "VCC" H 9217 1873 50  0000 C CNN
F 2 "" H 9200 1700 50  0001 C CNN
F 3 "" H 9200 1700 50  0001 C CNN
	1    9200 1700
	1    0    0    -1  
$EndComp
Wire Wire Line
	6400 4450 6400 5800
Wire Wire Line
	6800 4500 6800 5900
Wire Wire Line
	7200 4550 7200 6000
Wire Wire Line
	7600 4600 7600 6100
Wire Wire Line
	8000 4650 8000 6200
Wire Wire Line
	8400 4700 8400 6300
Wire Wire Line
	8800 4750 8800 6400
Wire Wire Line
	9200 4800 9200 6500
$Comp
L 8bit-smd-custom-legacy:IS62C256AL-45ULI U24
U 1 1 5C2A80CC
P 8600 2650
F 0 "U24" H 8650 3817 50  0000 C CNN
F 1 "IS62C256AL-45ULI" H 8650 3726 50  0000 C CNN
F 2 "IS62C256AL-45ULI:SOIC127P1210X305-28N" H 8600 2650 50  0001 L BNN
F 3 "None" H 8600 2650 50  0001 L BNN
F 4 "SOP-28 ISSI" H 8600 2650 50  0001 L BNN "Field4"
F 5 "IS62C256AL-45ULI" H 8600 2650 50  0001 L BNN "Field5"
F 6 "Unavailable" H 8600 2650 50  0001 L BNN "Field6"
F 7 "ISSI, Integrated" H 8600 2650 50  0001 L BNN "Field7"
F 8 "SRAM Chip Asynchronous Single 5 Volt 256k-Bit 32k X 8 45ns 28-Pin Sop" H 7450 1450 50  0001 L BNN "Field8"
	1    8600 2650
	1    0    0    -1  
$EndComp
Wire Wire Line
	9200 1750 9200 1700
Wire Wire Line
	9200 3550 9200 3750
Wire Wire Line
	9200 3750 8000 3750
Wire Wire Line
	8000 3750 8000 3550
Wire Wire Line
	8000 2550 8100 2550
Connection ~ 8000 3750
Wire Wire Line
	8100 2650 8000 2650
Connection ~ 8000 2650
Wire Wire Line
	8000 2650 8000 2550
Wire Wire Line
	8100 2750 8000 2750
Connection ~ 8000 2750
Wire Wire Line
	8000 2750 8000 2650
Wire Wire Line
	8100 2850 8000 2850
Connection ~ 8000 2850
Wire Wire Line
	8000 2850 8000 2750
Wire Wire Line
	8100 2950 8000 2950
Connection ~ 8000 2950
Wire Wire Line
	8000 2950 8000 2850
Wire Wire Line
	8100 3050 8000 3050
Connection ~ 8000 3050
Wire Wire Line
	8000 3050 8000 2950
Wire Wire Line
	8100 3150 8000 3150
Connection ~ 8000 3150
Wire Wire Line
	8000 3150 8000 3050
Wire Wire Line
	8100 3250 8000 3250
Connection ~ 8000 3250
Wire Wire Line
	8000 3250 8000 3150
Wire Wire Line
	8100 3350 8000 3350
Connection ~ 8000 3350
Wire Wire Line
	8000 3350 8000 3250
Wire Wire Line
	8100 3450 8000 3450
Connection ~ 8000 3450
Wire Wire Line
	8000 3450 8000 3350
Wire Wire Line
	8100 3550 8000 3550
Connection ~ 8000 3550
Wire Wire Line
	8000 3550 8000 3450
Wire Wire Line
	8100 1750 7750 1750
Wire Wire Line
	7750 1750 7750 2550
Wire Wire Line
	7750 2550 8000 2550
Connection ~ 8000 2550
$EndSCHEMATC
