G04 #@! TF.GenerationSoftware,KiCad,Pcbnew,5.0.2+dfsg1-1*
G04 #@! TF.CreationDate,2019-01-08T20:41:56+13:00*
G04 #@! TF.ProjectId,nand,6e616e64-2e6b-4696-9361-645f70636258,rev?*
G04 #@! TF.SameCoordinates,Original*
G04 #@! TF.FileFunction,Copper,L1,Top*
G04 #@! TF.FilePolarity,Positive*
%FSLAX46Y46*%
G04 Gerber Fmt 4.6, Leading zero omitted, Abs format (unit mm)*
G04 Created by KiCad (PCBNEW 5.0.2+dfsg1-1) date Tue 08 Jan 2019 20:41:56 NZDT*
%MOMM*%
%LPD*%
G01*
G04 APERTURE LIST*
G04 #@! TA.AperFunction,SMDPad,CuDef*
%ADD10R,0.900000X0.800000*%
G04 #@! TD*
G04 #@! TA.AperFunction,SMDPad,CuDef*
%ADD11R,0.800000X0.900000*%
G04 #@! TD*
G04 #@! TA.AperFunction,SMDPad,CuDef*
%ADD12R,0.630000X0.230000*%
G04 #@! TD*
G04 #@! TA.AperFunction,Conductor*
%ADD13C,0.100000*%
G04 #@! TD*
G04 #@! TA.AperFunction,SMDPad,CuDef*
%ADD14C,0.590000*%
G04 #@! TD*
G04 #@! TA.AperFunction,ViaPad*
%ADD15C,1.100000*%
G04 #@! TD*
G04 #@! TA.AperFunction,ViaPad*
%ADD16C,0.800000*%
G04 #@! TD*
G04 #@! TA.AperFunction,ViaPad*
%ADD17C,0.600000*%
G04 #@! TD*
G04 #@! TA.AperFunction,Conductor*
%ADD18C,0.153000*%
G04 #@! TD*
G04 #@! TA.AperFunction,Conductor*
%ADD19C,0.254000*%
G04 #@! TD*
G04 APERTURE END LIST*
D10*
G04 #@! TO.P,Q8,3*
G04 #@! TO.N,/Q1*
X3000000Y5500000D03*
G04 #@! TO.P,Q8,2*
G04 #@! TO.N,GND*
X1000000Y4550000D03*
G04 #@! TO.P,Q8,1*
G04 #@! TO.N,Net-(Q6-Pad3)*
X1000000Y6450000D03*
G04 #@! TD*
G04 #@! TO.P,Q6,3*
G04 #@! TO.N,Net-(Q6-Pad3)*
X1000000Y9100000D03*
G04 #@! TO.P,Q6,2*
G04 #@! TO.N,/A1*
X3000000Y10050000D03*
G04 #@! TO.P,Q6,1*
G04 #@! TO.N,Net-(Q6-Pad1)*
X3000000Y8150000D03*
G04 #@! TD*
D11*
G04 #@! TO.P,Q5,3*
G04 #@! TO.N,Net-(Q4-Pad1)*
X4000000Y900000D03*
G04 #@! TO.P,Q5,2*
G04 #@! TO.N,Net-(J1-Pad4)*
X3050000Y2900000D03*
G04 #@! TO.P,Q5,1*
G04 #@! TO.N,Net-(Q5-Pad1)*
X4950000Y2900000D03*
G04 #@! TD*
G04 #@! TO.P,Q4,3*
G04 #@! TO.N,Net-(J1-Pad6)*
X7574999Y900000D03*
G04 #@! TO.P,Q4,2*
G04 #@! TO.N,GND*
X6624999Y2900000D03*
G04 #@! TO.P,Q4,1*
G04 #@! TO.N,Net-(Q4-Pad1)*
X8524999Y2900000D03*
G04 #@! TD*
D10*
G04 #@! TO.P,Q3,3*
G04 #@! TO.N,/Q*
X7200000Y10500000D03*
G04 #@! TO.P,Q3,2*
G04 #@! TO.N,GND*
X5200000Y9550000D03*
G04 #@! TO.P,Q3,1*
G04 #@! TO.N,Net-(Q1-Pad3)*
X5200000Y11450000D03*
G04 #@! TD*
G04 #@! TO.P,Q1,3*
G04 #@! TO.N,Net-(Q1-Pad3)*
X10400000Y7700000D03*
G04 #@! TO.P,Q1,2*
G04 #@! TO.N,/A*
X8400000Y6750000D03*
G04 #@! TO.P,Q1,1*
G04 #@! TO.N,Net-(Q1-Pad1)*
X8400000Y8650000D03*
G04 #@! TD*
D12*
G04 #@! TO.P,J1,5*
G04 #@! TO.N,GND*
X4660000Y5700000D03*
G04 #@! TO.P,J1,4*
G04 #@! TO.N,Net-(J1-Pad4)*
X4660000Y6100000D03*
G04 #@! TO.P,J1,3*
G04 #@! TO.N,/Q1*
X4660000Y6500000D03*
G04 #@! TO.P,J1,2*
G04 #@! TO.N,/B1*
X4660000Y6900000D03*
G04 #@! TO.P,J1,1*
G04 #@! TO.N,/A1*
X4660000Y7300000D03*
G04 #@! TO.P,J1,6*
G04 #@! TO.N,Net-(J1-Pad6)*
X6940000Y5700000D03*
G04 #@! TO.P,J1,7*
G04 #@! TO.N,/Q*
X6940000Y6100000D03*
G04 #@! TO.P,J1,8*
G04 #@! TO.N,/B*
X6940000Y6500000D03*
G04 #@! TO.P,J1,9*
G04 #@! TO.N,/A*
X6940000Y6900000D03*
G04 #@! TO.P,J1,10*
G04 #@! TO.N,VCC*
X6940000Y7300000D03*
G04 #@! TD*
D13*
G04 #@! TO.N,/Q*
G04 #@! TO.C,R2*
G36*
X9786958Y5679290D02*
X9801276Y5677166D01*
X9815317Y5673649D01*
X9828946Y5668772D01*
X9842031Y5662583D01*
X9854447Y5655142D01*
X9866073Y5646519D01*
X9876798Y5636798D01*
X9886519Y5626073D01*
X9895142Y5614447D01*
X9902583Y5602031D01*
X9908772Y5588946D01*
X9913649Y5575317D01*
X9917166Y5561276D01*
X9919290Y5546958D01*
X9920000Y5532500D01*
X9920000Y5237500D01*
X9919290Y5223042D01*
X9917166Y5208724D01*
X9913649Y5194683D01*
X9908772Y5181054D01*
X9902583Y5167969D01*
X9895142Y5155553D01*
X9886519Y5143927D01*
X9876798Y5133202D01*
X9866073Y5123481D01*
X9854447Y5114858D01*
X9842031Y5107417D01*
X9828946Y5101228D01*
X9815317Y5096351D01*
X9801276Y5092834D01*
X9786958Y5090710D01*
X9772500Y5090000D01*
X9427500Y5090000D01*
X9413042Y5090710D01*
X9398724Y5092834D01*
X9384683Y5096351D01*
X9371054Y5101228D01*
X9357969Y5107417D01*
X9345553Y5114858D01*
X9333927Y5123481D01*
X9323202Y5133202D01*
X9313481Y5143927D01*
X9304858Y5155553D01*
X9297417Y5167969D01*
X9291228Y5181054D01*
X9286351Y5194683D01*
X9282834Y5208724D01*
X9280710Y5223042D01*
X9280000Y5237500D01*
X9280000Y5532500D01*
X9280710Y5546958D01*
X9282834Y5561276D01*
X9286351Y5575317D01*
X9291228Y5588946D01*
X9297417Y5602031D01*
X9304858Y5614447D01*
X9313481Y5626073D01*
X9323202Y5636798D01*
X9333927Y5646519D01*
X9345553Y5655142D01*
X9357969Y5662583D01*
X9371054Y5668772D01*
X9384683Y5673649D01*
X9398724Y5677166D01*
X9413042Y5679290D01*
X9427500Y5680000D01*
X9772500Y5680000D01*
X9786958Y5679290D01*
X9786958Y5679290D01*
G37*
D14*
G04 #@! TD*
G04 #@! TO.P,R2,2*
G04 #@! TO.N,/Q*
X9600000Y5385000D03*
D13*
G04 #@! TO.N,VCC*
G04 #@! TO.C,R2*
G36*
X9786958Y4709290D02*
X9801276Y4707166D01*
X9815317Y4703649D01*
X9828946Y4698772D01*
X9842031Y4692583D01*
X9854447Y4685142D01*
X9866073Y4676519D01*
X9876798Y4666798D01*
X9886519Y4656073D01*
X9895142Y4644447D01*
X9902583Y4632031D01*
X9908772Y4618946D01*
X9913649Y4605317D01*
X9917166Y4591276D01*
X9919290Y4576958D01*
X9920000Y4562500D01*
X9920000Y4267500D01*
X9919290Y4253042D01*
X9917166Y4238724D01*
X9913649Y4224683D01*
X9908772Y4211054D01*
X9902583Y4197969D01*
X9895142Y4185553D01*
X9886519Y4173927D01*
X9876798Y4163202D01*
X9866073Y4153481D01*
X9854447Y4144858D01*
X9842031Y4137417D01*
X9828946Y4131228D01*
X9815317Y4126351D01*
X9801276Y4122834D01*
X9786958Y4120710D01*
X9772500Y4120000D01*
X9427500Y4120000D01*
X9413042Y4120710D01*
X9398724Y4122834D01*
X9384683Y4126351D01*
X9371054Y4131228D01*
X9357969Y4137417D01*
X9345553Y4144858D01*
X9333927Y4153481D01*
X9323202Y4163202D01*
X9313481Y4173927D01*
X9304858Y4185553D01*
X9297417Y4197969D01*
X9291228Y4211054D01*
X9286351Y4224683D01*
X9282834Y4238724D01*
X9280710Y4253042D01*
X9280000Y4267500D01*
X9280000Y4562500D01*
X9280710Y4576958D01*
X9282834Y4591276D01*
X9286351Y4605317D01*
X9291228Y4618946D01*
X9297417Y4632031D01*
X9304858Y4644447D01*
X9313481Y4656073D01*
X9323202Y4666798D01*
X9333927Y4676519D01*
X9345553Y4685142D01*
X9357969Y4692583D01*
X9371054Y4698772D01*
X9384683Y4703649D01*
X9398724Y4707166D01*
X9413042Y4709290D01*
X9427500Y4710000D01*
X9772500Y4710000D01*
X9786958Y4709290D01*
X9786958Y4709290D01*
G37*
D14*
G04 #@! TD*
G04 #@! TO.P,R2,1*
G04 #@! TO.N,VCC*
X9600000Y4415000D03*
D15*
G04 #@! TO.N,*
X1000000Y11400000D03*
G04 #@! TO.N,GND*
X1000000Y1000000D03*
G04 #@! TO.N,*
X10400000Y1000000D03*
D16*
G04 #@! TO.N,/B*
X8600000Y5550012D03*
D17*
G04 #@! TO.N,/Q*
X10825000Y6400002D03*
D16*
X10600000Y8899998D03*
G04 #@! TO.N,Net-(J1-Pad6)*
X7923195Y1884943D03*
X7213449Y4943282D03*
G04 #@! TO.N,Net-(Q1-Pad1)*
X9246988Y8615490D03*
G04 #@! TO.N,Net-(Q1-Pad3)*
X9926857Y6592124D03*
G04 #@! TO.N,VCC*
X10600000Y4100000D03*
X1800000Y5500000D03*
X7344233Y8170687D03*
X1800000Y2300000D03*
G04 #@! TO.N,Net-(Q5-Pad1)*
X4129260Y2552529D03*
G04 #@! TO.N,Net-(Q6-Pad1)*
X3796989Y9160508D03*
G04 #@! TO.N,GND*
X4200000Y4700000D03*
X923490Y3100000D03*
X6399999Y8500001D03*
G04 #@! TO.N,Net-(Q6-Pad3)*
X1949998Y8100000D03*
G04 #@! TO.N,/Q1*
X3210628Y4347716D03*
G04 #@! TO.N,/B1*
X5800000Y6900000D03*
G04 #@! TD*
D18*
G04 #@! TO.N,/A*
X7647000Y6900000D02*
X7208000Y6900000D01*
X7797000Y6750000D02*
X7647000Y6900000D01*
X8400000Y6750000D02*
X7797000Y6750000D01*
G04 #@! TO.N,/B*
X6940000Y6500000D02*
X7408000Y6500000D01*
X7408000Y6500000D02*
X8357988Y5550012D01*
X8357988Y5550012D02*
X8600000Y5550012D01*
G04 #@! TO.N,/Q*
X9685000Y5300000D02*
X9600000Y5385000D01*
X10000000Y5300000D02*
X9685000Y5300000D01*
X10825000Y6400002D02*
X10000000Y5300000D01*
X7200000Y10500000D02*
X8999998Y10500000D01*
X8999998Y10500000D02*
X10200001Y9299997D01*
X10200001Y9299997D02*
X10600000Y8899998D01*
X6472000Y6100000D02*
X6940000Y6100000D01*
X6200000Y5000000D02*
X6200000Y5828000D01*
X6950000Y4250000D02*
X6200000Y5000000D01*
X9600000Y5385000D02*
X8465000Y4250000D01*
X6200000Y5828000D02*
X6472000Y6100000D01*
X8465000Y4250000D02*
X6950000Y4250000D01*
G04 #@! TO.N,Net-(J1-Pad6)*
X7574999Y900000D02*
X7574999Y1536747D01*
X7574999Y1536747D02*
X7923195Y1884943D01*
X6940000Y5216731D02*
X7213449Y4943282D01*
X6940000Y5700000D02*
X6940000Y5216731D01*
G04 #@! TO.N,Net-(Q1-Pad1)*
X8400000Y8650000D02*
X9212478Y8650000D01*
X9212478Y8650000D02*
X9246988Y8615490D01*
G04 #@! TO.N,Net-(Q1-Pad3)*
X10550000Y7850000D02*
X10400000Y7700000D01*
X9926857Y6673857D02*
X9926857Y6592124D01*
X10400000Y7147000D02*
X9926857Y6673857D01*
X10400000Y7700000D02*
X10400000Y7147000D01*
X5200000Y11097000D02*
X5200000Y11650000D01*
X10400000Y7700000D02*
X9923498Y8176502D01*
X9923498Y8176502D02*
X9923498Y9024972D01*
X6597000Y9700000D02*
X5200000Y11097000D01*
X9248470Y9700000D02*
X6597000Y9700000D01*
X9923498Y9024972D02*
X9248470Y9700000D01*
G04 #@! TO.N,VCC*
X9600000Y4415000D02*
X10285000Y4415000D01*
X10285000Y4415000D02*
X10600000Y4100000D01*
X2000000Y5300000D02*
X1800000Y5500000D01*
X6944234Y7770688D02*
X7344233Y8170687D01*
X6940000Y7300000D02*
X6940000Y7766454D01*
X6940000Y7766454D02*
X6944234Y7770688D01*
X1800000Y2300000D02*
X1800000Y5300000D01*
G04 #@! TO.N,Net-(Q5-Pad1)*
X4129260Y2632260D02*
X4129260Y2552529D01*
X4397000Y2900000D02*
X4129260Y2632260D01*
X4950000Y2900000D02*
X4397000Y2900000D01*
G04 #@! TO.N,Net-(Q6-Pad1)*
X3000000Y8150000D02*
X3050000Y8150000D01*
X3796989Y8896989D02*
X3796989Y9160508D01*
X3050000Y8150000D02*
X3796989Y8896989D01*
G04 #@! TO.N,GND*
X4200000Y5240000D02*
X4660000Y5700000D01*
X4200000Y4700000D02*
X4200000Y5240000D01*
X6624999Y2900000D02*
X6624999Y2850000D01*
X5800000Y2025001D02*
X5674999Y1900000D01*
X6624999Y2850000D02*
X5800000Y2025001D01*
X5651026Y1876027D02*
X3376027Y1876027D01*
X5800000Y2025001D02*
X5651026Y1876027D01*
X800000Y4550000D02*
X800000Y3223490D01*
X800000Y3223490D02*
X923490Y3100000D01*
X6365686Y8500001D02*
X6399999Y8500001D01*
X5800000Y8500000D02*
X6365686Y8500001D01*
X5200000Y9100000D02*
X5800000Y8500000D01*
X5200000Y9750000D02*
X5200000Y9100000D01*
G04 #@! TO.N,Net-(Q4-Pad1)*
X5972701Y900000D02*
X7301502Y2228801D01*
X7301502Y2228801D02*
X7301502Y2776504D01*
X7424998Y2900000D02*
X7971999Y2900000D01*
X7301502Y2776504D02*
X7424998Y2900000D01*
X7971999Y2900000D02*
X8524999Y2900000D01*
X4000000Y900000D02*
X5972701Y900000D01*
G04 #@! TO.N,Net-(J1-Pad4)*
X3050000Y2950000D02*
X3603000Y3503000D01*
X3603000Y3503000D02*
X4206000Y3503000D01*
X5251501Y6036201D02*
X5187702Y6100000D01*
X5251501Y4548501D02*
X5251501Y6036201D01*
X5187702Y6100000D02*
X5128000Y6100000D01*
X4206000Y3503000D02*
X5251501Y4548501D01*
X3050000Y2900000D02*
X3050000Y2950000D01*
X5128000Y6100000D02*
X4660000Y6100000D01*
G04 #@! TO.N,Net-(Q6-Pad3)*
X1000000Y6450000D02*
X1000000Y8100000D01*
X1000000Y8100000D02*
X1000000Y9100000D01*
X1000000Y8547000D02*
X1000000Y9100000D01*
X1549999Y8499999D02*
X1047001Y8499999D01*
X1047001Y8499999D02*
X1000000Y8547000D01*
X1949998Y8100000D02*
X1549999Y8499999D01*
G04 #@! TO.N,/Q1*
X3000000Y4558344D02*
X3210628Y4347716D01*
X3000000Y5500000D02*
X3000000Y4558344D01*
X3050000Y5500000D02*
X3000000Y5500000D01*
X4660000Y6500000D02*
X4050000Y6500000D01*
X4050000Y6500000D02*
X3050000Y5500000D01*
G04 #@! TO.N,/A1*
X4660000Y7568000D02*
X4660000Y7300000D01*
X4660000Y8793000D02*
X4660000Y7568000D01*
X4473499Y8979501D02*
X4660000Y8793000D01*
X4473499Y9972180D02*
X4473499Y8979501D01*
X3000000Y10050000D02*
X4395678Y10050000D01*
X4395678Y10050000D02*
X4473499Y9972180D01*
G04 #@! TO.N,/B1*
X5800000Y6900000D02*
X4660000Y6900000D01*
G04 #@! TD*
D19*
G04 #@! TO.N,GND*
G36*
X1127000Y4677000D02*
X1147000Y4677000D01*
X1147000Y4423000D01*
X1127000Y4423000D01*
X1127000Y3673750D01*
X1285750Y3515000D01*
X1296500Y3515000D01*
X1296500Y2966055D01*
X1098903Y2768458D01*
X973000Y2464501D01*
X973000Y2135499D01*
X1098903Y1831542D01*
X1331542Y1598903D01*
X1635499Y1473000D01*
X1964501Y1473000D01*
X2268458Y1598903D01*
X2501097Y1831542D01*
X2582498Y2028062D01*
X2650000Y2014635D01*
X3450000Y2014635D01*
X3489702Y2022532D01*
X3660802Y1851432D01*
X3820302Y1785365D01*
X3600000Y1785365D01*
X3433393Y1752225D01*
X3292150Y1657850D01*
X3197775Y1516607D01*
X3164635Y1350000D01*
X3164635Y502000D01*
X502000Y502000D01*
X502000Y3515000D01*
X714250Y3515000D01*
X873000Y3673750D01*
X873000Y4423000D01*
X853000Y4423000D01*
X853000Y4677000D01*
X873000Y4677000D01*
X873000Y4697000D01*
X1127000Y4697000D01*
X1127000Y4677000D01*
X1127000Y4677000D01*
G37*
X1127000Y4677000D02*
X1147000Y4677000D01*
X1147000Y4423000D01*
X1127000Y4423000D01*
X1127000Y3673750D01*
X1285750Y3515000D01*
X1296500Y3515000D01*
X1296500Y2966055D01*
X1098903Y2768458D01*
X973000Y2464501D01*
X973000Y2135499D01*
X1098903Y1831542D01*
X1331542Y1598903D01*
X1635499Y1473000D01*
X1964501Y1473000D01*
X2268458Y1598903D01*
X2501097Y1831542D01*
X2582498Y2028062D01*
X2650000Y2014635D01*
X3450000Y2014635D01*
X3489702Y2022532D01*
X3660802Y1851432D01*
X3820302Y1785365D01*
X3600000Y1785365D01*
X3433393Y1752225D01*
X3292150Y1657850D01*
X3197775Y1516607D01*
X3164635Y1350000D01*
X3164635Y502000D01*
X502000Y502000D01*
X502000Y3515000D01*
X714250Y3515000D01*
X873000Y3673750D01*
X873000Y4423000D01*
X853000Y4423000D01*
X853000Y4677000D01*
X873000Y4677000D01*
X873000Y4697000D01*
X1127000Y4697000D01*
X1127000Y4677000D01*
G36*
X5686672Y2090302D02*
X5865300Y1911673D01*
X6098689Y1815000D01*
X6175646Y1815000D01*
X5764146Y1403500D01*
X4824723Y1403500D01*
X4802225Y1516607D01*
X4707850Y1657850D01*
X4566607Y1752225D01*
X4425819Y1780229D01*
X4597718Y1851432D01*
X4760921Y2014635D01*
X5350000Y2014635D01*
X5516607Y2047775D01*
X5657850Y2142150D01*
X5662385Y2148937D01*
X5686672Y2090302D01*
X5686672Y2090302D01*
G37*
X5686672Y2090302D02*
X5865300Y1911673D01*
X6098689Y1815000D01*
X6175646Y1815000D01*
X5764146Y1403500D01*
X4824723Y1403500D01*
X4802225Y1516607D01*
X4707850Y1657850D01*
X4566607Y1752225D01*
X4425819Y1780229D01*
X4597718Y1851432D01*
X4760921Y2014635D01*
X5350000Y2014635D01*
X5516607Y2047775D01*
X5657850Y2142150D01*
X5662385Y2148937D01*
X5686672Y2090302D01*
G36*
X6751999Y3027000D02*
X6771999Y3027000D01*
X6771999Y2773000D01*
X6751999Y2773000D01*
X6751999Y2753000D01*
X6497999Y2753000D01*
X6497999Y2773000D01*
X6477999Y2773000D01*
X6477999Y3027000D01*
X6497999Y3027000D01*
X6497999Y3047000D01*
X6751999Y3047000D01*
X6751999Y3027000D01*
X6751999Y3027000D01*
G37*
X6751999Y3027000D02*
X6771999Y3027000D01*
X6771999Y2773000D01*
X6751999Y2773000D01*
X6751999Y2753000D01*
X6497999Y2753000D01*
X6497999Y2773000D01*
X6477999Y2773000D01*
X6477999Y3027000D01*
X6497999Y3027000D01*
X6497999Y3047000D01*
X6751999Y3047000D01*
X6751999Y3027000D01*
G36*
X4748001Y4757058D02*
X3997445Y4006500D01*
X3964430Y4006500D01*
X4037628Y4183215D01*
X4037628Y4512217D01*
X3911725Y4816174D01*
X3829106Y4898793D01*
X3852225Y4933393D01*
X3885365Y5100000D01*
X3885365Y5146610D01*
X3985301Y5046673D01*
X4218690Y4950000D01*
X4374250Y4950000D01*
X4533000Y5108750D01*
X4533000Y5549635D01*
X4748002Y5549635D01*
X4748001Y4757058D01*
X4748001Y4757058D01*
G37*
X4748001Y4757058D02*
X3997445Y4006500D01*
X3964430Y4006500D01*
X4037628Y4183215D01*
X4037628Y4512217D01*
X3911725Y4816174D01*
X3829106Y4898793D01*
X3852225Y4933393D01*
X3885365Y5100000D01*
X3885365Y5146610D01*
X3985301Y5046673D01*
X4218690Y4950000D01*
X4374250Y4950000D01*
X4533000Y5108750D01*
X4533000Y5549635D01*
X4748002Y5549635D01*
X4748001Y4757058D01*
G36*
X5327000Y9677000D02*
X5347000Y9677000D01*
X5347000Y9423000D01*
X5327000Y9423000D01*
X5327000Y8673750D01*
X5485750Y8515000D01*
X5776309Y8515000D01*
X6009698Y8611673D01*
X6188327Y8790301D01*
X6285000Y9023690D01*
X6285000Y9264250D01*
X6126252Y9422998D01*
X6161946Y9422998D01*
X6205906Y9379038D01*
X6233997Y9336997D01*
X6400544Y9225714D01*
X6547411Y9196500D01*
X6547415Y9196500D01*
X6596999Y9186637D01*
X6646583Y9196500D01*
X7543775Y9196500D01*
X7514635Y9050000D01*
X7514635Y8995243D01*
X7508734Y8997687D01*
X7179732Y8997687D01*
X6875775Y8871784D01*
X6643136Y8639145D01*
X6517233Y8335188D01*
X6517233Y8040012D01*
X6465714Y7962909D01*
X6433416Y7800536D01*
X6317150Y7722850D01*
X6242878Y7611693D01*
X5964501Y7727000D01*
X5635499Y7727000D01*
X5357122Y7611693D01*
X5282850Y7722850D01*
X5163500Y7802597D01*
X5163500Y8743416D01*
X5173363Y8793001D01*
X5163500Y8842588D01*
X5163500Y8842589D01*
X5134286Y8989456D01*
X5073000Y9081177D01*
X5073000Y9423000D01*
X5053000Y9423000D01*
X5053000Y9677000D01*
X5073000Y9677000D01*
X5073000Y9697000D01*
X5327000Y9697000D01*
X5327000Y9677000D01*
X5327000Y9677000D01*
G37*
X5327000Y9677000D02*
X5347000Y9677000D01*
X5347000Y9423000D01*
X5327000Y9423000D01*
X5327000Y8673750D01*
X5485750Y8515000D01*
X5776309Y8515000D01*
X6009698Y8611673D01*
X6188327Y8790301D01*
X6285000Y9023690D01*
X6285000Y9264250D01*
X6126252Y9422998D01*
X6161946Y9422998D01*
X6205906Y9379038D01*
X6233997Y9336997D01*
X6400544Y9225714D01*
X6547411Y9196500D01*
X6547415Y9196500D01*
X6596999Y9186637D01*
X6646583Y9196500D01*
X7543775Y9196500D01*
X7514635Y9050000D01*
X7514635Y8995243D01*
X7508734Y8997687D01*
X7179732Y8997687D01*
X6875775Y8871784D01*
X6643136Y8639145D01*
X6517233Y8335188D01*
X6517233Y8040012D01*
X6465714Y7962909D01*
X6433416Y7800536D01*
X6317150Y7722850D01*
X6242878Y7611693D01*
X5964501Y7727000D01*
X5635499Y7727000D01*
X5357122Y7611693D01*
X5282850Y7722850D01*
X5163500Y7802597D01*
X5163500Y8743416D01*
X5173363Y8793001D01*
X5163500Y8842588D01*
X5163500Y8842589D01*
X5134286Y8989456D01*
X5073000Y9081177D01*
X5073000Y9423000D01*
X5053000Y9423000D01*
X5053000Y9677000D01*
X5073000Y9677000D01*
X5073000Y9697000D01*
X5327000Y9697000D01*
X5327000Y9677000D01*
G04 #@! TD*
M02*
