G04 #@! TF.GenerationSoftware,KiCad,Pcbnew,5.0.2+dfsg1-1*
G04 #@! TF.CreationDate,2019-01-08T20:41:56+13:00*
G04 #@! TF.ProjectId,nand,6e616e64-2e6b-4696-9361-645f70636258,rev?*
G04 #@! TF.SameCoordinates,Original*
G04 #@! TF.FileFunction,Copper,L2,Bot*
G04 #@! TF.FilePolarity,Positive*
%FSLAX46Y46*%
G04 Gerber Fmt 4.6, Leading zero omitted, Abs format (unit mm)*
G04 Created by KiCad (PCBNEW 5.0.2+dfsg1-1) date Tue 08 Jan 2019 20:41:56 NZDT*
%MOMM*%
%LPD*%
G01*
G04 APERTURE LIST*
G04 #@! TA.AperFunction,SMDPad,CuDef*
%ADD10R,0.900000X0.800000*%
G04 #@! TD*
G04 #@! TA.AperFunction,Conductor*
%ADD11C,0.100000*%
G04 #@! TD*
G04 #@! TA.AperFunction,SMDPad,CuDef*
%ADD12C,0.590000*%
G04 #@! TD*
G04 #@! TA.AperFunction,ViaPad*
%ADD13C,1.100000*%
G04 #@! TD*
G04 #@! TA.AperFunction,ViaPad*
%ADD14C,0.800000*%
G04 #@! TD*
G04 #@! TA.AperFunction,ViaPad*
%ADD15C,0.600000*%
G04 #@! TD*
G04 #@! TA.AperFunction,Conductor*
%ADD16C,0.153000*%
G04 #@! TD*
G04 #@! TA.AperFunction,Conductor*
%ADD17C,0.254000*%
G04 #@! TD*
G04 APERTURE END LIST*
D10*
G04 #@! TO.P,Q7,3*
G04 #@! TO.N,Net-(Q6-Pad3)*
X1000000Y7500000D03*
G04 #@! TO.P,Q7,2*
G04 #@! TO.N,/B1*
X3000000Y6550000D03*
G04 #@! TO.P,Q7,1*
G04 #@! TO.N,Net-(Q6-Pad1)*
X3000000Y8450000D03*
G04 #@! TD*
G04 #@! TO.P,Q2,3*
G04 #@! TO.N,Net-(Q1-Pad3)*
X10400000Y5500000D03*
G04 #@! TO.P,Q2,2*
G04 #@! TO.N,/B*
X8400000Y6450000D03*
G04 #@! TO.P,Q2,1*
G04 #@! TO.N,Net-(Q1-Pad1)*
X8400000Y4550000D03*
G04 #@! TD*
D11*
G04 #@! TO.N,Net-(Q1-Pad1)*
G04 #@! TO.C,R1*
G36*
X9646958Y8019290D02*
X9661276Y8017166D01*
X9675317Y8013649D01*
X9688946Y8008772D01*
X9702031Y8002583D01*
X9714447Y7995142D01*
X9726073Y7986519D01*
X9736798Y7976798D01*
X9746519Y7966073D01*
X9755142Y7954447D01*
X9762583Y7942031D01*
X9768772Y7928946D01*
X9773649Y7915317D01*
X9777166Y7901276D01*
X9779290Y7886958D01*
X9780000Y7872500D01*
X9780000Y7527500D01*
X9779290Y7513042D01*
X9777166Y7498724D01*
X9773649Y7484683D01*
X9768772Y7471054D01*
X9762583Y7457969D01*
X9755142Y7445553D01*
X9746519Y7433927D01*
X9736798Y7423202D01*
X9726073Y7413481D01*
X9714447Y7404858D01*
X9702031Y7397417D01*
X9688946Y7391228D01*
X9675317Y7386351D01*
X9661276Y7382834D01*
X9646958Y7380710D01*
X9632500Y7380000D01*
X9337500Y7380000D01*
X9323042Y7380710D01*
X9308724Y7382834D01*
X9294683Y7386351D01*
X9281054Y7391228D01*
X9267969Y7397417D01*
X9255553Y7404858D01*
X9243927Y7413481D01*
X9233202Y7423202D01*
X9223481Y7433927D01*
X9214858Y7445553D01*
X9207417Y7457969D01*
X9201228Y7471054D01*
X9196351Y7484683D01*
X9192834Y7498724D01*
X9190710Y7513042D01*
X9190000Y7527500D01*
X9190000Y7872500D01*
X9190710Y7886958D01*
X9192834Y7901276D01*
X9196351Y7915317D01*
X9201228Y7928946D01*
X9207417Y7942031D01*
X9214858Y7954447D01*
X9223481Y7966073D01*
X9233202Y7976798D01*
X9243927Y7986519D01*
X9255553Y7995142D01*
X9267969Y8002583D01*
X9281054Y8008772D01*
X9294683Y8013649D01*
X9308724Y8017166D01*
X9323042Y8019290D01*
X9337500Y8020000D01*
X9632500Y8020000D01*
X9646958Y8019290D01*
X9646958Y8019290D01*
G37*
D12*
G04 #@! TD*
G04 #@! TO.P,R1,2*
G04 #@! TO.N,Net-(Q1-Pad1)*
X9485000Y7700000D03*
D11*
G04 #@! TO.N,VCC*
G04 #@! TO.C,R1*
G36*
X8676958Y8019290D02*
X8691276Y8017166D01*
X8705317Y8013649D01*
X8718946Y8008772D01*
X8732031Y8002583D01*
X8744447Y7995142D01*
X8756073Y7986519D01*
X8766798Y7976798D01*
X8776519Y7966073D01*
X8785142Y7954447D01*
X8792583Y7942031D01*
X8798772Y7928946D01*
X8803649Y7915317D01*
X8807166Y7901276D01*
X8809290Y7886958D01*
X8810000Y7872500D01*
X8810000Y7527500D01*
X8809290Y7513042D01*
X8807166Y7498724D01*
X8803649Y7484683D01*
X8798772Y7471054D01*
X8792583Y7457969D01*
X8785142Y7445553D01*
X8776519Y7433927D01*
X8766798Y7423202D01*
X8756073Y7413481D01*
X8744447Y7404858D01*
X8732031Y7397417D01*
X8718946Y7391228D01*
X8705317Y7386351D01*
X8691276Y7382834D01*
X8676958Y7380710D01*
X8662500Y7380000D01*
X8367500Y7380000D01*
X8353042Y7380710D01*
X8338724Y7382834D01*
X8324683Y7386351D01*
X8311054Y7391228D01*
X8297969Y7397417D01*
X8285553Y7404858D01*
X8273927Y7413481D01*
X8263202Y7423202D01*
X8253481Y7433927D01*
X8244858Y7445553D01*
X8237417Y7457969D01*
X8231228Y7471054D01*
X8226351Y7484683D01*
X8222834Y7498724D01*
X8220710Y7513042D01*
X8220000Y7527500D01*
X8220000Y7872500D01*
X8220710Y7886958D01*
X8222834Y7901276D01*
X8226351Y7915317D01*
X8231228Y7928946D01*
X8237417Y7942031D01*
X8244858Y7954447D01*
X8253481Y7966073D01*
X8263202Y7976798D01*
X8273927Y7986519D01*
X8285553Y7995142D01*
X8297969Y8002583D01*
X8311054Y8008772D01*
X8324683Y8013649D01*
X8338724Y8017166D01*
X8353042Y8019290D01*
X8367500Y8020000D01*
X8662500Y8020000D01*
X8676958Y8019290D01*
X8676958Y8019290D01*
G37*
D12*
G04 #@! TD*
G04 #@! TO.P,R1,1*
G04 #@! TO.N,VCC*
X8515000Y7700000D03*
D11*
G04 #@! TO.N,Net-(J1-Pad6)*
G04 #@! TO.C,R3*
G36*
X5986958Y2079290D02*
X6001276Y2077166D01*
X6015317Y2073649D01*
X6028946Y2068772D01*
X6042031Y2062583D01*
X6054447Y2055142D01*
X6066073Y2046519D01*
X6076798Y2036798D01*
X6086519Y2026073D01*
X6095142Y2014447D01*
X6102583Y2002031D01*
X6108772Y1988946D01*
X6113649Y1975317D01*
X6117166Y1961276D01*
X6119290Y1946958D01*
X6120000Y1932500D01*
X6120000Y1637500D01*
X6119290Y1623042D01*
X6117166Y1608724D01*
X6113649Y1594683D01*
X6108772Y1581054D01*
X6102583Y1567969D01*
X6095142Y1555553D01*
X6086519Y1543927D01*
X6076798Y1533202D01*
X6066073Y1523481D01*
X6054447Y1514858D01*
X6042031Y1507417D01*
X6028946Y1501228D01*
X6015317Y1496351D01*
X6001276Y1492834D01*
X5986958Y1490710D01*
X5972500Y1490000D01*
X5627500Y1490000D01*
X5613042Y1490710D01*
X5598724Y1492834D01*
X5584683Y1496351D01*
X5571054Y1501228D01*
X5557969Y1507417D01*
X5545553Y1514858D01*
X5533927Y1523481D01*
X5523202Y1533202D01*
X5513481Y1543927D01*
X5504858Y1555553D01*
X5497417Y1567969D01*
X5491228Y1581054D01*
X5486351Y1594683D01*
X5482834Y1608724D01*
X5480710Y1623042D01*
X5480000Y1637500D01*
X5480000Y1932500D01*
X5480710Y1946958D01*
X5482834Y1961276D01*
X5486351Y1975317D01*
X5491228Y1988946D01*
X5497417Y2002031D01*
X5504858Y2014447D01*
X5513481Y2026073D01*
X5523202Y2036798D01*
X5533927Y2046519D01*
X5545553Y2055142D01*
X5557969Y2062583D01*
X5571054Y2068772D01*
X5584683Y2073649D01*
X5598724Y2077166D01*
X5613042Y2079290D01*
X5627500Y2080000D01*
X5972500Y2080000D01*
X5986958Y2079290D01*
X5986958Y2079290D01*
G37*
D12*
G04 #@! TD*
G04 #@! TO.P,R3,2*
G04 #@! TO.N,Net-(J1-Pad6)*
X5800000Y1785000D03*
D11*
G04 #@! TO.N,VCC*
G04 #@! TO.C,R3*
G36*
X5986958Y1109290D02*
X6001276Y1107166D01*
X6015317Y1103649D01*
X6028946Y1098772D01*
X6042031Y1092583D01*
X6054447Y1085142D01*
X6066073Y1076519D01*
X6076798Y1066798D01*
X6086519Y1056073D01*
X6095142Y1044447D01*
X6102583Y1032031D01*
X6108772Y1018946D01*
X6113649Y1005317D01*
X6117166Y991276D01*
X6119290Y976958D01*
X6120000Y962500D01*
X6120000Y667500D01*
X6119290Y653042D01*
X6117166Y638724D01*
X6113649Y624683D01*
X6108772Y611054D01*
X6102583Y597969D01*
X6095142Y585553D01*
X6086519Y573927D01*
X6076798Y563202D01*
X6066073Y553481D01*
X6054447Y544858D01*
X6042031Y537417D01*
X6028946Y531228D01*
X6015317Y526351D01*
X6001276Y522834D01*
X5986958Y520710D01*
X5972500Y520000D01*
X5627500Y520000D01*
X5613042Y520710D01*
X5598724Y522834D01*
X5584683Y526351D01*
X5571054Y531228D01*
X5557969Y537417D01*
X5545553Y544858D01*
X5533927Y553481D01*
X5523202Y563202D01*
X5513481Y573927D01*
X5504858Y585553D01*
X5497417Y597969D01*
X5491228Y611054D01*
X5486351Y624683D01*
X5482834Y638724D01*
X5480710Y653042D01*
X5480000Y667500D01*
X5480000Y962500D01*
X5480710Y976958D01*
X5482834Y991276D01*
X5486351Y1005317D01*
X5491228Y1018946D01*
X5497417Y1032031D01*
X5504858Y1044447D01*
X5513481Y1056073D01*
X5523202Y1066798D01*
X5533927Y1076519D01*
X5545553Y1085142D01*
X5557969Y1092583D01*
X5571054Y1098772D01*
X5584683Y1103649D01*
X5598724Y1107166D01*
X5613042Y1109290D01*
X5627500Y1110000D01*
X5972500Y1110000D01*
X5986958Y1109290D01*
X5986958Y1109290D01*
G37*
D12*
G04 #@! TD*
G04 #@! TO.P,R3,1*
G04 #@! TO.N,VCC*
X5800000Y815000D03*
D11*
G04 #@! TO.N,Net-(Q5-Pad1)*
G04 #@! TO.C,R4*
G36*
X6246958Y4419290D02*
X6261276Y4417166D01*
X6275317Y4413649D01*
X6288946Y4408772D01*
X6302031Y4402583D01*
X6314447Y4395142D01*
X6326073Y4386519D01*
X6336798Y4376798D01*
X6346519Y4366073D01*
X6355142Y4354447D01*
X6362583Y4342031D01*
X6368772Y4328946D01*
X6373649Y4315317D01*
X6377166Y4301276D01*
X6379290Y4286958D01*
X6380000Y4272500D01*
X6380000Y3927500D01*
X6379290Y3913042D01*
X6377166Y3898724D01*
X6373649Y3884683D01*
X6368772Y3871054D01*
X6362583Y3857969D01*
X6355142Y3845553D01*
X6346519Y3833927D01*
X6336798Y3823202D01*
X6326073Y3813481D01*
X6314447Y3804858D01*
X6302031Y3797417D01*
X6288946Y3791228D01*
X6275317Y3786351D01*
X6261276Y3782834D01*
X6246958Y3780710D01*
X6232500Y3780000D01*
X5937500Y3780000D01*
X5923042Y3780710D01*
X5908724Y3782834D01*
X5894683Y3786351D01*
X5881054Y3791228D01*
X5867969Y3797417D01*
X5855553Y3804858D01*
X5843927Y3813481D01*
X5833202Y3823202D01*
X5823481Y3833927D01*
X5814858Y3845553D01*
X5807417Y3857969D01*
X5801228Y3871054D01*
X5796351Y3884683D01*
X5792834Y3898724D01*
X5790710Y3913042D01*
X5790000Y3927500D01*
X5790000Y4272500D01*
X5790710Y4286958D01*
X5792834Y4301276D01*
X5796351Y4315317D01*
X5801228Y4328946D01*
X5807417Y4342031D01*
X5814858Y4354447D01*
X5823481Y4366073D01*
X5833202Y4376798D01*
X5843927Y4386519D01*
X5855553Y4395142D01*
X5867969Y4402583D01*
X5881054Y4408772D01*
X5894683Y4413649D01*
X5908724Y4417166D01*
X5923042Y4419290D01*
X5937500Y4420000D01*
X6232500Y4420000D01*
X6246958Y4419290D01*
X6246958Y4419290D01*
G37*
D12*
G04 #@! TD*
G04 #@! TO.P,R4,2*
G04 #@! TO.N,Net-(Q5-Pad1)*
X6085000Y4100000D03*
D11*
G04 #@! TO.N,VCC*
G04 #@! TO.C,R4*
G36*
X5276958Y4419290D02*
X5291276Y4417166D01*
X5305317Y4413649D01*
X5318946Y4408772D01*
X5332031Y4402583D01*
X5344447Y4395142D01*
X5356073Y4386519D01*
X5366798Y4376798D01*
X5376519Y4366073D01*
X5385142Y4354447D01*
X5392583Y4342031D01*
X5398772Y4328946D01*
X5403649Y4315317D01*
X5407166Y4301276D01*
X5409290Y4286958D01*
X5410000Y4272500D01*
X5410000Y3927500D01*
X5409290Y3913042D01*
X5407166Y3898724D01*
X5403649Y3884683D01*
X5398772Y3871054D01*
X5392583Y3857969D01*
X5385142Y3845553D01*
X5376519Y3833927D01*
X5366798Y3823202D01*
X5356073Y3813481D01*
X5344447Y3804858D01*
X5332031Y3797417D01*
X5318946Y3791228D01*
X5305317Y3786351D01*
X5291276Y3782834D01*
X5276958Y3780710D01*
X5262500Y3780000D01*
X4967500Y3780000D01*
X4953042Y3780710D01*
X4938724Y3782834D01*
X4924683Y3786351D01*
X4911054Y3791228D01*
X4897969Y3797417D01*
X4885553Y3804858D01*
X4873927Y3813481D01*
X4863202Y3823202D01*
X4853481Y3833927D01*
X4844858Y3845553D01*
X4837417Y3857969D01*
X4831228Y3871054D01*
X4826351Y3884683D01*
X4822834Y3898724D01*
X4820710Y3913042D01*
X4820000Y3927500D01*
X4820000Y4272500D01*
X4820710Y4286958D01*
X4822834Y4301276D01*
X4826351Y4315317D01*
X4831228Y4328946D01*
X4837417Y4342031D01*
X4844858Y4354447D01*
X4853481Y4366073D01*
X4863202Y4376798D01*
X4873927Y4386519D01*
X4885553Y4395142D01*
X4897969Y4402583D01*
X4911054Y4408772D01*
X4924683Y4413649D01*
X4938724Y4417166D01*
X4953042Y4419290D01*
X4967500Y4420000D01*
X5262500Y4420000D01*
X5276958Y4419290D01*
X5276958Y4419290D01*
G37*
D12*
G04 #@! TD*
G04 #@! TO.P,R4,1*
G04 #@! TO.N,VCC*
X5115000Y4100000D03*
D11*
G04 #@! TO.N,Net-(Q6-Pad1)*
G04 #@! TO.C,R5*
G36*
X4591958Y8419290D02*
X4606276Y8417166D01*
X4620317Y8413649D01*
X4633946Y8408772D01*
X4647031Y8402583D01*
X4659447Y8395142D01*
X4671073Y8386519D01*
X4681798Y8376798D01*
X4691519Y8366073D01*
X4700142Y8354447D01*
X4707583Y8342031D01*
X4713772Y8328946D01*
X4718649Y8315317D01*
X4722166Y8301276D01*
X4724290Y8286958D01*
X4725000Y8272500D01*
X4725000Y7927500D01*
X4724290Y7913042D01*
X4722166Y7898724D01*
X4718649Y7884683D01*
X4713772Y7871054D01*
X4707583Y7857969D01*
X4700142Y7845553D01*
X4691519Y7833927D01*
X4681798Y7823202D01*
X4671073Y7813481D01*
X4659447Y7804858D01*
X4647031Y7797417D01*
X4633946Y7791228D01*
X4620317Y7786351D01*
X4606276Y7782834D01*
X4591958Y7780710D01*
X4577500Y7780000D01*
X4282500Y7780000D01*
X4268042Y7780710D01*
X4253724Y7782834D01*
X4239683Y7786351D01*
X4226054Y7791228D01*
X4212969Y7797417D01*
X4200553Y7804858D01*
X4188927Y7813481D01*
X4178202Y7823202D01*
X4168481Y7833927D01*
X4159858Y7845553D01*
X4152417Y7857969D01*
X4146228Y7871054D01*
X4141351Y7884683D01*
X4137834Y7898724D01*
X4135710Y7913042D01*
X4135000Y7927500D01*
X4135000Y8272500D01*
X4135710Y8286958D01*
X4137834Y8301276D01*
X4141351Y8315317D01*
X4146228Y8328946D01*
X4152417Y8342031D01*
X4159858Y8354447D01*
X4168481Y8366073D01*
X4178202Y8376798D01*
X4188927Y8386519D01*
X4200553Y8395142D01*
X4212969Y8402583D01*
X4226054Y8408772D01*
X4239683Y8413649D01*
X4253724Y8417166D01*
X4268042Y8419290D01*
X4282500Y8420000D01*
X4577500Y8420000D01*
X4591958Y8419290D01*
X4591958Y8419290D01*
G37*
D12*
G04 #@! TD*
G04 #@! TO.P,R5,2*
G04 #@! TO.N,Net-(Q6-Pad1)*
X4430000Y8100000D03*
D11*
G04 #@! TO.N,VCC*
G04 #@! TO.C,R5*
G36*
X5561958Y8419290D02*
X5576276Y8417166D01*
X5590317Y8413649D01*
X5603946Y8408772D01*
X5617031Y8402583D01*
X5629447Y8395142D01*
X5641073Y8386519D01*
X5651798Y8376798D01*
X5661519Y8366073D01*
X5670142Y8354447D01*
X5677583Y8342031D01*
X5683772Y8328946D01*
X5688649Y8315317D01*
X5692166Y8301276D01*
X5694290Y8286958D01*
X5695000Y8272500D01*
X5695000Y7927500D01*
X5694290Y7913042D01*
X5692166Y7898724D01*
X5688649Y7884683D01*
X5683772Y7871054D01*
X5677583Y7857969D01*
X5670142Y7845553D01*
X5661519Y7833927D01*
X5651798Y7823202D01*
X5641073Y7813481D01*
X5629447Y7804858D01*
X5617031Y7797417D01*
X5603946Y7791228D01*
X5590317Y7786351D01*
X5576276Y7782834D01*
X5561958Y7780710D01*
X5547500Y7780000D01*
X5252500Y7780000D01*
X5238042Y7780710D01*
X5223724Y7782834D01*
X5209683Y7786351D01*
X5196054Y7791228D01*
X5182969Y7797417D01*
X5170553Y7804858D01*
X5158927Y7813481D01*
X5148202Y7823202D01*
X5138481Y7833927D01*
X5129858Y7845553D01*
X5122417Y7857969D01*
X5116228Y7871054D01*
X5111351Y7884683D01*
X5107834Y7898724D01*
X5105710Y7913042D01*
X5105000Y7927500D01*
X5105000Y8272500D01*
X5105710Y8286958D01*
X5107834Y8301276D01*
X5111351Y8315317D01*
X5116228Y8328946D01*
X5122417Y8342031D01*
X5129858Y8354447D01*
X5138481Y8366073D01*
X5148202Y8376798D01*
X5158927Y8386519D01*
X5170553Y8395142D01*
X5182969Y8402583D01*
X5196054Y8408772D01*
X5209683Y8413649D01*
X5223724Y8417166D01*
X5238042Y8419290D01*
X5252500Y8420000D01*
X5547500Y8420000D01*
X5561958Y8419290D01*
X5561958Y8419290D01*
G37*
D12*
G04 #@! TD*
G04 #@! TO.P,R5,1*
G04 #@! TO.N,VCC*
X5400000Y8100000D03*
D11*
G04 #@! TO.N,/Q1*
G04 #@! TO.C,R6*
G36*
X3361958Y4619290D02*
X3376276Y4617166D01*
X3390317Y4613649D01*
X3403946Y4608772D01*
X3417031Y4602583D01*
X3429447Y4595142D01*
X3441073Y4586519D01*
X3451798Y4576798D01*
X3461519Y4566073D01*
X3470142Y4554447D01*
X3477583Y4542031D01*
X3483772Y4528946D01*
X3488649Y4515317D01*
X3492166Y4501276D01*
X3494290Y4486958D01*
X3495000Y4472500D01*
X3495000Y4127500D01*
X3494290Y4113042D01*
X3492166Y4098724D01*
X3488649Y4084683D01*
X3483772Y4071054D01*
X3477583Y4057969D01*
X3470142Y4045553D01*
X3461519Y4033927D01*
X3451798Y4023202D01*
X3441073Y4013481D01*
X3429447Y4004858D01*
X3417031Y3997417D01*
X3403946Y3991228D01*
X3390317Y3986351D01*
X3376276Y3982834D01*
X3361958Y3980710D01*
X3347500Y3980000D01*
X3052500Y3980000D01*
X3038042Y3980710D01*
X3023724Y3982834D01*
X3009683Y3986351D01*
X2996054Y3991228D01*
X2982969Y3997417D01*
X2970553Y4004858D01*
X2958927Y4013481D01*
X2948202Y4023202D01*
X2938481Y4033927D01*
X2929858Y4045553D01*
X2922417Y4057969D01*
X2916228Y4071054D01*
X2911351Y4084683D01*
X2907834Y4098724D01*
X2905710Y4113042D01*
X2905000Y4127500D01*
X2905000Y4472500D01*
X2905710Y4486958D01*
X2907834Y4501276D01*
X2911351Y4515317D01*
X2916228Y4528946D01*
X2922417Y4542031D01*
X2929858Y4554447D01*
X2938481Y4566073D01*
X2948202Y4576798D01*
X2958927Y4586519D01*
X2970553Y4595142D01*
X2982969Y4602583D01*
X2996054Y4608772D01*
X3009683Y4613649D01*
X3023724Y4617166D01*
X3038042Y4619290D01*
X3052500Y4620000D01*
X3347500Y4620000D01*
X3361958Y4619290D01*
X3361958Y4619290D01*
G37*
D12*
G04 #@! TD*
G04 #@! TO.P,R6,2*
G04 #@! TO.N,/Q1*
X3200000Y4300000D03*
D11*
G04 #@! TO.N,VCC*
G04 #@! TO.C,R6*
G36*
X2391958Y4619290D02*
X2406276Y4617166D01*
X2420317Y4613649D01*
X2433946Y4608772D01*
X2447031Y4602583D01*
X2459447Y4595142D01*
X2471073Y4586519D01*
X2481798Y4576798D01*
X2491519Y4566073D01*
X2500142Y4554447D01*
X2507583Y4542031D01*
X2513772Y4528946D01*
X2518649Y4515317D01*
X2522166Y4501276D01*
X2524290Y4486958D01*
X2525000Y4472500D01*
X2525000Y4127500D01*
X2524290Y4113042D01*
X2522166Y4098724D01*
X2518649Y4084683D01*
X2513772Y4071054D01*
X2507583Y4057969D01*
X2500142Y4045553D01*
X2491519Y4033927D01*
X2481798Y4023202D01*
X2471073Y4013481D01*
X2459447Y4004858D01*
X2447031Y3997417D01*
X2433946Y3991228D01*
X2420317Y3986351D01*
X2406276Y3982834D01*
X2391958Y3980710D01*
X2377500Y3980000D01*
X2082500Y3980000D01*
X2068042Y3980710D01*
X2053724Y3982834D01*
X2039683Y3986351D01*
X2026054Y3991228D01*
X2012969Y3997417D01*
X2000553Y4004858D01*
X1988927Y4013481D01*
X1978202Y4023202D01*
X1968481Y4033927D01*
X1959858Y4045553D01*
X1952417Y4057969D01*
X1946228Y4071054D01*
X1941351Y4084683D01*
X1937834Y4098724D01*
X1935710Y4113042D01*
X1935000Y4127500D01*
X1935000Y4472500D01*
X1935710Y4486958D01*
X1937834Y4501276D01*
X1941351Y4515317D01*
X1946228Y4528946D01*
X1952417Y4542031D01*
X1959858Y4554447D01*
X1968481Y4566073D01*
X1978202Y4576798D01*
X1988927Y4586519D01*
X2000553Y4595142D01*
X2012969Y4602583D01*
X2026054Y4608772D01*
X2039683Y4613649D01*
X2053724Y4617166D01*
X2068042Y4619290D01*
X2082500Y4620000D01*
X2377500Y4620000D01*
X2391958Y4619290D01*
X2391958Y4619290D01*
G37*
D12*
G04 #@! TD*
G04 #@! TO.P,R6,1*
G04 #@! TO.N,VCC*
X2230000Y4300000D03*
D13*
G04 #@! TO.N,*
X1000000Y11400000D03*
G04 #@! TO.N,GND*
X1000000Y1000000D03*
G04 #@! TO.N,*
X10400000Y1000000D03*
D14*
G04 #@! TO.N,/B*
X8600000Y5550012D03*
D15*
G04 #@! TO.N,/Q*
X10825000Y6400002D03*
D14*
X10600000Y8899998D03*
G04 #@! TO.N,Net-(J1-Pad6)*
X7923195Y1884943D03*
X7213449Y4943282D03*
G04 #@! TO.N,Net-(Q1-Pad1)*
X9246988Y8615490D03*
G04 #@! TO.N,Net-(Q1-Pad3)*
X9926857Y6592124D03*
G04 #@! TO.N,VCC*
X10600000Y4100000D03*
X1800000Y5500000D03*
X7344233Y8170687D03*
X1800000Y2300000D03*
G04 #@! TO.N,Net-(Q5-Pad1)*
X4129260Y2552529D03*
G04 #@! TO.N,Net-(Q6-Pad1)*
X3796989Y9160508D03*
G04 #@! TO.N,GND*
X4200000Y4700000D03*
X923490Y3100000D03*
X6399999Y8500001D03*
G04 #@! TO.N,Net-(Q6-Pad3)*
X1949998Y8100000D03*
G04 #@! TO.N,/Q1*
X3210628Y4347716D03*
G04 #@! TO.N,/B1*
X5800000Y6900000D03*
G04 #@! TD*
D16*
G04 #@! TO.N,/B*
X8400000Y6450000D02*
X8400000Y5750012D01*
X8400000Y5750012D02*
X8600000Y5550012D01*
G04 #@! TO.N,/Q*
X10825000Y8674998D02*
X10600000Y8899998D01*
X10825000Y6400002D02*
X10825000Y8674998D01*
G04 #@! TO.N,Net-(J1-Pad6)*
X5800000Y1785000D02*
X7823252Y1785000D01*
X7823252Y1785000D02*
X7923195Y1884943D01*
X7213449Y2594689D02*
X7213449Y4377597D01*
X7213449Y4377597D02*
X7213449Y4943282D01*
X7923195Y1884943D02*
X7213449Y2594689D01*
G04 #@! TO.N,Net-(Q1-Pad1)*
X9485000Y8377478D02*
X9246988Y8615490D01*
X9485000Y7700000D02*
X9485000Y8377478D01*
X8400000Y4550000D02*
X9003000Y4550000D01*
X9276502Y5874734D02*
X9150832Y6000404D01*
X9150832Y7365832D02*
X9485000Y7700000D01*
X9150832Y6000404D02*
X9150832Y7365832D01*
X9003000Y4550000D02*
X9276502Y4823502D01*
X9276502Y4823502D02*
X9276502Y5874734D01*
G04 #@! TO.N,Net-(Q1-Pad3)*
X10400000Y5500000D02*
X10350000Y5500000D01*
X9926857Y5923143D02*
X9926857Y6026439D01*
X10350000Y5500000D02*
X9926857Y5923143D01*
X9926857Y6026439D02*
X9926857Y6592124D01*
G04 #@! TO.N,VCC*
X10600000Y4100000D02*
X10800000Y4300000D01*
X7180605Y8900000D02*
X7344233Y8736372D01*
X7344233Y8736372D02*
X7344233Y8170687D01*
X6075278Y9176502D02*
X6724720Y9176502D01*
X5798776Y8900000D02*
X6075278Y9176502D01*
X5780000Y8900000D02*
X5798776Y8900000D01*
X5400000Y8520000D02*
X5780000Y8900000D01*
X5400000Y8100000D02*
X5400000Y8520000D01*
X6724720Y9176502D02*
X7000611Y8900611D01*
X7000000Y8900000D02*
X7000611Y8900611D01*
X7000611Y8900611D02*
X7180605Y8900000D01*
X5400000Y8100000D02*
X4800000Y7500000D01*
X4800000Y7500000D02*
X3600000Y7500000D01*
X3600000Y7500000D02*
X3400000Y7500000D01*
X2200000Y4330000D02*
X2230000Y4300000D01*
X1800000Y5500000D02*
X2200000Y5100000D01*
X2200000Y5100000D02*
X2200000Y4330000D01*
X3120000Y2500000D02*
X3000000Y2500000D01*
X3000000Y2500000D02*
X2000000Y2500000D01*
X4720000Y4100000D02*
X3120000Y2500000D01*
X2000000Y2500000D02*
X1800000Y2300000D01*
X5115000Y4100000D02*
X4720000Y4100000D01*
G04 #@! TO.N,Net-(Q5-Pad1)*
X6085000Y4100000D02*
X4537529Y2552529D01*
X4537529Y2552529D02*
X4129260Y2552529D01*
G04 #@! TO.N,Net-(Q6-Pad1)*
X3050000Y8450000D02*
X3760508Y9160508D01*
X3000000Y8450000D02*
X3050000Y8450000D01*
X3760508Y9160508D02*
X3796989Y9160508D01*
X3796989Y9160508D02*
X3796989Y8418011D01*
X4115000Y8100000D02*
X4430000Y8100000D01*
X3796989Y8418011D02*
X4115000Y8100000D01*
G04 #@! TO.N,GND*
X3165685Y3100000D02*
X1489175Y3100000D01*
X1489175Y3100000D02*
X923490Y3100000D01*
X4200000Y4134315D02*
X3165685Y3100000D01*
X4200000Y4700000D02*
X4200000Y4134315D01*
X4200000Y4700000D02*
X4765685Y4700000D01*
X6399999Y7934316D02*
X6399999Y8500001D01*
X6599999Y7734316D02*
X6399999Y7934316D01*
X4765685Y4700000D02*
X6599999Y6534314D01*
X6599999Y6534314D02*
X6599999Y7734316D01*
G04 #@! TO.N,Net-(Q6-Pad3)*
X1000000Y7500000D02*
X1349998Y7500000D01*
X1349998Y7500000D02*
X1949998Y8100000D01*
G04 #@! TO.N,/Q1*
X3210628Y4310628D02*
X3210628Y4347716D01*
X3200000Y4300000D02*
X3210628Y4310628D01*
G04 #@! TO.N,/B1*
X3000000Y6550000D02*
X5650000Y6550000D01*
X5450000Y6550000D02*
X5800000Y6900000D01*
G04 #@! TD*
D17*
G04 #@! TO.N,VCC*
G36*
X9783393Y4697775D02*
X9950000Y4664635D01*
X10850000Y4664635D01*
X10898001Y4674183D01*
X10898001Y1851219D01*
X10594337Y1977000D01*
X10205663Y1977000D01*
X9846574Y1828261D01*
X9571739Y1553426D01*
X9423000Y1194337D01*
X9423000Y805663D01*
X9548781Y502000D01*
X6755000Y502000D01*
X6755000Y529250D01*
X6596250Y688000D01*
X5927000Y688000D01*
X5927000Y668000D01*
X5673000Y668000D01*
X5673000Y688000D01*
X5003750Y688000D01*
X4845000Y529250D01*
X4845000Y502000D01*
X1851219Y502000D01*
X1977000Y805663D01*
X1977000Y1194337D01*
X1828261Y1553426D01*
X1553426Y1828261D01*
X1194337Y1977000D01*
X805663Y1977000D01*
X502000Y1851219D01*
X502000Y2379448D01*
X758989Y2273000D01*
X1087991Y2273000D01*
X1391948Y2398903D01*
X1589545Y2596500D01*
X3116100Y2596500D01*
X3165685Y2586637D01*
X3215270Y2596500D01*
X3215274Y2596500D01*
X3302260Y2613803D01*
X3302260Y2388028D01*
X3428163Y2084071D01*
X3660802Y1851432D01*
X3964759Y1725529D01*
X4293761Y1725529D01*
X4597718Y1851432D01*
X4830357Y2084071D01*
X4863899Y2165049D01*
X4900532Y2189526D01*
X4928625Y2231569D01*
X6041691Y3344635D01*
X6232500Y3344635D01*
X6455553Y3389003D01*
X6644648Y3515352D01*
X6709950Y3613083D01*
X6709949Y2644274D01*
X6700086Y2594689D01*
X6709949Y2545104D01*
X6709949Y2545101D01*
X6739163Y2398234D01*
X6812484Y2288500D01*
X6422165Y2288500D01*
X6384648Y2344648D01*
X6195553Y2470997D01*
X5972500Y2515365D01*
X5627500Y2515365D01*
X5404447Y2470997D01*
X5215352Y2344648D01*
X5089003Y2155553D01*
X5044635Y1932500D01*
X5044635Y1637500D01*
X5055393Y1583418D01*
X4941673Y1469698D01*
X4845000Y1236309D01*
X4845000Y1100750D01*
X5003750Y942000D01*
X5673000Y942000D01*
X5673000Y962000D01*
X5927000Y962000D01*
X5927000Y942000D01*
X6596250Y942000D01*
X6755000Y1100750D01*
X6755000Y1236309D01*
X6736281Y1281500D01*
X7357083Y1281500D01*
X7454737Y1183846D01*
X7758694Y1057943D01*
X8087696Y1057943D01*
X8391653Y1183846D01*
X8624292Y1416485D01*
X8750195Y1720442D01*
X8750195Y2049444D01*
X8624292Y2353401D01*
X8391653Y2586040D01*
X8087696Y2711943D01*
X7808250Y2711943D01*
X7716949Y2803244D01*
X7716949Y3792171D01*
X7783393Y3747775D01*
X7950000Y3714635D01*
X8850000Y3714635D01*
X9016607Y3747775D01*
X9157850Y3842150D01*
X9252225Y3983393D01*
X9281492Y4130529D01*
X9366003Y4186997D01*
X9394096Y4229041D01*
X9597462Y4432407D01*
X9639505Y4460499D01*
X9750788Y4627046D01*
X9767032Y4708707D01*
X9783393Y4697775D01*
X9783393Y4697775D01*
G37*
X9783393Y4697775D02*
X9950000Y4664635D01*
X10850000Y4664635D01*
X10898001Y4674183D01*
X10898001Y1851219D01*
X10594337Y1977000D01*
X10205663Y1977000D01*
X9846574Y1828261D01*
X9571739Y1553426D01*
X9423000Y1194337D01*
X9423000Y805663D01*
X9548781Y502000D01*
X6755000Y502000D01*
X6755000Y529250D01*
X6596250Y688000D01*
X5927000Y688000D01*
X5927000Y668000D01*
X5673000Y668000D01*
X5673000Y688000D01*
X5003750Y688000D01*
X4845000Y529250D01*
X4845000Y502000D01*
X1851219Y502000D01*
X1977000Y805663D01*
X1977000Y1194337D01*
X1828261Y1553426D01*
X1553426Y1828261D01*
X1194337Y1977000D01*
X805663Y1977000D01*
X502000Y1851219D01*
X502000Y2379448D01*
X758989Y2273000D01*
X1087991Y2273000D01*
X1391948Y2398903D01*
X1589545Y2596500D01*
X3116100Y2596500D01*
X3165685Y2586637D01*
X3215270Y2596500D01*
X3215274Y2596500D01*
X3302260Y2613803D01*
X3302260Y2388028D01*
X3428163Y2084071D01*
X3660802Y1851432D01*
X3964759Y1725529D01*
X4293761Y1725529D01*
X4597718Y1851432D01*
X4830357Y2084071D01*
X4863899Y2165049D01*
X4900532Y2189526D01*
X4928625Y2231569D01*
X6041691Y3344635D01*
X6232500Y3344635D01*
X6455553Y3389003D01*
X6644648Y3515352D01*
X6709950Y3613083D01*
X6709949Y2644274D01*
X6700086Y2594689D01*
X6709949Y2545104D01*
X6709949Y2545101D01*
X6739163Y2398234D01*
X6812484Y2288500D01*
X6422165Y2288500D01*
X6384648Y2344648D01*
X6195553Y2470997D01*
X5972500Y2515365D01*
X5627500Y2515365D01*
X5404447Y2470997D01*
X5215352Y2344648D01*
X5089003Y2155553D01*
X5044635Y1932500D01*
X5044635Y1637500D01*
X5055393Y1583418D01*
X4941673Y1469698D01*
X4845000Y1236309D01*
X4845000Y1100750D01*
X5003750Y942000D01*
X5673000Y942000D01*
X5673000Y962000D01*
X5927000Y962000D01*
X5927000Y942000D01*
X6596250Y942000D01*
X6755000Y1100750D01*
X6755000Y1236309D01*
X6736281Y1281500D01*
X7357083Y1281500D01*
X7454737Y1183846D01*
X7758694Y1057943D01*
X8087696Y1057943D01*
X8391653Y1183846D01*
X8624292Y1416485D01*
X8750195Y1720442D01*
X8750195Y2049444D01*
X8624292Y2353401D01*
X8391653Y2586040D01*
X8087696Y2711943D01*
X7808250Y2711943D01*
X7716949Y2803244D01*
X7716949Y3792171D01*
X7783393Y3747775D01*
X7950000Y3714635D01*
X8850000Y3714635D01*
X9016607Y3747775D01*
X9157850Y3842150D01*
X9252225Y3983393D01*
X9281492Y4130529D01*
X9366003Y4186997D01*
X9394096Y4229041D01*
X9597462Y4432407D01*
X9639505Y4460499D01*
X9750788Y4627046D01*
X9767032Y4708707D01*
X9783393Y4697775D01*
G36*
X3744003Y7704447D02*
X3870352Y7515352D01*
X4059447Y7389003D01*
X4282500Y7344635D01*
X4577500Y7344635D01*
X4631582Y7355393D01*
X4745302Y7241673D01*
X4978691Y7145000D01*
X5006344Y7145000D01*
X4973000Y7064501D01*
X4973000Y7053500D01*
X3864778Y7053500D01*
X3852225Y7116607D01*
X3757850Y7257850D01*
X3616607Y7352225D01*
X3450000Y7385365D01*
X2550000Y7385365D01*
X2383393Y7352225D01*
X2242150Y7257850D01*
X2147775Y7116607D01*
X2114635Y6950000D01*
X2114635Y6150000D01*
X2147775Y5983393D01*
X2242150Y5842150D01*
X2383393Y5747775D01*
X2550000Y5714635D01*
X3450000Y5714635D01*
X3616607Y5747775D01*
X3757850Y5842150D01*
X3852225Y5983393D01*
X3864778Y6046500D01*
X5400129Y6046500D01*
X4711592Y5357963D01*
X4668458Y5401097D01*
X4364501Y5527000D01*
X4035499Y5527000D01*
X3731542Y5401097D01*
X3498903Y5168458D01*
X3482989Y5130039D01*
X3375129Y5174716D01*
X3046127Y5174716D01*
X2920391Y5122634D01*
X2884698Y5158327D01*
X2651309Y5255000D01*
X2515750Y5255000D01*
X2357000Y5096250D01*
X2357000Y4427000D01*
X2377000Y4427000D01*
X2377000Y4173000D01*
X2357000Y4173000D01*
X2357000Y4153000D01*
X2103000Y4153000D01*
X2103000Y4173000D01*
X1458750Y4173000D01*
X1300000Y4014250D01*
X1300000Y3853690D01*
X1307253Y3836179D01*
X1087991Y3927000D01*
X758989Y3927000D01*
X502000Y3820552D01*
X502000Y4746310D01*
X1300000Y4746310D01*
X1300000Y4585750D01*
X1458750Y4427000D01*
X2103000Y4427000D01*
X2103000Y5096250D01*
X1944250Y5255000D01*
X1808691Y5255000D01*
X1575302Y5158327D01*
X1396673Y4979699D01*
X1300000Y4746310D01*
X502000Y4746310D01*
X502000Y6674183D01*
X550000Y6664635D01*
X1450000Y6664635D01*
X1616607Y6697775D01*
X1757850Y6792150D01*
X1852225Y6933393D01*
X1885365Y7100000D01*
X1885365Y7273000D01*
X2114499Y7273000D01*
X2418456Y7398903D01*
X2634188Y7614635D01*
X3450000Y7614635D01*
X3616607Y7647775D01*
X3739008Y7729560D01*
X3744003Y7704447D01*
X3744003Y7704447D01*
G37*
X3744003Y7704447D02*
X3870352Y7515352D01*
X4059447Y7389003D01*
X4282500Y7344635D01*
X4577500Y7344635D01*
X4631582Y7355393D01*
X4745302Y7241673D01*
X4978691Y7145000D01*
X5006344Y7145000D01*
X4973000Y7064501D01*
X4973000Y7053500D01*
X3864778Y7053500D01*
X3852225Y7116607D01*
X3757850Y7257850D01*
X3616607Y7352225D01*
X3450000Y7385365D01*
X2550000Y7385365D01*
X2383393Y7352225D01*
X2242150Y7257850D01*
X2147775Y7116607D01*
X2114635Y6950000D01*
X2114635Y6150000D01*
X2147775Y5983393D01*
X2242150Y5842150D01*
X2383393Y5747775D01*
X2550000Y5714635D01*
X3450000Y5714635D01*
X3616607Y5747775D01*
X3757850Y5842150D01*
X3852225Y5983393D01*
X3864778Y6046500D01*
X5400129Y6046500D01*
X4711592Y5357963D01*
X4668458Y5401097D01*
X4364501Y5527000D01*
X4035499Y5527000D01*
X3731542Y5401097D01*
X3498903Y5168458D01*
X3482989Y5130039D01*
X3375129Y5174716D01*
X3046127Y5174716D01*
X2920391Y5122634D01*
X2884698Y5158327D01*
X2651309Y5255000D01*
X2515750Y5255000D01*
X2357000Y5096250D01*
X2357000Y4427000D01*
X2377000Y4427000D01*
X2377000Y4173000D01*
X2357000Y4173000D01*
X2357000Y4153000D01*
X2103000Y4153000D01*
X2103000Y4173000D01*
X1458750Y4173000D01*
X1300000Y4014250D01*
X1300000Y3853690D01*
X1307253Y3836179D01*
X1087991Y3927000D01*
X758989Y3927000D01*
X502000Y3820552D01*
X502000Y4746310D01*
X1300000Y4746310D01*
X1300000Y4585750D01*
X1458750Y4427000D01*
X2103000Y4427000D01*
X2103000Y5096250D01*
X1944250Y5255000D01*
X1808691Y5255000D01*
X1575302Y5158327D01*
X1396673Y4979699D01*
X1300000Y4746310D01*
X502000Y4746310D01*
X502000Y6674183D01*
X550000Y6664635D01*
X1450000Y6664635D01*
X1616607Y6697775D01*
X1757850Y6792150D01*
X1852225Y6933393D01*
X1885365Y7100000D01*
X1885365Y7273000D01*
X2114499Y7273000D01*
X2418456Y7398903D01*
X2634188Y7614635D01*
X3450000Y7614635D01*
X3616607Y7647775D01*
X3739008Y7729560D01*
X3744003Y7704447D01*
G36*
X5242000Y4227000D02*
X5262000Y4227000D01*
X5262000Y3989056D01*
X5245944Y3973000D01*
X5242000Y3973000D01*
X5242000Y3969056D01*
X5225944Y3953000D01*
X4988000Y3953000D01*
X4988000Y3973000D01*
X4968000Y3973000D01*
X4968000Y4227000D01*
X4988000Y4227000D01*
X4988000Y4242992D01*
X4993998Y4247000D01*
X5242000Y4247000D01*
X5242000Y4227000D01*
X5242000Y4227000D01*
G37*
X5242000Y4227000D02*
X5262000Y4227000D01*
X5262000Y3989056D01*
X5245944Y3973000D01*
X5242000Y3973000D01*
X5242000Y3969056D01*
X5225944Y3953000D01*
X4988000Y3953000D01*
X4988000Y3973000D01*
X4968000Y3973000D01*
X4968000Y4227000D01*
X4988000Y4227000D01*
X4988000Y4242992D01*
X4993998Y4247000D01*
X5242000Y4247000D01*
X5242000Y4227000D01*
G36*
X10898000Y9671701D02*
X10764501Y9726998D01*
X10435499Y9726998D01*
X10131542Y9601095D01*
X9898903Y9368456D01*
X9829978Y9202055D01*
X9715446Y9316587D01*
X9411489Y9442490D01*
X9082487Y9442490D01*
X8778530Y9316587D01*
X8545891Y9083948D01*
X8419988Y8779991D01*
X8419988Y8655000D01*
X8387998Y8655000D01*
X8387998Y8496252D01*
X8229250Y8655000D01*
X8093691Y8655000D01*
X7860302Y8558327D01*
X7681673Y8379699D01*
X7585000Y8146310D01*
X7585000Y7985750D01*
X7743750Y7827000D01*
X8388000Y7827000D01*
X8388000Y7847000D01*
X8642000Y7847000D01*
X8642000Y7827000D01*
X8662000Y7827000D01*
X8662000Y7573000D01*
X8642000Y7573000D01*
X8642000Y7553000D01*
X8388000Y7553000D01*
X8388000Y7573000D01*
X7743750Y7573000D01*
X7585000Y7414250D01*
X7585000Y7253690D01*
X7631377Y7141727D01*
X7547775Y7016607D01*
X7514635Y6850000D01*
X7514635Y6050000D01*
X7547775Y5883393D01*
X7642150Y5742150D01*
X7773000Y5654719D01*
X7773000Y5553286D01*
X7681907Y5644379D01*
X7377950Y5770282D01*
X7048948Y5770282D01*
X6744991Y5644379D01*
X6512352Y5411740D01*
X6386449Y5107783D01*
X6386449Y4824743D01*
X6232500Y4855365D01*
X5937500Y4855365D01*
X5883418Y4844607D01*
X5769698Y4958327D01*
X5745918Y4968177D01*
X6920965Y6143223D01*
X6963002Y6171311D01*
X6997470Y6222895D01*
X7074285Y6337858D01*
X7084954Y6391496D01*
X7103499Y6484725D01*
X7103499Y6484729D01*
X7113362Y6534314D01*
X7103499Y6583899D01*
X7103499Y7684731D01*
X7113362Y7734316D01*
X7103499Y7783901D01*
X7103499Y7783905D01*
X7074285Y7930772D01*
X7044661Y7975108D01*
X7101096Y8031543D01*
X7226999Y8335500D01*
X7226999Y8664502D01*
X7101096Y8968459D01*
X6868457Y9201098D01*
X6564500Y9327001D01*
X6235498Y9327001D01*
X5931541Y9201098D01*
X5785443Y9055000D01*
X5685750Y9055000D01*
X5527000Y8896250D01*
X5527000Y8227000D01*
X5547000Y8227000D01*
X5547000Y7973000D01*
X5527000Y7973000D01*
X5527000Y7953000D01*
X5273000Y7953000D01*
X5273000Y7973000D01*
X5253000Y7973000D01*
X5253000Y8227000D01*
X5273000Y8227000D01*
X5273000Y8896250D01*
X5114250Y9055000D01*
X4978691Y9055000D01*
X4745302Y8958327D01*
X4631582Y8844607D01*
X4577500Y8855365D01*
X4565733Y8855365D01*
X4623989Y8996007D01*
X4623989Y9325009D01*
X4498086Y9628966D01*
X4265447Y9861605D01*
X3961490Y9987508D01*
X3632488Y9987508D01*
X3328531Y9861605D01*
X3095892Y9628966D01*
X2969989Y9325009D01*
X2969989Y9285365D01*
X2550000Y9285365D01*
X2383393Y9252225D01*
X2242150Y9157850D01*
X2147775Y9016607D01*
X2128775Y8921087D01*
X2114499Y8927000D01*
X1785497Y8927000D01*
X1481540Y8801097D01*
X1248901Y8568458D01*
X1152351Y8335365D01*
X550000Y8335365D01*
X502000Y8325817D01*
X502000Y10548781D01*
X805663Y10423000D01*
X1194337Y10423000D01*
X1553426Y10571739D01*
X1828261Y10846574D01*
X1977000Y11205663D01*
X1977000Y11594337D01*
X1851219Y11898000D01*
X10898000Y11898000D01*
X10898000Y9671701D01*
X10898000Y9671701D01*
G37*
X10898000Y9671701D02*
X10764501Y9726998D01*
X10435499Y9726998D01*
X10131542Y9601095D01*
X9898903Y9368456D01*
X9829978Y9202055D01*
X9715446Y9316587D01*
X9411489Y9442490D01*
X9082487Y9442490D01*
X8778530Y9316587D01*
X8545891Y9083948D01*
X8419988Y8779991D01*
X8419988Y8655000D01*
X8387998Y8655000D01*
X8387998Y8496252D01*
X8229250Y8655000D01*
X8093691Y8655000D01*
X7860302Y8558327D01*
X7681673Y8379699D01*
X7585000Y8146310D01*
X7585000Y7985750D01*
X7743750Y7827000D01*
X8388000Y7827000D01*
X8388000Y7847000D01*
X8642000Y7847000D01*
X8642000Y7827000D01*
X8662000Y7827000D01*
X8662000Y7573000D01*
X8642000Y7573000D01*
X8642000Y7553000D01*
X8388000Y7553000D01*
X8388000Y7573000D01*
X7743750Y7573000D01*
X7585000Y7414250D01*
X7585000Y7253690D01*
X7631377Y7141727D01*
X7547775Y7016607D01*
X7514635Y6850000D01*
X7514635Y6050000D01*
X7547775Y5883393D01*
X7642150Y5742150D01*
X7773000Y5654719D01*
X7773000Y5553286D01*
X7681907Y5644379D01*
X7377950Y5770282D01*
X7048948Y5770282D01*
X6744991Y5644379D01*
X6512352Y5411740D01*
X6386449Y5107783D01*
X6386449Y4824743D01*
X6232500Y4855365D01*
X5937500Y4855365D01*
X5883418Y4844607D01*
X5769698Y4958327D01*
X5745918Y4968177D01*
X6920965Y6143223D01*
X6963002Y6171311D01*
X6997470Y6222895D01*
X7074285Y6337858D01*
X7084954Y6391496D01*
X7103499Y6484725D01*
X7103499Y6484729D01*
X7113362Y6534314D01*
X7103499Y6583899D01*
X7103499Y7684731D01*
X7113362Y7734316D01*
X7103499Y7783901D01*
X7103499Y7783905D01*
X7074285Y7930772D01*
X7044661Y7975108D01*
X7101096Y8031543D01*
X7226999Y8335500D01*
X7226999Y8664502D01*
X7101096Y8968459D01*
X6868457Y9201098D01*
X6564500Y9327001D01*
X6235498Y9327001D01*
X5931541Y9201098D01*
X5785443Y9055000D01*
X5685750Y9055000D01*
X5527000Y8896250D01*
X5527000Y8227000D01*
X5547000Y8227000D01*
X5547000Y7973000D01*
X5527000Y7973000D01*
X5527000Y7953000D01*
X5273000Y7953000D01*
X5273000Y7973000D01*
X5253000Y7973000D01*
X5253000Y8227000D01*
X5273000Y8227000D01*
X5273000Y8896250D01*
X5114250Y9055000D01*
X4978691Y9055000D01*
X4745302Y8958327D01*
X4631582Y8844607D01*
X4577500Y8855365D01*
X4565733Y8855365D01*
X4623989Y8996007D01*
X4623989Y9325009D01*
X4498086Y9628966D01*
X4265447Y9861605D01*
X3961490Y9987508D01*
X3632488Y9987508D01*
X3328531Y9861605D01*
X3095892Y9628966D01*
X2969989Y9325009D01*
X2969989Y9285365D01*
X2550000Y9285365D01*
X2383393Y9252225D01*
X2242150Y9157850D01*
X2147775Y9016607D01*
X2128775Y8921087D01*
X2114499Y8927000D01*
X1785497Y8927000D01*
X1481540Y8801097D01*
X1248901Y8568458D01*
X1152351Y8335365D01*
X550000Y8335365D01*
X502000Y8325817D01*
X502000Y10548781D01*
X805663Y10423000D01*
X1194337Y10423000D01*
X1553426Y10571739D01*
X1828261Y10846574D01*
X1977000Y11205663D01*
X1977000Y11594337D01*
X1851219Y11898000D01*
X10898000Y11898000D01*
X10898000Y9671701D01*
G04 #@! TD*
M02*
