Ref,Val,Package,PosX,PosY,Rot,Side
"J1","DF37C-10DS-0-4V-51(MALE)","DF37C-10DP-0.4V-51",5.800000,6.500000,270.000000,top
"Q1","Q_NPN_BEC","SOT-23",9.400000,7.700000,0.000000,top
"Q3","Q_NPN_BEC","SOT-23",6.200000,10.500000,0.000000,top
"Q4","Q_NPN_BEC","SOT-23",7.575000,1.900000,270.000000,top
"Q5","Q_NPN_BEC","SOT-23",4.000000,1.900000,270.000000,top
"Q6","Q_NPN_BEC","SOT-23",2.000000,9.100000,180.000000,top
"Q8","Q_NPN_BEC","SOT-23",2.000000,5.500000,0.000000,top
"R2","1K","R_0402_1005Metric",9.600000,4.900000,90.000000,top
