Ref,Val,Package,PosX,PosY,Rot,Side
"Q2","Q_NPN_BEC","SOT-23",9.400000,5.500000,0.000000,bottom
"Q7","Q_NPN_BEC","SOT-23",2.000000,7.500000,180.000000,bottom
"R1","4.7K","R_0402_1005Metric",9.000000,7.700000,0.000000,bottom
"R3","1K","R_0402_1005Metric",5.800000,1.300000,90.000000,bottom
"R4","4.7K","R_0402_1005Metric",5.600000,4.100000,0.000000,bottom
"R5","4.7K","R_0402_1005Metric",4.915000,8.100000,180.000000,bottom
"R6","1K","R_0402_1005Metric",2.715000,4.300000,0.000000,bottom
