(module Potentiometer_Bourns_3306P_Vertical (layer F.Cu) (tedit 5C130A10)
  (descr "Potentiometer, vertical, Bourns 3386P, https://www.bourns.com/pdfs/3386.pdf")
  (tags "Potentiometer vertical Bourns 3386P")
  (fp_text reference REF** (at -0.015 -8.555) (layer F.SilkS)
    (effects (font (size 1 1) (thickness 0.15)))
  )
  (fp_text value Potentiometer_Bourns_3306P_Vertical (at -0.015 3.475) (layer F.Fab)
    (effects (font (size 1 1) (thickness 0.15)))
  )
  (fp_circle (center -0.891 -2.54) (end 0.684 -2.54) (layer F.Fab) (width 0.1))
  (fp_line (start -4.78 -7.305) (end -4.78 2.225) (layer F.Fab) (width 0.1))
  (fp_line (start -4.78 2.225) (end 4.75 2.225) (layer F.Fab) (width 0.1))
  (fp_line (start 4.75 2.225) (end 4.75 -7.305) (layer F.Fab) (width 0.1))
  (fp_line (start 4.75 -7.305) (end -4.78 -7.305) (layer F.Fab) (width 0.1))
  (fp_line (start -0.891 -0.98) (end -0.89 -4.099) (layer F.Fab) (width 0.1))
  (fp_line (start -0.891 -0.98) (end -0.89 -4.099) (layer F.Fab) (width 0.1))
  (fp_line (start -4.9 -7.425) (end 4.87 -7.425) (layer F.SilkS) (width 0.12))
  (fp_line (start -4.9 2.345) (end 4.87 2.345) (layer F.SilkS) (width 0.12))
  (fp_line (start -4.9 -7.425) (end -4.9 2.345) (layer F.SilkS) (width 0.12))
  (fp_line (start 4.87 -7.425) (end 4.87 2.345) (layer F.SilkS) (width 0.12))
  (fp_line (start -5.03 -7.56) (end -5.03 2.48) (layer F.CrtYd) (width 0.05))
  (fp_line (start -5.03 2.48) (end 5 2.48) (layer F.CrtYd) (width 0.05))
  (fp_line (start 5 2.48) (end 5 -7.56) (layer F.CrtYd) (width 0.05))
  (fp_line (start 5 -7.56) (end -5.03 -7.56) (layer F.CrtYd) (width 0.05))
  (fp_text user %R (at -3.78 -2.54 90) (layer F.Fab)
    (effects (font (size 1 1) (thickness 0.15)))
  )
  (pad 3 thru_hole circle (at 0 -5.08) (size 1.44 1.44) (drill 0.99) (layers *.Cu *.Mask))
  (pad 2 thru_hole circle (at 2.54 -2.54) (size 1.44 1.44) (drill 0.99) (layers *.Cu *.Mask))
  (pad 1 thru_hole circle (at 0 0) (size 1.44 1.44) (drill 0.99) (layers *.Cu *.Mask))
  (model ${KISYS3DMOD}/Potentiometer_THT.3dshapes/Potentiometer_Bourns_3386P_Vertical.wrl
    (at (xyz 0 0 0))
    (scale (xyz 1 1 1))
    (rotate (xyz 0 0 0))
  )
)
