(module SST39VF200A-70-4C-EKE (layer F.Cu)
  (fp_text reference REF** (at 0 0) (layer F.SilkS)
    (effects (font (size 1 1) (thickness .15)))
  )
  (fp_text value TSOP48_EKE_SST (at 0 0) (layer F.SilkS)
    (effects (font (size 1 1) (thickness .15)))
  )
  (fp_text user "Copyright 2016 Accelerated Designs. All rights reserved." (at 0 0) (layer Cmts.User)
    (effects (font (size .127 .127) (thickness .002)))
  )
  (fp_text user "*" (at -9.9949 -7.1724) (layer F.SilkS)
    (effects (font (size 1 1) (thickness .15)))
  )
  (fp_text user "*" (at -8.8646 -6.0198) (layer F.Fab)
    (effects (font (size 1 1) (thickness .15)))
  )
  (fp_line (start -9.2456 -5.6103) (end -9.2456 -5.8897) (layer F.Fab) (width .1524))
  (fp_line (start -9.2456 -5.8897) (end -10.0965 -5.8897) (layer F.Fab) (width .1524))
  (fp_line (start -10.0965 -5.8897) (end -10.0965 -5.6103) (layer F.Fab) (width .1524))
  (fp_line (start -10.0965 -5.6103) (end -9.2456 -5.6103) (layer F.Fab) (width .1524))
  (fp_line (start -9.2456 -5.1103) (end -9.2456 -5.3897) (layer F.Fab) (width .1524))
  (fp_line (start -9.2456 -5.3897) (end -10.0965 -5.3897) (layer F.Fab) (width .1524))
  (fp_line (start -10.0965 -5.3897) (end -10.0965 -5.1103) (layer F.Fab) (width .1524))
  (fp_line (start -10.0965 -5.1103) (end -9.2456 -5.1103) (layer F.Fab) (width .1524))
  (fp_line (start -9.2456 -4.6103) (end -9.2456 -4.8897) (layer F.Fab) (width .1524))
  (fp_line (start -9.2456 -4.8897) (end -10.0965 -4.8897) (layer F.Fab) (width .1524))
  (fp_line (start -10.0965 -4.8897) (end -10.0965 -4.6103) (layer F.Fab) (width .1524))
  (fp_line (start -10.0965 -4.6103) (end -9.2456 -4.6103) (layer F.Fab) (width .1524))
  (fp_line (start -9.2456 -4.1103) (end -9.2456 -4.3897) (layer F.Fab) (width .1524))
  (fp_line (start -9.2456 -4.3897) (end -10.0965 -4.3897) (layer F.Fab) (width .1524))
  (fp_line (start -10.0965 -4.3897) (end -10.0965 -4.1103) (layer F.Fab) (width .1524))
  (fp_line (start -10.0965 -4.1103) (end -9.2456 -4.1103) (layer F.Fab) (width .1524))
  (fp_line (start -9.2456 -3.6103) (end -9.2456 -3.8897) (layer F.Fab) (width .1524))
  (fp_line (start -9.2456 -3.8897) (end -10.0965 -3.8897) (layer F.Fab) (width .1524))
  (fp_line (start -10.0965 -3.8897) (end -10.0965 -3.6103) (layer F.Fab) (width .1524))
  (fp_line (start -10.0965 -3.6103) (end -9.2456 -3.6103) (layer F.Fab) (width .1524))
  (fp_line (start -9.2456 -3.1103) (end -9.2456 -3.3897) (layer F.Fab) (width .1524))
  (fp_line (start -9.2456 -3.3897) (end -10.0965 -3.3897) (layer F.Fab) (width .1524))
  (fp_line (start -10.0965 -3.3897) (end -10.0965 -3.1103) (layer F.Fab) (width .1524))
  (fp_line (start -10.0965 -3.1103) (end -9.2456 -3.1103) (layer F.Fab) (width .1524))
  (fp_line (start -9.2456 -2.6103) (end -9.2456 -2.8897) (layer F.Fab) (width .1524))
  (fp_line (start -9.2456 -2.8897) (end -10.0965 -2.8897) (layer F.Fab) (width .1524))
  (fp_line (start -10.0965 -2.8897) (end -10.0965 -2.6103) (layer F.Fab) (width .1524))
  (fp_line (start -10.0965 -2.6103) (end -9.2456 -2.6103) (layer F.Fab) (width .1524))
  (fp_line (start -9.2456 -2.1103) (end -9.2456 -2.3897) (layer F.Fab) (width .1524))
  (fp_line (start -9.2456 -2.3897) (end -10.0965 -2.3897) (layer F.Fab) (width .1524))
  (fp_line (start -10.0965 -2.3897) (end -10.0965 -2.1103) (layer F.Fab) (width .1524))
  (fp_line (start -10.0965 -2.1103) (end -9.2456 -2.1103) (layer F.Fab) (width .1524))
  (fp_line (start -9.2456 -1.6103) (end -9.2456 -1.8897) (layer F.Fab) (width .1524))
  (fp_line (start -9.2456 -1.8897) (end -10.0965 -1.8897) (layer F.Fab) (width .1524))
  (fp_line (start -10.0965 -1.8897) (end -10.0965 -1.6103) (layer F.Fab) (width .1524))
  (fp_line (start -10.0965 -1.6103) (end -9.2456 -1.6103) (layer F.Fab) (width .1524))
  (fp_line (start -9.2456 -1.1103) (end -9.2456 -1.3897) (layer F.Fab) (width .1524))
  (fp_line (start -9.2456 -1.3897) (end -10.0965 -1.3897) (layer F.Fab) (width .1524))
  (fp_line (start -10.0965 -1.3897) (end -10.0965 -1.1103) (layer F.Fab) (width .1524))
  (fp_line (start -10.0965 -1.1103) (end -9.2456 -1.1103) (layer F.Fab) (width .1524))
  (fp_line (start -9.2456 -.6103) (end -9.2456 -.8897) (layer F.Fab) (width .1524))
  (fp_line (start -9.2456 -.8897) (end -10.0965 -.8897) (layer F.Fab) (width .1524))
  (fp_line (start -10.0965 -.8897) (end -10.0965 -.6103) (layer F.Fab) (width .1524))
  (fp_line (start -10.0965 -.6103) (end -9.2456 -.6103) (layer F.Fab) (width .1524))
  (fp_line (start -9.2456 -.1103) (end -9.2456 -.3897) (layer F.Fab) (width .1524))
  (fp_line (start -9.2456 -.3897) (end -10.0965 -.3897) (layer F.Fab) (width .1524))
  (fp_line (start -10.0965 -.3897) (end -10.0965 -.1103) (layer F.Fab) (width .1524))
  (fp_line (start -10.0965 -.1103) (end -9.2456 -.1103) (layer F.Fab) (width .1524))
  (fp_line (start -9.2456 .3897) (end -9.2456 .1103) (layer F.Fab) (width .1524))
  (fp_line (start -9.2456 .1103) (end -10.0965 .1103) (layer F.Fab) (width .1524))
  (fp_line (start -10.0965 .1103) (end -10.0965 .3897) (layer F.Fab) (width .1524))
  (fp_line (start -10.0965 .3897) (end -9.2456 .3897) (layer F.Fab) (width .1524))
  (fp_line (start -9.2456 .8897) (end -9.2456 .6103) (layer F.Fab) (width .1524))
  (fp_line (start -9.2456 .6103) (end -10.0965 .6103) (layer F.Fab) (width .1524))
  (fp_line (start -10.0965 .6103) (end -10.0965 .8897) (layer F.Fab) (width .1524))
  (fp_line (start -10.0965 .8897) (end -9.2456 .8897) (layer F.Fab) (width .1524))
  (fp_line (start -9.2456 1.3897) (end -9.2456 1.1103) (layer F.Fab) (width .1524))
  (fp_line (start -9.2456 1.1103) (end -10.0965 1.1103) (layer F.Fab) (width .1524))
  (fp_line (start -10.0965 1.1103) (end -10.0965 1.3897) (layer F.Fab) (width .1524))
  (fp_line (start -10.0965 1.3897) (end -9.2456 1.3897) (layer F.Fab) (width .1524))
  (fp_line (start -9.2456 1.8897) (end -9.2456 1.6103) (layer F.Fab) (width .1524))
  (fp_line (start -9.2456 1.6103) (end -10.0965 1.6103) (layer F.Fab) (width .1524))
  (fp_line (start -10.0965 1.6103) (end -10.0965 1.8897) (layer F.Fab) (width .1524))
  (fp_line (start -10.0965 1.8897) (end -9.2456 1.8897) (layer F.Fab) (width .1524))
  (fp_line (start -9.2456 2.3897) (end -9.2456 2.1103) (layer F.Fab) (width .1524))
  (fp_line (start -9.2456 2.1103) (end -10.0965 2.1103) (layer F.Fab) (width .1524))
  (fp_line (start -10.0965 2.1103) (end -10.0965 2.3897) (layer F.Fab) (width .1524))
  (fp_line (start -10.0965 2.3897) (end -9.2456 2.3897) (layer F.Fab) (width .1524))
  (fp_line (start -9.2456 2.8897) (end -9.2456 2.6103) (layer F.Fab) (width .1524))
  (fp_line (start -9.2456 2.6103) (end -10.0965 2.6103) (layer F.Fab) (width .1524))
  (fp_line (start -10.0965 2.6103) (end -10.0965 2.8897) (layer F.Fab) (width .1524))
  (fp_line (start -10.0965 2.8897) (end -9.2456 2.8897) (layer F.Fab) (width .1524))
  (fp_line (start -9.2456 3.3897) (end -9.2456 3.1103) (layer F.Fab) (width .1524))
  (fp_line (start -9.2456 3.1103) (end -10.0965 3.1103) (layer F.Fab) (width .1524))
  (fp_line (start -10.0965 3.1103) (end -10.0965 3.3897) (layer F.Fab) (width .1524))
  (fp_line (start -10.0965 3.3897) (end -9.2456 3.3897) (layer F.Fab) (width .1524))
  (fp_line (start -9.2456 3.8897) (end -9.2456 3.6103) (layer F.Fab) (width .1524))
  (fp_line (start -9.2456 3.6103) (end -10.0965 3.6103) (layer F.Fab) (width .1524))
  (fp_line (start -10.0965 3.6103) (end -10.0965 3.8897) (layer F.Fab) (width .1524))
  (fp_line (start -10.0965 3.8897) (end -9.2456 3.8897) (layer F.Fab) (width .1524))
  (fp_line (start -9.2456 4.3897) (end -9.2456 4.1103) (layer F.Fab) (width .1524))
  (fp_line (start -9.2456 4.1103) (end -10.0965 4.1103) (layer F.Fab) (width .1524))
  (fp_line (start -10.0965 4.1103) (end -10.0965 4.3897) (layer F.Fab) (width .1524))
  (fp_line (start -10.0965 4.3897) (end -9.2456 4.3897) (layer F.Fab) (width .1524))
  (fp_line (start -9.2456 4.8897) (end -9.2456 4.6103) (layer F.Fab) (width .1524))
  (fp_line (start -9.2456 4.6103) (end -10.0965 4.6103) (layer F.Fab) (width .1524))
  (fp_line (start -10.0965 4.6103) (end -10.0965 4.8897) (layer F.Fab) (width .1524))
  (fp_line (start -10.0965 4.8897) (end -9.2456 4.8897) (layer F.Fab) (width .1524))
  (fp_line (start -9.2456 5.3897) (end -9.2456 5.1103) (layer F.Fab) (width .1524))
  (fp_line (start -9.2456 5.1103) (end -10.0965 5.1103) (layer F.Fab) (width .1524))
  (fp_line (start -10.0965 5.1103) (end -10.0965 5.3897) (layer F.Fab) (width .1524))
  (fp_line (start -10.0965 5.3897) (end -9.2456 5.3897) (layer F.Fab) (width .1524))
  (fp_line (start -9.2456 5.8897) (end -9.2456 5.6103) (layer F.Fab) (width .1524))
  (fp_line (start -9.2456 5.6103) (end -10.0965 5.6103) (layer F.Fab) (width .1524))
  (fp_line (start -10.0965 5.6103) (end -10.0965 5.8897) (layer F.Fab) (width .1524))
  (fp_line (start -10.0965 5.8897) (end -9.2456 5.8897) (layer F.Fab) (width .1524))
  (fp_line (start 9.2456 5.6103) (end 9.2456 5.8897) (layer F.Fab) (width .1524))
  (fp_line (start 9.2456 5.8897) (end 10.0965 5.8897) (layer F.Fab) (width .1524))
  (fp_line (start 10.0965 5.8897) (end 10.0965 5.6103) (layer F.Fab) (width .1524))
  (fp_line (start 10.0965 5.6103) (end 9.2456 5.6103) (layer F.Fab) (width .1524))
  (fp_line (start 9.2456 5.1103) (end 9.2456 5.3897) (layer F.Fab) (width .1524))
  (fp_line (start 9.2456 5.3897) (end 10.0965 5.3897) (layer F.Fab) (width .1524))
  (fp_line (start 10.0965 5.3897) (end 10.0965 5.1103) (layer F.Fab) (width .1524))
  (fp_line (start 10.0965 5.1103) (end 9.2456 5.1103) (layer F.Fab) (width .1524))
  (fp_line (start 9.2456 4.6103) (end 9.2456 4.8897) (layer F.Fab) (width .1524))
  (fp_line (start 9.2456 4.8897) (end 10.0965 4.8897) (layer F.Fab) (width .1524))
  (fp_line (start 10.0965 4.8897) (end 10.0965 4.6103) (layer F.Fab) (width .1524))
  (fp_line (start 10.0965 4.6103) (end 9.2456 4.6103) (layer F.Fab) (width .1524))
  (fp_line (start 9.2456 4.1103) (end 9.2456 4.3897) (layer F.Fab) (width .1524))
  (fp_line (start 9.2456 4.3897) (end 10.0965 4.3897) (layer F.Fab) (width .1524))
  (fp_line (start 10.0965 4.3897) (end 10.0965 4.1103) (layer F.Fab) (width .1524))
  (fp_line (start 10.0965 4.1103) (end 9.2456 4.1103) (layer F.Fab) (width .1524))
  (fp_line (start 9.2456 3.6103) (end 9.2456 3.8897) (layer F.Fab) (width .1524))
  (fp_line (start 9.2456 3.8897) (end 10.0965 3.8897) (layer F.Fab) (width .1524))
  (fp_line (start 10.0965 3.8897) (end 10.0965 3.6103) (layer F.Fab) (width .1524))
  (fp_line (start 10.0965 3.6103) (end 9.2456 3.6103) (layer F.Fab) (width .1524))
  (fp_line (start 9.2456 3.1103) (end 9.2456 3.3897) (layer F.Fab) (width .1524))
  (fp_line (start 9.2456 3.3897) (end 10.0965 3.3897) (layer F.Fab) (width .1524))
  (fp_line (start 10.0965 3.3897) (end 10.0965 3.1103) (layer F.Fab) (width .1524))
  (fp_line (start 10.0965 3.1103) (end 9.2456 3.1103) (layer F.Fab) (width .1524))
  (fp_line (start 9.2456 2.6103) (end 9.2456 2.8897) (layer F.Fab) (width .1524))
  (fp_line (start 9.2456 2.8897) (end 10.0965 2.8897) (layer F.Fab) (width .1524))
  (fp_line (start 10.0965 2.8897) (end 10.0965 2.6103) (layer F.Fab) (width .1524))
  (fp_line (start 10.0965 2.6103) (end 9.2456 2.6103) (layer F.Fab) (width .1524))
  (fp_line (start 9.2456 2.1103) (end 9.2456 2.3897) (layer F.Fab) (width .1524))
  (fp_line (start 9.2456 2.3897) (end 10.0965 2.3897) (layer F.Fab) (width .1524))
  (fp_line (start 10.0965 2.3897) (end 10.0965 2.1103) (layer F.Fab) (width .1524))
  (fp_line (start 10.0965 2.1103) (end 9.2456 2.1103) (layer F.Fab) (width .1524))
  (fp_line (start 9.2456 1.6103) (end 9.2456 1.8897) (layer F.Fab) (width .1524))
  (fp_line (start 9.2456 1.8897) (end 10.0965 1.8897) (layer F.Fab) (width .1524))
  (fp_line (start 10.0965 1.8897) (end 10.0965 1.6103) (layer F.Fab) (width .1524))
  (fp_line (start 10.0965 1.6103) (end 9.2456 1.6103) (layer F.Fab) (width .1524))
  (fp_line (start 9.2456 1.1103) (end 9.2456 1.3897) (layer F.Fab) (width .1524))
  (fp_line (start 9.2456 1.3897) (end 10.0965 1.3897) (layer F.Fab) (width .1524))
  (fp_line (start 10.0965 1.3897) (end 10.0965 1.1103) (layer F.Fab) (width .1524))
  (fp_line (start 10.0965 1.1103) (end 9.2456 1.1103) (layer F.Fab) (width .1524))
  (fp_line (start 9.2456 .6103) (end 9.2456 .8897) (layer F.Fab) (width .1524))
  (fp_line (start 9.2456 .8897) (end 10.0965 .8897) (layer F.Fab) (width .1524))
  (fp_line (start 10.0965 .8897) (end 10.0965 .6103) (layer F.Fab) (width .1524))
  (fp_line (start 10.0965 .6103) (end 9.2456 .6103) (layer F.Fab) (width .1524))
  (fp_line (start 9.2456 .1103) (end 9.2456 .3897) (layer F.Fab) (width .1524))
  (fp_line (start 9.2456 .3897) (end 10.0965 .3897) (layer F.Fab) (width .1524))
  (fp_line (start 10.0965 .3897) (end 10.0965 .1103) (layer F.Fab) (width .1524))
  (fp_line (start 10.0965 .1103) (end 9.2456 .1103) (layer F.Fab) (width .1524))
  (fp_line (start 9.2456 -.3897) (end 9.2456 -.1103) (layer F.Fab) (width .1524))
  (fp_line (start 9.2456 -.1103) (end 10.0965 -.1103) (layer F.Fab) (width .1524))
  (fp_line (start 10.0965 -.1103) (end 10.0965 -.3897) (layer F.Fab) (width .1524))
  (fp_line (start 10.0965 -.3897) (end 9.2456 -.3897) (layer F.Fab) (width .1524))
  (fp_line (start 9.2456 -.8897) (end 9.2456 -.6103) (layer F.Fab) (width .1524))
  (fp_line (start 9.2456 -.6103) (end 10.0965 -.6103) (layer F.Fab) (width .1524))
  (fp_line (start 10.0965 -.6103) (end 10.0965 -.8897) (layer F.Fab) (width .1524))
  (fp_line (start 10.0965 -.8897) (end 9.2456 -.8897) (layer F.Fab) (width .1524))
  (fp_line (start 9.2456 -1.3897) (end 9.2456 -1.1103) (layer F.Fab) (width .1524))
  (fp_line (start 9.2456 -1.1103) (end 10.0965 -1.1103) (layer F.Fab) (width .1524))
  (fp_line (start 10.0965 -1.1103) (end 10.0965 -1.3897) (layer F.Fab) (width .1524))
  (fp_line (start 10.0965 -1.3897) (end 9.2456 -1.3897) (layer F.Fab) (width .1524))
  (fp_line (start 9.2456 -1.8897) (end 9.2456 -1.6103) (layer F.Fab) (width .1524))
  (fp_line (start 9.2456 -1.6103) (end 10.0965 -1.6103) (layer F.Fab) (width .1524))
  (fp_line (start 10.0965 -1.6103) (end 10.0965 -1.8897) (layer F.Fab) (width .1524))
  (fp_line (start 10.0965 -1.8897) (end 9.2456 -1.8897) (layer F.Fab) (width .1524))
  (fp_line (start 9.2456 -2.3897) (end 9.2456 -2.1103) (layer F.Fab) (width .1524))
  (fp_line (start 9.2456 -2.1103) (end 10.0965 -2.1103) (layer F.Fab) (width .1524))
  (fp_line (start 10.0965 -2.1103) (end 10.0965 -2.3897) (layer F.Fab) (width .1524))
  (fp_line (start 10.0965 -2.3897) (end 9.2456 -2.3897) (layer F.Fab) (width .1524))
  (fp_line (start 9.2456 -2.8897) (end 9.2456 -2.6103) (layer F.Fab) (width .1524))
  (fp_line (start 9.2456 -2.6103) (end 10.0965 -2.6103) (layer F.Fab) (width .1524))
  (fp_line (start 10.0965 -2.6103) (end 10.0965 -2.8897) (layer F.Fab) (width .1524))
  (fp_line (start 10.0965 -2.8897) (end 9.2456 -2.8897) (layer F.Fab) (width .1524))
  (fp_line (start 9.2456 -3.3897) (end 9.2456 -3.1103) (layer F.Fab) (width .1524))
  (fp_line (start 9.2456 -3.1103) (end 10.0965 -3.1103) (layer F.Fab) (width .1524))
  (fp_line (start 10.0965 -3.1103) (end 10.0965 -3.3897) (layer F.Fab) (width .1524))
  (fp_line (start 10.0965 -3.3897) (end 9.2456 -3.3897) (layer F.Fab) (width .1524))
  (fp_line (start 9.2456 -3.8897) (end 9.2456 -3.6103) (layer F.Fab) (width .1524))
  (fp_line (start 9.2456 -3.6103) (end 10.0965 -3.6103) (layer F.Fab) (width .1524))
  (fp_line (start 10.0965 -3.6103) (end 10.0965 -3.8897) (layer F.Fab) (width .1524))
  (fp_line (start 10.0965 -3.8897) (end 9.2456 -3.8897) (layer F.Fab) (width .1524))
  (fp_line (start 9.2456 -4.3897) (end 9.2456 -4.1103) (layer F.Fab) (width .1524))
  (fp_line (start 9.2456 -4.1103) (end 10.0965 -4.1103) (layer F.Fab) (width .1524))
  (fp_line (start 10.0965 -4.1103) (end 10.0965 -4.3897) (layer F.Fab) (width .1524))
  (fp_line (start 10.0965 -4.3897) (end 9.2456 -4.3897) (layer F.Fab) (width .1524))
  (fp_line (start 9.2456 -4.8897) (end 9.2456 -4.6103) (layer F.Fab) (width .1524))
  (fp_line (start 9.2456 -4.6103) (end 10.0965 -4.6103) (layer F.Fab) (width .1524))
  (fp_line (start 10.0965 -4.6103) (end 10.0965 -4.8897) (layer F.Fab) (width .1524))
  (fp_line (start 10.0965 -4.8897) (end 9.2456 -4.8897) (layer F.Fab) (width .1524))
  (fp_line (start 9.2456 -5.3897) (end 9.2456 -5.1103) (layer F.Fab) (width .1524))
  (fp_line (start 9.2456 -5.1103) (end 10.0965 -5.1103) (layer F.Fab) (width .1524))
  (fp_line (start 10.0965 -5.1103) (end 10.0965 -5.3897) (layer F.Fab) (width .1524))
  (fp_line (start 10.0965 -5.3897) (end 9.2456 -5.3897) (layer F.Fab) (width .1524))
  (fp_line (start 9.2456 -5.8897) (end 9.2456 -5.6103) (layer F.Fab) (width .1524))
  (fp_line (start 9.2456 -5.6103) (end 10.0965 -5.6103) (layer F.Fab) (width .1524))
  (fp_line (start 10.0965 -5.6103) (end 10.0965 -5.8897) (layer F.Fab) (width .1524))
  (fp_line (start 10.0965 -5.8897) (end 9.2456 -5.8897) (layer F.Fab) (width .1524))
  (fp_line (start -9.3726 6.223) (end 9.3726 6.223) (layer F.SilkS) (width .1524))
  (fp_line (start 9.3726 -6.223) (end -9.3726 -6.223) (layer F.SilkS) (width .1524))
  (fp_line (start -9.2456 6.096) (end 9.2456 6.096) (layer F.Fab) (width .1524))
  (fp_line (start 9.2456 6.096) (end 9.2456 -6.096) (layer F.Fab) (width .1524))
  (fp_line (start 9.2456 -6.096) (end -9.2456 -6.096) (layer F.Fab) (width .1524))
  (fp_line (start -9.2456 -6.096) (end -9.2456 6.096) (layer F.Fab) (width .1524))
  (fp_line (start -10.9601 -1.4405) (end -10.9601 -1.0595) (layer F.SilkS) (width .1524))
  (fp_line (start -10.9601 -1.0595) (end -10.7061 -1.0595) (layer F.SilkS) (width .1524))
  (fp_line (start -10.7061 -1.0595) (end -10.7061 -1.4405) (layer F.SilkS) (width .1524))
  (fp_line (start -10.7061 -1.4405) (end -10.9601 -1.4405) (layer F.SilkS) (width .1524))
  (fp_line (start -10.9601 3.5595) (end -10.9601 3.9405) (layer F.SilkS) (width .1524))
  (fp_line (start -10.9601 3.9405) (end -10.7061 3.9405) (layer F.SilkS) (width .1524))
  (fp_line (start -10.7061 3.9405) (end -10.7061 3.5595) (layer F.SilkS) (width .1524))
  (fp_line (start -10.7061 3.5595) (end -10.9601 3.5595) (layer F.SilkS) (width .1524))
  (fp_line (start 10.9601 3.059501) (end 10.9601 3.440501) (layer F.SilkS) (width .1524))
  (fp_line (start 10.9601 3.440501) (end 10.7061 3.440501) (layer F.SilkS) (width .1524))
  (fp_line (start 10.7061 3.440501) (end 10.7061 3.059501) (layer F.SilkS) (width .1524))
  (fp_line (start 10.7061 3.059501) (end 10.9601 3.059501) (layer F.SilkS) (width .1524))
  (fp_line (start 10.9601 -1.940502) (end 10.9601 -1.559502) (layer F.SilkS) (width .1524))
  (fp_line (start 10.9601 -1.559502) (end 10.7061 -1.559502) (layer F.SilkS) (width .1524))
  (fp_line (start 10.7061 -1.559502) (end 10.7061 -1.940502) (layer F.SilkS) (width .1524))
  (fp_line (start 10.7061 -1.940502) (end 10.9601 -1.940502) (layer F.SilkS) (width .1524))
  (fp_line (start -10.7061 6.1437) (end -10.7061 -6.1437) (layer F.CrtYd) (width .1524))
  (fp_line (start -10.7061 -6.1437) (end -9.4996 -6.1437) (layer F.CrtYd) (width .1524))
  (fp_line (start -9.4996 -6.1437) (end -9.4996 -6.35) (layer F.CrtYd) (width .1524))
  (fp_line (start -9.4996 -6.35) (end 9.4996 -6.35) (layer F.CrtYd) (width .1524))
  (fp_line (start 9.4996 -6.35) (end 9.4996 -6.1437) (layer F.CrtYd) (width .1524))
  (fp_line (start 9.4996 -6.1437) (end 10.7061 -6.1437) (layer F.CrtYd) (width .1524))
  (fp_line (start 10.7061 -6.1437) (end 10.7061 6.1437) (layer F.CrtYd) (width .1524))
  (fp_line (start 10.7061 6.1437) (end 9.4996 6.1437) (layer F.CrtYd) (width .1524))
  (fp_line (start 9.4996 6.1437) (end 9.4996 6.35) (layer F.CrtYd) (width .1524))
  (fp_line (start 9.4996 6.35) (end -9.4996 6.35) (layer F.CrtYd) (width .1524))
  (fp_line (start -9.4996 6.35) (end -9.4996 6.1437) (layer F.CrtYd) (width .1524))
  (fp_line (start -9.4996 6.1437) (end -10.7061 6.1437) (layer F.CrtYd) (width .1524))
  (fp_arc (start 0 -6.096) (end .3048 -6.096) (angle 180)(layer F.Fab) (width .1524))
  (pad 1 smd rect (at -9.7409 -5.749999) (size 1.4224 .2794) (layers F.Cu F.Paste F.Mask))
  (pad 2 smd rect (at -9.7409 -5.25) (size 1.4224 .2794) (layers F.Cu F.Paste F.Mask))
  (pad 3 smd rect (at -9.7409 -4.750001) (size 1.4224 .2794) (layers F.Cu F.Paste F.Mask))
  (pad 4 smd rect (at -9.7409 -4.249999) (size 1.4224 .2794) (layers F.Cu F.Paste F.Mask))
  (pad 5 smd rect (at -9.7409 -3.75) (size 1.4224 .2794) (layers F.Cu F.Paste F.Mask))
  (pad 6 smd rect (at -9.7409 -3.250001) (size 1.4224 .2794) (layers F.Cu F.Paste F.Mask))
  (pad 7 smd rect (at -9.7409 -2.75) (size 1.4224 .2794) (layers F.Cu F.Paste F.Mask))
  (pad 8 smd rect (at -9.7409 -2.250001) (size 1.4224 .2794) (layers F.Cu F.Paste F.Mask))
  (pad 9 smd rect (at -9.7409 -1.749999) (size 1.4224 .2794) (layers F.Cu F.Paste F.Mask))
  (pad 10 smd rect (at -9.7409 -1.25) (size 1.4224 .2794) (layers F.Cu F.Paste F.Mask))
  (pad 11 smd rect (at -9.7409 -.750001) (size 1.4224 .2794) (layers F.Cu F.Paste F.Mask))
  (pad 12 smd rect (at -9.7409 -.25) (size 1.4224 .2794) (layers F.Cu F.Paste F.Mask))
  (pad 13 smd rect (at -9.7409 .25) (size 1.4224 .2794) (layers F.Cu F.Paste F.Mask))
  (pad 14 smd rect (at -9.7409 .750001) (size 1.4224 .2794) (layers F.Cu F.Paste F.Mask))
  (pad 15 smd rect (at -9.7409 1.25) (size 1.4224 .2794) (layers F.Cu F.Paste F.Mask))
  (pad 16 smd rect (at -9.7409 1.749999) (size 1.4224 .2794) (layers F.Cu F.Paste F.Mask))
  (pad 17 smd rect (at -9.7409 2.250001) (size 1.4224 .2794) (layers F.Cu F.Paste F.Mask))
  (pad 18 smd rect (at -9.7409 2.75) (size 1.4224 .2794) (layers F.Cu F.Paste F.Mask))
  (pad 19 smd rect (at -9.7409 3.250001) (size 1.4224 .2794) (layers F.Cu F.Paste F.Mask))
  (pad 20 smd rect (at -9.7409 3.75) (size 1.4224 .2794) (layers F.Cu F.Paste F.Mask))
  (pad 21 smd rect (at -9.7409 4.249999) (size 1.4224 .2794) (layers F.Cu F.Paste F.Mask))
  (pad 22 smd rect (at -9.7409 4.750001) (size 1.4224 .2794) (layers F.Cu F.Paste F.Mask))
  (pad 23 smd rect (at -9.7409 5.25) (size 1.4224 .2794) (layers F.Cu F.Paste F.Mask))
  (pad 24 smd rect (at -9.7409 5.750001) (size 1.4224 .2794) (layers F.Cu F.Paste F.Mask))
  (pad 25 smd rect (at 9.7409 5.749999) (size 1.4224 .2794) (layers F.Cu F.Paste F.Mask))
  (pad 26 smd rect (at 9.7409 5.25) (size 1.4224 .2794) (layers F.Cu F.Paste F.Mask))
  (pad 27 smd rect (at 9.7409 4.750001) (size 1.4224 .2794) (layers F.Cu F.Paste F.Mask))
  (pad 28 smd rect (at 9.7409 4.249999) (size 1.4224 .2794) (layers F.Cu F.Paste F.Mask))
  (pad 29 smd rect (at 9.7409 3.75) (size 1.4224 .2794) (layers F.Cu F.Paste F.Mask))
  (pad 30 smd rect (at 9.7409 3.249999) (size 1.4224 .2794) (layers F.Cu F.Paste F.Mask))
  (pad 31 smd rect (at 9.7409 2.75) (size 1.4224 .2794) (layers F.Cu F.Paste F.Mask))
  (pad 32 smd rect (at 9.7409 2.250001) (size 1.4224 .2794) (layers F.Cu F.Paste F.Mask))
  (pad 33 smd rect (at 9.7409 1.749999) (size 1.4224 .2794) (layers F.Cu F.Paste F.Mask))
  (pad 34 smd rect (at 9.7409 1.25) (size 1.4224 .2794) (layers F.Cu F.Paste F.Mask))
  (pad 35 smd rect (at 9.7409 .749998) (size 1.4224 .2794) (layers F.Cu F.Paste F.Mask))
  (pad 36 smd rect (at 9.7409 .25) (size 1.4224 .2794) (layers F.Cu F.Paste F.Mask))
  (pad 37 smd rect (at 9.7409 -.25) (size 1.4224 .2794) (layers F.Cu F.Paste F.Mask))
  (pad 38 smd rect (at 9.7409 -.750001) (size 1.4224 .2794) (layers F.Cu F.Paste F.Mask))
  (pad 39 smd rect (at 9.7409 -1.25) (size 1.4224 .2794) (layers F.Cu F.Paste F.Mask))
  (pad 40 smd rect (at 9.7409 -1.749999) (size 1.4224 .2794) (layers F.Cu F.Paste F.Mask))
  (pad 41 smd rect (at 9.7409 -2.250001) (size 1.4224 .2794) (layers F.Cu F.Paste F.Mask))
  (pad 42 smd rect (at 9.7409 -2.75) (size 1.4224 .2794) (layers F.Cu F.Paste F.Mask))
  (pad 43 smd rect (at 9.7409 -3.250001) (size 1.4224 .2794) (layers F.Cu F.Paste F.Mask))
  (pad 44 smd rect (at 9.7409 -3.75) (size 1.4224 .2794) (layers F.Cu F.Paste F.Mask))
  (pad 45 smd rect (at 9.7409 -4.249999) (size 1.4224 .2794) (layers F.Cu F.Paste F.Mask))
  (pad 46 smd rect (at 9.7409 -4.750001) (size 1.4224 .2794) (layers F.Cu F.Paste F.Mask))
  (pad 47 smd rect (at 9.7409 -5.25) (size 1.4224 .2794) (layers F.Cu F.Paste F.Mask))
  (pad 48 smd rect (at 9.7409 -5.750001) (size 1.4224 .2794) (layers F.Cu F.Paste F.Mask))
)
