(module VXO7803-500 (layer F.Cu) (tedit 5C0C58AB)
  (fp_text reference REF** (at 0 -4.58) (layer F.SilkS)
    (effects (font (size 1 1) (thickness 0.15)))
  )
  (fp_text value VXO7803-500 (at 0 -5.58) (layer F.Fab)
    (effects (font (size 1 1) (thickness 0.15)))
  )
  (fp_line (start 0 -2.54) (end -2.54 -2.54) (layer F.SilkS) (width 0.15))
  (fp_line (start -2.54 -2.54) (end -2.54 0) (layer F.SilkS) (width 0.15))
  (fp_line (start -2.54 0) (end -2.54 0) (layer F.SilkS) (width 0.15))
  (fp_line (start -2.54 5.08) (end -2.54 7.62) (layer F.SilkS) (width 0.15))
  (fp_line (start -2.54 7.62) (end 0 7.62) (layer F.SilkS) (width 0.15))
  (fp_line (start 3.81 7.62) (end 6.35 7.62) (layer F.SilkS) (width 0.15))
  (fp_line (start 6.35 7.62) (end 6.35 5.08) (layer F.SilkS) (width 0.15))
  (fp_line (start 6.35 0) (end 6.35 -2.54) (layer F.SilkS) (width 0.15))
  (fp_line (start 6.35 -2.54) (end 3.81 -2.54) (layer F.SilkS) (width 0.15))
  (fp_line (start 6.35 1.27) (end 6.35 3.81) (layer F.SilkS) (width 0.15))
  (fp_line (start 1.27 7.62) (end 2.54 7.62) (layer F.SilkS) (width 0.15))
  (fp_line (start 1.27 -2.54) (end 2.54 -2.54) (layer F.SilkS) (width 0.15))
  (fp_line (start -2.54 1.27) (end -2.54 3.81) (layer F.SilkS) (width 0.15))
  (pad 1 thru_hole circle (at 0 0) (size 1.524 1.524) (drill 1.2) (layers *.Cu *.Mask))
  (pad 2 thru_hole circle (at 0 2.54) (size 1.524 1.524) (drill 1.2) (layers *.Cu *.Mask))
  (pad 3 thru_hole circle (at 0 5.08) (size 1.524 1.524) (drill 1.2) (layers *.Cu *.Mask))
)
