(module XKB_U254-051N-4BH806 (layer F.Cu) (tedit 5C173819)
  (fp_text reference J1 (at -0.025 -0.75) (layer F.SilkS)
    (effects (font (size 1 1) (thickness 0.15)))
  )
  (fp_text value 10118193-0001LF (at -0.025 1.025) (layer F.Fab)
    (effects (font (size 1 1) (thickness 0.15)))
  )
  (fp_line (start -4.2 0.5) (end -4.2 0) (layer F.SilkS) (width 0.15))
  (fp_line (start 4.2 0.5) (end -4.2 0.5) (layer F.SilkS) (width 0.15))
  (fp_line (start 4.2 -5.7) (end 4.2 0.5) (layer F.SilkS) (width 0.15))
  (fp_line (start -4.2 -5.7) (end 4.2 -5.7) (layer F.SilkS) (width 0.15))
  (fp_line (start -4.2 0) (end -4.2 -5.7) (layer F.SilkS) (width 0.15))
  (fp_line (start -3.6 0) (end 3.6 0) (layer F.SilkS) (width 0.15))
  (pad "" np_thru_hole circle (at -2 -3.28) (size 0.65 0.65) (drill 0.65) (layers *.Cu *.Mask))
  (pad "" np_thru_hole circle (at 2 -3.28) (size 0.65 0.65) (drill 0.65) (layers *.Cu *.Mask))
  (pad SH thru_hole oval (at 3.575 -4.6) (size 1.05 1.85) (drill oval 0.45 1.25) (layers *.Cu *.Mask))
  (pad SH thru_hole oval (at -3.575 -4.6) (size 1.05 1.85) (drill oval 0.45 1.25) (layers *.Cu *.Mask))
  (pad SH thru_hole oval (at -3.575 -1.15) (size 1.05 1.85) (drill oval 0.45 1.25) (layers *.Cu *.Mask))
  (pad SH thru_hole oval (at 3.575 -1.15) (size 1.05 1.85) (drill oval 0.45 1.25) (layers *.Cu *.Mask))
  (pad 1 smd rect (at -1.325 -4.1) (size 0.4 1.4) (layers F.Cu F.Paste F.Mask))
  (pad 2 smd rect (at -0.7 -4.1) (size 0.4 1.4) (layers F.Cu F.Paste F.Mask))
  (pad 5 smd rect (at 1.3 -4.1) (size 0.4 1.4) (layers F.Cu F.Paste F.Mask))
  (pad 4 smd rect (at 0.6 -4.075) (size 0.4 1.4) (layers F.Cu F.Paste F.Mask))
  (pad 3 smd rect (at -0.025 -4.1) (size 0.4 1.4) (layers F.Cu F.Paste F.Mask))
)
