EESchema Schematic File Version 4
LIBS:tri-state-buffer-cache
EELAYER 26 0
EELAYER END
$Descr A4 11693 8268
encoding utf-8
Sheet 2 2
Title ""
Date ""
Rev ""
Comp ""
Comment1 ""
Comment2 ""
Comment3 ""
Comment4 ""
$EndDescr
$Comp
L Device:Q_NPN_BEC Q6
U 1 1 5C83C907
P 3950 3100
F 0 "Q6" H 4141 3146 50  0000 L CNN
F 1 "Q_NPN_BEC" H 4141 3055 50  0000 L CNN
F 2 "Package_TO_SOT_SMD:SOT-23_Handsoldering" H 4150 3200 50  0001 C CNN
F 3 "~" H 3950 3100 50  0001 C CNN
	1    3950 3100
	1    0    0    -1  
$EndComp
$Comp
L Device:Q_NPN_BEC Q5
U 1 1 5C83C944
P 2850 3000
F 0 "Q5" V 3086 3000 50  0000 C CNN
F 1 "Q_NPN_BEC" V 3177 3000 50  0000 C CNN
F 2 "Package_TO_SOT_SMD:SOT-23_Handsoldering" H 3050 3100 50  0001 C CNN
F 3 "~" H 2850 3000 50  0001 C CNN
	1    2850 3000
	0    1    1    0   
$EndComp
Wire Wire Line
	3050 3100 3750 3100
Wire Wire Line
	4050 2900 4050 2850
$Comp
L Device:R R4
U 1 1 5C83CA2A
P 4050 2600
F 0 "R4" H 4120 2646 50  0000 L CNN
F 1 "47K" H 4120 2555 50  0000 L CNN
F 2 "Resistor_SMD:R_0603_1608Metric_Pad1.05x0.95mm_HandSolder" V 3980 2600 50  0001 C CNN
F 3 "~" H 4050 2600 50  0001 C CNN
	1    4050 2600
	1    0    0    -1  
$EndComp
$Comp
L Device:R R3
U 1 1 5C83CB55
P 2850 2600
F 0 "R3" H 2920 2646 50  0000 L CNN
F 1 "10K" H 2920 2555 50  0000 L CNN
F 2 "Resistor_SMD:R_0603_1608Metric_Pad1.05x0.95mm_HandSolder" V 2780 2600 50  0001 C CNN
F 3 "~" H 2850 2600 50  0001 C CNN
	1    2850 2600
	1    0    0    -1  
$EndComp
Wire Wire Line
	2850 2750 2850 2800
Wire Wire Line
	4050 2450 2850 2450
Connection ~ 2850 2450
Wire Wire Line
	2850 2450 2750 2450
$Comp
L power:VCC #PWR0107
U 1 1 5C83CC19
P 2750 2450
F 0 "#PWR0107" H 2750 2300 50  0001 C CNN
F 1 "VCC" H 2767 2623 50  0000 C CNN
F 2 "" H 2750 2450 50  0001 C CNN
F 3 "" H 2750 2450 50  0001 C CNN
	1    2750 2450
	1    0    0    -1  
$EndComp
Wire Wire Line
	4050 3300 4050 3400
$Comp
L power:GND #PWR0108
U 1 1 5C83CCA6
P 4050 3400
F 0 "#PWR0108" H 4050 3150 50  0001 C CNN
F 1 "GND" H 4055 3227 50  0000 C CNN
F 2 "" H 4050 3400 50  0001 C CNN
F 3 "" H 4050 3400 50  0001 C CNN
	1    4050 3400
	1    0    0    -1  
$EndComp
Wire Wire Line
	2650 3100 2300 3100
Text HLabel 2300 3100 0    50   Input ~ 0
Q
Wire Wire Line
	4050 2850 4650 2850
Connection ~ 4050 2850
Wire Wire Line
	4050 2850 4050 2750
Text HLabel 4650 2850 2    50   Output ~ 0
~Q
$EndSCHEMATC
