G04 #@! TF.GenerationSoftware,KiCad,Pcbnew,5.0.2+dfsg1-1*
G04 #@! TF.CreationDate,2019-02-17T13:47:13+13:00*
G04 #@! TF.ProjectId,1b-reg,31622d72-6567-42e6-9b69-6361645f7063,rev?*
G04 #@! TF.SameCoordinates,Original*
G04 #@! TF.FileFunction,Copper,L2,Bot*
G04 #@! TF.FilePolarity,Positive*
%FSLAX46Y46*%
G04 Gerber Fmt 4.6, Leading zero omitted, Abs format (unit mm)*
G04 Created by KiCad (PCBNEW 5.0.2+dfsg1-1) date Sun 17 Feb 2019 13:47:13 NZDT*
%MOMM*%
%LPD*%
G01*
G04 APERTURE LIST*
G04 #@! TA.AperFunction,ComponentPad*
%ADD10C,0.800000*%
G04 #@! TD*
G04 #@! TA.AperFunction,ComponentPad*
%ADD11C,6.400000*%
G04 #@! TD*
G04 #@! TA.AperFunction,Conductor*
%ADD12C,0.100000*%
G04 #@! TD*
G04 #@! TA.AperFunction,SMDPad,CuDef*
%ADD13C,0.950000*%
G04 #@! TD*
G04 #@! TA.AperFunction,ViaPad*
%ADD14C,0.800000*%
G04 #@! TD*
G04 #@! TA.AperFunction,Conductor*
%ADD15C,0.160000*%
G04 #@! TD*
G04 #@! TA.AperFunction,Conductor*
%ADD16C,0.254000*%
G04 #@! TD*
G04 APERTURE END LIST*
D10*
G04 #@! TO.P,H4,1*
G04 #@! TO.N,/CLK*
X30197056Y-69802944D03*
X28500000Y-69100000D03*
X26802944Y-69802944D03*
X26100000Y-71500000D03*
X26802944Y-73197056D03*
X28500000Y-73900000D03*
X30197056Y-73197056D03*
X30900000Y-71500000D03*
D11*
X28500000Y-71500000D03*
G04 #@! TD*
G04 #@! TO.P,H3,1*
G04 #@! TO.N,/~RST*
X61500000Y-28500000D03*
D10*
X63900000Y-28500000D03*
X63197056Y-30197056D03*
X61500000Y-30900000D03*
X59802944Y-30197056D03*
X59100000Y-28500000D03*
X59802944Y-26802944D03*
X61500000Y-26100000D03*
X63197056Y-26802944D03*
G04 #@! TD*
G04 #@! TO.P,H2,1*
G04 #@! TO.N,VCC*
X63197056Y-69802944D03*
X61500000Y-69100000D03*
X59802944Y-69802944D03*
X59100000Y-71500000D03*
X59802944Y-73197056D03*
X61500000Y-73900000D03*
X63197056Y-73197056D03*
X63900000Y-71500000D03*
D11*
X61500000Y-71500000D03*
G04 #@! TD*
G04 #@! TO.P,H1,1*
G04 #@! TO.N,GND*
X28500000Y-28500000D03*
D10*
X30900000Y-28500000D03*
X30197056Y-30197056D03*
X28500000Y-30900000D03*
X26802944Y-30197056D03*
X26100000Y-28500000D03*
X26802944Y-26802944D03*
X28500000Y-26100000D03*
X30197056Y-26802944D03*
G04 #@! TD*
D12*
G04 #@! TO.N,Net-(D1-Pad1)*
G04 #@! TO.C,R1*
G36*
X50235779Y-61926144D02*
X50258834Y-61929563D01*
X50281443Y-61935227D01*
X50303387Y-61943079D01*
X50324457Y-61953044D01*
X50344448Y-61965026D01*
X50363168Y-61978910D01*
X50380438Y-61994562D01*
X50396090Y-62011832D01*
X50409974Y-62030552D01*
X50421956Y-62050543D01*
X50431921Y-62071613D01*
X50439773Y-62093557D01*
X50445437Y-62116166D01*
X50448856Y-62139221D01*
X50450000Y-62162500D01*
X50450000Y-62637500D01*
X50448856Y-62660779D01*
X50445437Y-62683834D01*
X50439773Y-62706443D01*
X50431921Y-62728387D01*
X50421956Y-62749457D01*
X50409974Y-62769448D01*
X50396090Y-62788168D01*
X50380438Y-62805438D01*
X50363168Y-62821090D01*
X50344448Y-62834974D01*
X50324457Y-62846956D01*
X50303387Y-62856921D01*
X50281443Y-62864773D01*
X50258834Y-62870437D01*
X50235779Y-62873856D01*
X50212500Y-62875000D01*
X49637500Y-62875000D01*
X49614221Y-62873856D01*
X49591166Y-62870437D01*
X49568557Y-62864773D01*
X49546613Y-62856921D01*
X49525543Y-62846956D01*
X49505552Y-62834974D01*
X49486832Y-62821090D01*
X49469562Y-62805438D01*
X49453910Y-62788168D01*
X49440026Y-62769448D01*
X49428044Y-62749457D01*
X49418079Y-62728387D01*
X49410227Y-62706443D01*
X49404563Y-62683834D01*
X49401144Y-62660779D01*
X49400000Y-62637500D01*
X49400000Y-62162500D01*
X49401144Y-62139221D01*
X49404563Y-62116166D01*
X49410227Y-62093557D01*
X49418079Y-62071613D01*
X49428044Y-62050543D01*
X49440026Y-62030552D01*
X49453910Y-62011832D01*
X49469562Y-61994562D01*
X49486832Y-61978910D01*
X49505552Y-61965026D01*
X49525543Y-61953044D01*
X49546613Y-61943079D01*
X49568557Y-61935227D01*
X49591166Y-61929563D01*
X49614221Y-61926144D01*
X49637500Y-61925000D01*
X50212500Y-61925000D01*
X50235779Y-61926144D01*
X50235779Y-61926144D01*
G37*
D13*
G04 #@! TD*
G04 #@! TO.P,R1,1*
G04 #@! TO.N,Net-(D1-Pad1)*
X49925000Y-62400000D03*
D12*
G04 #@! TO.N,GND*
G04 #@! TO.C,R1*
G36*
X51985779Y-61926144D02*
X52008834Y-61929563D01*
X52031443Y-61935227D01*
X52053387Y-61943079D01*
X52074457Y-61953044D01*
X52094448Y-61965026D01*
X52113168Y-61978910D01*
X52130438Y-61994562D01*
X52146090Y-62011832D01*
X52159974Y-62030552D01*
X52171956Y-62050543D01*
X52181921Y-62071613D01*
X52189773Y-62093557D01*
X52195437Y-62116166D01*
X52198856Y-62139221D01*
X52200000Y-62162500D01*
X52200000Y-62637500D01*
X52198856Y-62660779D01*
X52195437Y-62683834D01*
X52189773Y-62706443D01*
X52181921Y-62728387D01*
X52171956Y-62749457D01*
X52159974Y-62769448D01*
X52146090Y-62788168D01*
X52130438Y-62805438D01*
X52113168Y-62821090D01*
X52094448Y-62834974D01*
X52074457Y-62846956D01*
X52053387Y-62856921D01*
X52031443Y-62864773D01*
X52008834Y-62870437D01*
X51985779Y-62873856D01*
X51962500Y-62875000D01*
X51387500Y-62875000D01*
X51364221Y-62873856D01*
X51341166Y-62870437D01*
X51318557Y-62864773D01*
X51296613Y-62856921D01*
X51275543Y-62846956D01*
X51255552Y-62834974D01*
X51236832Y-62821090D01*
X51219562Y-62805438D01*
X51203910Y-62788168D01*
X51190026Y-62769448D01*
X51178044Y-62749457D01*
X51168079Y-62728387D01*
X51160227Y-62706443D01*
X51154563Y-62683834D01*
X51151144Y-62660779D01*
X51150000Y-62637500D01*
X51150000Y-62162500D01*
X51151144Y-62139221D01*
X51154563Y-62116166D01*
X51160227Y-62093557D01*
X51168079Y-62071613D01*
X51178044Y-62050543D01*
X51190026Y-62030552D01*
X51203910Y-62011832D01*
X51219562Y-61994562D01*
X51236832Y-61978910D01*
X51255552Y-61965026D01*
X51275543Y-61953044D01*
X51296613Y-61943079D01*
X51318557Y-61935227D01*
X51341166Y-61929563D01*
X51364221Y-61926144D01*
X51387500Y-61925000D01*
X51962500Y-61925000D01*
X51985779Y-61926144D01*
X51985779Y-61926144D01*
G37*
D13*
G04 #@! TD*
G04 #@! TO.P,R1,2*
G04 #@! TO.N,GND*
X51675000Y-62400000D03*
D14*
G04 #@! TO.N,/D*
X38750000Y-64810000D03*
X27190000Y-62920000D03*
G04 #@! TO.N,/Q*
X55070000Y-62420000D03*
X63500000Y-62490000D03*
X63000000Y-52880000D03*
X43540000Y-34970000D03*
X40150000Y-34870000D03*
X43520000Y-52780000D03*
X49890000Y-53690000D03*
G04 #@! TO.N,Net-(D1-Pad1)*
X46400000Y-62380000D03*
G04 #@! TO.N,GND*
X40960000Y-38680000D03*
X52540000Y-38750000D03*
X40880000Y-63890000D03*
X52520000Y-51290000D03*
X40920000Y-51350000D03*
G04 #@! TO.N,/~RST*
X61630000Y-40040000D03*
X51210000Y-40070000D03*
X51230000Y-52570000D03*
X59100000Y-52530000D03*
X59120000Y-65700000D03*
X39660000Y-65650000D03*
G04 #@! TO.N,/CLK*
X28470000Y-54130000D03*
X38750000Y-54050000D03*
X47340000Y-54720000D03*
G04 #@! TO.N,Net-(U1-Pad2)*
X38830000Y-41070000D03*
X36359990Y-41180000D03*
X36250000Y-37470000D03*
X51920000Y-37390000D03*
G04 #@! TO.N,Net-(U1-Pad3)*
X39450000Y-39720000D03*
X49190000Y-39690000D03*
G04 #@! TO.N,Net-(U1-Pad8)*
X51260000Y-41730000D03*
X42430000Y-41750000D03*
X42460000Y-33930000D03*
X39220000Y-33710000D03*
G04 #@! TO.N,Net-(U3-Pad3)*
X38050000Y-49870000D03*
X39780000Y-49620000D03*
G04 #@! TO.N,Net-(U3-Pad6)*
X40460000Y-47540000D03*
X38670000Y-47540000D03*
G04 #@! TO.N,Net-(U3-Pad7)*
X41330000Y-46850000D03*
X49480000Y-46930000D03*
X35090000Y-46870000D03*
G04 #@! TD*
D15*
G04 #@! TO.N,/D*
X38750000Y-64810000D02*
X29080000Y-64810000D01*
X29080000Y-64810000D02*
X27589999Y-63319999D01*
X27589999Y-63319999D02*
X27190000Y-62920000D01*
G04 #@! TO.N,/Q*
X55070000Y-62420000D02*
X63430000Y-62420000D01*
X63430000Y-62420000D02*
X63500000Y-62490000D01*
X43540000Y-34970000D02*
X40250000Y-34970000D01*
X40250000Y-34970000D02*
X40150000Y-34870000D01*
X44430000Y-53690000D02*
X49890000Y-53690000D01*
X63000000Y-52880000D02*
X62190000Y-53690000D01*
X62190000Y-53690000D02*
X49890000Y-53690000D01*
X43520000Y-52780000D02*
X44430000Y-53690000D01*
G04 #@! TO.N,Net-(D1-Pad1)*
X49925000Y-62400000D02*
X46420000Y-62400000D01*
X46420000Y-62400000D02*
X46400000Y-62380000D01*
G04 #@! TO.N,/~RST*
X61630000Y-40040000D02*
X51240000Y-40040000D01*
X51240000Y-40040000D02*
X51210000Y-40070000D01*
X51230000Y-52570000D02*
X59060000Y-52570000D01*
X59060000Y-52570000D02*
X59100000Y-52530000D01*
X59120000Y-65700000D02*
X39710000Y-65700000D01*
X39710000Y-65700000D02*
X39660000Y-65650000D01*
G04 #@! TO.N,/CLK*
X28470000Y-54130000D02*
X38670000Y-54130000D01*
X38670000Y-54130000D02*
X38750000Y-54050000D01*
X38750000Y-54050000D02*
X46670000Y-54050000D01*
X46670000Y-54050000D02*
X47340000Y-54720000D01*
G04 #@! TO.N,Net-(U1-Pad2)*
X38830000Y-41070000D02*
X36469990Y-41070000D01*
X36469990Y-41070000D02*
X36359990Y-41180000D01*
X36250000Y-37470000D02*
X51840000Y-37470000D01*
X51840000Y-37470000D02*
X51920000Y-37390000D01*
G04 #@! TO.N,Net-(U1-Pad3)*
X39450000Y-39720000D02*
X49160000Y-39720000D01*
X49160000Y-39720000D02*
X49190000Y-39690000D01*
G04 #@! TO.N,Net-(U1-Pad8)*
X51260000Y-41730000D02*
X42450000Y-41730000D01*
X42450000Y-41730000D02*
X42430000Y-41750000D01*
X42460000Y-33930000D02*
X39440000Y-33930000D01*
X39440000Y-33930000D02*
X39220000Y-33710000D01*
G04 #@! TO.N,Net-(U3-Pad3)*
X38050000Y-49870000D02*
X39530000Y-49870000D01*
X39530000Y-49870000D02*
X39780000Y-49620000D01*
G04 #@! TO.N,Net-(U3-Pad6)*
X40460000Y-47540000D02*
X38670000Y-47540000D01*
G04 #@! TO.N,Net-(U3-Pad7)*
X49400000Y-46850000D02*
X49480000Y-46930000D01*
X41330000Y-46850000D02*
X49400000Y-46850000D01*
X35675685Y-46850000D02*
X41330000Y-46850000D01*
X35655685Y-46870000D02*
X35675685Y-46850000D01*
X35090000Y-46870000D02*
X35655685Y-46870000D01*
G04 #@! TD*
D16*
G04 #@! TO.N,GND*
G36*
X25938695Y-25759090D02*
X28500000Y-28320395D01*
X31061305Y-25759090D01*
X30833857Y-25452000D01*
X59511369Y-25452000D01*
X59473792Y-25467565D01*
X58467565Y-26473792D01*
X57923000Y-27788490D01*
X57923000Y-29211510D01*
X58467565Y-30526208D01*
X59473792Y-31532435D01*
X60788490Y-32077000D01*
X62211510Y-32077000D01*
X63526208Y-31532435D01*
X64532435Y-30526208D01*
X64548000Y-30488630D01*
X64548001Y-69511371D01*
X64532435Y-69473792D01*
X63526208Y-68467565D01*
X62211510Y-67923000D01*
X60788490Y-67923000D01*
X59473792Y-68467565D01*
X58467565Y-69473792D01*
X57923000Y-70788490D01*
X57923000Y-72211510D01*
X58467565Y-73526208D01*
X59473792Y-74532435D01*
X59511369Y-74548000D01*
X30488631Y-74548000D01*
X30526208Y-74532435D01*
X31532435Y-73526208D01*
X32077000Y-72211510D01*
X32077000Y-70788490D01*
X31532435Y-69473792D01*
X30526208Y-68467565D01*
X29211510Y-67923000D01*
X27788490Y-67923000D01*
X26473792Y-68467565D01*
X25467565Y-69473792D01*
X25452000Y-69511369D01*
X25452000Y-62765445D01*
X26413000Y-62765445D01*
X26413000Y-63074555D01*
X26531291Y-63360135D01*
X26749865Y-63578709D01*
X27035445Y-63697000D01*
X27320706Y-63697000D01*
X28725025Y-65101321D01*
X28750521Y-65139479D01*
X28788678Y-65164974D01*
X28901687Y-65240484D01*
X29080000Y-65275953D01*
X29125009Y-65267000D01*
X38108156Y-65267000D01*
X38309865Y-65468709D01*
X38595445Y-65587000D01*
X38883000Y-65587000D01*
X38883000Y-65804555D01*
X39001291Y-66090135D01*
X39219865Y-66308709D01*
X39505445Y-66427000D01*
X39814555Y-66427000D01*
X40100135Y-66308709D01*
X40251844Y-66157000D01*
X58478156Y-66157000D01*
X58679865Y-66358709D01*
X58965445Y-66477000D01*
X59274555Y-66477000D01*
X59560135Y-66358709D01*
X59778709Y-66140135D01*
X59897000Y-65854555D01*
X59897000Y-65545445D01*
X59778709Y-65259865D01*
X59560135Y-65041291D01*
X59274555Y-64923000D01*
X58965445Y-64923000D01*
X58679865Y-65041291D01*
X58478156Y-65243000D01*
X40332434Y-65243000D01*
X40318709Y-65209865D01*
X40100135Y-64991291D01*
X39814555Y-64873000D01*
X39527000Y-64873000D01*
X39527000Y-64655445D01*
X39408709Y-64369865D01*
X39190135Y-64151291D01*
X38904555Y-64033000D01*
X38595445Y-64033000D01*
X38309865Y-64151291D01*
X38108156Y-64353000D01*
X29269296Y-64353000D01*
X27967000Y-63050706D01*
X27967000Y-62765445D01*
X27848709Y-62479865D01*
X27630135Y-62261291D01*
X27543596Y-62225445D01*
X45623000Y-62225445D01*
X45623000Y-62534555D01*
X45741291Y-62820135D01*
X45959865Y-63038709D01*
X46245445Y-63157000D01*
X46554555Y-63157000D01*
X46840135Y-63038709D01*
X47021844Y-62857000D01*
X49059276Y-62857000D01*
X49062953Y-62875485D01*
X49197761Y-63077239D01*
X49399515Y-63212047D01*
X49637500Y-63259385D01*
X50212500Y-63259385D01*
X50450485Y-63212047D01*
X50569383Y-63132602D01*
X50611673Y-63234699D01*
X50790302Y-63413327D01*
X51023691Y-63510000D01*
X51389250Y-63510000D01*
X51548000Y-63351250D01*
X51548000Y-62527000D01*
X51802000Y-62527000D01*
X51802000Y-63351250D01*
X51960750Y-63510000D01*
X52326309Y-63510000D01*
X52559698Y-63413327D01*
X52738327Y-63234699D01*
X52835000Y-63001310D01*
X52835000Y-62685750D01*
X52676250Y-62527000D01*
X51802000Y-62527000D01*
X51548000Y-62527000D01*
X51528000Y-62527000D01*
X51528000Y-62273000D01*
X51548000Y-62273000D01*
X51548000Y-61448750D01*
X51802000Y-61448750D01*
X51802000Y-62273000D01*
X52676250Y-62273000D01*
X52683805Y-62265445D01*
X54293000Y-62265445D01*
X54293000Y-62574555D01*
X54411291Y-62860135D01*
X54629865Y-63078709D01*
X54915445Y-63197000D01*
X55224555Y-63197000D01*
X55510135Y-63078709D01*
X55711844Y-62877000D01*
X62819282Y-62877000D01*
X62841291Y-62930135D01*
X63059865Y-63148709D01*
X63345445Y-63267000D01*
X63654555Y-63267000D01*
X63940135Y-63148709D01*
X64158709Y-62930135D01*
X64277000Y-62644555D01*
X64277000Y-62335445D01*
X64158709Y-62049865D01*
X63940135Y-61831291D01*
X63654555Y-61713000D01*
X63345445Y-61713000D01*
X63059865Y-61831291D01*
X62928156Y-61963000D01*
X55711844Y-61963000D01*
X55510135Y-61761291D01*
X55224555Y-61643000D01*
X54915445Y-61643000D01*
X54629865Y-61761291D01*
X54411291Y-61979865D01*
X54293000Y-62265445D01*
X52683805Y-62265445D01*
X52835000Y-62114250D01*
X52835000Y-61798690D01*
X52738327Y-61565301D01*
X52559698Y-61386673D01*
X52326309Y-61290000D01*
X51960750Y-61290000D01*
X51802000Y-61448750D01*
X51548000Y-61448750D01*
X51389250Y-61290000D01*
X51023691Y-61290000D01*
X50790302Y-61386673D01*
X50611673Y-61565301D01*
X50569383Y-61667398D01*
X50450485Y-61587953D01*
X50212500Y-61540615D01*
X49637500Y-61540615D01*
X49399515Y-61587953D01*
X49197761Y-61722761D01*
X49062953Y-61924515D01*
X49059276Y-61943000D01*
X47060008Y-61943000D01*
X47058709Y-61939865D01*
X46840135Y-61721291D01*
X46554555Y-61603000D01*
X46245445Y-61603000D01*
X45959865Y-61721291D01*
X45741291Y-61939865D01*
X45623000Y-62225445D01*
X27543596Y-62225445D01*
X27344555Y-62143000D01*
X27035445Y-62143000D01*
X26749865Y-62261291D01*
X26531291Y-62479865D01*
X26413000Y-62765445D01*
X25452000Y-62765445D01*
X25452000Y-53975445D01*
X27693000Y-53975445D01*
X27693000Y-54284555D01*
X27811291Y-54570135D01*
X28029865Y-54788709D01*
X28315445Y-54907000D01*
X28624555Y-54907000D01*
X28910135Y-54788709D01*
X29111844Y-54587000D01*
X38188156Y-54587000D01*
X38309865Y-54708709D01*
X38595445Y-54827000D01*
X38904555Y-54827000D01*
X39190135Y-54708709D01*
X39391844Y-54507000D01*
X46480706Y-54507000D01*
X46563000Y-54589294D01*
X46563000Y-54874555D01*
X46681291Y-55160135D01*
X46899865Y-55378709D01*
X47185445Y-55497000D01*
X47494555Y-55497000D01*
X47780135Y-55378709D01*
X47998709Y-55160135D01*
X48117000Y-54874555D01*
X48117000Y-54565445D01*
X47998709Y-54279865D01*
X47865844Y-54147000D01*
X49248156Y-54147000D01*
X49449865Y-54348709D01*
X49735445Y-54467000D01*
X50044555Y-54467000D01*
X50330135Y-54348709D01*
X50531844Y-54147000D01*
X62144992Y-54147000D01*
X62190000Y-54155953D01*
X62235008Y-54147000D01*
X62235009Y-54147000D01*
X62368312Y-54120484D01*
X62519479Y-54019479D01*
X62544979Y-53981315D01*
X62869294Y-53657000D01*
X63154555Y-53657000D01*
X63440135Y-53538709D01*
X63658709Y-53320135D01*
X63777000Y-53034555D01*
X63777000Y-52725445D01*
X63658709Y-52439865D01*
X63440135Y-52221291D01*
X63154555Y-52103000D01*
X62845445Y-52103000D01*
X62559865Y-52221291D01*
X62341291Y-52439865D01*
X62223000Y-52725445D01*
X62223000Y-53010706D01*
X62000706Y-53233000D01*
X59433207Y-53233000D01*
X59540135Y-53188709D01*
X59758709Y-52970135D01*
X59877000Y-52684555D01*
X59877000Y-52375445D01*
X59758709Y-52089865D01*
X59540135Y-51871291D01*
X59254555Y-51753000D01*
X58945445Y-51753000D01*
X58659865Y-51871291D01*
X58441291Y-52089865D01*
X58431708Y-52113000D01*
X51871844Y-52113000D01*
X51670135Y-51911291D01*
X51384555Y-51793000D01*
X51075445Y-51793000D01*
X50789865Y-51911291D01*
X50571291Y-52129865D01*
X50453000Y-52415445D01*
X50453000Y-52724555D01*
X50571291Y-53010135D01*
X50789865Y-53228709D01*
X50800224Y-53233000D01*
X50531844Y-53233000D01*
X50330135Y-53031291D01*
X50044555Y-52913000D01*
X49735445Y-52913000D01*
X49449865Y-53031291D01*
X49248156Y-53233000D01*
X44619295Y-53233000D01*
X44297000Y-52910706D01*
X44297000Y-52625445D01*
X44178709Y-52339865D01*
X43960135Y-52121291D01*
X43674555Y-52003000D01*
X43365445Y-52003000D01*
X43079865Y-52121291D01*
X42861291Y-52339865D01*
X42743000Y-52625445D01*
X42743000Y-52934555D01*
X42861291Y-53220135D01*
X43079865Y-53438709D01*
X43365445Y-53557000D01*
X43650706Y-53557000D01*
X43686705Y-53593000D01*
X39391844Y-53593000D01*
X39190135Y-53391291D01*
X38904555Y-53273000D01*
X38595445Y-53273000D01*
X38309865Y-53391291D01*
X38091291Y-53609865D01*
X38065140Y-53673000D01*
X29111844Y-53673000D01*
X28910135Y-53471291D01*
X28624555Y-53353000D01*
X28315445Y-53353000D01*
X28029865Y-53471291D01*
X27811291Y-53689865D01*
X27693000Y-53975445D01*
X25452000Y-53975445D01*
X25452000Y-49715445D01*
X37273000Y-49715445D01*
X37273000Y-50024555D01*
X37391291Y-50310135D01*
X37609865Y-50528709D01*
X37895445Y-50647000D01*
X38204555Y-50647000D01*
X38490135Y-50528709D01*
X38691844Y-50327000D01*
X39456450Y-50327000D01*
X39625445Y-50397000D01*
X39934555Y-50397000D01*
X40220135Y-50278709D01*
X40438709Y-50060135D01*
X40557000Y-49774555D01*
X40557000Y-49465445D01*
X40438709Y-49179865D01*
X40220135Y-48961291D01*
X39934555Y-48843000D01*
X39625445Y-48843000D01*
X39339865Y-48961291D01*
X39121291Y-49179865D01*
X39024723Y-49413000D01*
X38691844Y-49413000D01*
X38490135Y-49211291D01*
X38204555Y-49093000D01*
X37895445Y-49093000D01*
X37609865Y-49211291D01*
X37391291Y-49429865D01*
X37273000Y-49715445D01*
X25452000Y-49715445D01*
X25452000Y-46715445D01*
X34313000Y-46715445D01*
X34313000Y-47024555D01*
X34431291Y-47310135D01*
X34649865Y-47528709D01*
X34935445Y-47647000D01*
X35244555Y-47647000D01*
X35530135Y-47528709D01*
X35739579Y-47319265D01*
X35801239Y-47307000D01*
X37925493Y-47307000D01*
X37893000Y-47385445D01*
X37893000Y-47694555D01*
X38011291Y-47980135D01*
X38229865Y-48198709D01*
X38515445Y-48317000D01*
X38824555Y-48317000D01*
X39110135Y-48198709D01*
X39311844Y-47997000D01*
X39818156Y-47997000D01*
X40019865Y-48198709D01*
X40305445Y-48317000D01*
X40614555Y-48317000D01*
X40900135Y-48198709D01*
X41118709Y-47980135D01*
X41237000Y-47694555D01*
X41237000Y-47627000D01*
X41484555Y-47627000D01*
X41770135Y-47508709D01*
X41971844Y-47307000D01*
X48795140Y-47307000D01*
X48821291Y-47370135D01*
X49039865Y-47588709D01*
X49325445Y-47707000D01*
X49634555Y-47707000D01*
X49920135Y-47588709D01*
X50138709Y-47370135D01*
X50257000Y-47084555D01*
X50257000Y-46775445D01*
X50138709Y-46489865D01*
X49920135Y-46271291D01*
X49634555Y-46153000D01*
X49325445Y-46153000D01*
X49039865Y-46271291D01*
X48918156Y-46393000D01*
X41971844Y-46393000D01*
X41770135Y-46191291D01*
X41484555Y-46073000D01*
X41175445Y-46073000D01*
X40889865Y-46191291D01*
X40688156Y-46393000D01*
X35720692Y-46393000D01*
X35709647Y-46390803D01*
X35530135Y-46211291D01*
X35244555Y-46093000D01*
X34935445Y-46093000D01*
X34649865Y-46211291D01*
X34431291Y-46429865D01*
X34313000Y-46715445D01*
X25452000Y-46715445D01*
X25452000Y-41025445D01*
X35582990Y-41025445D01*
X35582990Y-41334555D01*
X35701281Y-41620135D01*
X35919855Y-41838709D01*
X36205435Y-41957000D01*
X36514545Y-41957000D01*
X36800125Y-41838709D01*
X37018699Y-41620135D01*
X37057277Y-41527000D01*
X38188156Y-41527000D01*
X38389865Y-41728709D01*
X38675445Y-41847000D01*
X38984555Y-41847000D01*
X39270135Y-41728709D01*
X39403399Y-41595445D01*
X41653000Y-41595445D01*
X41653000Y-41904555D01*
X41771291Y-42190135D01*
X41989865Y-42408709D01*
X42275445Y-42527000D01*
X42584555Y-42527000D01*
X42870135Y-42408709D01*
X43088709Y-42190135D01*
X43090008Y-42187000D01*
X50618156Y-42187000D01*
X50819865Y-42388709D01*
X51105445Y-42507000D01*
X51414555Y-42507000D01*
X51700135Y-42388709D01*
X51918709Y-42170135D01*
X52037000Y-41884555D01*
X52037000Y-41575445D01*
X51918709Y-41289865D01*
X51700135Y-41071291D01*
X51414555Y-40953000D01*
X51105445Y-40953000D01*
X50819865Y-41071291D01*
X50618156Y-41273000D01*
X43051844Y-41273000D01*
X42870135Y-41091291D01*
X42584555Y-40973000D01*
X42275445Y-40973000D01*
X41989865Y-41091291D01*
X41771291Y-41309865D01*
X41653000Y-41595445D01*
X39403399Y-41595445D01*
X39488709Y-41510135D01*
X39607000Y-41224555D01*
X39607000Y-40915445D01*
X39488709Y-40629865D01*
X39355844Y-40497000D01*
X39604555Y-40497000D01*
X39890135Y-40378709D01*
X40091844Y-40177000D01*
X48578156Y-40177000D01*
X48749865Y-40348709D01*
X49035445Y-40467000D01*
X49344555Y-40467000D01*
X49630135Y-40348709D01*
X49848709Y-40130135D01*
X49937636Y-39915445D01*
X50433000Y-39915445D01*
X50433000Y-40224555D01*
X50551291Y-40510135D01*
X50769865Y-40728709D01*
X51055445Y-40847000D01*
X51364555Y-40847000D01*
X51650135Y-40728709D01*
X51868709Y-40510135D01*
X51874150Y-40497000D01*
X60988156Y-40497000D01*
X61189865Y-40698709D01*
X61475445Y-40817000D01*
X61784555Y-40817000D01*
X62070135Y-40698709D01*
X62288709Y-40480135D01*
X62407000Y-40194555D01*
X62407000Y-39885445D01*
X62288709Y-39599865D01*
X62070135Y-39381291D01*
X61784555Y-39263000D01*
X61475445Y-39263000D01*
X61189865Y-39381291D01*
X60988156Y-39583000D01*
X51821844Y-39583000D01*
X51650135Y-39411291D01*
X51364555Y-39293000D01*
X51055445Y-39293000D01*
X50769865Y-39411291D01*
X50551291Y-39629865D01*
X50433000Y-39915445D01*
X49937636Y-39915445D01*
X49967000Y-39844555D01*
X49967000Y-39535445D01*
X49848709Y-39249865D01*
X49630135Y-39031291D01*
X49344555Y-38913000D01*
X49035445Y-38913000D01*
X48749865Y-39031291D01*
X48531291Y-39249865D01*
X48525850Y-39263000D01*
X40091844Y-39263000D01*
X39890135Y-39061291D01*
X39604555Y-38943000D01*
X39295445Y-38943000D01*
X39009865Y-39061291D01*
X38791291Y-39279865D01*
X38673000Y-39565445D01*
X38673000Y-39874555D01*
X38791291Y-40160135D01*
X38924156Y-40293000D01*
X38675445Y-40293000D01*
X38389865Y-40411291D01*
X38188156Y-40613000D01*
X36891834Y-40613000D01*
X36800125Y-40521291D01*
X36514545Y-40403000D01*
X36205435Y-40403000D01*
X35919855Y-40521291D01*
X35701281Y-40739865D01*
X35582990Y-41025445D01*
X25452000Y-41025445D01*
X25452000Y-37315445D01*
X35473000Y-37315445D01*
X35473000Y-37624555D01*
X35591291Y-37910135D01*
X35809865Y-38128709D01*
X36095445Y-38247000D01*
X36404555Y-38247000D01*
X36690135Y-38128709D01*
X36891844Y-37927000D01*
X51358156Y-37927000D01*
X51479865Y-38048709D01*
X51765445Y-38167000D01*
X52074555Y-38167000D01*
X52360135Y-38048709D01*
X52578709Y-37830135D01*
X52697000Y-37544555D01*
X52697000Y-37235445D01*
X52578709Y-36949865D01*
X52360135Y-36731291D01*
X52074555Y-36613000D01*
X51765445Y-36613000D01*
X51479865Y-36731291D01*
X51261291Y-36949865D01*
X51235140Y-37013000D01*
X36891844Y-37013000D01*
X36690135Y-36811291D01*
X36404555Y-36693000D01*
X36095445Y-36693000D01*
X35809865Y-36811291D01*
X35591291Y-37029865D01*
X35473000Y-37315445D01*
X25452000Y-37315445D01*
X25452000Y-33555445D01*
X38443000Y-33555445D01*
X38443000Y-33864555D01*
X38561291Y-34150135D01*
X38779865Y-34368709D01*
X39065445Y-34487000D01*
X39374555Y-34487000D01*
X39486900Y-34440465D01*
X39373000Y-34715445D01*
X39373000Y-35024555D01*
X39491291Y-35310135D01*
X39709865Y-35528709D01*
X39995445Y-35647000D01*
X40304555Y-35647000D01*
X40590135Y-35528709D01*
X40691844Y-35427000D01*
X42898156Y-35427000D01*
X43099865Y-35628709D01*
X43385445Y-35747000D01*
X43694555Y-35747000D01*
X43980135Y-35628709D01*
X44198709Y-35410135D01*
X44317000Y-35124555D01*
X44317000Y-34815445D01*
X44198709Y-34529865D01*
X43980135Y-34311291D01*
X43694555Y-34193000D01*
X43385445Y-34193000D01*
X43152034Y-34289682D01*
X43237000Y-34084555D01*
X43237000Y-33775445D01*
X43118709Y-33489865D01*
X42900135Y-33271291D01*
X42614555Y-33153000D01*
X42305445Y-33153000D01*
X42019865Y-33271291D01*
X41818156Y-33473000D01*
X39962850Y-33473000D01*
X39878709Y-33269865D01*
X39660135Y-33051291D01*
X39374555Y-32933000D01*
X39065445Y-32933000D01*
X38779865Y-33051291D01*
X38561291Y-33269865D01*
X38443000Y-33555445D01*
X25452000Y-33555445D01*
X25452000Y-31240910D01*
X25938695Y-31240910D01*
X26305640Y-31736343D01*
X27711171Y-32329736D01*
X29236793Y-32340087D01*
X30650246Y-31765819D01*
X30694360Y-31736343D01*
X31061305Y-31240910D01*
X28500000Y-28679605D01*
X25938695Y-31240910D01*
X25452000Y-31240910D01*
X25452000Y-30833857D01*
X25759090Y-31061305D01*
X28320395Y-28500000D01*
X28679605Y-28500000D01*
X31240910Y-31061305D01*
X31736343Y-30694360D01*
X32329736Y-29288829D01*
X32340087Y-27763207D01*
X31765819Y-26349754D01*
X31736343Y-26305640D01*
X31240910Y-25938695D01*
X28679605Y-28500000D01*
X28320395Y-28500000D01*
X25759090Y-25938695D01*
X25452000Y-26166143D01*
X25452000Y-25452000D01*
X26166143Y-25452000D01*
X25938695Y-25759090D01*
X25938695Y-25759090D01*
G37*
X25938695Y-25759090D02*
X28500000Y-28320395D01*
X31061305Y-25759090D01*
X30833857Y-25452000D01*
X59511369Y-25452000D01*
X59473792Y-25467565D01*
X58467565Y-26473792D01*
X57923000Y-27788490D01*
X57923000Y-29211510D01*
X58467565Y-30526208D01*
X59473792Y-31532435D01*
X60788490Y-32077000D01*
X62211510Y-32077000D01*
X63526208Y-31532435D01*
X64532435Y-30526208D01*
X64548000Y-30488630D01*
X64548001Y-69511371D01*
X64532435Y-69473792D01*
X63526208Y-68467565D01*
X62211510Y-67923000D01*
X60788490Y-67923000D01*
X59473792Y-68467565D01*
X58467565Y-69473792D01*
X57923000Y-70788490D01*
X57923000Y-72211510D01*
X58467565Y-73526208D01*
X59473792Y-74532435D01*
X59511369Y-74548000D01*
X30488631Y-74548000D01*
X30526208Y-74532435D01*
X31532435Y-73526208D01*
X32077000Y-72211510D01*
X32077000Y-70788490D01*
X31532435Y-69473792D01*
X30526208Y-68467565D01*
X29211510Y-67923000D01*
X27788490Y-67923000D01*
X26473792Y-68467565D01*
X25467565Y-69473792D01*
X25452000Y-69511369D01*
X25452000Y-62765445D01*
X26413000Y-62765445D01*
X26413000Y-63074555D01*
X26531291Y-63360135D01*
X26749865Y-63578709D01*
X27035445Y-63697000D01*
X27320706Y-63697000D01*
X28725025Y-65101321D01*
X28750521Y-65139479D01*
X28788678Y-65164974D01*
X28901687Y-65240484D01*
X29080000Y-65275953D01*
X29125009Y-65267000D01*
X38108156Y-65267000D01*
X38309865Y-65468709D01*
X38595445Y-65587000D01*
X38883000Y-65587000D01*
X38883000Y-65804555D01*
X39001291Y-66090135D01*
X39219865Y-66308709D01*
X39505445Y-66427000D01*
X39814555Y-66427000D01*
X40100135Y-66308709D01*
X40251844Y-66157000D01*
X58478156Y-66157000D01*
X58679865Y-66358709D01*
X58965445Y-66477000D01*
X59274555Y-66477000D01*
X59560135Y-66358709D01*
X59778709Y-66140135D01*
X59897000Y-65854555D01*
X59897000Y-65545445D01*
X59778709Y-65259865D01*
X59560135Y-65041291D01*
X59274555Y-64923000D01*
X58965445Y-64923000D01*
X58679865Y-65041291D01*
X58478156Y-65243000D01*
X40332434Y-65243000D01*
X40318709Y-65209865D01*
X40100135Y-64991291D01*
X39814555Y-64873000D01*
X39527000Y-64873000D01*
X39527000Y-64655445D01*
X39408709Y-64369865D01*
X39190135Y-64151291D01*
X38904555Y-64033000D01*
X38595445Y-64033000D01*
X38309865Y-64151291D01*
X38108156Y-64353000D01*
X29269296Y-64353000D01*
X27967000Y-63050706D01*
X27967000Y-62765445D01*
X27848709Y-62479865D01*
X27630135Y-62261291D01*
X27543596Y-62225445D01*
X45623000Y-62225445D01*
X45623000Y-62534555D01*
X45741291Y-62820135D01*
X45959865Y-63038709D01*
X46245445Y-63157000D01*
X46554555Y-63157000D01*
X46840135Y-63038709D01*
X47021844Y-62857000D01*
X49059276Y-62857000D01*
X49062953Y-62875485D01*
X49197761Y-63077239D01*
X49399515Y-63212047D01*
X49637500Y-63259385D01*
X50212500Y-63259385D01*
X50450485Y-63212047D01*
X50569383Y-63132602D01*
X50611673Y-63234699D01*
X50790302Y-63413327D01*
X51023691Y-63510000D01*
X51389250Y-63510000D01*
X51548000Y-63351250D01*
X51548000Y-62527000D01*
X51802000Y-62527000D01*
X51802000Y-63351250D01*
X51960750Y-63510000D01*
X52326309Y-63510000D01*
X52559698Y-63413327D01*
X52738327Y-63234699D01*
X52835000Y-63001310D01*
X52835000Y-62685750D01*
X52676250Y-62527000D01*
X51802000Y-62527000D01*
X51548000Y-62527000D01*
X51528000Y-62527000D01*
X51528000Y-62273000D01*
X51548000Y-62273000D01*
X51548000Y-61448750D01*
X51802000Y-61448750D01*
X51802000Y-62273000D01*
X52676250Y-62273000D01*
X52683805Y-62265445D01*
X54293000Y-62265445D01*
X54293000Y-62574555D01*
X54411291Y-62860135D01*
X54629865Y-63078709D01*
X54915445Y-63197000D01*
X55224555Y-63197000D01*
X55510135Y-63078709D01*
X55711844Y-62877000D01*
X62819282Y-62877000D01*
X62841291Y-62930135D01*
X63059865Y-63148709D01*
X63345445Y-63267000D01*
X63654555Y-63267000D01*
X63940135Y-63148709D01*
X64158709Y-62930135D01*
X64277000Y-62644555D01*
X64277000Y-62335445D01*
X64158709Y-62049865D01*
X63940135Y-61831291D01*
X63654555Y-61713000D01*
X63345445Y-61713000D01*
X63059865Y-61831291D01*
X62928156Y-61963000D01*
X55711844Y-61963000D01*
X55510135Y-61761291D01*
X55224555Y-61643000D01*
X54915445Y-61643000D01*
X54629865Y-61761291D01*
X54411291Y-61979865D01*
X54293000Y-62265445D01*
X52683805Y-62265445D01*
X52835000Y-62114250D01*
X52835000Y-61798690D01*
X52738327Y-61565301D01*
X52559698Y-61386673D01*
X52326309Y-61290000D01*
X51960750Y-61290000D01*
X51802000Y-61448750D01*
X51548000Y-61448750D01*
X51389250Y-61290000D01*
X51023691Y-61290000D01*
X50790302Y-61386673D01*
X50611673Y-61565301D01*
X50569383Y-61667398D01*
X50450485Y-61587953D01*
X50212500Y-61540615D01*
X49637500Y-61540615D01*
X49399515Y-61587953D01*
X49197761Y-61722761D01*
X49062953Y-61924515D01*
X49059276Y-61943000D01*
X47060008Y-61943000D01*
X47058709Y-61939865D01*
X46840135Y-61721291D01*
X46554555Y-61603000D01*
X46245445Y-61603000D01*
X45959865Y-61721291D01*
X45741291Y-61939865D01*
X45623000Y-62225445D01*
X27543596Y-62225445D01*
X27344555Y-62143000D01*
X27035445Y-62143000D01*
X26749865Y-62261291D01*
X26531291Y-62479865D01*
X26413000Y-62765445D01*
X25452000Y-62765445D01*
X25452000Y-53975445D01*
X27693000Y-53975445D01*
X27693000Y-54284555D01*
X27811291Y-54570135D01*
X28029865Y-54788709D01*
X28315445Y-54907000D01*
X28624555Y-54907000D01*
X28910135Y-54788709D01*
X29111844Y-54587000D01*
X38188156Y-54587000D01*
X38309865Y-54708709D01*
X38595445Y-54827000D01*
X38904555Y-54827000D01*
X39190135Y-54708709D01*
X39391844Y-54507000D01*
X46480706Y-54507000D01*
X46563000Y-54589294D01*
X46563000Y-54874555D01*
X46681291Y-55160135D01*
X46899865Y-55378709D01*
X47185445Y-55497000D01*
X47494555Y-55497000D01*
X47780135Y-55378709D01*
X47998709Y-55160135D01*
X48117000Y-54874555D01*
X48117000Y-54565445D01*
X47998709Y-54279865D01*
X47865844Y-54147000D01*
X49248156Y-54147000D01*
X49449865Y-54348709D01*
X49735445Y-54467000D01*
X50044555Y-54467000D01*
X50330135Y-54348709D01*
X50531844Y-54147000D01*
X62144992Y-54147000D01*
X62190000Y-54155953D01*
X62235008Y-54147000D01*
X62235009Y-54147000D01*
X62368312Y-54120484D01*
X62519479Y-54019479D01*
X62544979Y-53981315D01*
X62869294Y-53657000D01*
X63154555Y-53657000D01*
X63440135Y-53538709D01*
X63658709Y-53320135D01*
X63777000Y-53034555D01*
X63777000Y-52725445D01*
X63658709Y-52439865D01*
X63440135Y-52221291D01*
X63154555Y-52103000D01*
X62845445Y-52103000D01*
X62559865Y-52221291D01*
X62341291Y-52439865D01*
X62223000Y-52725445D01*
X62223000Y-53010706D01*
X62000706Y-53233000D01*
X59433207Y-53233000D01*
X59540135Y-53188709D01*
X59758709Y-52970135D01*
X59877000Y-52684555D01*
X59877000Y-52375445D01*
X59758709Y-52089865D01*
X59540135Y-51871291D01*
X59254555Y-51753000D01*
X58945445Y-51753000D01*
X58659865Y-51871291D01*
X58441291Y-52089865D01*
X58431708Y-52113000D01*
X51871844Y-52113000D01*
X51670135Y-51911291D01*
X51384555Y-51793000D01*
X51075445Y-51793000D01*
X50789865Y-51911291D01*
X50571291Y-52129865D01*
X50453000Y-52415445D01*
X50453000Y-52724555D01*
X50571291Y-53010135D01*
X50789865Y-53228709D01*
X50800224Y-53233000D01*
X50531844Y-53233000D01*
X50330135Y-53031291D01*
X50044555Y-52913000D01*
X49735445Y-52913000D01*
X49449865Y-53031291D01*
X49248156Y-53233000D01*
X44619295Y-53233000D01*
X44297000Y-52910706D01*
X44297000Y-52625445D01*
X44178709Y-52339865D01*
X43960135Y-52121291D01*
X43674555Y-52003000D01*
X43365445Y-52003000D01*
X43079865Y-52121291D01*
X42861291Y-52339865D01*
X42743000Y-52625445D01*
X42743000Y-52934555D01*
X42861291Y-53220135D01*
X43079865Y-53438709D01*
X43365445Y-53557000D01*
X43650706Y-53557000D01*
X43686705Y-53593000D01*
X39391844Y-53593000D01*
X39190135Y-53391291D01*
X38904555Y-53273000D01*
X38595445Y-53273000D01*
X38309865Y-53391291D01*
X38091291Y-53609865D01*
X38065140Y-53673000D01*
X29111844Y-53673000D01*
X28910135Y-53471291D01*
X28624555Y-53353000D01*
X28315445Y-53353000D01*
X28029865Y-53471291D01*
X27811291Y-53689865D01*
X27693000Y-53975445D01*
X25452000Y-53975445D01*
X25452000Y-49715445D01*
X37273000Y-49715445D01*
X37273000Y-50024555D01*
X37391291Y-50310135D01*
X37609865Y-50528709D01*
X37895445Y-50647000D01*
X38204555Y-50647000D01*
X38490135Y-50528709D01*
X38691844Y-50327000D01*
X39456450Y-50327000D01*
X39625445Y-50397000D01*
X39934555Y-50397000D01*
X40220135Y-50278709D01*
X40438709Y-50060135D01*
X40557000Y-49774555D01*
X40557000Y-49465445D01*
X40438709Y-49179865D01*
X40220135Y-48961291D01*
X39934555Y-48843000D01*
X39625445Y-48843000D01*
X39339865Y-48961291D01*
X39121291Y-49179865D01*
X39024723Y-49413000D01*
X38691844Y-49413000D01*
X38490135Y-49211291D01*
X38204555Y-49093000D01*
X37895445Y-49093000D01*
X37609865Y-49211291D01*
X37391291Y-49429865D01*
X37273000Y-49715445D01*
X25452000Y-49715445D01*
X25452000Y-46715445D01*
X34313000Y-46715445D01*
X34313000Y-47024555D01*
X34431291Y-47310135D01*
X34649865Y-47528709D01*
X34935445Y-47647000D01*
X35244555Y-47647000D01*
X35530135Y-47528709D01*
X35739579Y-47319265D01*
X35801239Y-47307000D01*
X37925493Y-47307000D01*
X37893000Y-47385445D01*
X37893000Y-47694555D01*
X38011291Y-47980135D01*
X38229865Y-48198709D01*
X38515445Y-48317000D01*
X38824555Y-48317000D01*
X39110135Y-48198709D01*
X39311844Y-47997000D01*
X39818156Y-47997000D01*
X40019865Y-48198709D01*
X40305445Y-48317000D01*
X40614555Y-48317000D01*
X40900135Y-48198709D01*
X41118709Y-47980135D01*
X41237000Y-47694555D01*
X41237000Y-47627000D01*
X41484555Y-47627000D01*
X41770135Y-47508709D01*
X41971844Y-47307000D01*
X48795140Y-47307000D01*
X48821291Y-47370135D01*
X49039865Y-47588709D01*
X49325445Y-47707000D01*
X49634555Y-47707000D01*
X49920135Y-47588709D01*
X50138709Y-47370135D01*
X50257000Y-47084555D01*
X50257000Y-46775445D01*
X50138709Y-46489865D01*
X49920135Y-46271291D01*
X49634555Y-46153000D01*
X49325445Y-46153000D01*
X49039865Y-46271291D01*
X48918156Y-46393000D01*
X41971844Y-46393000D01*
X41770135Y-46191291D01*
X41484555Y-46073000D01*
X41175445Y-46073000D01*
X40889865Y-46191291D01*
X40688156Y-46393000D01*
X35720692Y-46393000D01*
X35709647Y-46390803D01*
X35530135Y-46211291D01*
X35244555Y-46093000D01*
X34935445Y-46093000D01*
X34649865Y-46211291D01*
X34431291Y-46429865D01*
X34313000Y-46715445D01*
X25452000Y-46715445D01*
X25452000Y-41025445D01*
X35582990Y-41025445D01*
X35582990Y-41334555D01*
X35701281Y-41620135D01*
X35919855Y-41838709D01*
X36205435Y-41957000D01*
X36514545Y-41957000D01*
X36800125Y-41838709D01*
X37018699Y-41620135D01*
X37057277Y-41527000D01*
X38188156Y-41527000D01*
X38389865Y-41728709D01*
X38675445Y-41847000D01*
X38984555Y-41847000D01*
X39270135Y-41728709D01*
X39403399Y-41595445D01*
X41653000Y-41595445D01*
X41653000Y-41904555D01*
X41771291Y-42190135D01*
X41989865Y-42408709D01*
X42275445Y-42527000D01*
X42584555Y-42527000D01*
X42870135Y-42408709D01*
X43088709Y-42190135D01*
X43090008Y-42187000D01*
X50618156Y-42187000D01*
X50819865Y-42388709D01*
X51105445Y-42507000D01*
X51414555Y-42507000D01*
X51700135Y-42388709D01*
X51918709Y-42170135D01*
X52037000Y-41884555D01*
X52037000Y-41575445D01*
X51918709Y-41289865D01*
X51700135Y-41071291D01*
X51414555Y-40953000D01*
X51105445Y-40953000D01*
X50819865Y-41071291D01*
X50618156Y-41273000D01*
X43051844Y-41273000D01*
X42870135Y-41091291D01*
X42584555Y-40973000D01*
X42275445Y-40973000D01*
X41989865Y-41091291D01*
X41771291Y-41309865D01*
X41653000Y-41595445D01*
X39403399Y-41595445D01*
X39488709Y-41510135D01*
X39607000Y-41224555D01*
X39607000Y-40915445D01*
X39488709Y-40629865D01*
X39355844Y-40497000D01*
X39604555Y-40497000D01*
X39890135Y-40378709D01*
X40091844Y-40177000D01*
X48578156Y-40177000D01*
X48749865Y-40348709D01*
X49035445Y-40467000D01*
X49344555Y-40467000D01*
X49630135Y-40348709D01*
X49848709Y-40130135D01*
X49937636Y-39915445D01*
X50433000Y-39915445D01*
X50433000Y-40224555D01*
X50551291Y-40510135D01*
X50769865Y-40728709D01*
X51055445Y-40847000D01*
X51364555Y-40847000D01*
X51650135Y-40728709D01*
X51868709Y-40510135D01*
X51874150Y-40497000D01*
X60988156Y-40497000D01*
X61189865Y-40698709D01*
X61475445Y-40817000D01*
X61784555Y-40817000D01*
X62070135Y-40698709D01*
X62288709Y-40480135D01*
X62407000Y-40194555D01*
X62407000Y-39885445D01*
X62288709Y-39599865D01*
X62070135Y-39381291D01*
X61784555Y-39263000D01*
X61475445Y-39263000D01*
X61189865Y-39381291D01*
X60988156Y-39583000D01*
X51821844Y-39583000D01*
X51650135Y-39411291D01*
X51364555Y-39293000D01*
X51055445Y-39293000D01*
X50769865Y-39411291D01*
X50551291Y-39629865D01*
X50433000Y-39915445D01*
X49937636Y-39915445D01*
X49967000Y-39844555D01*
X49967000Y-39535445D01*
X49848709Y-39249865D01*
X49630135Y-39031291D01*
X49344555Y-38913000D01*
X49035445Y-38913000D01*
X48749865Y-39031291D01*
X48531291Y-39249865D01*
X48525850Y-39263000D01*
X40091844Y-39263000D01*
X39890135Y-39061291D01*
X39604555Y-38943000D01*
X39295445Y-38943000D01*
X39009865Y-39061291D01*
X38791291Y-39279865D01*
X38673000Y-39565445D01*
X38673000Y-39874555D01*
X38791291Y-40160135D01*
X38924156Y-40293000D01*
X38675445Y-40293000D01*
X38389865Y-40411291D01*
X38188156Y-40613000D01*
X36891834Y-40613000D01*
X36800125Y-40521291D01*
X36514545Y-40403000D01*
X36205435Y-40403000D01*
X35919855Y-40521291D01*
X35701281Y-40739865D01*
X35582990Y-41025445D01*
X25452000Y-41025445D01*
X25452000Y-37315445D01*
X35473000Y-37315445D01*
X35473000Y-37624555D01*
X35591291Y-37910135D01*
X35809865Y-38128709D01*
X36095445Y-38247000D01*
X36404555Y-38247000D01*
X36690135Y-38128709D01*
X36891844Y-37927000D01*
X51358156Y-37927000D01*
X51479865Y-38048709D01*
X51765445Y-38167000D01*
X52074555Y-38167000D01*
X52360135Y-38048709D01*
X52578709Y-37830135D01*
X52697000Y-37544555D01*
X52697000Y-37235445D01*
X52578709Y-36949865D01*
X52360135Y-36731291D01*
X52074555Y-36613000D01*
X51765445Y-36613000D01*
X51479865Y-36731291D01*
X51261291Y-36949865D01*
X51235140Y-37013000D01*
X36891844Y-37013000D01*
X36690135Y-36811291D01*
X36404555Y-36693000D01*
X36095445Y-36693000D01*
X35809865Y-36811291D01*
X35591291Y-37029865D01*
X35473000Y-37315445D01*
X25452000Y-37315445D01*
X25452000Y-33555445D01*
X38443000Y-33555445D01*
X38443000Y-33864555D01*
X38561291Y-34150135D01*
X38779865Y-34368709D01*
X39065445Y-34487000D01*
X39374555Y-34487000D01*
X39486900Y-34440465D01*
X39373000Y-34715445D01*
X39373000Y-35024555D01*
X39491291Y-35310135D01*
X39709865Y-35528709D01*
X39995445Y-35647000D01*
X40304555Y-35647000D01*
X40590135Y-35528709D01*
X40691844Y-35427000D01*
X42898156Y-35427000D01*
X43099865Y-35628709D01*
X43385445Y-35747000D01*
X43694555Y-35747000D01*
X43980135Y-35628709D01*
X44198709Y-35410135D01*
X44317000Y-35124555D01*
X44317000Y-34815445D01*
X44198709Y-34529865D01*
X43980135Y-34311291D01*
X43694555Y-34193000D01*
X43385445Y-34193000D01*
X43152034Y-34289682D01*
X43237000Y-34084555D01*
X43237000Y-33775445D01*
X43118709Y-33489865D01*
X42900135Y-33271291D01*
X42614555Y-33153000D01*
X42305445Y-33153000D01*
X42019865Y-33271291D01*
X41818156Y-33473000D01*
X39962850Y-33473000D01*
X39878709Y-33269865D01*
X39660135Y-33051291D01*
X39374555Y-32933000D01*
X39065445Y-32933000D01*
X38779865Y-33051291D01*
X38561291Y-33269865D01*
X38443000Y-33555445D01*
X25452000Y-33555445D01*
X25452000Y-31240910D01*
X25938695Y-31240910D01*
X26305640Y-31736343D01*
X27711171Y-32329736D01*
X29236793Y-32340087D01*
X30650246Y-31765819D01*
X30694360Y-31736343D01*
X31061305Y-31240910D01*
X28500000Y-28679605D01*
X25938695Y-31240910D01*
X25452000Y-31240910D01*
X25452000Y-30833857D01*
X25759090Y-31061305D01*
X28320395Y-28500000D01*
X28679605Y-28500000D01*
X31240910Y-31061305D01*
X31736343Y-30694360D01*
X32329736Y-29288829D01*
X32340087Y-27763207D01*
X31765819Y-26349754D01*
X31736343Y-26305640D01*
X31240910Y-25938695D01*
X28679605Y-28500000D01*
X28320395Y-28500000D01*
X25759090Y-25938695D01*
X25452000Y-26166143D01*
X25452000Y-25452000D01*
X26166143Y-25452000D01*
X25938695Y-25759090D01*
G04 #@! TD*
M02*
