G04 #@! TF.GenerationSoftware,KiCad,Pcbnew,5.0.2+dfsg1-1*
G04 #@! TF.CreationDate,2019-02-17T13:47:13+13:00*
G04 #@! TF.ProjectId,1b-reg,31622d72-6567-42e6-9b69-6361645f7063,rev?*
G04 #@! TF.SameCoordinates,Original*
G04 #@! TF.FileFunction,Soldermask,Bot*
G04 #@! TF.FilePolarity,Negative*
%FSLAX46Y46*%
G04 Gerber Fmt 4.6, Leading zero omitted, Abs format (unit mm)*
G04 Created by KiCad (PCBNEW 5.0.2+dfsg1-1) date Sun 17 Feb 2019 13:47:13 NZDT*
%MOMM*%
%LPD*%
G01*
G04 APERTURE LIST*
%ADD10C,0.100000*%
G04 APERTURE END LIST*
D10*
G36*
X29134239Y-68311467D02*
X29448282Y-68373934D01*
X30039926Y-68619001D01*
X30329523Y-68812504D01*
X30572395Y-68974786D01*
X31025214Y-69427605D01*
X31025216Y-69427608D01*
X31380999Y-69960074D01*
X31502724Y-70253944D01*
X31626066Y-70551719D01*
X31751000Y-71179803D01*
X31751000Y-71820197D01*
X31688533Y-72134239D01*
X31626066Y-72448282D01*
X31380999Y-73039926D01*
X31133265Y-73410685D01*
X31025214Y-73572395D01*
X30572395Y-74025214D01*
X30572392Y-74025216D01*
X30039926Y-74380999D01*
X29448282Y-74626066D01*
X29134239Y-74688533D01*
X28820197Y-74751000D01*
X28179803Y-74751000D01*
X27865761Y-74688533D01*
X27551718Y-74626066D01*
X26960074Y-74380999D01*
X26427608Y-74025216D01*
X26427605Y-74025214D01*
X25974786Y-73572395D01*
X25866735Y-73410685D01*
X25619001Y-73039926D01*
X25373934Y-72448282D01*
X25311467Y-72134239D01*
X25249000Y-71820197D01*
X25249000Y-71179803D01*
X25373934Y-70551719D01*
X25497276Y-70253944D01*
X25619001Y-69960074D01*
X25974784Y-69427608D01*
X25974786Y-69427605D01*
X26427605Y-68974786D01*
X26670477Y-68812504D01*
X26960074Y-68619001D01*
X27551718Y-68373934D01*
X27865761Y-68311467D01*
X28179803Y-68249000D01*
X28820197Y-68249000D01*
X29134239Y-68311467D01*
X29134239Y-68311467D01*
G37*
G36*
X62134239Y-68311467D02*
X62448282Y-68373934D01*
X63039926Y-68619001D01*
X63329523Y-68812504D01*
X63572395Y-68974786D01*
X64025214Y-69427605D01*
X64025216Y-69427608D01*
X64380999Y-69960074D01*
X64502724Y-70253944D01*
X64626066Y-70551719D01*
X64751000Y-71179803D01*
X64751000Y-71820197D01*
X64688533Y-72134239D01*
X64626066Y-72448282D01*
X64380999Y-73039926D01*
X64133265Y-73410685D01*
X64025214Y-73572395D01*
X63572395Y-74025214D01*
X63572392Y-74025216D01*
X63039926Y-74380999D01*
X62448282Y-74626066D01*
X62134239Y-74688533D01*
X61820197Y-74751000D01*
X61179803Y-74751000D01*
X60865761Y-74688533D01*
X60551718Y-74626066D01*
X59960074Y-74380999D01*
X59427608Y-74025216D01*
X59427605Y-74025214D01*
X58974786Y-73572395D01*
X58866735Y-73410685D01*
X58619001Y-73039926D01*
X58373934Y-72448282D01*
X58311467Y-72134239D01*
X58249000Y-71820197D01*
X58249000Y-71179803D01*
X58373934Y-70551719D01*
X58497276Y-70253944D01*
X58619001Y-69960074D01*
X58974784Y-69427608D01*
X58974786Y-69427605D01*
X59427605Y-68974786D01*
X59670477Y-68812504D01*
X59960074Y-68619001D01*
X60551718Y-68373934D01*
X60865761Y-68311467D01*
X61179803Y-68249000D01*
X61820197Y-68249000D01*
X62134239Y-68311467D01*
X62134239Y-68311467D01*
G37*
G36*
X52089499Y-61878445D02*
X52126993Y-61889819D01*
X52161557Y-61908294D01*
X52191847Y-61933153D01*
X52216706Y-61963443D01*
X52235181Y-61998007D01*
X52246555Y-62035501D01*
X52251000Y-62080638D01*
X52251000Y-62719362D01*
X52246555Y-62764499D01*
X52235181Y-62801993D01*
X52216706Y-62836557D01*
X52191847Y-62866847D01*
X52161557Y-62891706D01*
X52126993Y-62910181D01*
X52089499Y-62921555D01*
X52044362Y-62926000D01*
X51305638Y-62926000D01*
X51260501Y-62921555D01*
X51223007Y-62910181D01*
X51188443Y-62891706D01*
X51158153Y-62866847D01*
X51133294Y-62836557D01*
X51114819Y-62801993D01*
X51103445Y-62764499D01*
X51099000Y-62719362D01*
X51099000Y-62080638D01*
X51103445Y-62035501D01*
X51114819Y-61998007D01*
X51133294Y-61963443D01*
X51158153Y-61933153D01*
X51188443Y-61908294D01*
X51223007Y-61889819D01*
X51260501Y-61878445D01*
X51305638Y-61874000D01*
X52044362Y-61874000D01*
X52089499Y-61878445D01*
X52089499Y-61878445D01*
G37*
G36*
X50339499Y-61878445D02*
X50376993Y-61889819D01*
X50411557Y-61908294D01*
X50441847Y-61933153D01*
X50466706Y-61963443D01*
X50485181Y-61998007D01*
X50496555Y-62035501D01*
X50501000Y-62080638D01*
X50501000Y-62719362D01*
X50496555Y-62764499D01*
X50485181Y-62801993D01*
X50466706Y-62836557D01*
X50441847Y-62866847D01*
X50411557Y-62891706D01*
X50376993Y-62910181D01*
X50339499Y-62921555D01*
X50294362Y-62926000D01*
X49555638Y-62926000D01*
X49510501Y-62921555D01*
X49473007Y-62910181D01*
X49438443Y-62891706D01*
X49408153Y-62866847D01*
X49383294Y-62836557D01*
X49364819Y-62801993D01*
X49353445Y-62764499D01*
X49349000Y-62719362D01*
X49349000Y-62080638D01*
X49353445Y-62035501D01*
X49364819Y-61998007D01*
X49383294Y-61963443D01*
X49408153Y-61933153D01*
X49438443Y-61908294D01*
X49473007Y-61889819D01*
X49510501Y-61878445D01*
X49555638Y-61874000D01*
X50294362Y-61874000D01*
X50339499Y-61878445D01*
X50339499Y-61878445D01*
G37*
G36*
X29134239Y-25311467D02*
X29448282Y-25373934D01*
X30039926Y-25619001D01*
X30329523Y-25812504D01*
X30572395Y-25974786D01*
X31025214Y-26427605D01*
X31025216Y-26427608D01*
X31380999Y-26960074D01*
X31502724Y-27253944D01*
X31626066Y-27551719D01*
X31751000Y-28179803D01*
X31751000Y-28820197D01*
X31688533Y-29134239D01*
X31626066Y-29448282D01*
X31380999Y-30039926D01*
X31133265Y-30410685D01*
X31025214Y-30572395D01*
X30572395Y-31025214D01*
X30572392Y-31025216D01*
X30039926Y-31380999D01*
X29448282Y-31626066D01*
X29134239Y-31688533D01*
X28820197Y-31751000D01*
X28179803Y-31751000D01*
X27865761Y-31688533D01*
X27551718Y-31626066D01*
X26960074Y-31380999D01*
X26427608Y-31025216D01*
X26427605Y-31025214D01*
X25974786Y-30572395D01*
X25866735Y-30410685D01*
X25619001Y-30039926D01*
X25373934Y-29448282D01*
X25311467Y-29134239D01*
X25249000Y-28820197D01*
X25249000Y-28179803D01*
X25373934Y-27551719D01*
X25497276Y-27253944D01*
X25619001Y-26960074D01*
X25974784Y-26427608D01*
X25974786Y-26427605D01*
X26427605Y-25974786D01*
X26670477Y-25812504D01*
X26960074Y-25619001D01*
X27551718Y-25373934D01*
X27865761Y-25311467D01*
X28179803Y-25249000D01*
X28820197Y-25249000D01*
X29134239Y-25311467D01*
X29134239Y-25311467D01*
G37*
G36*
X62134239Y-25311467D02*
X62448282Y-25373934D01*
X63039926Y-25619001D01*
X63329523Y-25812504D01*
X63572395Y-25974786D01*
X64025214Y-26427605D01*
X64025216Y-26427608D01*
X64380999Y-26960074D01*
X64502724Y-27253944D01*
X64626066Y-27551719D01*
X64751000Y-28179803D01*
X64751000Y-28820197D01*
X64688533Y-29134239D01*
X64626066Y-29448282D01*
X64380999Y-30039926D01*
X64133265Y-30410685D01*
X64025214Y-30572395D01*
X63572395Y-31025214D01*
X63572392Y-31025216D01*
X63039926Y-31380999D01*
X62448282Y-31626066D01*
X62134239Y-31688533D01*
X61820197Y-31751000D01*
X61179803Y-31751000D01*
X60865761Y-31688533D01*
X60551718Y-31626066D01*
X59960074Y-31380999D01*
X59427608Y-31025216D01*
X59427605Y-31025214D01*
X58974786Y-30572395D01*
X58866735Y-30410685D01*
X58619001Y-30039926D01*
X58373934Y-29448282D01*
X58311467Y-29134239D01*
X58249000Y-28820197D01*
X58249000Y-28179803D01*
X58373934Y-27551719D01*
X58497276Y-27253944D01*
X58619001Y-26960074D01*
X58974784Y-26427608D01*
X58974786Y-26427605D01*
X59427605Y-25974786D01*
X59670477Y-25812504D01*
X59960074Y-25619001D01*
X60551718Y-25373934D01*
X60865761Y-25311467D01*
X61179803Y-25249000D01*
X61820197Y-25249000D01*
X62134239Y-25311467D01*
X62134239Y-25311467D01*
G37*
M02*
