M48
;DRILL file {KiCad 5.0.2+dfsg1-1} date Sun 17 Feb 2019 13:47:16 NZDT
;FORMAT={3:3/ absolute / metric / suppress leading zeros}
FMAT,2
METRIC,TZ
T1C0.400
T2C0.500
T3C3.200
%
G90
G05
T1
X27190Y-62920
X28470Y-54130
X35090Y-46870
X36250Y-37470
X36360Y-41180
X38050Y-49870
X38670Y-47540
X38750Y-54050
X38750Y-64810
X38830Y-41070
X39220Y-33710
X39450Y-39720
X39660Y-65650
X39780Y-49620
X40150Y-34870
X40460Y-47540
X40880Y-63890
X40920Y-51350
X40960Y-38680
X41330Y-46850
X42430Y-41750
X42460Y-33930
X43520Y-52780
X43540Y-34970
X46400Y-62380
X47340Y-54720
X49190Y-39690
X49480Y-46930
X49890Y-53690
X51210Y-40070
X51230Y-52570
X51260Y-41730
X51920Y-37390
X52520Y-51290
X52540Y-38750
X55070Y-62420
X59100Y-52530
X59120Y-65700
X61630Y-40040
X63000Y-52880
X63500Y-62490
T2
X26100Y-28500
X26803Y-26803
X26803Y-30197
X28500Y-26100
X28500Y-30900
X30197Y-26803
X30197Y-30197
X30900Y-28500
X59100Y-28500
X59803Y-26803
X59803Y-30197
X61500Y-26100
X61500Y-30900
X63197Y-26803
X63197Y-30197
X63900Y-28500
X59100Y-71500
X59803Y-69803
X59803Y-73197
X61500Y-69100
X61500Y-73900
X63197Y-69803
X63197Y-73197
X63900Y-71500
X26100Y-71500
X26803Y-69803
X26803Y-73197
X28500Y-69100
X28500Y-73900
X30197Y-69803
X30197Y-73197
X30900Y-71500
T3
X28500Y-28500
X61500Y-28500
X61500Y-71500
X28500Y-71500
T0
M30
