G04 #@! TF.GenerationSoftware,KiCad,Pcbnew,5.0.2+dfsg1-1*
G04 #@! TF.CreationDate,2019-02-17T13:47:13+13:00*
G04 #@! TF.ProjectId,1b-reg,31622d72-6567-42e6-9b69-6361645f7063,rev?*
G04 #@! TF.SameCoordinates,Original*
G04 #@! TF.FileFunction,Legend,Bot*
G04 #@! TF.FilePolarity,Positive*
%FSLAX46Y46*%
G04 Gerber Fmt 4.6, Leading zero omitted, Abs format (unit mm)*
G04 Created by KiCad (PCBNEW 5.0.2+dfsg1-1) date Sun 17 Feb 2019 13:47:13 NZDT*
%MOMM*%
%LPD*%
G01*
G04 APERTURE LIST*
%ADD10C,0.120000*%
%ADD11C,0.150000*%
G04 APERTURE END LIST*
D10*
G04 #@! TO.C,R1*
X50628733Y-62910000D02*
X50971267Y-62910000D01*
X50628733Y-61890000D02*
X50971267Y-61890000D01*
D11*
X50966666Y-64282380D02*
X51300000Y-63806190D01*
X51538095Y-64282380D02*
X51538095Y-63282380D01*
X51157142Y-63282380D01*
X51061904Y-63330000D01*
X51014285Y-63377619D01*
X50966666Y-63472857D01*
X50966666Y-63615714D01*
X51014285Y-63710952D01*
X51061904Y-63758571D01*
X51157142Y-63806190D01*
X51538095Y-63806190D01*
X50014285Y-64282380D02*
X50585714Y-64282380D01*
X50300000Y-64282380D02*
X50300000Y-63282380D01*
X50395238Y-63425238D01*
X50490476Y-63520476D01*
X50585714Y-63568095D01*
G04 #@! TD*
M02*
