G04 #@! TF.GenerationSoftware,KiCad,Pcbnew,5.0.2+dfsg1-1*
G04 #@! TF.CreationDate,2019-02-17T13:47:13+13:00*
G04 #@! TF.ProjectId,1b-reg,31622d72-6567-42e6-9b69-6361645f7063,rev?*
G04 #@! TF.SameCoordinates,Original*
G04 #@! TF.FileFunction,Copper,L1,Top*
G04 #@! TF.FilePolarity,Positive*
%FSLAX46Y46*%
G04 Gerber Fmt 4.6, Leading zero omitted, Abs format (unit mm)*
G04 Created by KiCad (PCBNEW 5.0.2+dfsg1-1) date Sun 17 Feb 2019 13:47:13 NZDT*
%MOMM*%
%LPD*%
G01*
G04 APERTURE LIST*
G04 #@! TA.AperFunction,Conductor*
%ADD10C,0.100000*%
G04 #@! TD*
G04 #@! TA.AperFunction,SMDPad,CuDef*
%ADD11C,1.150000*%
G04 #@! TD*
G04 #@! TA.AperFunction,SMDPad,CuDef*
%ADD12R,0.230000X0.630000*%
G04 #@! TD*
G04 #@! TA.AperFunction,ComponentPad*
%ADD13C,0.800000*%
G04 #@! TD*
G04 #@! TA.AperFunction,ComponentPad*
%ADD14C,6.400000*%
G04 #@! TD*
G04 #@! TA.AperFunction,SMDPad,CuDef*
%ADD15R,2.500000X2.500000*%
G04 #@! TD*
G04 #@! TA.AperFunction,ViaPad*
%ADD16C,0.800000*%
G04 #@! TD*
G04 #@! TA.AperFunction,Conductor*
%ADD17C,0.160000*%
G04 #@! TD*
G04 #@! TA.AperFunction,Conductor*
%ADD18C,0.254000*%
G04 #@! TD*
G04 APERTURE END LIST*
D10*
G04 #@! TO.N,Net-(D1-Pad1)*
G04 #@! TO.C,D1*
G36*
X50124505Y-61701204D02*
X50148773Y-61704804D01*
X50172572Y-61710765D01*
X50195671Y-61719030D01*
X50217850Y-61729520D01*
X50238893Y-61742132D01*
X50258599Y-61756747D01*
X50276777Y-61773223D01*
X50293253Y-61791401D01*
X50307868Y-61811107D01*
X50320480Y-61832150D01*
X50330970Y-61854329D01*
X50339235Y-61877428D01*
X50345196Y-61901227D01*
X50348796Y-61925495D01*
X50350000Y-61949999D01*
X50350000Y-62850001D01*
X50348796Y-62874505D01*
X50345196Y-62898773D01*
X50339235Y-62922572D01*
X50330970Y-62945671D01*
X50320480Y-62967850D01*
X50307868Y-62988893D01*
X50293253Y-63008599D01*
X50276777Y-63026777D01*
X50258599Y-63043253D01*
X50238893Y-63057868D01*
X50217850Y-63070480D01*
X50195671Y-63080970D01*
X50172572Y-63089235D01*
X50148773Y-63095196D01*
X50124505Y-63098796D01*
X50100001Y-63100000D01*
X49449999Y-63100000D01*
X49425495Y-63098796D01*
X49401227Y-63095196D01*
X49377428Y-63089235D01*
X49354329Y-63080970D01*
X49332150Y-63070480D01*
X49311107Y-63057868D01*
X49291401Y-63043253D01*
X49273223Y-63026777D01*
X49256747Y-63008599D01*
X49242132Y-62988893D01*
X49229520Y-62967850D01*
X49219030Y-62945671D01*
X49210765Y-62922572D01*
X49204804Y-62898773D01*
X49201204Y-62874505D01*
X49200000Y-62850001D01*
X49200000Y-61949999D01*
X49201204Y-61925495D01*
X49204804Y-61901227D01*
X49210765Y-61877428D01*
X49219030Y-61854329D01*
X49229520Y-61832150D01*
X49242132Y-61811107D01*
X49256747Y-61791401D01*
X49273223Y-61773223D01*
X49291401Y-61756747D01*
X49311107Y-61742132D01*
X49332150Y-61729520D01*
X49354329Y-61719030D01*
X49377428Y-61710765D01*
X49401227Y-61704804D01*
X49425495Y-61701204D01*
X49449999Y-61700000D01*
X50100001Y-61700000D01*
X50124505Y-61701204D01*
X50124505Y-61701204D01*
G37*
D11*
G04 #@! TD*
G04 #@! TO.P,D1,1*
G04 #@! TO.N,Net-(D1-Pad1)*
X49775000Y-62400000D03*
D10*
G04 #@! TO.N,/Q*
G04 #@! TO.C,D1*
G36*
X52174505Y-61701204D02*
X52198773Y-61704804D01*
X52222572Y-61710765D01*
X52245671Y-61719030D01*
X52267850Y-61729520D01*
X52288893Y-61742132D01*
X52308599Y-61756747D01*
X52326777Y-61773223D01*
X52343253Y-61791401D01*
X52357868Y-61811107D01*
X52370480Y-61832150D01*
X52380970Y-61854329D01*
X52389235Y-61877428D01*
X52395196Y-61901227D01*
X52398796Y-61925495D01*
X52400000Y-61949999D01*
X52400000Y-62850001D01*
X52398796Y-62874505D01*
X52395196Y-62898773D01*
X52389235Y-62922572D01*
X52380970Y-62945671D01*
X52370480Y-62967850D01*
X52357868Y-62988893D01*
X52343253Y-63008599D01*
X52326777Y-63026777D01*
X52308599Y-63043253D01*
X52288893Y-63057868D01*
X52267850Y-63070480D01*
X52245671Y-63080970D01*
X52222572Y-63089235D01*
X52198773Y-63095196D01*
X52174505Y-63098796D01*
X52150001Y-63100000D01*
X51499999Y-63100000D01*
X51475495Y-63098796D01*
X51451227Y-63095196D01*
X51427428Y-63089235D01*
X51404329Y-63080970D01*
X51382150Y-63070480D01*
X51361107Y-63057868D01*
X51341401Y-63043253D01*
X51323223Y-63026777D01*
X51306747Y-63008599D01*
X51292132Y-62988893D01*
X51279520Y-62967850D01*
X51269030Y-62945671D01*
X51260765Y-62922572D01*
X51254804Y-62898773D01*
X51251204Y-62874505D01*
X51250000Y-62850001D01*
X51250000Y-61949999D01*
X51251204Y-61925495D01*
X51254804Y-61901227D01*
X51260765Y-61877428D01*
X51269030Y-61854329D01*
X51279520Y-61832150D01*
X51292132Y-61811107D01*
X51306747Y-61791401D01*
X51323223Y-61773223D01*
X51341401Y-61756747D01*
X51361107Y-61742132D01*
X51382150Y-61729520D01*
X51404329Y-61719030D01*
X51427428Y-61710765D01*
X51451227Y-61704804D01*
X51475495Y-61701204D01*
X51499999Y-61700000D01*
X52150001Y-61700000D01*
X52174505Y-61701204D01*
X52174505Y-61701204D01*
G37*
D11*
G04 #@! TD*
G04 #@! TO.P,D1,2*
G04 #@! TO.N,/Q*
X51825000Y-62400000D03*
D12*
G04 #@! TO.P,U5,9*
G04 #@! TO.N,Net-(U5-Pad3)*
X50400000Y-48675000D03*
G04 #@! TO.P,U5,10*
G04 #@! TO.N,VCC*
X50000000Y-48675000D03*
G04 #@! TO.P,U5,5*
G04 #@! TO.N,GND*
X51600000Y-51325000D03*
G04 #@! TO.P,U5,4*
G04 #@! TO.N,/~RST*
X51200000Y-51325000D03*
G04 #@! TO.P,U5,3*
G04 #@! TO.N,Net-(U5-Pad3)*
X50800000Y-51325000D03*
G04 #@! TO.P,U5,2*
G04 #@! TO.N,Net-(U3-Pad7)*
X50400000Y-51325000D03*
G04 #@! TO.P,U5,1*
G04 #@! TO.N,/Q*
X50000000Y-51325000D03*
G04 #@! TO.P,U5,6*
G04 #@! TO.N,Net-(U5-Pad6)*
X51600000Y-48675000D03*
G04 #@! TO.P,U5,7*
G04 #@! TO.N,Net-(U1-Pad8)*
X51200000Y-48675000D03*
G04 #@! TO.P,U5,8*
G04 #@! TO.N,Net-(U5-Pad6)*
X50800000Y-48675000D03*
G04 #@! TD*
G04 #@! TO.P,U4,8*
G04 #@! TO.N,Net-(U4-Pad6)*
X39200000Y-61275000D03*
G04 #@! TO.P,U4,7*
G04 #@! TO.N,Net-(U1-Pad1)*
X39600000Y-61275000D03*
G04 #@! TO.P,U4,6*
G04 #@! TO.N,Net-(U4-Pad6)*
X40000000Y-61275000D03*
G04 #@! TO.P,U4,1*
G04 #@! TO.N,Net-(U3-Pad7)*
X38400000Y-63925000D03*
G04 #@! TO.P,U4,2*
G04 #@! TO.N,/D*
X38800000Y-63925000D03*
G04 #@! TO.P,U4,3*
G04 #@! TO.N,Net-(U4-Pad3)*
X39200000Y-63925000D03*
G04 #@! TO.P,U4,4*
G04 #@! TO.N,/~RST*
X39600000Y-63925000D03*
G04 #@! TO.P,U4,5*
G04 #@! TO.N,GND*
X40000000Y-63925000D03*
G04 #@! TO.P,U4,10*
G04 #@! TO.N,VCC*
X38400000Y-61275000D03*
G04 #@! TO.P,U4,9*
G04 #@! TO.N,Net-(U4-Pad3)*
X38800000Y-61275000D03*
G04 #@! TD*
G04 #@! TO.P,U3,9*
G04 #@! TO.N,Net-(U3-Pad3)*
X38800000Y-48675000D03*
G04 #@! TO.P,U3,10*
G04 #@! TO.N,VCC*
X38400000Y-48675000D03*
G04 #@! TO.P,U3,5*
G04 #@! TO.N,GND*
X40000000Y-51325000D03*
G04 #@! TO.P,U3,4*
G04 #@! TO.N,Net-(U1-Pad1)*
X39600000Y-51325000D03*
G04 #@! TO.P,U3,3*
G04 #@! TO.N,Net-(U3-Pad3)*
X39200000Y-51325000D03*
G04 #@! TO.P,U3,2*
G04 #@! TO.N,/CLK*
X38800000Y-51325000D03*
G04 #@! TO.P,U3,1*
G04 #@! TO.N,Net-(U1-Pad2)*
X38400000Y-51325000D03*
G04 #@! TO.P,U3,6*
G04 #@! TO.N,Net-(U3-Pad6)*
X40000000Y-48675000D03*
G04 #@! TO.P,U3,7*
G04 #@! TO.N,Net-(U3-Pad7)*
X39600000Y-48675000D03*
G04 #@! TO.P,U3,8*
G04 #@! TO.N,Net-(U3-Pad6)*
X39200000Y-48675000D03*
G04 #@! TD*
G04 #@! TO.P,U2,8*
G04 #@! TO.N,Net-(U2-Pad6)*
X50800000Y-36075000D03*
G04 #@! TO.P,U2,7*
G04 #@! TO.N,Net-(U1-Pad2)*
X51200000Y-36075000D03*
G04 #@! TO.P,U2,6*
G04 #@! TO.N,Net-(U2-Pad6)*
X51600000Y-36075000D03*
G04 #@! TO.P,U2,1*
G04 #@! TO.N,Net-(U1-Pad3)*
X50000000Y-38725000D03*
G04 #@! TO.P,U2,2*
G04 #@! TO.N,/CLK*
X50400000Y-38725000D03*
G04 #@! TO.P,U2,3*
G04 #@! TO.N,Net-(U2-Pad3)*
X50800000Y-38725000D03*
G04 #@! TO.P,U2,4*
G04 #@! TO.N,/~RST*
X51200000Y-38725000D03*
G04 #@! TO.P,U2,5*
G04 #@! TO.N,GND*
X51600000Y-38725000D03*
G04 #@! TO.P,U2,10*
G04 #@! TO.N,VCC*
X50000000Y-36075000D03*
G04 #@! TO.P,U2,9*
G04 #@! TO.N,Net-(U2-Pad3)*
X50400000Y-36075000D03*
G04 #@! TD*
G04 #@! TO.P,U1,9*
G04 #@! TO.N,Net-(U1-Pad2)*
X38800000Y-36075000D03*
G04 #@! TO.P,U1,10*
G04 #@! TO.N,VCC*
X38400000Y-36075000D03*
G04 #@! TO.P,U1,5*
G04 #@! TO.N,GND*
X40000000Y-38725000D03*
G04 #@! TO.P,U1,4*
G04 #@! TO.N,Net-(U1-Pad4)*
X39600000Y-38725000D03*
G04 #@! TO.P,U1,3*
G04 #@! TO.N,Net-(U1-Pad3)*
X39200000Y-38725000D03*
G04 #@! TO.P,U1,2*
G04 #@! TO.N,Net-(U1-Pad2)*
X38800000Y-38725000D03*
G04 #@! TO.P,U1,1*
G04 #@! TO.N,Net-(U1-Pad1)*
X38400000Y-38725000D03*
G04 #@! TO.P,U1,6*
G04 #@! TO.N,Net-(U1-Pad6)*
X40000000Y-36075000D03*
G04 #@! TO.P,U1,7*
G04 #@! TO.N,/Q*
X39600000Y-36075000D03*
G04 #@! TO.P,U1,8*
G04 #@! TO.N,Net-(U1-Pad8)*
X39200000Y-36075000D03*
G04 #@! TD*
D13*
G04 #@! TO.P,H4,1*
G04 #@! TO.N,/CLK*
X30197056Y-69802944D03*
X28500000Y-69100000D03*
X26802944Y-69802944D03*
X26100000Y-71500000D03*
X26802944Y-73197056D03*
X28500000Y-73900000D03*
X30197056Y-73197056D03*
X30900000Y-71500000D03*
D14*
X28500000Y-71500000D03*
G04 #@! TD*
G04 #@! TO.P,H3,1*
G04 #@! TO.N,/~RST*
X61500000Y-28500000D03*
D13*
X63900000Y-28500000D03*
X63197056Y-30197056D03*
X61500000Y-30900000D03*
X59802944Y-30197056D03*
X59100000Y-28500000D03*
X59802944Y-26802944D03*
X61500000Y-26100000D03*
X63197056Y-26802944D03*
G04 #@! TD*
G04 #@! TO.P,H2,1*
G04 #@! TO.N,VCC*
X63197056Y-69802944D03*
X61500000Y-69100000D03*
X59802944Y-69802944D03*
X59100000Y-71500000D03*
X59802944Y-73197056D03*
X61500000Y-73900000D03*
X63197056Y-73197056D03*
X63900000Y-71500000D03*
D14*
X61500000Y-71500000D03*
G04 #@! TD*
G04 #@! TO.P,H1,1*
G04 #@! TO.N,GND*
X28500000Y-28500000D03*
D13*
X30900000Y-28500000D03*
X30197056Y-30197056D03*
X28500000Y-30900000D03*
X26802944Y-30197056D03*
X26100000Y-28500000D03*
X26802944Y-26802944D03*
X28500000Y-26100000D03*
X30197056Y-26802944D03*
G04 #@! TD*
D15*
G04 #@! TO.P,TP2,1*
G04 #@! TO.N,/Q*
X63000000Y-50000000D03*
G04 #@! TD*
G04 #@! TO.P,TP1,1*
G04 #@! TO.N,/D*
X27000000Y-50000000D03*
G04 #@! TD*
D16*
G04 #@! TO.N,/D*
X38750000Y-64810000D03*
X27190000Y-62920000D03*
G04 #@! TO.N,/Q*
X55070000Y-62420000D03*
X63500000Y-62490000D03*
X63000000Y-52880000D03*
X43540000Y-34970000D03*
X40150000Y-34870000D03*
X43520000Y-52780000D03*
X49890000Y-53690000D03*
G04 #@! TO.N,Net-(D1-Pad1)*
X46400000Y-62380000D03*
G04 #@! TO.N,GND*
X40960000Y-38680000D03*
X52540000Y-38750000D03*
X40880000Y-63890000D03*
X52520000Y-51290000D03*
X40920000Y-51350000D03*
G04 #@! TO.N,/~RST*
X61630000Y-40040000D03*
X51210000Y-40070000D03*
X51230000Y-52570000D03*
X59100000Y-52530000D03*
X59120000Y-65700000D03*
X39660000Y-65650000D03*
G04 #@! TO.N,/CLK*
X28470000Y-54130000D03*
X38750000Y-54050000D03*
X47340000Y-54720000D03*
G04 #@! TO.N,Net-(U1-Pad2)*
X38830000Y-41070000D03*
X36359990Y-41180000D03*
X36250000Y-37470000D03*
X51920000Y-37390000D03*
G04 #@! TO.N,Net-(U1-Pad3)*
X39450000Y-39720000D03*
X49190000Y-39690000D03*
G04 #@! TO.N,Net-(U1-Pad8)*
X51260000Y-41730000D03*
X42430000Y-41750000D03*
X42460000Y-33930000D03*
X39220000Y-33710000D03*
G04 #@! TO.N,Net-(U3-Pad3)*
X38050000Y-49870000D03*
X39780000Y-49620000D03*
G04 #@! TO.N,Net-(U3-Pad6)*
X40460000Y-47540000D03*
X38670000Y-47540000D03*
G04 #@! TO.N,Net-(U3-Pad7)*
X41330000Y-46850000D03*
X49480000Y-46930000D03*
X35090000Y-46870000D03*
G04 #@! TD*
D17*
G04 #@! TO.N,/D*
X38800000Y-63925000D02*
X38800000Y-64760000D01*
X38800000Y-64760000D02*
X38750000Y-64810000D01*
X27000000Y-62730000D02*
X27190000Y-62920000D01*
X27000000Y-50000000D02*
X27000000Y-62730000D01*
G04 #@! TO.N,/Q*
X51825000Y-62400000D02*
X55050000Y-62400000D01*
X55050000Y-62400000D02*
X55070000Y-62420000D01*
X63000000Y-61990000D02*
X63000000Y-50000000D01*
X63500000Y-62490000D02*
X63000000Y-61990000D01*
X39600000Y-35420000D02*
X39600000Y-36075000D01*
X40150000Y-34870000D02*
X39600000Y-35420000D01*
X43540000Y-34970000D02*
X43540000Y-52760000D01*
X43540000Y-52760000D02*
X43520000Y-52780000D01*
X50000000Y-51325000D02*
X50000000Y-53580000D01*
X50000000Y-53580000D02*
X49890000Y-53690000D01*
G04 #@! TO.N,Net-(D1-Pad1)*
X46400000Y-62380000D02*
X48442500Y-62380000D01*
X49100000Y-62400000D02*
X49080000Y-62380000D01*
X49080000Y-62380000D02*
X48442500Y-62380000D01*
X49775000Y-62400000D02*
X49100000Y-62400000D01*
G04 #@! TO.N,GND*
X40000000Y-38725000D02*
X40915000Y-38725000D01*
X40915000Y-38725000D02*
X40960000Y-38680000D01*
X51600000Y-38725000D02*
X52515000Y-38725000D01*
X52515000Y-38725000D02*
X52540000Y-38750000D01*
X40000000Y-63925000D02*
X40845000Y-63925000D01*
X40845000Y-63925000D02*
X40880000Y-63890000D01*
X51600000Y-51325000D02*
X52485000Y-51325000D01*
X52485000Y-51325000D02*
X52520000Y-51290000D01*
X40000000Y-51325000D02*
X40895000Y-51325000D01*
X40895000Y-51325000D02*
X40920000Y-51350000D01*
G04 #@! TO.N,VCC*
X38125000Y-48675000D02*
X37730000Y-48280000D01*
X38400000Y-48675000D02*
X38125000Y-48675000D01*
X37730000Y-48280000D02*
X37730000Y-47860000D01*
X50000000Y-48675000D02*
X50000000Y-48000000D01*
X38125000Y-61275000D02*
X38110000Y-61260000D01*
X38400000Y-61275000D02*
X38125000Y-61275000D01*
G04 #@! TO.N,/~RST*
X61500000Y-28500000D02*
X61500000Y-39910000D01*
X61500000Y-39910000D02*
X61630000Y-40040000D01*
X51210000Y-38735000D02*
X51200000Y-38725000D01*
X51210000Y-40070000D02*
X51210000Y-38735000D01*
X51230000Y-51355000D02*
X51200000Y-51325000D01*
X51230000Y-52570000D02*
X51230000Y-51355000D01*
X61630000Y-40040000D02*
X59100000Y-42570000D01*
X59100000Y-42570000D02*
X59100000Y-52530000D01*
X59100000Y-52530000D02*
X59100000Y-65680000D01*
X59100000Y-65680000D02*
X59120000Y-65700000D01*
X39600000Y-65024315D02*
X39600000Y-63925000D01*
X39660000Y-65084315D02*
X39600000Y-65024315D01*
X39660000Y-65650000D02*
X39660000Y-65084315D01*
G04 #@! TO.N,/CLK*
X28500000Y-71500000D02*
X28500000Y-54160000D01*
X28500000Y-54160000D02*
X28470000Y-54130000D01*
X38750000Y-51375000D02*
X38800000Y-51325000D01*
X38750000Y-54050000D02*
X38750000Y-51375000D01*
X50400000Y-38250000D02*
X50400000Y-38725000D01*
X50260000Y-38110000D02*
X50400000Y-38250000D01*
X49150000Y-38110000D02*
X50260000Y-38110000D01*
X48010000Y-39250000D02*
X49150000Y-38110000D01*
X47340000Y-54720000D02*
X48010000Y-54050000D01*
X48010000Y-54050000D02*
X48010000Y-39250000D01*
G04 #@! TO.N,Net-(U1-Pad2)*
X38800000Y-41040000D02*
X38830000Y-41070000D01*
X38800000Y-38725000D02*
X38800000Y-41040000D01*
X36359990Y-49084990D02*
X36359990Y-41180000D01*
X38400000Y-51125000D02*
X36359990Y-49084990D01*
X38400000Y-51325000D02*
X38400000Y-51125000D01*
X38800000Y-36075000D02*
X38800000Y-38725000D01*
X36359990Y-41180000D02*
X36359990Y-37579990D01*
X36359990Y-37579990D02*
X36250000Y-37470000D01*
X51200000Y-36075000D02*
X51200000Y-36670000D01*
X51200000Y-36670000D02*
X51920000Y-37390000D01*
G04 #@! TO.N,Net-(U1-Pad3)*
X39200000Y-38725000D02*
X39200000Y-39470000D01*
X39200000Y-39470000D02*
X39450000Y-39720000D01*
X50000000Y-38925000D02*
X49235000Y-39690000D01*
X49235000Y-39690000D02*
X49190000Y-39690000D01*
X50000000Y-38725000D02*
X50000000Y-38925000D01*
G04 #@! TO.N,Net-(U1-Pad1)*
X39600000Y-50487596D02*
X39600000Y-51325000D01*
X37989998Y-49239998D02*
X38352402Y-49239998D01*
X36990000Y-40610000D02*
X36990000Y-48240000D01*
X38400000Y-38725000D02*
X38400000Y-39200000D01*
X38400000Y-39200000D02*
X36990000Y-40610000D01*
X36990000Y-48240000D02*
X37989998Y-49239998D01*
X38352402Y-49239998D02*
X39600000Y-50487596D01*
X39600000Y-61275000D02*
X39600000Y-51325000D01*
G04 #@! TO.N,Net-(U1-Pad8)*
X51200000Y-48675000D02*
X51200000Y-41790000D01*
X51200000Y-41790000D02*
X51260000Y-41730000D01*
X42430000Y-41750000D02*
X42430000Y-33960000D01*
X42430000Y-33960000D02*
X42460000Y-33930000D01*
X39220000Y-36055000D02*
X39200000Y-36075000D01*
X39220000Y-33710000D02*
X39220000Y-36055000D01*
G04 #@! TO.N,Net-(U2-Pad6)*
X51600000Y-35600000D02*
X51529999Y-35529999D01*
X50800000Y-35600000D02*
X50800000Y-36075000D01*
X50870001Y-35529999D02*
X50800000Y-35600000D01*
X51529999Y-35529999D02*
X50870001Y-35529999D01*
X51600000Y-36075000D02*
X51600000Y-35600000D01*
G04 #@! TO.N,Net-(U2-Pad3)*
X50800000Y-36950000D02*
X50800000Y-38725000D01*
X50400000Y-36550000D02*
X50800000Y-36950000D01*
X50400000Y-36075000D02*
X50400000Y-36550000D01*
G04 #@! TO.N,Net-(U3-Pad3)*
X39200000Y-50850000D02*
X38220000Y-49870000D01*
X39200000Y-51325000D02*
X39200000Y-50850000D01*
X38220000Y-49870000D02*
X38050000Y-49870000D01*
X38854999Y-48974999D02*
X38800000Y-48920000D01*
X38854999Y-49174001D02*
X38854999Y-48974999D01*
X38900999Y-49220001D02*
X38854999Y-49174001D01*
X38800000Y-48920000D02*
X38800000Y-48675000D01*
X39780000Y-49620000D02*
X39380001Y-49220001D01*
X39380001Y-49220001D02*
X38900999Y-49220001D01*
G04 #@! TO.N,Net-(U3-Pad6)*
X40000000Y-48000000D02*
X40000000Y-48675000D01*
X39200000Y-48675000D02*
X39200000Y-48070000D01*
X40000000Y-48000000D02*
X40460000Y-47540000D01*
X38670000Y-47540000D02*
X39200000Y-48070000D01*
G04 #@! TO.N,Net-(U3-Pad7)*
X39600000Y-48200000D02*
X39610000Y-48190000D01*
X39600000Y-48675000D02*
X39600000Y-48200000D01*
X39610000Y-48190000D02*
X39610000Y-47330000D01*
X39610000Y-47330000D02*
X40100000Y-46840000D01*
X40100000Y-46840000D02*
X41320000Y-46840000D01*
X41320000Y-46840000D02*
X41330000Y-46850000D01*
X49480000Y-49930000D02*
X49480000Y-46930000D01*
X50400000Y-51325000D02*
X50400000Y-50850000D01*
X50400000Y-50850000D02*
X49480000Y-49930000D01*
X35090000Y-60140000D02*
X35090000Y-46870000D01*
X38400000Y-63925000D02*
X38400000Y-63450000D01*
X38400000Y-63450000D02*
X35090000Y-60140000D01*
G04 #@! TO.N,Net-(U4-Pad6)*
X39929999Y-61820001D02*
X40000000Y-61750000D01*
X40000000Y-61750000D02*
X40000000Y-61275000D01*
X39308421Y-61820001D02*
X39929999Y-61820001D01*
X39200000Y-61711580D02*
X39308421Y-61820001D01*
X39200000Y-61275000D02*
X39200000Y-61711580D01*
G04 #@! TO.N,Net-(U4-Pad3)*
X39200000Y-62150000D02*
X39200000Y-63925000D01*
X38800000Y-61750000D02*
X39200000Y-62150000D01*
X38800000Y-61275000D02*
X38800000Y-61750000D01*
G04 #@! TO.N,Net-(U5-Pad3)*
X50800000Y-49550000D02*
X50800000Y-51325000D01*
X50400000Y-48675000D02*
X50400000Y-49150000D01*
X50400000Y-49150000D02*
X50800000Y-49550000D01*
G04 #@! TO.N,Net-(U5-Pad6)*
X51529999Y-49220001D02*
X51600000Y-49150000D01*
X51600000Y-49150000D02*
X51600000Y-48675000D01*
X50908421Y-49220001D02*
X51529999Y-49220001D01*
X50800000Y-49111580D02*
X50908421Y-49220001D01*
X50800000Y-48675000D02*
X50800000Y-49111580D01*
G04 #@! TD*
D18*
G04 #@! TO.N,VCC*
G36*
X59473792Y-25467565D02*
X58467565Y-26473792D01*
X57923000Y-27788490D01*
X57923000Y-29211510D01*
X58467565Y-30526208D01*
X59473792Y-31532435D01*
X60788490Y-32077000D01*
X61043000Y-32077000D01*
X61043001Y-39528155D01*
X60971291Y-39599865D01*
X60853000Y-39885445D01*
X60853000Y-40170705D01*
X58808685Y-42215021D01*
X58770521Y-42240521D01*
X58669516Y-42391689D01*
X58646579Y-42507000D01*
X58634047Y-42570000D01*
X58643000Y-42615008D01*
X58643001Y-51888155D01*
X58441291Y-52089865D01*
X58323000Y-52375445D01*
X58323000Y-52684555D01*
X58441291Y-52970135D01*
X58643000Y-53171844D01*
X58643001Y-65078155D01*
X58461291Y-65259865D01*
X58343000Y-65545445D01*
X58343000Y-65854555D01*
X58461291Y-66140135D01*
X58679865Y-66358709D01*
X58965445Y-66477000D01*
X59274555Y-66477000D01*
X59560135Y-66358709D01*
X59778709Y-66140135D01*
X59897000Y-65854555D01*
X59897000Y-65545445D01*
X59778709Y-65259865D01*
X59560135Y-65041291D01*
X59557000Y-65039992D01*
X59557000Y-53171844D01*
X59758709Y-52970135D01*
X59877000Y-52684555D01*
X59877000Y-52375445D01*
X59758709Y-52089865D01*
X59557000Y-51888156D01*
X59557000Y-42759294D01*
X61499295Y-40817000D01*
X61784555Y-40817000D01*
X62070135Y-40698709D01*
X62288709Y-40480135D01*
X62407000Y-40194555D01*
X62407000Y-39885445D01*
X62288709Y-39599865D01*
X62070135Y-39381291D01*
X61957000Y-39334429D01*
X61957000Y-32077000D01*
X62211510Y-32077000D01*
X63526208Y-31532435D01*
X64532435Y-30526208D01*
X64548000Y-30488631D01*
X64548000Y-48517409D01*
X64521801Y-48478199D01*
X64397098Y-48394875D01*
X64250000Y-48365615D01*
X61750000Y-48365615D01*
X61602902Y-48394875D01*
X61478199Y-48478199D01*
X61394875Y-48602902D01*
X61365615Y-48750000D01*
X61365615Y-51250000D01*
X61394875Y-51397098D01*
X61478199Y-51521801D01*
X61602902Y-51605125D01*
X61750000Y-51634385D01*
X62543001Y-51634385D01*
X62543001Y-52238155D01*
X62341291Y-52439865D01*
X62223000Y-52725445D01*
X62223000Y-53034555D01*
X62341291Y-53320135D01*
X62543001Y-53521845D01*
X62543000Y-61944992D01*
X62534047Y-61990000D01*
X62543000Y-62035008D01*
X62569516Y-62168311D01*
X62670521Y-62319479D01*
X62708684Y-62344978D01*
X62723000Y-62359294D01*
X62723000Y-62644555D01*
X62841291Y-62930135D01*
X63059865Y-63148709D01*
X63345445Y-63267000D01*
X63654555Y-63267000D01*
X63940135Y-63148709D01*
X64158709Y-62930135D01*
X64277000Y-62644555D01*
X64277000Y-62335445D01*
X64158709Y-62049865D01*
X63940135Y-61831291D01*
X63654555Y-61713000D01*
X63457000Y-61713000D01*
X63457000Y-53521844D01*
X63658709Y-53320135D01*
X63777000Y-53034555D01*
X63777000Y-52725445D01*
X63658709Y-52439865D01*
X63457000Y-52238156D01*
X63457000Y-51634385D01*
X64250000Y-51634385D01*
X64397098Y-51605125D01*
X64521801Y-51521801D01*
X64548001Y-51482591D01*
X64548001Y-69166143D01*
X64240910Y-68938695D01*
X61679605Y-71500000D01*
X64240910Y-74061305D01*
X64548001Y-73833856D01*
X64548001Y-74548000D01*
X63833857Y-74548000D01*
X64061305Y-74240910D01*
X61500000Y-71679605D01*
X58938695Y-74240910D01*
X59166143Y-74548000D01*
X30488631Y-74548000D01*
X30526208Y-74532435D01*
X31532435Y-73526208D01*
X32066527Y-72236793D01*
X57659913Y-72236793D01*
X58234181Y-73650246D01*
X58263657Y-73694360D01*
X58759090Y-74061305D01*
X61320395Y-71500000D01*
X58759090Y-68938695D01*
X58263657Y-69305640D01*
X57670264Y-70711171D01*
X57659913Y-72236793D01*
X32066527Y-72236793D01*
X32077000Y-72211510D01*
X32077000Y-70788490D01*
X31532435Y-69473792D01*
X30817733Y-68759090D01*
X58938695Y-68759090D01*
X61500000Y-71320395D01*
X64061305Y-68759090D01*
X63694360Y-68263657D01*
X62288829Y-67670264D01*
X60763207Y-67659913D01*
X59349754Y-68234181D01*
X59305640Y-68263657D01*
X58938695Y-68759090D01*
X30817733Y-68759090D01*
X30526208Y-68467565D01*
X29211510Y-67923000D01*
X28957000Y-67923000D01*
X28957000Y-54741844D01*
X29128709Y-54570135D01*
X29247000Y-54284555D01*
X29247000Y-53975445D01*
X29128709Y-53689865D01*
X28910135Y-53471291D01*
X28624555Y-53353000D01*
X28315445Y-53353000D01*
X28029865Y-53471291D01*
X27811291Y-53689865D01*
X27693000Y-53975445D01*
X27693000Y-54284555D01*
X27811291Y-54570135D01*
X28029865Y-54788709D01*
X28043001Y-54794150D01*
X28043000Y-67923000D01*
X27788490Y-67923000D01*
X26473792Y-68467565D01*
X25467565Y-69473792D01*
X25452000Y-69511369D01*
X25452000Y-51482591D01*
X25478199Y-51521801D01*
X25602902Y-51605125D01*
X25750000Y-51634385D01*
X26543000Y-51634385D01*
X26543001Y-62468155D01*
X26531291Y-62479865D01*
X26413000Y-62765445D01*
X26413000Y-63074555D01*
X26531291Y-63360135D01*
X26749865Y-63578709D01*
X27035445Y-63697000D01*
X27344555Y-63697000D01*
X27630135Y-63578709D01*
X27848709Y-63360135D01*
X27967000Y-63074555D01*
X27967000Y-62765445D01*
X27848709Y-62479865D01*
X27630135Y-62261291D01*
X27457000Y-62189576D01*
X27457000Y-51634385D01*
X28250000Y-51634385D01*
X28397098Y-51605125D01*
X28521801Y-51521801D01*
X28605125Y-51397098D01*
X28634385Y-51250000D01*
X28634385Y-48750000D01*
X28605125Y-48602902D01*
X28521801Y-48478199D01*
X28397098Y-48394875D01*
X28250000Y-48365615D01*
X25750000Y-48365615D01*
X25602902Y-48394875D01*
X25478199Y-48478199D01*
X25452000Y-48517409D01*
X25452000Y-46715445D01*
X34313000Y-46715445D01*
X34313000Y-47024555D01*
X34431291Y-47310135D01*
X34633001Y-47511845D01*
X34633000Y-60094992D01*
X34624047Y-60140000D01*
X34633000Y-60185008D01*
X34659516Y-60318311D01*
X34760521Y-60469479D01*
X34798685Y-60494979D01*
X37902787Y-63599083D01*
X37900615Y-63610000D01*
X37900615Y-64240000D01*
X37929875Y-64387098D01*
X38013199Y-64511801D01*
X38028315Y-64521902D01*
X37973000Y-64655445D01*
X37973000Y-64964555D01*
X38091291Y-65250135D01*
X38309865Y-65468709D01*
X38595445Y-65587000D01*
X38883000Y-65587000D01*
X38883000Y-65804555D01*
X39001291Y-66090135D01*
X39219865Y-66308709D01*
X39505445Y-66427000D01*
X39814555Y-66427000D01*
X40100135Y-66308709D01*
X40318709Y-66090135D01*
X40437000Y-65804555D01*
X40437000Y-65495445D01*
X40318709Y-65209865D01*
X40109265Y-65000421D01*
X40107449Y-64991291D01*
X40090484Y-64906003D01*
X40057000Y-64855890D01*
X40057000Y-64624385D01*
X40115000Y-64624385D01*
X40262098Y-64595125D01*
X40386801Y-64511801D01*
X40393272Y-64502116D01*
X40439865Y-64548709D01*
X40725445Y-64667000D01*
X41034555Y-64667000D01*
X41320135Y-64548709D01*
X41538709Y-64330135D01*
X41657000Y-64044555D01*
X41657000Y-63735445D01*
X41538709Y-63449865D01*
X41320135Y-63231291D01*
X41034555Y-63113000D01*
X40725445Y-63113000D01*
X40439865Y-63231291D01*
X40354524Y-63316632D01*
X40262098Y-63254875D01*
X40115000Y-63225615D01*
X39885000Y-63225615D01*
X39800000Y-63242523D01*
X39715000Y-63225615D01*
X39657000Y-63225615D01*
X39657000Y-62277001D01*
X39884991Y-62277001D01*
X39929999Y-62285954D01*
X39975007Y-62277001D01*
X39975008Y-62277001D01*
X40108311Y-62250485D01*
X40145786Y-62225445D01*
X45623000Y-62225445D01*
X45623000Y-62534555D01*
X45741291Y-62820135D01*
X45959865Y-63038709D01*
X46245445Y-63157000D01*
X46554555Y-63157000D01*
X46840135Y-63038709D01*
X47041844Y-62837000D01*
X48815615Y-62837000D01*
X48815615Y-62850001D01*
X48863905Y-63092769D01*
X49001422Y-63298578D01*
X49207231Y-63436095D01*
X49449999Y-63484385D01*
X50100001Y-63484385D01*
X50342769Y-63436095D01*
X50548578Y-63298578D01*
X50686095Y-63092769D01*
X50734385Y-62850001D01*
X50734385Y-61949999D01*
X50865615Y-61949999D01*
X50865615Y-62850001D01*
X50913905Y-63092769D01*
X51051422Y-63298578D01*
X51257231Y-63436095D01*
X51499999Y-63484385D01*
X52150001Y-63484385D01*
X52392769Y-63436095D01*
X52598578Y-63298578D01*
X52736095Y-63092769D01*
X52782993Y-62857000D01*
X54409992Y-62857000D01*
X54411291Y-62860135D01*
X54629865Y-63078709D01*
X54915445Y-63197000D01*
X55224555Y-63197000D01*
X55510135Y-63078709D01*
X55728709Y-62860135D01*
X55847000Y-62574555D01*
X55847000Y-62265445D01*
X55728709Y-61979865D01*
X55510135Y-61761291D01*
X55224555Y-61643000D01*
X54915445Y-61643000D01*
X54629865Y-61761291D01*
X54448156Y-61943000D01*
X52782993Y-61943000D01*
X52736095Y-61707231D01*
X52598578Y-61501422D01*
X52392769Y-61363905D01*
X52150001Y-61315615D01*
X51499999Y-61315615D01*
X51257231Y-61363905D01*
X51051422Y-61501422D01*
X50913905Y-61707231D01*
X50865615Y-61949999D01*
X50734385Y-61949999D01*
X50686095Y-61707231D01*
X50548578Y-61501422D01*
X50342769Y-61363905D01*
X50100001Y-61315615D01*
X49449999Y-61315615D01*
X49207231Y-61363905D01*
X49001422Y-61501422D01*
X48863905Y-61707231D01*
X48820985Y-61923000D01*
X47041844Y-61923000D01*
X46840135Y-61721291D01*
X46554555Y-61603000D01*
X46245445Y-61603000D01*
X45959865Y-61721291D01*
X45741291Y-61939865D01*
X45623000Y-62225445D01*
X40145786Y-62225445D01*
X40259478Y-62149480D01*
X40284978Y-62111316D01*
X40291316Y-62104978D01*
X40329479Y-62079479D01*
X40430484Y-61928312D01*
X40457000Y-61795009D01*
X40457000Y-61795008D01*
X40465953Y-61750001D01*
X40464932Y-61744869D01*
X40470125Y-61737098D01*
X40499385Y-61590000D01*
X40499385Y-60960000D01*
X40470125Y-60812902D01*
X40386801Y-60688199D01*
X40262098Y-60604875D01*
X40115000Y-60575615D01*
X40057000Y-60575615D01*
X40057000Y-54565445D01*
X46563000Y-54565445D01*
X46563000Y-54874555D01*
X46681291Y-55160135D01*
X46899865Y-55378709D01*
X47185445Y-55497000D01*
X47494555Y-55497000D01*
X47780135Y-55378709D01*
X47998709Y-55160135D01*
X48117000Y-54874555D01*
X48117000Y-54589295D01*
X48301318Y-54404977D01*
X48339479Y-54379479D01*
X48440484Y-54228312D01*
X48467000Y-54095009D01*
X48467000Y-54095008D01*
X48475953Y-54050001D01*
X48467000Y-54004993D01*
X48467000Y-46775445D01*
X48703000Y-46775445D01*
X48703000Y-47084555D01*
X48821291Y-47370135D01*
X49023001Y-47571845D01*
X49023000Y-49884992D01*
X49014047Y-49930000D01*
X49023000Y-49975008D01*
X49049516Y-50108311D01*
X49150521Y-50259479D01*
X49188685Y-50284979D01*
X49630407Y-50726701D01*
X49613199Y-50738199D01*
X49529875Y-50862902D01*
X49500615Y-51010000D01*
X49500615Y-51640000D01*
X49529875Y-51787098D01*
X49543000Y-51806741D01*
X49543001Y-52992713D01*
X49449865Y-53031291D01*
X49231291Y-53249865D01*
X49113000Y-53535445D01*
X49113000Y-53844555D01*
X49231291Y-54130135D01*
X49449865Y-54348709D01*
X49735445Y-54467000D01*
X50044555Y-54467000D01*
X50330135Y-54348709D01*
X50548709Y-54130135D01*
X50667000Y-53844555D01*
X50667000Y-53535445D01*
X50548709Y-53249865D01*
X50457000Y-53158156D01*
X50457000Y-52734212D01*
X50571291Y-53010135D01*
X50789865Y-53228709D01*
X51075445Y-53347000D01*
X51384555Y-53347000D01*
X51670135Y-53228709D01*
X51888709Y-53010135D01*
X52007000Y-52724555D01*
X52007000Y-52415445D01*
X51888709Y-52129865D01*
X51771909Y-52013065D01*
X51862098Y-51995125D01*
X51986801Y-51911801D01*
X52009294Y-51878138D01*
X52079865Y-51948709D01*
X52365445Y-52067000D01*
X52674555Y-52067000D01*
X52960135Y-51948709D01*
X53178709Y-51730135D01*
X53297000Y-51444555D01*
X53297000Y-51135445D01*
X53178709Y-50849865D01*
X52960135Y-50631291D01*
X52674555Y-50513000D01*
X52365445Y-50513000D01*
X52079865Y-50631291D01*
X51978502Y-50732654D01*
X51862098Y-50654875D01*
X51715000Y-50625615D01*
X51485000Y-50625615D01*
X51400000Y-50642523D01*
X51315000Y-50625615D01*
X51257000Y-50625615D01*
X51257000Y-49677001D01*
X51484991Y-49677001D01*
X51529999Y-49685954D01*
X51575007Y-49677001D01*
X51575008Y-49677001D01*
X51708311Y-49650485D01*
X51859478Y-49549480D01*
X51884978Y-49511316D01*
X51891316Y-49504978D01*
X51929479Y-49479479D01*
X52030484Y-49328312D01*
X52057000Y-49195009D01*
X52057000Y-49195008D01*
X52065953Y-49150001D01*
X52064932Y-49144869D01*
X52070125Y-49137098D01*
X52099385Y-48990000D01*
X52099385Y-48360000D01*
X52070125Y-48212902D01*
X51986801Y-48088199D01*
X51862098Y-48004875D01*
X51715000Y-47975615D01*
X51657000Y-47975615D01*
X51657000Y-42406576D01*
X51700135Y-42388709D01*
X51918709Y-42170135D01*
X52037000Y-41884555D01*
X52037000Y-41575445D01*
X51918709Y-41289865D01*
X51700135Y-41071291D01*
X51414555Y-40953000D01*
X51105445Y-40953000D01*
X50819865Y-41071291D01*
X50601291Y-41289865D01*
X50483000Y-41575445D01*
X50483000Y-41884555D01*
X50601291Y-42170135D01*
X50743001Y-42311845D01*
X50743000Y-47975615D01*
X50685000Y-47975615D01*
X50637992Y-47984966D01*
X50474698Y-47821673D01*
X50241309Y-47725000D01*
X50216250Y-47725000D01*
X50057500Y-47883750D01*
X50057500Y-48058598D01*
X50013199Y-48088199D01*
X49942500Y-48194007D01*
X49942500Y-47883750D01*
X49937000Y-47878250D01*
X49937000Y-47571844D01*
X50138709Y-47370135D01*
X50257000Y-47084555D01*
X50257000Y-46775445D01*
X50138709Y-46489865D01*
X49920135Y-46271291D01*
X49634555Y-46153000D01*
X49325445Y-46153000D01*
X49039865Y-46271291D01*
X48821291Y-46489865D01*
X48703000Y-46775445D01*
X48467000Y-46775445D01*
X48467000Y-39974923D01*
X48531291Y-40130135D01*
X48749865Y-40348709D01*
X49035445Y-40467000D01*
X49344555Y-40467000D01*
X49630135Y-40348709D01*
X49848709Y-40130135D01*
X49967000Y-39844555D01*
X49967000Y-39604295D01*
X50154833Y-39416462D01*
X50200000Y-39407477D01*
X50285000Y-39424385D01*
X50515000Y-39424385D01*
X50600000Y-39407477D01*
X50685000Y-39424385D01*
X50753000Y-39424385D01*
X50753000Y-39428156D01*
X50551291Y-39629865D01*
X50433000Y-39915445D01*
X50433000Y-40224555D01*
X50551291Y-40510135D01*
X50769865Y-40728709D01*
X51055445Y-40847000D01*
X51364555Y-40847000D01*
X51650135Y-40728709D01*
X51868709Y-40510135D01*
X51987000Y-40224555D01*
X51987000Y-39915445D01*
X51868709Y-39629865D01*
X51667000Y-39428156D01*
X51667000Y-39424385D01*
X51715000Y-39424385D01*
X51862098Y-39395125D01*
X51986801Y-39311801D01*
X51993272Y-39302116D01*
X52099865Y-39408709D01*
X52385445Y-39527000D01*
X52694555Y-39527000D01*
X52980135Y-39408709D01*
X53198709Y-39190135D01*
X53317000Y-38904555D01*
X53317000Y-38595445D01*
X53198709Y-38309865D01*
X52980135Y-38091291D01*
X52694555Y-37973000D01*
X52435844Y-37973000D01*
X52578709Y-37830135D01*
X52697000Y-37544555D01*
X52697000Y-37235445D01*
X52578709Y-36949865D01*
X52360135Y-36731291D01*
X52074555Y-36613000D01*
X52019409Y-36613000D01*
X52070125Y-36537098D01*
X52099385Y-36390000D01*
X52099385Y-35760000D01*
X52070125Y-35612902D01*
X52064932Y-35605131D01*
X52065953Y-35599999D01*
X52052029Y-35530000D01*
X52030484Y-35421688D01*
X51929479Y-35270521D01*
X51891315Y-35245021D01*
X51884978Y-35238684D01*
X51859478Y-35200520D01*
X51708311Y-35099515D01*
X51575008Y-35072999D01*
X51575007Y-35072999D01*
X51529999Y-35064046D01*
X51484991Y-35072999D01*
X50915008Y-35072999D01*
X50870000Y-35064046D01*
X50824992Y-35072999D01*
X50691689Y-35099515D01*
X50540522Y-35200520D01*
X50515022Y-35238684D01*
X50508685Y-35245021D01*
X50502307Y-35249282D01*
X50474698Y-35221673D01*
X50241309Y-35125000D01*
X50216250Y-35125000D01*
X50057500Y-35283750D01*
X50057500Y-35458598D01*
X50013199Y-35488199D01*
X49942500Y-35594007D01*
X49942500Y-35283750D01*
X49783750Y-35125000D01*
X49758691Y-35125000D01*
X49525302Y-35221673D01*
X49346673Y-35400301D01*
X49250000Y-35633690D01*
X49250000Y-35789250D01*
X49408750Y-35948000D01*
X49900615Y-35948000D01*
X49900615Y-36202000D01*
X49408750Y-36202000D01*
X49250000Y-36360750D01*
X49250000Y-36516310D01*
X49346673Y-36749699D01*
X49525302Y-36928327D01*
X49758691Y-37025000D01*
X49783750Y-37025000D01*
X49942500Y-36866250D01*
X49942500Y-36592494D01*
X49956287Y-36661801D01*
X49969517Y-36728312D01*
X50057500Y-36859990D01*
X50057500Y-36866250D01*
X50070105Y-36878855D01*
X50070522Y-36879479D01*
X50071146Y-36879896D01*
X50216250Y-37025000D01*
X50228706Y-37025000D01*
X50343000Y-37139295D01*
X50343000Y-37660557D01*
X50305009Y-37653000D01*
X50305008Y-37653000D01*
X50260000Y-37644047D01*
X50214992Y-37653000D01*
X49195007Y-37653000D01*
X49149999Y-37644047D01*
X49104991Y-37653000D01*
X48971688Y-37679516D01*
X48820521Y-37780521D01*
X48795023Y-37818682D01*
X47718683Y-38895023D01*
X47680522Y-38920521D01*
X47579517Y-39071688D01*
X47544047Y-39250000D01*
X47553001Y-39295013D01*
X47553000Y-53860705D01*
X47470705Y-53943000D01*
X47185445Y-53943000D01*
X46899865Y-54061291D01*
X46681291Y-54279865D01*
X46563000Y-54565445D01*
X40057000Y-54565445D01*
X40057000Y-52024385D01*
X40115000Y-52024385D01*
X40262098Y-51995125D01*
X40384497Y-51913341D01*
X40479865Y-52008709D01*
X40765445Y-52127000D01*
X41074555Y-52127000D01*
X41360135Y-52008709D01*
X41578709Y-51790135D01*
X41697000Y-51504555D01*
X41697000Y-51195445D01*
X41578709Y-50909865D01*
X41360135Y-50691291D01*
X41074555Y-50573000D01*
X40765445Y-50573000D01*
X40479865Y-50691291D01*
X40405289Y-50765867D01*
X40386801Y-50738199D01*
X40262098Y-50654875D01*
X40115000Y-50625615D01*
X40057000Y-50625615D01*
X40057000Y-50532603D01*
X40065953Y-50487595D01*
X40047932Y-50397000D01*
X40039302Y-50353613D01*
X40220135Y-50278709D01*
X40438709Y-50060135D01*
X40557000Y-49774555D01*
X40557000Y-49465445D01*
X40439796Y-49182489D01*
X40470125Y-49137098D01*
X40499385Y-48990000D01*
X40499385Y-48360000D01*
X40490832Y-48317000D01*
X40614555Y-48317000D01*
X40900135Y-48198709D01*
X41118709Y-47980135D01*
X41237000Y-47694555D01*
X41237000Y-47627000D01*
X41484555Y-47627000D01*
X41770135Y-47508709D01*
X41988709Y-47290135D01*
X42107000Y-47004555D01*
X42107000Y-46695445D01*
X41988709Y-46409865D01*
X41770135Y-46191291D01*
X41484555Y-46073000D01*
X41175445Y-46073000D01*
X40889865Y-46191291D01*
X40698156Y-46383000D01*
X40145009Y-46383000D01*
X40100000Y-46374047D01*
X39921687Y-46409516D01*
X39876789Y-46439516D01*
X39770521Y-46510521D01*
X39745025Y-46548680D01*
X39318682Y-46975024D01*
X39280522Y-47000521D01*
X39260032Y-47031188D01*
X39110135Y-46881291D01*
X38824555Y-46763000D01*
X38515445Y-46763000D01*
X38229865Y-46881291D01*
X38011291Y-47099865D01*
X37893000Y-47385445D01*
X37893000Y-47694555D01*
X37942673Y-47814477D01*
X37925302Y-47821673D01*
X37746673Y-48000301D01*
X37650000Y-48233690D01*
X37650000Y-48253705D01*
X37447000Y-48050706D01*
X37447000Y-40799294D01*
X38343001Y-39903294D01*
X38343001Y-40458155D01*
X38171291Y-40629865D01*
X38053000Y-40915445D01*
X38053000Y-41224555D01*
X38171291Y-41510135D01*
X38389865Y-41728709D01*
X38675445Y-41847000D01*
X38984555Y-41847000D01*
X39270135Y-41728709D01*
X39403399Y-41595445D01*
X41653000Y-41595445D01*
X41653000Y-41904555D01*
X41771291Y-42190135D01*
X41989865Y-42408709D01*
X42275445Y-42527000D01*
X42584555Y-42527000D01*
X42870135Y-42408709D01*
X43083000Y-42195844D01*
X43083001Y-52119992D01*
X43079865Y-52121291D01*
X42861291Y-52339865D01*
X42743000Y-52625445D01*
X42743000Y-52934555D01*
X42861291Y-53220135D01*
X43079865Y-53438709D01*
X43365445Y-53557000D01*
X43674555Y-53557000D01*
X43960135Y-53438709D01*
X44178709Y-53220135D01*
X44297000Y-52934555D01*
X44297000Y-52625445D01*
X44178709Y-52339865D01*
X43997000Y-52158156D01*
X43997000Y-35611844D01*
X44198709Y-35410135D01*
X44317000Y-35124555D01*
X44317000Y-34815445D01*
X44198709Y-34529865D01*
X43980135Y-34311291D01*
X43694555Y-34193000D01*
X43385445Y-34193000D01*
X43152034Y-34289682D01*
X43237000Y-34084555D01*
X43237000Y-33775445D01*
X43118709Y-33489865D01*
X42900135Y-33271291D01*
X42614555Y-33153000D01*
X42305445Y-33153000D01*
X42019865Y-33271291D01*
X41801291Y-33489865D01*
X41683000Y-33775445D01*
X41683000Y-34084555D01*
X41801291Y-34370135D01*
X41973001Y-34541845D01*
X41973000Y-41108156D01*
X41771291Y-41309865D01*
X41653000Y-41595445D01*
X39403399Y-41595445D01*
X39488709Y-41510135D01*
X39607000Y-41224555D01*
X39607000Y-40915445D01*
X39488709Y-40629865D01*
X39355844Y-40497000D01*
X39604555Y-40497000D01*
X39890135Y-40378709D01*
X40108709Y-40160135D01*
X40227000Y-39874555D01*
X40227000Y-39565445D01*
X40164493Y-39414540D01*
X40262098Y-39395125D01*
X40386801Y-39311801D01*
X40429321Y-39248165D01*
X40519865Y-39338709D01*
X40805445Y-39457000D01*
X41114555Y-39457000D01*
X41400135Y-39338709D01*
X41618709Y-39120135D01*
X41737000Y-38834555D01*
X41737000Y-38525445D01*
X41618709Y-38239865D01*
X41400135Y-38021291D01*
X41114555Y-37903000D01*
X40805445Y-37903000D01*
X40519865Y-38021291D01*
X40393272Y-38147884D01*
X40386801Y-38138199D01*
X40262098Y-38054875D01*
X40115000Y-38025615D01*
X39885000Y-38025615D01*
X39800000Y-38042523D01*
X39715000Y-38025615D01*
X39485000Y-38025615D01*
X39400000Y-38042523D01*
X39315000Y-38025615D01*
X39257000Y-38025615D01*
X39257000Y-36774385D01*
X39315000Y-36774385D01*
X39400000Y-36757477D01*
X39485000Y-36774385D01*
X39715000Y-36774385D01*
X39800000Y-36757477D01*
X39885000Y-36774385D01*
X40115000Y-36774385D01*
X40262098Y-36745125D01*
X40386801Y-36661801D01*
X40470125Y-36537098D01*
X40499385Y-36390000D01*
X40499385Y-35760000D01*
X40470125Y-35612902D01*
X40452079Y-35585894D01*
X40590135Y-35528709D01*
X40808709Y-35310135D01*
X40927000Y-35024555D01*
X40927000Y-34715445D01*
X40808709Y-34429865D01*
X40590135Y-34211291D01*
X40304555Y-34093000D01*
X39995445Y-34093000D01*
X39883100Y-34139535D01*
X39997000Y-33864555D01*
X39997000Y-33555445D01*
X39878709Y-33269865D01*
X39660135Y-33051291D01*
X39374555Y-32933000D01*
X39065445Y-32933000D01*
X38779865Y-33051291D01*
X38561291Y-33269865D01*
X38443000Y-33555445D01*
X38443000Y-33864555D01*
X38561291Y-34150135D01*
X38763000Y-34351844D01*
X38763001Y-35175406D01*
X38641309Y-35125000D01*
X38616250Y-35125000D01*
X38457500Y-35283750D01*
X38457500Y-35458598D01*
X38413199Y-35488199D01*
X38342500Y-35594007D01*
X38342500Y-35283750D01*
X38183750Y-35125000D01*
X38158691Y-35125000D01*
X37925302Y-35221673D01*
X37746673Y-35400301D01*
X37650000Y-35633690D01*
X37650000Y-35789250D01*
X37808750Y-35948000D01*
X38300615Y-35948000D01*
X38300615Y-36202000D01*
X37808750Y-36202000D01*
X37650000Y-36360750D01*
X37650000Y-36516310D01*
X37746673Y-36749699D01*
X37925302Y-36928327D01*
X38158691Y-37025000D01*
X38183750Y-37025000D01*
X38272998Y-36935752D01*
X38272998Y-37025000D01*
X38343000Y-37025000D01*
X38343001Y-38025615D01*
X38285000Y-38025615D01*
X38137902Y-38054875D01*
X38013199Y-38138199D01*
X37929875Y-38262902D01*
X37900615Y-38410000D01*
X37900615Y-39040000D01*
X37902787Y-39050918D01*
X36816990Y-40136716D01*
X36816990Y-38001854D01*
X36908709Y-37910135D01*
X37027000Y-37624555D01*
X37027000Y-37315445D01*
X36908709Y-37029865D01*
X36690135Y-36811291D01*
X36404555Y-36693000D01*
X36095445Y-36693000D01*
X35809865Y-36811291D01*
X35591291Y-37029865D01*
X35473000Y-37315445D01*
X35473000Y-37624555D01*
X35591291Y-37910135D01*
X35809865Y-38128709D01*
X35902991Y-38167283D01*
X35902990Y-40538156D01*
X35701281Y-40739865D01*
X35582990Y-41025445D01*
X35582990Y-41334555D01*
X35701281Y-41620135D01*
X35902991Y-41821845D01*
X35902990Y-49039982D01*
X35894037Y-49084990D01*
X35902990Y-49129998D01*
X35929506Y-49263301D01*
X36030511Y-49414469D01*
X36068675Y-49439969D01*
X37900615Y-51271911D01*
X37900615Y-51640000D01*
X37929875Y-51787098D01*
X38013199Y-51911801D01*
X38137902Y-51995125D01*
X38285000Y-52024385D01*
X38293001Y-52024385D01*
X38293000Y-53408156D01*
X38091291Y-53609865D01*
X37973000Y-53895445D01*
X37973000Y-54204555D01*
X38091291Y-54490135D01*
X38309865Y-54708709D01*
X38595445Y-54827000D01*
X38904555Y-54827000D01*
X39143001Y-54728233D01*
X39143000Y-60575615D01*
X39085000Y-60575615D01*
X39037992Y-60584966D01*
X38874698Y-60421673D01*
X38641309Y-60325000D01*
X38616250Y-60325000D01*
X38457500Y-60483750D01*
X38457500Y-60658598D01*
X38413199Y-60688199D01*
X38342500Y-60794007D01*
X38342500Y-60483750D01*
X38183750Y-60325000D01*
X38158691Y-60325000D01*
X37925302Y-60421673D01*
X37746673Y-60600301D01*
X37650000Y-60833690D01*
X37650000Y-60989250D01*
X37808750Y-61148000D01*
X38300615Y-61148000D01*
X38300615Y-61402000D01*
X37808750Y-61402000D01*
X37650000Y-61560750D01*
X37650000Y-61716310D01*
X37746673Y-61949699D01*
X37925302Y-62128327D01*
X38158691Y-62225000D01*
X38183750Y-62225000D01*
X38342500Y-62066250D01*
X38342500Y-61792494D01*
X38366679Y-61914047D01*
X38369517Y-61928312D01*
X38457500Y-62059990D01*
X38457500Y-62066250D01*
X38470105Y-62078855D01*
X38470522Y-62079479D01*
X38471146Y-62079896D01*
X38616250Y-62225000D01*
X38628706Y-62225000D01*
X38743000Y-62339295D01*
X38743001Y-63140758D01*
X38729479Y-63120521D01*
X38691321Y-63095025D01*
X35547000Y-59950706D01*
X35547000Y-47511844D01*
X35748709Y-47310135D01*
X35867000Y-47024555D01*
X35867000Y-46715445D01*
X35748709Y-46429865D01*
X35530135Y-46211291D01*
X35244555Y-46093000D01*
X34935445Y-46093000D01*
X34649865Y-46211291D01*
X34431291Y-46429865D01*
X34313000Y-46715445D01*
X25452000Y-46715445D01*
X25452000Y-30488631D01*
X25467565Y-30526208D01*
X26473792Y-31532435D01*
X27788490Y-32077000D01*
X29211510Y-32077000D01*
X30526208Y-31532435D01*
X31532435Y-30526208D01*
X32077000Y-29211510D01*
X32077000Y-27788490D01*
X31532435Y-26473792D01*
X30526208Y-25467565D01*
X30488631Y-25452000D01*
X59511369Y-25452000D01*
X59473792Y-25467565D01*
X59473792Y-25467565D01*
G37*
X59473792Y-25467565D02*
X58467565Y-26473792D01*
X57923000Y-27788490D01*
X57923000Y-29211510D01*
X58467565Y-30526208D01*
X59473792Y-31532435D01*
X60788490Y-32077000D01*
X61043000Y-32077000D01*
X61043001Y-39528155D01*
X60971291Y-39599865D01*
X60853000Y-39885445D01*
X60853000Y-40170705D01*
X58808685Y-42215021D01*
X58770521Y-42240521D01*
X58669516Y-42391689D01*
X58646579Y-42507000D01*
X58634047Y-42570000D01*
X58643000Y-42615008D01*
X58643001Y-51888155D01*
X58441291Y-52089865D01*
X58323000Y-52375445D01*
X58323000Y-52684555D01*
X58441291Y-52970135D01*
X58643000Y-53171844D01*
X58643001Y-65078155D01*
X58461291Y-65259865D01*
X58343000Y-65545445D01*
X58343000Y-65854555D01*
X58461291Y-66140135D01*
X58679865Y-66358709D01*
X58965445Y-66477000D01*
X59274555Y-66477000D01*
X59560135Y-66358709D01*
X59778709Y-66140135D01*
X59897000Y-65854555D01*
X59897000Y-65545445D01*
X59778709Y-65259865D01*
X59560135Y-65041291D01*
X59557000Y-65039992D01*
X59557000Y-53171844D01*
X59758709Y-52970135D01*
X59877000Y-52684555D01*
X59877000Y-52375445D01*
X59758709Y-52089865D01*
X59557000Y-51888156D01*
X59557000Y-42759294D01*
X61499295Y-40817000D01*
X61784555Y-40817000D01*
X62070135Y-40698709D01*
X62288709Y-40480135D01*
X62407000Y-40194555D01*
X62407000Y-39885445D01*
X62288709Y-39599865D01*
X62070135Y-39381291D01*
X61957000Y-39334429D01*
X61957000Y-32077000D01*
X62211510Y-32077000D01*
X63526208Y-31532435D01*
X64532435Y-30526208D01*
X64548000Y-30488631D01*
X64548000Y-48517409D01*
X64521801Y-48478199D01*
X64397098Y-48394875D01*
X64250000Y-48365615D01*
X61750000Y-48365615D01*
X61602902Y-48394875D01*
X61478199Y-48478199D01*
X61394875Y-48602902D01*
X61365615Y-48750000D01*
X61365615Y-51250000D01*
X61394875Y-51397098D01*
X61478199Y-51521801D01*
X61602902Y-51605125D01*
X61750000Y-51634385D01*
X62543001Y-51634385D01*
X62543001Y-52238155D01*
X62341291Y-52439865D01*
X62223000Y-52725445D01*
X62223000Y-53034555D01*
X62341291Y-53320135D01*
X62543001Y-53521845D01*
X62543000Y-61944992D01*
X62534047Y-61990000D01*
X62543000Y-62035008D01*
X62569516Y-62168311D01*
X62670521Y-62319479D01*
X62708684Y-62344978D01*
X62723000Y-62359294D01*
X62723000Y-62644555D01*
X62841291Y-62930135D01*
X63059865Y-63148709D01*
X63345445Y-63267000D01*
X63654555Y-63267000D01*
X63940135Y-63148709D01*
X64158709Y-62930135D01*
X64277000Y-62644555D01*
X64277000Y-62335445D01*
X64158709Y-62049865D01*
X63940135Y-61831291D01*
X63654555Y-61713000D01*
X63457000Y-61713000D01*
X63457000Y-53521844D01*
X63658709Y-53320135D01*
X63777000Y-53034555D01*
X63777000Y-52725445D01*
X63658709Y-52439865D01*
X63457000Y-52238156D01*
X63457000Y-51634385D01*
X64250000Y-51634385D01*
X64397098Y-51605125D01*
X64521801Y-51521801D01*
X64548001Y-51482591D01*
X64548001Y-69166143D01*
X64240910Y-68938695D01*
X61679605Y-71500000D01*
X64240910Y-74061305D01*
X64548001Y-73833856D01*
X64548001Y-74548000D01*
X63833857Y-74548000D01*
X64061305Y-74240910D01*
X61500000Y-71679605D01*
X58938695Y-74240910D01*
X59166143Y-74548000D01*
X30488631Y-74548000D01*
X30526208Y-74532435D01*
X31532435Y-73526208D01*
X32066527Y-72236793D01*
X57659913Y-72236793D01*
X58234181Y-73650246D01*
X58263657Y-73694360D01*
X58759090Y-74061305D01*
X61320395Y-71500000D01*
X58759090Y-68938695D01*
X58263657Y-69305640D01*
X57670264Y-70711171D01*
X57659913Y-72236793D01*
X32066527Y-72236793D01*
X32077000Y-72211510D01*
X32077000Y-70788490D01*
X31532435Y-69473792D01*
X30817733Y-68759090D01*
X58938695Y-68759090D01*
X61500000Y-71320395D01*
X64061305Y-68759090D01*
X63694360Y-68263657D01*
X62288829Y-67670264D01*
X60763207Y-67659913D01*
X59349754Y-68234181D01*
X59305640Y-68263657D01*
X58938695Y-68759090D01*
X30817733Y-68759090D01*
X30526208Y-68467565D01*
X29211510Y-67923000D01*
X28957000Y-67923000D01*
X28957000Y-54741844D01*
X29128709Y-54570135D01*
X29247000Y-54284555D01*
X29247000Y-53975445D01*
X29128709Y-53689865D01*
X28910135Y-53471291D01*
X28624555Y-53353000D01*
X28315445Y-53353000D01*
X28029865Y-53471291D01*
X27811291Y-53689865D01*
X27693000Y-53975445D01*
X27693000Y-54284555D01*
X27811291Y-54570135D01*
X28029865Y-54788709D01*
X28043001Y-54794150D01*
X28043000Y-67923000D01*
X27788490Y-67923000D01*
X26473792Y-68467565D01*
X25467565Y-69473792D01*
X25452000Y-69511369D01*
X25452000Y-51482591D01*
X25478199Y-51521801D01*
X25602902Y-51605125D01*
X25750000Y-51634385D01*
X26543000Y-51634385D01*
X26543001Y-62468155D01*
X26531291Y-62479865D01*
X26413000Y-62765445D01*
X26413000Y-63074555D01*
X26531291Y-63360135D01*
X26749865Y-63578709D01*
X27035445Y-63697000D01*
X27344555Y-63697000D01*
X27630135Y-63578709D01*
X27848709Y-63360135D01*
X27967000Y-63074555D01*
X27967000Y-62765445D01*
X27848709Y-62479865D01*
X27630135Y-62261291D01*
X27457000Y-62189576D01*
X27457000Y-51634385D01*
X28250000Y-51634385D01*
X28397098Y-51605125D01*
X28521801Y-51521801D01*
X28605125Y-51397098D01*
X28634385Y-51250000D01*
X28634385Y-48750000D01*
X28605125Y-48602902D01*
X28521801Y-48478199D01*
X28397098Y-48394875D01*
X28250000Y-48365615D01*
X25750000Y-48365615D01*
X25602902Y-48394875D01*
X25478199Y-48478199D01*
X25452000Y-48517409D01*
X25452000Y-46715445D01*
X34313000Y-46715445D01*
X34313000Y-47024555D01*
X34431291Y-47310135D01*
X34633001Y-47511845D01*
X34633000Y-60094992D01*
X34624047Y-60140000D01*
X34633000Y-60185008D01*
X34659516Y-60318311D01*
X34760521Y-60469479D01*
X34798685Y-60494979D01*
X37902787Y-63599083D01*
X37900615Y-63610000D01*
X37900615Y-64240000D01*
X37929875Y-64387098D01*
X38013199Y-64511801D01*
X38028315Y-64521902D01*
X37973000Y-64655445D01*
X37973000Y-64964555D01*
X38091291Y-65250135D01*
X38309865Y-65468709D01*
X38595445Y-65587000D01*
X38883000Y-65587000D01*
X38883000Y-65804555D01*
X39001291Y-66090135D01*
X39219865Y-66308709D01*
X39505445Y-66427000D01*
X39814555Y-66427000D01*
X40100135Y-66308709D01*
X40318709Y-66090135D01*
X40437000Y-65804555D01*
X40437000Y-65495445D01*
X40318709Y-65209865D01*
X40109265Y-65000421D01*
X40107449Y-64991291D01*
X40090484Y-64906003D01*
X40057000Y-64855890D01*
X40057000Y-64624385D01*
X40115000Y-64624385D01*
X40262098Y-64595125D01*
X40386801Y-64511801D01*
X40393272Y-64502116D01*
X40439865Y-64548709D01*
X40725445Y-64667000D01*
X41034555Y-64667000D01*
X41320135Y-64548709D01*
X41538709Y-64330135D01*
X41657000Y-64044555D01*
X41657000Y-63735445D01*
X41538709Y-63449865D01*
X41320135Y-63231291D01*
X41034555Y-63113000D01*
X40725445Y-63113000D01*
X40439865Y-63231291D01*
X40354524Y-63316632D01*
X40262098Y-63254875D01*
X40115000Y-63225615D01*
X39885000Y-63225615D01*
X39800000Y-63242523D01*
X39715000Y-63225615D01*
X39657000Y-63225615D01*
X39657000Y-62277001D01*
X39884991Y-62277001D01*
X39929999Y-62285954D01*
X39975007Y-62277001D01*
X39975008Y-62277001D01*
X40108311Y-62250485D01*
X40145786Y-62225445D01*
X45623000Y-62225445D01*
X45623000Y-62534555D01*
X45741291Y-62820135D01*
X45959865Y-63038709D01*
X46245445Y-63157000D01*
X46554555Y-63157000D01*
X46840135Y-63038709D01*
X47041844Y-62837000D01*
X48815615Y-62837000D01*
X48815615Y-62850001D01*
X48863905Y-63092769D01*
X49001422Y-63298578D01*
X49207231Y-63436095D01*
X49449999Y-63484385D01*
X50100001Y-63484385D01*
X50342769Y-63436095D01*
X50548578Y-63298578D01*
X50686095Y-63092769D01*
X50734385Y-62850001D01*
X50734385Y-61949999D01*
X50865615Y-61949999D01*
X50865615Y-62850001D01*
X50913905Y-63092769D01*
X51051422Y-63298578D01*
X51257231Y-63436095D01*
X51499999Y-63484385D01*
X52150001Y-63484385D01*
X52392769Y-63436095D01*
X52598578Y-63298578D01*
X52736095Y-63092769D01*
X52782993Y-62857000D01*
X54409992Y-62857000D01*
X54411291Y-62860135D01*
X54629865Y-63078709D01*
X54915445Y-63197000D01*
X55224555Y-63197000D01*
X55510135Y-63078709D01*
X55728709Y-62860135D01*
X55847000Y-62574555D01*
X55847000Y-62265445D01*
X55728709Y-61979865D01*
X55510135Y-61761291D01*
X55224555Y-61643000D01*
X54915445Y-61643000D01*
X54629865Y-61761291D01*
X54448156Y-61943000D01*
X52782993Y-61943000D01*
X52736095Y-61707231D01*
X52598578Y-61501422D01*
X52392769Y-61363905D01*
X52150001Y-61315615D01*
X51499999Y-61315615D01*
X51257231Y-61363905D01*
X51051422Y-61501422D01*
X50913905Y-61707231D01*
X50865615Y-61949999D01*
X50734385Y-61949999D01*
X50686095Y-61707231D01*
X50548578Y-61501422D01*
X50342769Y-61363905D01*
X50100001Y-61315615D01*
X49449999Y-61315615D01*
X49207231Y-61363905D01*
X49001422Y-61501422D01*
X48863905Y-61707231D01*
X48820985Y-61923000D01*
X47041844Y-61923000D01*
X46840135Y-61721291D01*
X46554555Y-61603000D01*
X46245445Y-61603000D01*
X45959865Y-61721291D01*
X45741291Y-61939865D01*
X45623000Y-62225445D01*
X40145786Y-62225445D01*
X40259478Y-62149480D01*
X40284978Y-62111316D01*
X40291316Y-62104978D01*
X40329479Y-62079479D01*
X40430484Y-61928312D01*
X40457000Y-61795009D01*
X40457000Y-61795008D01*
X40465953Y-61750001D01*
X40464932Y-61744869D01*
X40470125Y-61737098D01*
X40499385Y-61590000D01*
X40499385Y-60960000D01*
X40470125Y-60812902D01*
X40386801Y-60688199D01*
X40262098Y-60604875D01*
X40115000Y-60575615D01*
X40057000Y-60575615D01*
X40057000Y-54565445D01*
X46563000Y-54565445D01*
X46563000Y-54874555D01*
X46681291Y-55160135D01*
X46899865Y-55378709D01*
X47185445Y-55497000D01*
X47494555Y-55497000D01*
X47780135Y-55378709D01*
X47998709Y-55160135D01*
X48117000Y-54874555D01*
X48117000Y-54589295D01*
X48301318Y-54404977D01*
X48339479Y-54379479D01*
X48440484Y-54228312D01*
X48467000Y-54095009D01*
X48467000Y-54095008D01*
X48475953Y-54050001D01*
X48467000Y-54004993D01*
X48467000Y-46775445D01*
X48703000Y-46775445D01*
X48703000Y-47084555D01*
X48821291Y-47370135D01*
X49023001Y-47571845D01*
X49023000Y-49884992D01*
X49014047Y-49930000D01*
X49023000Y-49975008D01*
X49049516Y-50108311D01*
X49150521Y-50259479D01*
X49188685Y-50284979D01*
X49630407Y-50726701D01*
X49613199Y-50738199D01*
X49529875Y-50862902D01*
X49500615Y-51010000D01*
X49500615Y-51640000D01*
X49529875Y-51787098D01*
X49543000Y-51806741D01*
X49543001Y-52992713D01*
X49449865Y-53031291D01*
X49231291Y-53249865D01*
X49113000Y-53535445D01*
X49113000Y-53844555D01*
X49231291Y-54130135D01*
X49449865Y-54348709D01*
X49735445Y-54467000D01*
X50044555Y-54467000D01*
X50330135Y-54348709D01*
X50548709Y-54130135D01*
X50667000Y-53844555D01*
X50667000Y-53535445D01*
X50548709Y-53249865D01*
X50457000Y-53158156D01*
X50457000Y-52734212D01*
X50571291Y-53010135D01*
X50789865Y-53228709D01*
X51075445Y-53347000D01*
X51384555Y-53347000D01*
X51670135Y-53228709D01*
X51888709Y-53010135D01*
X52007000Y-52724555D01*
X52007000Y-52415445D01*
X51888709Y-52129865D01*
X51771909Y-52013065D01*
X51862098Y-51995125D01*
X51986801Y-51911801D01*
X52009294Y-51878138D01*
X52079865Y-51948709D01*
X52365445Y-52067000D01*
X52674555Y-52067000D01*
X52960135Y-51948709D01*
X53178709Y-51730135D01*
X53297000Y-51444555D01*
X53297000Y-51135445D01*
X53178709Y-50849865D01*
X52960135Y-50631291D01*
X52674555Y-50513000D01*
X52365445Y-50513000D01*
X52079865Y-50631291D01*
X51978502Y-50732654D01*
X51862098Y-50654875D01*
X51715000Y-50625615D01*
X51485000Y-50625615D01*
X51400000Y-50642523D01*
X51315000Y-50625615D01*
X51257000Y-50625615D01*
X51257000Y-49677001D01*
X51484991Y-49677001D01*
X51529999Y-49685954D01*
X51575007Y-49677001D01*
X51575008Y-49677001D01*
X51708311Y-49650485D01*
X51859478Y-49549480D01*
X51884978Y-49511316D01*
X51891316Y-49504978D01*
X51929479Y-49479479D01*
X52030484Y-49328312D01*
X52057000Y-49195009D01*
X52057000Y-49195008D01*
X52065953Y-49150001D01*
X52064932Y-49144869D01*
X52070125Y-49137098D01*
X52099385Y-48990000D01*
X52099385Y-48360000D01*
X52070125Y-48212902D01*
X51986801Y-48088199D01*
X51862098Y-48004875D01*
X51715000Y-47975615D01*
X51657000Y-47975615D01*
X51657000Y-42406576D01*
X51700135Y-42388709D01*
X51918709Y-42170135D01*
X52037000Y-41884555D01*
X52037000Y-41575445D01*
X51918709Y-41289865D01*
X51700135Y-41071291D01*
X51414555Y-40953000D01*
X51105445Y-40953000D01*
X50819865Y-41071291D01*
X50601291Y-41289865D01*
X50483000Y-41575445D01*
X50483000Y-41884555D01*
X50601291Y-42170135D01*
X50743001Y-42311845D01*
X50743000Y-47975615D01*
X50685000Y-47975615D01*
X50637992Y-47984966D01*
X50474698Y-47821673D01*
X50241309Y-47725000D01*
X50216250Y-47725000D01*
X50057500Y-47883750D01*
X50057500Y-48058598D01*
X50013199Y-48088199D01*
X49942500Y-48194007D01*
X49942500Y-47883750D01*
X49937000Y-47878250D01*
X49937000Y-47571844D01*
X50138709Y-47370135D01*
X50257000Y-47084555D01*
X50257000Y-46775445D01*
X50138709Y-46489865D01*
X49920135Y-46271291D01*
X49634555Y-46153000D01*
X49325445Y-46153000D01*
X49039865Y-46271291D01*
X48821291Y-46489865D01*
X48703000Y-46775445D01*
X48467000Y-46775445D01*
X48467000Y-39974923D01*
X48531291Y-40130135D01*
X48749865Y-40348709D01*
X49035445Y-40467000D01*
X49344555Y-40467000D01*
X49630135Y-40348709D01*
X49848709Y-40130135D01*
X49967000Y-39844555D01*
X49967000Y-39604295D01*
X50154833Y-39416462D01*
X50200000Y-39407477D01*
X50285000Y-39424385D01*
X50515000Y-39424385D01*
X50600000Y-39407477D01*
X50685000Y-39424385D01*
X50753000Y-39424385D01*
X50753000Y-39428156D01*
X50551291Y-39629865D01*
X50433000Y-39915445D01*
X50433000Y-40224555D01*
X50551291Y-40510135D01*
X50769865Y-40728709D01*
X51055445Y-40847000D01*
X51364555Y-40847000D01*
X51650135Y-40728709D01*
X51868709Y-40510135D01*
X51987000Y-40224555D01*
X51987000Y-39915445D01*
X51868709Y-39629865D01*
X51667000Y-39428156D01*
X51667000Y-39424385D01*
X51715000Y-39424385D01*
X51862098Y-39395125D01*
X51986801Y-39311801D01*
X51993272Y-39302116D01*
X52099865Y-39408709D01*
X52385445Y-39527000D01*
X52694555Y-39527000D01*
X52980135Y-39408709D01*
X53198709Y-39190135D01*
X53317000Y-38904555D01*
X53317000Y-38595445D01*
X53198709Y-38309865D01*
X52980135Y-38091291D01*
X52694555Y-37973000D01*
X52435844Y-37973000D01*
X52578709Y-37830135D01*
X52697000Y-37544555D01*
X52697000Y-37235445D01*
X52578709Y-36949865D01*
X52360135Y-36731291D01*
X52074555Y-36613000D01*
X52019409Y-36613000D01*
X52070125Y-36537098D01*
X52099385Y-36390000D01*
X52099385Y-35760000D01*
X52070125Y-35612902D01*
X52064932Y-35605131D01*
X52065953Y-35599999D01*
X52052029Y-35530000D01*
X52030484Y-35421688D01*
X51929479Y-35270521D01*
X51891315Y-35245021D01*
X51884978Y-35238684D01*
X51859478Y-35200520D01*
X51708311Y-35099515D01*
X51575008Y-35072999D01*
X51575007Y-35072999D01*
X51529999Y-35064046D01*
X51484991Y-35072999D01*
X50915008Y-35072999D01*
X50870000Y-35064046D01*
X50824992Y-35072999D01*
X50691689Y-35099515D01*
X50540522Y-35200520D01*
X50515022Y-35238684D01*
X50508685Y-35245021D01*
X50502307Y-35249282D01*
X50474698Y-35221673D01*
X50241309Y-35125000D01*
X50216250Y-35125000D01*
X50057500Y-35283750D01*
X50057500Y-35458598D01*
X50013199Y-35488199D01*
X49942500Y-35594007D01*
X49942500Y-35283750D01*
X49783750Y-35125000D01*
X49758691Y-35125000D01*
X49525302Y-35221673D01*
X49346673Y-35400301D01*
X49250000Y-35633690D01*
X49250000Y-35789250D01*
X49408750Y-35948000D01*
X49900615Y-35948000D01*
X49900615Y-36202000D01*
X49408750Y-36202000D01*
X49250000Y-36360750D01*
X49250000Y-36516310D01*
X49346673Y-36749699D01*
X49525302Y-36928327D01*
X49758691Y-37025000D01*
X49783750Y-37025000D01*
X49942500Y-36866250D01*
X49942500Y-36592494D01*
X49956287Y-36661801D01*
X49969517Y-36728312D01*
X50057500Y-36859990D01*
X50057500Y-36866250D01*
X50070105Y-36878855D01*
X50070522Y-36879479D01*
X50071146Y-36879896D01*
X50216250Y-37025000D01*
X50228706Y-37025000D01*
X50343000Y-37139295D01*
X50343000Y-37660557D01*
X50305009Y-37653000D01*
X50305008Y-37653000D01*
X50260000Y-37644047D01*
X50214992Y-37653000D01*
X49195007Y-37653000D01*
X49149999Y-37644047D01*
X49104991Y-37653000D01*
X48971688Y-37679516D01*
X48820521Y-37780521D01*
X48795023Y-37818682D01*
X47718683Y-38895023D01*
X47680522Y-38920521D01*
X47579517Y-39071688D01*
X47544047Y-39250000D01*
X47553001Y-39295013D01*
X47553000Y-53860705D01*
X47470705Y-53943000D01*
X47185445Y-53943000D01*
X46899865Y-54061291D01*
X46681291Y-54279865D01*
X46563000Y-54565445D01*
X40057000Y-54565445D01*
X40057000Y-52024385D01*
X40115000Y-52024385D01*
X40262098Y-51995125D01*
X40384497Y-51913341D01*
X40479865Y-52008709D01*
X40765445Y-52127000D01*
X41074555Y-52127000D01*
X41360135Y-52008709D01*
X41578709Y-51790135D01*
X41697000Y-51504555D01*
X41697000Y-51195445D01*
X41578709Y-50909865D01*
X41360135Y-50691291D01*
X41074555Y-50573000D01*
X40765445Y-50573000D01*
X40479865Y-50691291D01*
X40405289Y-50765867D01*
X40386801Y-50738199D01*
X40262098Y-50654875D01*
X40115000Y-50625615D01*
X40057000Y-50625615D01*
X40057000Y-50532603D01*
X40065953Y-50487595D01*
X40047932Y-50397000D01*
X40039302Y-50353613D01*
X40220135Y-50278709D01*
X40438709Y-50060135D01*
X40557000Y-49774555D01*
X40557000Y-49465445D01*
X40439796Y-49182489D01*
X40470125Y-49137098D01*
X40499385Y-48990000D01*
X40499385Y-48360000D01*
X40490832Y-48317000D01*
X40614555Y-48317000D01*
X40900135Y-48198709D01*
X41118709Y-47980135D01*
X41237000Y-47694555D01*
X41237000Y-47627000D01*
X41484555Y-47627000D01*
X41770135Y-47508709D01*
X41988709Y-47290135D01*
X42107000Y-47004555D01*
X42107000Y-46695445D01*
X41988709Y-46409865D01*
X41770135Y-46191291D01*
X41484555Y-46073000D01*
X41175445Y-46073000D01*
X40889865Y-46191291D01*
X40698156Y-46383000D01*
X40145009Y-46383000D01*
X40100000Y-46374047D01*
X39921687Y-46409516D01*
X39876789Y-46439516D01*
X39770521Y-46510521D01*
X39745025Y-46548680D01*
X39318682Y-46975024D01*
X39280522Y-47000521D01*
X39260032Y-47031188D01*
X39110135Y-46881291D01*
X38824555Y-46763000D01*
X38515445Y-46763000D01*
X38229865Y-46881291D01*
X38011291Y-47099865D01*
X37893000Y-47385445D01*
X37893000Y-47694555D01*
X37942673Y-47814477D01*
X37925302Y-47821673D01*
X37746673Y-48000301D01*
X37650000Y-48233690D01*
X37650000Y-48253705D01*
X37447000Y-48050706D01*
X37447000Y-40799294D01*
X38343001Y-39903294D01*
X38343001Y-40458155D01*
X38171291Y-40629865D01*
X38053000Y-40915445D01*
X38053000Y-41224555D01*
X38171291Y-41510135D01*
X38389865Y-41728709D01*
X38675445Y-41847000D01*
X38984555Y-41847000D01*
X39270135Y-41728709D01*
X39403399Y-41595445D01*
X41653000Y-41595445D01*
X41653000Y-41904555D01*
X41771291Y-42190135D01*
X41989865Y-42408709D01*
X42275445Y-42527000D01*
X42584555Y-42527000D01*
X42870135Y-42408709D01*
X43083000Y-42195844D01*
X43083001Y-52119992D01*
X43079865Y-52121291D01*
X42861291Y-52339865D01*
X42743000Y-52625445D01*
X42743000Y-52934555D01*
X42861291Y-53220135D01*
X43079865Y-53438709D01*
X43365445Y-53557000D01*
X43674555Y-53557000D01*
X43960135Y-53438709D01*
X44178709Y-53220135D01*
X44297000Y-52934555D01*
X44297000Y-52625445D01*
X44178709Y-52339865D01*
X43997000Y-52158156D01*
X43997000Y-35611844D01*
X44198709Y-35410135D01*
X44317000Y-35124555D01*
X44317000Y-34815445D01*
X44198709Y-34529865D01*
X43980135Y-34311291D01*
X43694555Y-34193000D01*
X43385445Y-34193000D01*
X43152034Y-34289682D01*
X43237000Y-34084555D01*
X43237000Y-33775445D01*
X43118709Y-33489865D01*
X42900135Y-33271291D01*
X42614555Y-33153000D01*
X42305445Y-33153000D01*
X42019865Y-33271291D01*
X41801291Y-33489865D01*
X41683000Y-33775445D01*
X41683000Y-34084555D01*
X41801291Y-34370135D01*
X41973001Y-34541845D01*
X41973000Y-41108156D01*
X41771291Y-41309865D01*
X41653000Y-41595445D01*
X39403399Y-41595445D01*
X39488709Y-41510135D01*
X39607000Y-41224555D01*
X39607000Y-40915445D01*
X39488709Y-40629865D01*
X39355844Y-40497000D01*
X39604555Y-40497000D01*
X39890135Y-40378709D01*
X40108709Y-40160135D01*
X40227000Y-39874555D01*
X40227000Y-39565445D01*
X40164493Y-39414540D01*
X40262098Y-39395125D01*
X40386801Y-39311801D01*
X40429321Y-39248165D01*
X40519865Y-39338709D01*
X40805445Y-39457000D01*
X41114555Y-39457000D01*
X41400135Y-39338709D01*
X41618709Y-39120135D01*
X41737000Y-38834555D01*
X41737000Y-38525445D01*
X41618709Y-38239865D01*
X41400135Y-38021291D01*
X41114555Y-37903000D01*
X40805445Y-37903000D01*
X40519865Y-38021291D01*
X40393272Y-38147884D01*
X40386801Y-38138199D01*
X40262098Y-38054875D01*
X40115000Y-38025615D01*
X39885000Y-38025615D01*
X39800000Y-38042523D01*
X39715000Y-38025615D01*
X39485000Y-38025615D01*
X39400000Y-38042523D01*
X39315000Y-38025615D01*
X39257000Y-38025615D01*
X39257000Y-36774385D01*
X39315000Y-36774385D01*
X39400000Y-36757477D01*
X39485000Y-36774385D01*
X39715000Y-36774385D01*
X39800000Y-36757477D01*
X39885000Y-36774385D01*
X40115000Y-36774385D01*
X40262098Y-36745125D01*
X40386801Y-36661801D01*
X40470125Y-36537098D01*
X40499385Y-36390000D01*
X40499385Y-35760000D01*
X40470125Y-35612902D01*
X40452079Y-35585894D01*
X40590135Y-35528709D01*
X40808709Y-35310135D01*
X40927000Y-35024555D01*
X40927000Y-34715445D01*
X40808709Y-34429865D01*
X40590135Y-34211291D01*
X40304555Y-34093000D01*
X39995445Y-34093000D01*
X39883100Y-34139535D01*
X39997000Y-33864555D01*
X39997000Y-33555445D01*
X39878709Y-33269865D01*
X39660135Y-33051291D01*
X39374555Y-32933000D01*
X39065445Y-32933000D01*
X38779865Y-33051291D01*
X38561291Y-33269865D01*
X38443000Y-33555445D01*
X38443000Y-33864555D01*
X38561291Y-34150135D01*
X38763000Y-34351844D01*
X38763001Y-35175406D01*
X38641309Y-35125000D01*
X38616250Y-35125000D01*
X38457500Y-35283750D01*
X38457500Y-35458598D01*
X38413199Y-35488199D01*
X38342500Y-35594007D01*
X38342500Y-35283750D01*
X38183750Y-35125000D01*
X38158691Y-35125000D01*
X37925302Y-35221673D01*
X37746673Y-35400301D01*
X37650000Y-35633690D01*
X37650000Y-35789250D01*
X37808750Y-35948000D01*
X38300615Y-35948000D01*
X38300615Y-36202000D01*
X37808750Y-36202000D01*
X37650000Y-36360750D01*
X37650000Y-36516310D01*
X37746673Y-36749699D01*
X37925302Y-36928327D01*
X38158691Y-37025000D01*
X38183750Y-37025000D01*
X38272998Y-36935752D01*
X38272998Y-37025000D01*
X38343000Y-37025000D01*
X38343001Y-38025615D01*
X38285000Y-38025615D01*
X38137902Y-38054875D01*
X38013199Y-38138199D01*
X37929875Y-38262902D01*
X37900615Y-38410000D01*
X37900615Y-39040000D01*
X37902787Y-39050918D01*
X36816990Y-40136716D01*
X36816990Y-38001854D01*
X36908709Y-37910135D01*
X37027000Y-37624555D01*
X37027000Y-37315445D01*
X36908709Y-37029865D01*
X36690135Y-36811291D01*
X36404555Y-36693000D01*
X36095445Y-36693000D01*
X35809865Y-36811291D01*
X35591291Y-37029865D01*
X35473000Y-37315445D01*
X35473000Y-37624555D01*
X35591291Y-37910135D01*
X35809865Y-38128709D01*
X35902991Y-38167283D01*
X35902990Y-40538156D01*
X35701281Y-40739865D01*
X35582990Y-41025445D01*
X35582990Y-41334555D01*
X35701281Y-41620135D01*
X35902991Y-41821845D01*
X35902990Y-49039982D01*
X35894037Y-49084990D01*
X35902990Y-49129998D01*
X35929506Y-49263301D01*
X36030511Y-49414469D01*
X36068675Y-49439969D01*
X37900615Y-51271911D01*
X37900615Y-51640000D01*
X37929875Y-51787098D01*
X38013199Y-51911801D01*
X38137902Y-51995125D01*
X38285000Y-52024385D01*
X38293001Y-52024385D01*
X38293000Y-53408156D01*
X38091291Y-53609865D01*
X37973000Y-53895445D01*
X37973000Y-54204555D01*
X38091291Y-54490135D01*
X38309865Y-54708709D01*
X38595445Y-54827000D01*
X38904555Y-54827000D01*
X39143001Y-54728233D01*
X39143000Y-60575615D01*
X39085000Y-60575615D01*
X39037992Y-60584966D01*
X38874698Y-60421673D01*
X38641309Y-60325000D01*
X38616250Y-60325000D01*
X38457500Y-60483750D01*
X38457500Y-60658598D01*
X38413199Y-60688199D01*
X38342500Y-60794007D01*
X38342500Y-60483750D01*
X38183750Y-60325000D01*
X38158691Y-60325000D01*
X37925302Y-60421673D01*
X37746673Y-60600301D01*
X37650000Y-60833690D01*
X37650000Y-60989250D01*
X37808750Y-61148000D01*
X38300615Y-61148000D01*
X38300615Y-61402000D01*
X37808750Y-61402000D01*
X37650000Y-61560750D01*
X37650000Y-61716310D01*
X37746673Y-61949699D01*
X37925302Y-62128327D01*
X38158691Y-62225000D01*
X38183750Y-62225000D01*
X38342500Y-62066250D01*
X38342500Y-61792494D01*
X38366679Y-61914047D01*
X38369517Y-61928312D01*
X38457500Y-62059990D01*
X38457500Y-62066250D01*
X38470105Y-62078855D01*
X38470522Y-62079479D01*
X38471146Y-62079896D01*
X38616250Y-62225000D01*
X38628706Y-62225000D01*
X38743000Y-62339295D01*
X38743001Y-63140758D01*
X38729479Y-63120521D01*
X38691321Y-63095025D01*
X35547000Y-59950706D01*
X35547000Y-47511844D01*
X35748709Y-47310135D01*
X35867000Y-47024555D01*
X35867000Y-46715445D01*
X35748709Y-46429865D01*
X35530135Y-46211291D01*
X35244555Y-46093000D01*
X34935445Y-46093000D01*
X34649865Y-46211291D01*
X34431291Y-46429865D01*
X34313000Y-46715445D01*
X25452000Y-46715445D01*
X25452000Y-30488631D01*
X25467565Y-30526208D01*
X26473792Y-31532435D01*
X27788490Y-32077000D01*
X29211510Y-32077000D01*
X30526208Y-31532435D01*
X31532435Y-30526208D01*
X32077000Y-29211510D01*
X32077000Y-27788490D01*
X31532435Y-26473792D01*
X30526208Y-25467565D01*
X30488631Y-25452000D01*
X59511369Y-25452000D01*
X59473792Y-25467565D01*
G36*
X38300615Y-48782998D02*
X38285000Y-48782998D01*
X38285000Y-48548000D01*
X38300615Y-48548000D01*
X38300615Y-48782998D01*
X38300615Y-48782998D01*
G37*
X38300615Y-48782998D02*
X38285000Y-48782998D01*
X38285000Y-48548000D01*
X38300615Y-48548000D01*
X38300615Y-48782998D01*
G04 #@! TD*
M02*
