G04 #@! TF.GenerationSoftware,KiCad,Pcbnew,5.0.2+dfsg1-1*
G04 #@! TF.CreationDate,2019-02-17T13:47:13+13:00*
G04 #@! TF.ProjectId,1b-reg,31622d72-6567-42e6-9b69-6361645f7063,rev?*
G04 #@! TF.SameCoordinates,Original*
G04 #@! TF.FileFunction,Soldermask,Top*
G04 #@! TF.FilePolarity,Negative*
%FSLAX46Y46*%
G04 Gerber Fmt 4.6, Leading zero omitted, Abs format (unit mm)*
G04 Created by KiCad (PCBNEW 5.0.2+dfsg1-1) date Sun 17 Feb 2019 13:47:13 NZDT*
%MOMM*%
%LPD*%
G01*
G04 APERTURE LIST*
%ADD10C,0.100000*%
G04 APERTURE END LIST*
D10*
G36*
X62134239Y-68311467D02*
X62448282Y-68373934D01*
X63039926Y-68619001D01*
X63329523Y-68812504D01*
X63572395Y-68974786D01*
X64025214Y-69427605D01*
X64025216Y-69427608D01*
X64380999Y-69960074D01*
X64502724Y-70253944D01*
X64626066Y-70551719D01*
X64751000Y-71179803D01*
X64751000Y-71820197D01*
X64688533Y-72134239D01*
X64626066Y-72448282D01*
X64380999Y-73039926D01*
X64133265Y-73410685D01*
X64025214Y-73572395D01*
X63572395Y-74025214D01*
X63572392Y-74025216D01*
X63039926Y-74380999D01*
X62448282Y-74626066D01*
X62134239Y-74688533D01*
X61820197Y-74751000D01*
X61179803Y-74751000D01*
X60865761Y-74688533D01*
X60551718Y-74626066D01*
X59960074Y-74380999D01*
X59427608Y-74025216D01*
X59427605Y-74025214D01*
X58974786Y-73572395D01*
X58866735Y-73410685D01*
X58619001Y-73039926D01*
X58373934Y-72448282D01*
X58311467Y-72134239D01*
X58249000Y-71820197D01*
X58249000Y-71179803D01*
X58373934Y-70551719D01*
X58497276Y-70253944D01*
X58619001Y-69960074D01*
X58974784Y-69427608D01*
X58974786Y-69427605D01*
X59427605Y-68974786D01*
X59670477Y-68812504D01*
X59960074Y-68619001D01*
X60551718Y-68373934D01*
X60865761Y-68311467D01*
X61179803Y-68249000D01*
X61820197Y-68249000D01*
X62134239Y-68311467D01*
X62134239Y-68311467D01*
G37*
G36*
X29134239Y-68311467D02*
X29448282Y-68373934D01*
X30039926Y-68619001D01*
X30329523Y-68812504D01*
X30572395Y-68974786D01*
X31025214Y-69427605D01*
X31025216Y-69427608D01*
X31380999Y-69960074D01*
X31502724Y-70253944D01*
X31626066Y-70551719D01*
X31751000Y-71179803D01*
X31751000Y-71820197D01*
X31688533Y-72134239D01*
X31626066Y-72448282D01*
X31380999Y-73039926D01*
X31133265Y-73410685D01*
X31025214Y-73572395D01*
X30572395Y-74025214D01*
X30572392Y-74025216D01*
X30039926Y-74380999D01*
X29448282Y-74626066D01*
X29134239Y-74688533D01*
X28820197Y-74751000D01*
X28179803Y-74751000D01*
X27865761Y-74688533D01*
X27551718Y-74626066D01*
X26960074Y-74380999D01*
X26427608Y-74025216D01*
X26427605Y-74025214D01*
X25974786Y-73572395D01*
X25866735Y-73410685D01*
X25619001Y-73039926D01*
X25373934Y-72448282D01*
X25311467Y-72134239D01*
X25249000Y-71820197D01*
X25249000Y-71179803D01*
X25373934Y-70551719D01*
X25497276Y-70253944D01*
X25619001Y-69960074D01*
X25974784Y-69427608D01*
X25974786Y-69427605D01*
X26427605Y-68974786D01*
X26670477Y-68812504D01*
X26960074Y-68619001D01*
X27551718Y-68373934D01*
X27865761Y-68311467D01*
X28179803Y-68249000D01*
X28820197Y-68249000D01*
X29134239Y-68311467D01*
X29134239Y-68311467D01*
G37*
G36*
X40166000Y-64291000D02*
X38234000Y-64291000D01*
X38234000Y-63559000D01*
X40166000Y-63559000D01*
X40166000Y-64291000D01*
X40166000Y-64291000D01*
G37*
G36*
X50238677Y-61653465D02*
X50276364Y-61664898D01*
X50311103Y-61683466D01*
X50341548Y-61708452D01*
X50366534Y-61738897D01*
X50385102Y-61773636D01*
X50396535Y-61811323D01*
X50401000Y-61856661D01*
X50401000Y-62943339D01*
X50396535Y-62988677D01*
X50385102Y-63026364D01*
X50366534Y-63061103D01*
X50341548Y-63091548D01*
X50311103Y-63116534D01*
X50276364Y-63135102D01*
X50238677Y-63146535D01*
X50193339Y-63151000D01*
X49356661Y-63151000D01*
X49311323Y-63146535D01*
X49273636Y-63135102D01*
X49238897Y-63116534D01*
X49208452Y-63091548D01*
X49183466Y-63061103D01*
X49164898Y-63026364D01*
X49153465Y-62988677D01*
X49149000Y-62943339D01*
X49149000Y-61856661D01*
X49153465Y-61811323D01*
X49164898Y-61773636D01*
X49183466Y-61738897D01*
X49208452Y-61708452D01*
X49238897Y-61683466D01*
X49273636Y-61664898D01*
X49311323Y-61653465D01*
X49356661Y-61649000D01*
X50193339Y-61649000D01*
X50238677Y-61653465D01*
X50238677Y-61653465D01*
G37*
G36*
X52288677Y-61653465D02*
X52326364Y-61664898D01*
X52361103Y-61683466D01*
X52391548Y-61708452D01*
X52416534Y-61738897D01*
X52435102Y-61773636D01*
X52446535Y-61811323D01*
X52451000Y-61856661D01*
X52451000Y-62943339D01*
X52446535Y-62988677D01*
X52435102Y-63026364D01*
X52416534Y-63061103D01*
X52391548Y-63091548D01*
X52361103Y-63116534D01*
X52326364Y-63135102D01*
X52288677Y-63146535D01*
X52243339Y-63151000D01*
X51406661Y-63151000D01*
X51361323Y-63146535D01*
X51323636Y-63135102D01*
X51288897Y-63116534D01*
X51258452Y-63091548D01*
X51233466Y-63061103D01*
X51214898Y-63026364D01*
X51203465Y-62988677D01*
X51199000Y-62943339D01*
X51199000Y-61856661D01*
X51203465Y-61811323D01*
X51214898Y-61773636D01*
X51233466Y-61738897D01*
X51258452Y-61708452D01*
X51288897Y-61683466D01*
X51323636Y-61664898D01*
X51361323Y-61653465D01*
X51406661Y-61649000D01*
X52243339Y-61649000D01*
X52288677Y-61653465D01*
X52288677Y-61653465D01*
G37*
G36*
X40166000Y-61641000D02*
X38234000Y-61641000D01*
X38234000Y-60909000D01*
X40166000Y-60909000D01*
X40166000Y-61641000D01*
X40166000Y-61641000D01*
G37*
G36*
X40166000Y-51691000D02*
X38234000Y-51691000D01*
X38234000Y-50959000D01*
X40166000Y-50959000D01*
X40166000Y-51691000D01*
X40166000Y-51691000D01*
G37*
G36*
X51766000Y-51691000D02*
X49834000Y-51691000D01*
X49834000Y-50959000D01*
X51766000Y-50959000D01*
X51766000Y-51691000D01*
X51766000Y-51691000D01*
G37*
G36*
X28301000Y-51301000D02*
X25699000Y-51301000D01*
X25699000Y-48699000D01*
X28301000Y-48699000D01*
X28301000Y-51301000D01*
X28301000Y-51301000D01*
G37*
G36*
X64301000Y-51301000D02*
X61699000Y-51301000D01*
X61699000Y-48699000D01*
X64301000Y-48699000D01*
X64301000Y-51301000D01*
X64301000Y-51301000D01*
G37*
G36*
X51766000Y-49041000D02*
X49834000Y-49041000D01*
X49834000Y-48309000D01*
X51766000Y-48309000D01*
X51766000Y-49041000D01*
X51766000Y-49041000D01*
G37*
G36*
X40166000Y-49041000D02*
X38234000Y-49041000D01*
X38234000Y-48309000D01*
X40166000Y-48309000D01*
X40166000Y-49041000D01*
X40166000Y-49041000D01*
G37*
G36*
X40166000Y-39091000D02*
X38234000Y-39091000D01*
X38234000Y-38359000D01*
X40166000Y-38359000D01*
X40166000Y-39091000D01*
X40166000Y-39091000D01*
G37*
G36*
X51766000Y-39091000D02*
X49834000Y-39091000D01*
X49834000Y-38359000D01*
X51766000Y-38359000D01*
X51766000Y-39091000D01*
X51766000Y-39091000D01*
G37*
G36*
X40166000Y-36441000D02*
X38234000Y-36441000D01*
X38234000Y-35709000D01*
X40166000Y-35709000D01*
X40166000Y-36441000D01*
X40166000Y-36441000D01*
G37*
G36*
X51766000Y-36441000D02*
X49834000Y-36441000D01*
X49834000Y-35709000D01*
X51766000Y-35709000D01*
X51766000Y-36441000D01*
X51766000Y-36441000D01*
G37*
G36*
X29134239Y-25311467D02*
X29448282Y-25373934D01*
X30039926Y-25619001D01*
X30329523Y-25812504D01*
X30572395Y-25974786D01*
X31025214Y-26427605D01*
X31025216Y-26427608D01*
X31380999Y-26960074D01*
X31502724Y-27253944D01*
X31626066Y-27551719D01*
X31751000Y-28179803D01*
X31751000Y-28820197D01*
X31688533Y-29134239D01*
X31626066Y-29448282D01*
X31380999Y-30039926D01*
X31133265Y-30410685D01*
X31025214Y-30572395D01*
X30572395Y-31025214D01*
X30572392Y-31025216D01*
X30039926Y-31380999D01*
X29448282Y-31626066D01*
X29134239Y-31688533D01*
X28820197Y-31751000D01*
X28179803Y-31751000D01*
X27865761Y-31688533D01*
X27551718Y-31626066D01*
X26960074Y-31380999D01*
X26427608Y-31025216D01*
X26427605Y-31025214D01*
X25974786Y-30572395D01*
X25866735Y-30410685D01*
X25619001Y-30039926D01*
X25373934Y-29448282D01*
X25311467Y-29134239D01*
X25249000Y-28820197D01*
X25249000Y-28179803D01*
X25373934Y-27551719D01*
X25497276Y-27253944D01*
X25619001Y-26960074D01*
X25974784Y-26427608D01*
X25974786Y-26427605D01*
X26427605Y-25974786D01*
X26670477Y-25812504D01*
X26960074Y-25619001D01*
X27551718Y-25373934D01*
X27865761Y-25311467D01*
X28179803Y-25249000D01*
X28820197Y-25249000D01*
X29134239Y-25311467D01*
X29134239Y-25311467D01*
G37*
G36*
X62134239Y-25311467D02*
X62448282Y-25373934D01*
X63039926Y-25619001D01*
X63329523Y-25812504D01*
X63572395Y-25974786D01*
X64025214Y-26427605D01*
X64025216Y-26427608D01*
X64380999Y-26960074D01*
X64502724Y-27253944D01*
X64626066Y-27551719D01*
X64751000Y-28179803D01*
X64751000Y-28820197D01*
X64688533Y-29134239D01*
X64626066Y-29448282D01*
X64380999Y-30039926D01*
X64133265Y-30410685D01*
X64025214Y-30572395D01*
X63572395Y-31025214D01*
X63572392Y-31025216D01*
X63039926Y-31380999D01*
X62448282Y-31626066D01*
X62134239Y-31688533D01*
X61820197Y-31751000D01*
X61179803Y-31751000D01*
X60865761Y-31688533D01*
X60551718Y-31626066D01*
X59960074Y-31380999D01*
X59427608Y-31025216D01*
X59427605Y-31025214D01*
X58974786Y-30572395D01*
X58866735Y-30410685D01*
X58619001Y-30039926D01*
X58373934Y-29448282D01*
X58311467Y-29134239D01*
X58249000Y-28820197D01*
X58249000Y-28179803D01*
X58373934Y-27551719D01*
X58497276Y-27253944D01*
X58619001Y-26960074D01*
X58974784Y-26427608D01*
X58974786Y-26427605D01*
X59427605Y-25974786D01*
X59670477Y-25812504D01*
X59960074Y-25619001D01*
X60551718Y-25373934D01*
X60865761Y-25311467D01*
X61179803Y-25249000D01*
X61820197Y-25249000D01*
X62134239Y-25311467D01*
X62134239Y-25311467D01*
G37*
M02*
