(kicad_pcb (version 20171130) (host pcbnew 5.0.2+dfsg1-1)

  (general
    (thickness 1.6)
    (drawings 8)
    (tracks 88)
    (zones 0)
    (modules 8)
    (nets 9)
  )

  (page A4)
  (layers
    (0 F.Cu signal)
    (31 B.Cu signal)
    (32 B.Adhes user)
    (33 F.Adhes user)
    (34 B.Paste user)
    (35 F.Paste user)
    (36 B.SilkS user)
    (37 F.SilkS user)
    (38 B.Mask user)
    (39 F.Mask user)
    (40 Dwgs.User user)
    (41 Cmts.User user)
    (42 Eco1.User user)
    (43 Eco2.User user)
    (44 Edge.Cuts user)
    (45 Margin user)
    (46 B.CrtYd user)
    (47 F.CrtYd user)
    (48 B.Fab user)
    (49 F.Fab user)
  )

  (setup
    (last_trace_width 0.16)
    (trace_clearance 0.2)
    (zone_clearance 0.2)
    (zone_45_only no)
    (trace_min 0.153)
    (segment_width 0.2)
    (edge_width 0.15)
    (via_size 0.8)
    (via_drill 0.4)
    (via_min_size 0.4)
    (via_min_drill 0.3)
    (uvia_size 0.3)
    (uvia_drill 0.1)
    (uvias_allowed no)
    (uvia_min_size 0.2)
    (uvia_min_drill 0.1)
    (pcb_text_width 0.3)
    (pcb_text_size 1.5 1.5)
    (mod_edge_width 0.15)
    (mod_text_size 1 1)
    (mod_text_width 0.15)
    (pad_size 1.524 1.524)
    (pad_drill 0.762)
    (pad_to_mask_clearance 0.051)
    (solder_mask_min_width 0.25)
    (aux_axis_origin 0 0)
    (visible_elements FFFFFF7F)
    (pcbplotparams
      (layerselection 0x010fc_ffffffff)
      (usegerberextensions false)
      (usegerberattributes false)
      (usegerberadvancedattributes false)
      (creategerberjobfile false)
      (excludeedgelayer true)
      (linewidth 0.100000)
      (plotframeref false)
      (viasonmask false)
      (mode 1)
      (useauxorigin false)
      (hpglpennumber 1)
      (hpglpenspeed 20)
      (hpglpendiameter 15.000000)
      (psnegative false)
      (psa4output false)
      (plotreference true)
      (plotvalue true)
      (plotinvisibletext false)
      (padsonsilk false)
      (subtractmaskfromsilk false)
      (outputformat 1)
      (mirror false)
      (drillshape 0)
      (scaleselection 1)
      (outputdirectory "gerber/"))
  )

  (net 0 "")
  (net 1 /B)
  (net 2 /Q)
  (net 3 GND)
  (net 4 VCC)
  (net 5 /A)
  (net 6 "Net-(U1-Pad9)")
  (net 7 "Net-(U1-Pad3)")
  (net 8 "Net-(U1-Pad8)")

  (net_class Default "This is the default net class."
    (clearance 0.2)
    (trace_width 0.16)
    (via_dia 0.8)
    (via_drill 0.4)
    (uvia_dia 0.3)
    (uvia_drill 0.1)
    (add_net /A)
    (add_net /B)
    (add_net /Q)
    (add_net GND)
    (add_net "Net-(U1-Pad3)")
    (add_net "Net-(U1-Pad8)")
    (add_net "Net-(U1-Pad9)")
    (add_net VCC)
  )

  (module linus:linus_logo_negative_sml (layer F.Cu) (tedit 0) (tstamp 5C8CDAB1)
    (at 26.75 43.25)
    (fp_text reference G*** (at 0 0) (layer F.SilkS) hide
      (effects (font (size 1.524 1.524) (thickness 0.3)))
    )
    (fp_text value LOGO (at 0.75 0) (layer F.SilkS) hide
      (effects (font (size 1.524 1.524) (thickness 0.3)))
    )
    (fp_poly (pts (xy 0.550697 -1.035558) (xy 0.566624 -1.026445) (xy 0.595437 -0.999884) (xy 0.612195 -0.962555)
      (xy 0.617338 -0.909214) (xy 0.611307 -0.834618) (xy 0.594542 -0.733522) (xy 0.592239 -0.721476)
      (xy 0.578582 -0.647082) (xy 0.56867 -0.585891) (xy 0.563555 -0.544927) (xy 0.563752 -0.53127)
      (xy 0.573758 -0.542652) (xy 0.596145 -0.578696) (xy 0.627728 -0.633984) (xy 0.665323 -0.7031)
      (xy 0.670383 -0.712624) (xy 0.729817 -0.816344) (xy 0.787946 -0.902003) (xy 0.841882 -0.966101)
      (xy 0.888738 -1.005137) (xy 0.920632 -1.016) (xy 0.960819 -1.001627) (xy 1.002663 -0.964985)
      (xy 1.036682 -0.915788) (xy 1.049475 -0.883996) (xy 1.060358 -0.829048) (xy 1.069842 -0.749348)
      (xy 1.077871 -0.649719) (xy 1.084389 -0.534982) (xy 1.08934 -0.409959) (xy 1.092667 -0.279473)
      (xy 1.094315 -0.148346) (xy 1.094227 -0.021399) (xy 1.092347 0.096545) (xy 1.088618 0.200665)
      (xy 1.082986 0.286138) (xy 1.075393 0.348142) (xy 1.065784 0.381855) (xy 1.064241 0.384084)
      (xy 1.033403 0.402152) (xy 1.007534 0.4064) (xy 0.984681 0.405164) (xy 0.966343 0.399207)
      (xy 0.951995 0.385152) (xy 0.941113 0.359625) (xy 0.933173 0.31925) (xy 0.92765 0.260653)
      (xy 0.924019 0.180457) (xy 0.921755 0.075288) (xy 0.920335 -0.058231) (xy 0.919632 -0.159231)
      (xy 0.918333 -0.289702) (xy 0.91623 -0.411202) (xy 0.913473 -0.519035) (xy 0.910214 -0.60851)
      (xy 0.906604 -0.674931) (xy 0.902794 -0.713607) (xy 0.901619 -0.719149) (xy 0.895946 -0.734073)
      (xy 0.888587 -0.739247) (xy 0.877497 -0.731548) (xy 0.860628 -0.707848) (xy 0.835934 -0.665023)
      (xy 0.801367 -0.599947) (xy 0.754882 -0.509496) (xy 0.722038 -0.444935) (xy 0.654822 -0.314566)
      (xy 0.5994 -0.212249) (xy 0.553674 -0.135148) (xy 0.515544 -0.08043) (xy 0.482912 -0.04526)
      (xy 0.453676 -0.026805) (xy 0.425739 -0.022231) (xy 0.4106 -0.024499) (xy 0.368206 -0.042522)
      (xy 0.3429 -0.06343) (xy 0.326883 -0.108179) (xy 0.323655 -0.182506) (xy 0.333127 -0.284663)
      (xy 0.35521 -0.412907) (xy 0.362668 -0.448733) (xy 0.371483 -0.491066) (xy 0.541867 -0.491066)
      (xy 0.548062 -0.477128) (xy 0.553156 -0.479778) (xy 0.555182 -0.499874) (xy 0.553156 -0.502355)
      (xy 0.543089 -0.500031) (xy 0.541867 -0.491066) (xy 0.371483 -0.491066) (xy 0.378215 -0.523392)
      (xy 0.390098 -0.584722) (xy 0.397051 -0.625891) (xy 0.398072 -0.640032) (xy 0.388085 -0.628259)
      (xy 0.364034 -0.59039) (xy 0.327984 -0.530111) (xy 0.281996 -0.451106) (xy 0.228135 -0.35706)
      (xy 0.168463 -0.251657) (xy 0.105045 -0.138583) (xy 0.039944 -0.021522) (xy -0.024778 0.095841)
      (xy -0.087056 0.209822) (xy -0.144828 0.316734) (xy -0.196029 0.412894) (xy -0.238597 0.494617)
      (xy -0.251547 0.520063) (xy -0.283039 0.575854) (xy -0.3141 0.620106) (xy -0.337475 0.642829)
      (xy -0.365779 0.656868) (xy -0.384798 0.65641) (xy -0.411612 0.639624) (xy -0.419565 0.63404)
      (xy -0.447938 0.602769) (xy -0.4572 0.574624) (xy -0.449039 0.548485) (xy -0.425748 0.496322)
      (xy -0.38911 0.42145) (xy -0.340911 0.327184) (xy -0.282937 0.216839) (xy -0.216971 0.093731)
      (xy -0.144799 -0.038826) (xy -0.068207 -0.177516) (xy 0.011022 -0.319024) (xy 0.091101 -0.460035)
      (xy 0.170246 -0.597234) (xy 0.214613 -0.673067) (xy 0.289154 -0.797113) (xy 0.350964 -0.893168)
      (xy 0.402376 -0.963575) (xy 0.445722 -1.010676) (xy 0.483336 -1.036812) (xy 0.51755 -1.044326)
      (xy 0.550697 -1.035558)) (layer F.SilkS) (width 0.01))
    (fp_poly (pts (xy 0.198726 -1.138849) (xy 0.236648 -1.110402) (xy 0.253866 -1.070553) (xy 0.254 -1.066611)
      (xy 0.246211 -1.04816) (xy 0.223716 -1.002353) (xy 0.187823 -0.931675) (xy 0.139842 -0.838611)
      (xy 0.081081 -0.725646) (xy 0.012849 -0.595265) (xy -0.063546 -0.449953) (xy -0.146794 -0.292195)
      (xy -0.235588 -0.124476) (xy -0.328618 0.05072) (xy -0.424575 0.230907) (xy -0.522152 0.4136)
      (xy -0.620039 0.596314) (xy -0.706554 0.757296) (xy -0.781496 0.896525) (xy -0.682848 0.862259)
      (xy -0.581781 0.830183) (xy -0.457475 0.795375) (xy -0.320014 0.760256) (xy -0.179483 0.727245)
      (xy -0.045969 0.698763) (xy 0.070445 0.677232) (xy 0.118614 0.669894) (xy 0.208682 0.659278)
      (xy 0.314136 0.649662) (xy 0.42947 0.641261) (xy 0.54918 0.634288) (xy 0.66776 0.628955)
      (xy 0.779706 0.625476) (xy 0.879512 0.624065) (xy 0.961673 0.624934) (xy 1.020685 0.628297)
      (xy 1.049867 0.633807) (xy 1.08545 0.663386) (xy 1.097298 0.704294) (xy 1.098392 0.734749)
      (xy 1.09238 0.758286) (xy 1.07538 0.776) (xy 1.04351 0.78899) (xy 0.992888 0.798353)
      (xy 0.919632 0.805186) (xy 0.819859 0.810587) (xy 0.705345 0.815087) (xy 0.555403 0.820902)
      (xy 0.432908 0.826714) (xy 0.331446 0.83312) (xy 0.244604 0.840714) (xy 0.165966 0.850094)
      (xy 0.08912 0.861855) (xy 0.00765 0.876594) (xy -0.0254 0.88301) (xy -0.215477 0.924462)
      (xy -0.407279 0.974917) (xy -0.611262 1.03728) (xy -0.755903 1.085771) (xy -0.84187 1.11486)
      (xy -0.917777 1.139463) (xy -0.977278 1.157605) (xy -1.014022 1.167311) (xy -1.021394 1.1684)
      (xy -1.053852 1.157171) (xy -1.074057 1.141791) (xy -1.093274 1.114574) (xy -1.097635 1.081785)
      (xy -1.085655 1.038267) (xy -1.055848 0.978864) (xy -1.006728 0.898421) (xy -1.001678 0.890546)
      (xy -0.975898 0.847847) (xy -0.936027 0.778331) (xy -0.88378 0.685132) (xy -0.820875 0.571382)
      (xy -0.749029 0.440217) (xy -0.669957 0.294768) (xy -0.585376 0.138171) (xy -0.497003 -0.026442)
      (xy -0.407194 -0.194733) (xy -0.319554 -0.359085) (xy -0.236252 -0.51458) (xy -0.158697 -0.658632)
      (xy -0.088299 -0.788655) (xy -0.026471 -0.902063) (xy 0.025378 -0.99627) (xy 0.065837 -1.06869)
      (xy 0.093495 -1.116737) (xy 0.106942 -1.137826) (xy 0.107651 -1.138507) (xy 0.15182 -1.150137)
      (xy 0.198726 -1.138849)) (layer F.SilkS) (width 0.01))
  )

  (module Custom:2NAND_1NOT_BoB (layer F.Cu) (tedit 5C1EAB77) (tstamp 5C8CD491)
    (at 45.8 38.7)
    (path /5C59AC9D)
    (fp_text reference U2 (at 0 0) (layer F.SilkS)
      (effects (font (size 0.7 0.7) (thickness 0.15)))
    )
    (fp_text value 2NAND_1NOT_BoB (at 0.01 -0.55) (layer F.Fab)
      (effects (font (size 0.1 0.1) (thickness 0.025)))
    )
    (fp_line (start 4.7 6.2) (end 5.7 5.2) (layer F.CrtYd) (width 0.15))
    (fp_poly (pts (xy -4.7 -6.2) (xy -5.7 -5.2) (xy -5.7 -6.2)) (layer F.SilkS) (width 0.1))
    (fp_line (start -5.7 5.2) (end -4.7 6.2) (layer F.CrtYd) (width 0.15))
    (fp_line (start 4.7 6.2) (end -4.7 6.2) (layer F.CrtYd) (width 0.15))
    (fp_line (start -5.7 5.2) (end -5.7 -6.2) (layer F.CrtYd) (width 0.15))
    (fp_line (start 5.7 -5.2) (end 4.7 -6.2) (layer F.CrtYd) (width 0.15))
    (fp_line (start 4.7 -6.2) (end -5.7 -6.2) (layer F.CrtYd) (width 0.15))
    (fp_line (start 5.7 5.2) (end 5.7 -5.2) (layer F.CrtYd) (width 0.15))
    (fp_line (start -1.67 -0.4) (end -1.67 0.83) (layer F.SilkS) (width 0.15))
    (fp_line (start -1.67 -0.4) (end -1.24 -0.83) (layer F.SilkS) (width 0.15))
    (fp_line (start 1.66 -0.83) (end -1.24 -0.83) (layer F.SilkS) (width 0.15))
    (fp_line (start 1.66 0.83) (end 1.66 -0.83) (layer F.SilkS) (width 0.15))
    (fp_line (start -1.67 0.83) (end 1.66 0.83) (layer F.SilkS) (width 0.15))
    (fp_text user F (at -1.64 -1.15 180) (layer F.SilkS)
      (effects (font (size 0.7 0.7) (thickness 0.15)))
    )
    (pad 8 smd rect (at 0 -1.325) (size 0.23 0.63) (layers F.Cu F.Paste F.Mask)
      (net 1 /B))
    (pad 7 smd rect (at 0.4 -1.325) (size 0.23 0.63) (layers F.Cu F.Paste F.Mask)
      (net 8 "Net-(U1-Pad8)"))
    (pad 6 smd rect (at 0.8 -1.325) (size 0.23 0.63) (layers F.Cu F.Paste F.Mask))
    (pad 1 smd rect (at -0.8 1.325) (size 0.23 0.63) (layers F.Cu F.Paste F.Mask)
      (net 5 /A))
    (pad 2 smd rect (at -0.4 1.325) (size 0.23 0.63) (layers F.Cu F.Paste F.Mask)
      (net 7 "Net-(U1-Pad3)"))
    (pad 3 smd rect (at 0 1.325) (size 0.23 0.63) (layers F.Cu F.Paste F.Mask)
      (net 6 "Net-(U1-Pad9)"))
    (pad 4 smd rect (at 0.4 1.325) (size 0.23 0.63) (layers F.Cu F.Paste F.Mask))
    (pad 5 smd rect (at 0.8 1.325) (size 0.23 0.63) (layers F.Cu F.Paste F.Mask)
      (net 3 GND))
    (pad 10 smd rect (at -0.8 -1.325) (size 0.23 0.63) (layers F.Cu F.Paste F.Mask)
      (net 4 VCC))
    (pad 9 smd rect (at -0.4 -1.325) (size 0.23 0.63) (layers F.Cu F.Paste F.Mask)
      (net 7 "Net-(U1-Pad3)"))
  )

  (module Custom:2NAND_1NOT_BoB (layer F.Cu) (tedit 5C1EAB77) (tstamp 5C8CD475)
    (at 34.2 38.7)
    (path /5C59ABF6)
    (fp_text reference U1 (at 0 0) (layer F.SilkS)
      (effects (font (size 0.7 0.7) (thickness 0.15)))
    )
    (fp_text value 2NAND_1NOT_BoB (at 0.01 -0.55) (layer F.Fab)
      (effects (font (size 0.1 0.1) (thickness 0.025)))
    )
    (fp_text user F (at -1.64 -1.15 180) (layer F.SilkS)
      (effects (font (size 0.7 0.7) (thickness 0.15)))
    )
    (fp_line (start -1.67 0.83) (end 1.66 0.83) (layer F.SilkS) (width 0.15))
    (fp_line (start 1.66 0.83) (end 1.66 -0.83) (layer F.SilkS) (width 0.15))
    (fp_line (start 1.66 -0.83) (end -1.24 -0.83) (layer F.SilkS) (width 0.15))
    (fp_line (start -1.67 -0.4) (end -1.24 -0.83) (layer F.SilkS) (width 0.15))
    (fp_line (start -1.67 -0.4) (end -1.67 0.83) (layer F.SilkS) (width 0.15))
    (fp_line (start 5.7 5.2) (end 5.7 -5.2) (layer F.CrtYd) (width 0.15))
    (fp_line (start 4.7 -6.2) (end -5.7 -6.2) (layer F.CrtYd) (width 0.15))
    (fp_line (start 5.7 -5.2) (end 4.7 -6.2) (layer F.CrtYd) (width 0.15))
    (fp_line (start -5.7 5.2) (end -5.7 -6.2) (layer F.CrtYd) (width 0.15))
    (fp_line (start 4.7 6.2) (end -4.7 6.2) (layer F.CrtYd) (width 0.15))
    (fp_line (start -5.7 5.2) (end -4.7 6.2) (layer F.CrtYd) (width 0.15))
    (fp_poly (pts (xy -4.7 -6.2) (xy -5.7 -5.2) (xy -5.7 -6.2)) (layer F.SilkS) (width 0.1))
    (fp_line (start 4.7 6.2) (end 5.7 5.2) (layer F.CrtYd) (width 0.15))
    (pad 9 smd rect (at -0.4 -1.325) (size 0.23 0.63) (layers F.Cu F.Paste F.Mask)
      (net 6 "Net-(U1-Pad9)"))
    (pad 10 smd rect (at -0.8 -1.325) (size 0.23 0.63) (layers F.Cu F.Paste F.Mask)
      (net 4 VCC))
    (pad 5 smd rect (at 0.8 1.325) (size 0.23 0.63) (layers F.Cu F.Paste F.Mask)
      (net 3 GND))
    (pad 4 smd rect (at 0.4 1.325) (size 0.23 0.63) (layers F.Cu F.Paste F.Mask))
    (pad 3 smd rect (at 0 1.325) (size 0.23 0.63) (layers F.Cu F.Paste F.Mask)
      (net 7 "Net-(U1-Pad3)"))
    (pad 2 smd rect (at -0.4 1.325) (size 0.23 0.63) (layers F.Cu F.Paste F.Mask)
      (net 1 /B))
    (pad 1 smd rect (at -0.8 1.325) (size 0.23 0.63) (layers F.Cu F.Paste F.Mask)
      (net 5 /A))
    (pad 6 smd rect (at 0.8 -1.325) (size 0.23 0.63) (layers F.Cu F.Paste F.Mask))
    (pad 7 smd rect (at 0.4 -1.325) (size 0.23 0.63) (layers F.Cu F.Paste F.Mask)
      (net 2 /Q))
    (pad 8 smd rect (at 0 -1.325) (size 0.23 0.63) (layers F.Cu F.Paste F.Mask)
      (net 8 "Net-(U1-Pad8)"))
  )

  (module MountingHole:MountingHole_3.2mm_M3_Pad_Via (layer F.Cu) (tedit 56DDBCCA) (tstamp 5C8CD459)
    (at 44 28.5)
    (descr "Mounting Hole 3.2mm, M3")
    (tags "mounting hole 3.2mm m3")
    (path /5C59BBD7)
    (attr virtual)
    (fp_text reference H3 (at -0.07 0) (layer F.SilkS)
      (effects (font (size 1 1) (thickness 0.15)))
    )
    (fp_text value MountingHole_Pad (at 0 4.2) (layer F.Fab)
      (effects (font (size 1 1) (thickness 0.15)))
    )
    (fp_text user %R (at 0.3 0) (layer F.Fab)
      (effects (font (size 1 1) (thickness 0.15)))
    )
    (fp_circle (center 0 0) (end 3.2 0) (layer Cmts.User) (width 0.15))
    (fp_circle (center 0 0) (end 3.45 0) (layer F.CrtYd) (width 0.05))
    (pad 1 thru_hole circle (at 0 0) (size 6.4 6.4) (drill 3.2) (layers *.Cu *.Mask)
      (net 5 /A))
    (pad 1 thru_hole circle (at 2.4 0) (size 0.8 0.8) (drill 0.5) (layers *.Cu *.Mask)
      (net 5 /A))
    (pad 1 thru_hole circle (at 1.697056 1.697056) (size 0.8 0.8) (drill 0.5) (layers *.Cu *.Mask)
      (net 5 /A))
    (pad 1 thru_hole circle (at 0 2.4) (size 0.8 0.8) (drill 0.5) (layers *.Cu *.Mask)
      (net 5 /A))
    (pad 1 thru_hole circle (at -1.697056 1.697056) (size 0.8 0.8) (drill 0.5) (layers *.Cu *.Mask)
      (net 5 /A))
    (pad 1 thru_hole circle (at -2.4 0) (size 0.8 0.8) (drill 0.5) (layers *.Cu *.Mask)
      (net 5 /A))
    (pad 1 thru_hole circle (at -1.697056 -1.697056) (size 0.8 0.8) (drill 0.5) (layers *.Cu *.Mask)
      (net 5 /A))
    (pad 1 thru_hole circle (at 0 -2.4) (size 0.8 0.8) (drill 0.5) (layers *.Cu *.Mask)
      (net 5 /A))
    (pad 1 thru_hole circle (at 1.697056 -1.697056) (size 0.8 0.8) (drill 0.5) (layers *.Cu *.Mask)
      (net 5 /A))
  )

  (module MountingHole:MountingHole_3.2mm_M3_Pad_Via (layer F.Cu) (tedit 56DDBCCA) (tstamp 5C8CD449)
    (at 51.5 28.5)
    (descr "Mounting Hole 3.2mm, M3")
    (tags "mounting hole 3.2mm m3")
    (path /5C59C79C)
    (attr virtual)
    (fp_text reference H2 (at 0.02 -0.12) (layer F.SilkS)
      (effects (font (size 1 1) (thickness 0.15)))
    )
    (fp_text value MountingHole_Pad (at 0 4.2) (layer F.Fab)
      (effects (font (size 1 1) (thickness 0.15)))
    )
    (fp_circle (center 0 0) (end 3.45 0) (layer F.CrtYd) (width 0.05))
    (fp_circle (center 0 0) (end 3.2 0) (layer Cmts.User) (width 0.15))
    (fp_text user %R (at 0.3 0) (layer F.Fab)
      (effects (font (size 1 1) (thickness 0.15)))
    )
    (pad 1 thru_hole circle (at 1.697056 -1.697056) (size 0.8 0.8) (drill 0.5) (layers *.Cu *.Mask)
      (net 4 VCC))
    (pad 1 thru_hole circle (at 0 -2.4) (size 0.8 0.8) (drill 0.5) (layers *.Cu *.Mask)
      (net 4 VCC))
    (pad 1 thru_hole circle (at -1.697056 -1.697056) (size 0.8 0.8) (drill 0.5) (layers *.Cu *.Mask)
      (net 4 VCC))
    (pad 1 thru_hole circle (at -2.4 0) (size 0.8 0.8) (drill 0.5) (layers *.Cu *.Mask)
      (net 4 VCC))
    (pad 1 thru_hole circle (at -1.697056 1.697056) (size 0.8 0.8) (drill 0.5) (layers *.Cu *.Mask)
      (net 4 VCC))
    (pad 1 thru_hole circle (at 0 2.4) (size 0.8 0.8) (drill 0.5) (layers *.Cu *.Mask)
      (net 4 VCC))
    (pad 1 thru_hole circle (at 1.697056 1.697056) (size 0.8 0.8) (drill 0.5) (layers *.Cu *.Mask)
      (net 4 VCC))
    (pad 1 thru_hole circle (at 2.4 0) (size 0.8 0.8) (drill 0.5) (layers *.Cu *.Mask)
      (net 4 VCC))
    (pad 1 thru_hole circle (at 0 0) (size 6.4 6.4) (drill 3.2) (layers *.Cu *.Mask)
      (net 4 VCC))
  )

  (module MountingHole:MountingHole_3.2mm_M3_Pad_Via (layer F.Cu) (tedit 56DDBCCA) (tstamp 5C8CD439)
    (at 28.5 28.5)
    (descr "Mounting Hole 3.2mm, M3")
    (tags "mounting hole 3.2mm m3")
    (path /5C59C809)
    (attr virtual)
    (fp_text reference H1 (at -0.01 -0.12) (layer F.SilkS)
      (effects (font (size 1 1) (thickness 0.15)))
    )
    (fp_text value MountingHole_Pad (at 0 4.2) (layer F.Fab)
      (effects (font (size 1 1) (thickness 0.15)))
    )
    (fp_text user %R (at 0.3 0) (layer F.Fab)
      (effects (font (size 1 1) (thickness 0.15)))
    )
    (fp_circle (center 0 0) (end 3.2 0) (layer Cmts.User) (width 0.15))
    (fp_circle (center 0 0) (end 3.45 0) (layer F.CrtYd) (width 0.05))
    (pad 1 thru_hole circle (at 0 0) (size 6.4 6.4) (drill 3.2) (layers *.Cu *.Mask)
      (net 3 GND))
    (pad 1 thru_hole circle (at 2.4 0) (size 0.8 0.8) (drill 0.5) (layers *.Cu *.Mask)
      (net 3 GND))
    (pad 1 thru_hole circle (at 1.697056 1.697056) (size 0.8 0.8) (drill 0.5) (layers *.Cu *.Mask)
      (net 3 GND))
    (pad 1 thru_hole circle (at 0 2.4) (size 0.8 0.8) (drill 0.5) (layers *.Cu *.Mask)
      (net 3 GND))
    (pad 1 thru_hole circle (at -1.697056 1.697056) (size 0.8 0.8) (drill 0.5) (layers *.Cu *.Mask)
      (net 3 GND))
    (pad 1 thru_hole circle (at -2.4 0) (size 0.8 0.8) (drill 0.5) (layers *.Cu *.Mask)
      (net 3 GND))
    (pad 1 thru_hole circle (at -1.697056 -1.697056) (size 0.8 0.8) (drill 0.5) (layers *.Cu *.Mask)
      (net 3 GND))
    (pad 1 thru_hole circle (at 0 -2.4) (size 0.8 0.8) (drill 0.5) (layers *.Cu *.Mask)
      (net 3 GND))
    (pad 1 thru_hole circle (at 1.697056 -1.697056) (size 0.8 0.8) (drill 0.5) (layers *.Cu *.Mask)
      (net 3 GND))
  )

  (module TestPoint:TestPoint_Pad_2.5x2.5mm (layer B.Cu) (tedit 5C46BCA9) (tstamp 5C8CD429)
    (at 40 42.5)
    (descr "SMD rectangular pad as test Point, square 2.5mm side length")
    (tags "test point SMD pad rectangle square")
    (path /5C59D174)
    (attr virtual)
    (fp_text reference TP2 (at 0 2.148) (layer B.SilkS)
      (effects (font (size 0.0254 0.0254) (thickness 0.00635)) (justify mirror))
    )
    (fp_text value TestPoint (at 0 -2.25) (layer B.Fab)
      (effects (font (size 1 1) (thickness 0.15)) (justify mirror))
    )
    (fp_line (start 1.75 -1.75) (end -1.75 -1.75) (layer B.CrtYd) (width 0.05))
    (fp_line (start 1.75 -1.75) (end 1.75 1.75) (layer B.CrtYd) (width 0.05))
    (fp_line (start -1.75 1.75) (end -1.75 -1.75) (layer B.CrtYd) (width 0.05))
    (fp_line (start -1.75 1.75) (end 1.75 1.75) (layer B.CrtYd) (width 0.05))
    (fp_line (start -1.45 -1.45) (end -1.45 1.45) (layer B.SilkS) (width 0.12))
    (fp_line (start 1.45 -1.45) (end -1.45 -1.45) (layer B.SilkS) (width 0.12))
    (fp_line (start 1.45 1.45) (end 1.45 -1.45) (layer B.SilkS) (width 0.12))
    (fp_line (start -1.45 1.45) (end 1.45 1.45) (layer B.SilkS) (width 0.12))
    (fp_text user %R (at 0 2.15) (layer B.Fab)
      (effects (font (size 1 1) (thickness 0.15)) (justify mirror))
    )
    (pad 1 smd rect (at 0 0) (size 2.5 2.5) (layers B.Cu B.Mask)
      (net 2 /Q))
  )

  (module TestPoint:TestPoint_Pad_2.5x2.5mm (layer F.Cu) (tedit 5C46BC9D) (tstamp 5C8CD41B)
    (at 36.5 27.5)
    (descr "SMD rectangular pad as test Point, square 2.5mm side length")
    (tags "test point SMD pad rectangle square")
    (path /5C59BF0B)
    (attr virtual)
    (fp_text reference TP1 (at 0 -2.148) (layer F.SilkS)
      (effects (font (size 0.0254 0.0254) (thickness 0.00635)))
    )
    (fp_text value TestPoint (at 0 2.25) (layer F.Fab)
      (effects (font (size 1 1) (thickness 0.15)))
    )
    (fp_text user %R (at 0 -2.15) (layer F.Fab)
      (effects (font (size 1 1) (thickness 0.15)))
    )
    (fp_line (start -1.45 -1.45) (end 1.45 -1.45) (layer F.SilkS) (width 0.12))
    (fp_line (start 1.45 -1.45) (end 1.45 1.45) (layer F.SilkS) (width 0.12))
    (fp_line (start 1.45 1.45) (end -1.45 1.45) (layer F.SilkS) (width 0.12))
    (fp_line (start -1.45 1.45) (end -1.45 -1.45) (layer F.SilkS) (width 0.12))
    (fp_line (start -1.75 -1.75) (end 1.75 -1.75) (layer F.CrtYd) (width 0.05))
    (fp_line (start -1.75 -1.75) (end -1.75 1.75) (layer F.CrtYd) (width 0.05))
    (fp_line (start 1.75 1.75) (end 1.75 -1.75) (layer F.CrtYd) (width 0.05))
    (fp_line (start 1.75 1.75) (end -1.75 1.75) (layer F.CrtYd) (width 0.05))
    (pad 1 smd rect (at 0 0) (size 2.5 2.5) (layers F.Cu F.Mask)
      (net 1 /B))
  )

  (gr_text XOR (at 26.72 38 270) (layer F.SilkS)
    (effects (font (size 1.5 1.5) (thickness 0.3)))
  )
  (gr_text Q (at 37 42.38) (layer B.SilkS)
    (effects (font (size 1.5 1.5) (thickness 0.3)) (justify mirror))
  )
  (gr_text + (at 53.5 33) (layer F.SilkS)
    (effects (font (size 1.5 1.5) (thickness 0.3)))
  )
  (gr_text - (at 26.5 33.02) (layer F.SilkS)
    (effects (font (size 1.5 1.5) (thickness 0.3)))
  )
  (gr_line (start 25 45) (end 25 25) (layer Edge.Cuts) (width 0.15))
  (gr_line (start 55 45) (end 25 45) (layer Edge.Cuts) (width 0.15))
  (gr_line (start 55 25) (end 55 45) (layer Edge.Cuts) (width 0.15))
  (gr_line (start 25 25) (end 55 25) (layer Edge.Cuts) (width 0.15))

  (via (at 34.29 40.94) (size 0.8) (drill 0.4) (layers F.Cu B.Cu) (net 1))
  (segment (start 34.24 40.94) (end 34.29 40.94) (width 0.16) (layer F.Cu) (net 1))
  (segment (start 33.8 40.025) (end 33.8 40.5) (width 0.16) (layer F.Cu) (net 1))
  (segment (start 33.8 40.5) (end 34.24 40.94) (width 0.16) (layer F.Cu) (net 1))
  (via (at 37.07 40.94) (size 0.8) (drill 0.4) (layers F.Cu B.Cu) (net 1))
  (segment (start 34.29 40.94) (end 37.07 40.94) (width 0.16) (layer B.Cu) (net 1))
  (segment (start 37.07 36.24) (end 37.07 40.94) (width 0.16) (layer F.Cu) (net 1))
  (segment (start 36.5 27.5) (end 36.5 35.67) (width 0.16) (layer F.Cu) (net 1))
  (segment (start 36.5 35.67) (end 37.07 36.24) (width 0.16) (layer F.Cu) (net 1))
  (via (at 43.087966 40.848315) (size 0.8) (drill 0.4) (layers F.Cu B.Cu) (net 1))
  (segment (start 45.35 36.45) (end 44.41 36.45) (width 0.16) (layer F.Cu) (net 1))
  (segment (start 44.41 36.45) (end 43.087966 37.772034) (width 0.16) (layer F.Cu) (net 1))
  (segment (start 43.087966 37.772034) (end 43.087966 40.28263) (width 0.16) (layer F.Cu) (net 1))
  (segment (start 43.087966 40.28263) (end 43.087966 40.848315) (width 0.16) (layer F.Cu) (net 1))
  (segment (start 45.8 37.375) (end 45.8 36.9) (width 0.16) (layer F.Cu) (net 1))
  (segment (start 45.8 36.9) (end 45.35 36.45) (width 0.16) (layer F.Cu) (net 1))
  (segment (start 37.770011 40.239989) (end 42.47964 40.239989) (width 0.16) (layer B.Cu) (net 1))
  (segment (start 42.687967 40.448316) (end 43.087966 40.848315) (width 0.16) (layer B.Cu) (net 1))
  (segment (start 42.47964 40.239989) (end 42.687967 40.448316) (width 0.16) (layer B.Cu) (net 1))
  (segment (start 37.07 40.94) (end 37.770011 40.239989) (width 0.16) (layer B.Cu) (net 1))
  (via (at 35.91 36.53) (size 0.8) (drill 0.4) (layers F.Cu B.Cu) (net 2))
  (segment (start 34.97 36.53) (end 35.91 36.53) (width 0.16) (layer F.Cu) (net 2))
  (segment (start 34.6 37.375) (end 34.6 36.9) (width 0.16) (layer F.Cu) (net 2))
  (segment (start 34.6 36.9) (end 34.97 36.53) (width 0.16) (layer F.Cu) (net 2))
  (via (at 39.97 36.55) (size 0.8) (drill 0.4) (layers F.Cu B.Cu) (net 2))
  (segment (start 35.91 36.53) (end 39.95 36.53) (width 0.16) (layer B.Cu) (net 2))
  (segment (start 40 36.58) (end 39.97 36.55) (width 0.16) (layer F.Cu) (net 2))
  (segment (start 39.95 36.53) (end 39.97 36.55) (width 0.16) (layer B.Cu) (net 2))
  (via (at 37.77 43.51) (size 0.8) (drill 0.4) (layers F.Cu B.Cu) (net 2))
  (segment (start 39.97 41.31) (end 38.169999 43.110001) (width 0.16) (layer F.Cu) (net 2))
  (segment (start 38.169999 43.110001) (end 37.77 43.51) (width 0.16) (layer F.Cu) (net 2))
  (segment (start 38.59 42.5) (end 37.77 43.32) (width 0.16) (layer B.Cu) (net 2))
  (segment (start 39.97 36.55) (end 39.97 41.31) (width 0.16) (layer F.Cu) (net 2))
  (segment (start 40 42.5) (end 38.59 42.5) (width 0.16) (layer B.Cu) (net 2))
  (segment (start 37.77 43.32) (end 37.77 43.51) (width 0.16) (layer B.Cu) (net 2))
  (via (at 36.03 40) (size 0.8) (drill 0.4) (layers F.Cu B.Cu) (net 3))
  (segment (start 35 40.025) (end 36.005 40.025) (width 0.16) (layer F.Cu) (net 3))
  (segment (start 36.005 40.025) (end 36.03 40) (width 0.16) (layer F.Cu) (net 3))
  (via (at 47.38 40) (size 0.8) (drill 0.4) (layers F.Cu B.Cu) (net 3))
  (segment (start 46.6 40.025) (end 47.355 40.025) (width 0.16) (layer F.Cu) (net 3))
  (segment (start 47.355 40.025) (end 47.38 40) (width 0.16) (layer F.Cu) (net 3))
  (via (at 44.870002 41.639998) (size 0.8) (drill 0.4) (layers F.Cu B.Cu) (net 5))
  (segment (start 45 40.025) (end 45 41.51) (width 0.16) (layer F.Cu) (net 5))
  (segment (start 45 41.51) (end 44.870002 41.639998) (width 0.16) (layer F.Cu) (net 5))
  (via (at 33.44 41.689998) (size 0.8) (drill 0.4) (layers F.Cu B.Cu) (net 5))
  (segment (start 33.4 40.025) (end 33.4 41.649998) (width 0.16) (layer F.Cu) (net 5))
  (segment (start 33.4 41.649998) (end 33.44 41.689998) (width 0.16) (layer F.Cu) (net 5))
  (via (at 42.44 41.61) (size 0.8) (drill 0.4) (layers F.Cu B.Cu) (net 5))
  (segment (start 44.870002 41.639998) (end 42.469998 41.639998) (width 0.16) (layer B.Cu) (net 5))
  (segment (start 42.469998 41.639998) (end 42.44 41.61) (width 0.16) (layer B.Cu) (net 5))
  (segment (start 42.040001 41.210001) (end 42.44 41.61) (width 0.16) (layer F.Cu) (net 5))
  (segment (start 40.800001 39.970001) (end 42.040001 41.210001) (width 0.16) (layer F.Cu) (net 5))
  (segment (start 40.800001 31.699999) (end 40.800001 39.970001) (width 0.16) (layer F.Cu) (net 5))
  (segment (start 44 28.5) (end 40.800001 31.699999) (width 0.16) (layer F.Cu) (net 5))
  (segment (start 41.43 40.6) (end 42.040001 41.210001) (width 0.16) (layer B.Cu) (net 5))
  (segment (start 38.895998 40.6) (end 41.43 40.6) (width 0.16) (layer B.Cu) (net 5))
  (segment (start 37.806 41.689998) (end 38.895998 40.6) (width 0.16) (layer B.Cu) (net 5))
  (segment (start 42.040001 41.210001) (end 42.44 41.61) (width 0.16) (layer B.Cu) (net 5))
  (segment (start 33.44 41.689998) (end 37.806 41.689998) (width 0.16) (layer B.Cu) (net 5))
  (via (at 45.78 42.76) (size 0.8) (drill 0.4) (layers F.Cu B.Cu) (net 6))
  (segment (start 45.8 40.025) (end 45.8 42.74) (width 0.16) (layer F.Cu) (net 6))
  (segment (start 45.8 42.74) (end 45.78 42.76) (width 0.16) (layer F.Cu) (net 6))
  (via (at 32.19 42.77) (size 0.8) (drill 0.4) (layers F.Cu B.Cu) (net 6))
  (segment (start 33.8 37.85) (end 33.8 37.375) (width 0.16) (layer F.Cu) (net 6))
  (segment (start 32.589999 39.119003) (end 33.8 37.909002) (width 0.16) (layer F.Cu) (net 6))
  (segment (start 32.589999 42.370001) (end 32.589999 39.119003) (width 0.16) (layer F.Cu) (net 6))
  (segment (start 33.8 37.909002) (end 33.8 37.85) (width 0.16) (layer F.Cu) (net 6))
  (segment (start 32.19 42.77) (end 32.589999 42.370001) (width 0.16) (layer F.Cu) (net 6))
  (segment (start 33.87 44.45) (end 32.19 42.77) (width 0.16) (layer B.Cu) (net 6))
  (segment (start 45.78 42.76) (end 44.09 44.45) (width 0.16) (layer B.Cu) (net 6))
  (segment (start 44.09 44.45) (end 33.87 44.45) (width 0.16) (layer B.Cu) (net 6))
  (segment (start 45.4 37.85) (end 45.4 40.025) (width 0.16) (layer F.Cu) (net 7))
  (segment (start 45.4 37.375) (end 45.4 37.85) (width 0.16) (layer F.Cu) (net 7))
  (via (at 34.17 38.87) (size 0.8) (drill 0.4) (layers F.Cu B.Cu) (net 7))
  (segment (start 34.2 40.025) (end 34.2 38.9) (width 0.16) (layer F.Cu) (net 7))
  (segment (start 34.2 38.9) (end 34.17 38.87) (width 0.16) (layer F.Cu) (net 7))
  (via (at 45.4 38.9) (size 0.8) (drill 0.4) (layers F.Cu B.Cu) (net 7))
  (segment (start 34.17 38.87) (end 45.37 38.87) (width 0.16) (layer B.Cu) (net 7))
  (segment (start 45.37 38.87) (end 45.4 38.9) (width 0.16) (layer B.Cu) (net 7))
  (via (at 46.2 35.97) (size 0.8) (drill 0.4) (layers F.Cu B.Cu) (net 8))
  (segment (start 46.2 37.375) (end 46.2 35.97) (width 0.16) (layer F.Cu) (net 8))
  (via (at 34.22 35.89) (size 0.8) (drill 0.4) (layers F.Cu B.Cu) (net 8))
  (segment (start 34.2 35.91) (end 34.2 37.375) (width 0.16) (layer F.Cu) (net 8))
  (segment (start 34.22 35.89) (end 34.2 35.91) (width 0.16) (layer F.Cu) (net 8))
  (segment (start 34.539999 35.570001) (end 34.260001 35.849999) (width 0.16) (layer B.Cu) (net 8))
  (segment (start 34.260001 35.849999) (end 34.22 35.89) (width 0.16) (layer B.Cu) (net 8))
  (segment (start 45.800001 35.570001) (end 34.539999 35.570001) (width 0.16) (layer B.Cu) (net 8))
  (segment (start 46.2 35.97) (end 45.800001 35.570001) (width 0.16) (layer B.Cu) (net 8))

  (zone (net 4) (net_name VCC) (layer F.Cu) (tstamp 5C759440) (hatch edge 0.508)
    (connect_pads (clearance 0.2))
    (min_thickness 0.2)
    (fill yes (arc_segments 16) (thermal_gap 0.508) (thermal_bridge_width 0.508) (smoothing fillet) (radius 0.5))
    (polygon
      (pts
        (xy 19.82 21.36) (xy 59.54 21.19) (xy 59.03 53.72) (xy 20.12 53.86)
      )
    )
    (filled_polygon
      (pts
        (xy 42.017409 25.532843) (xy 41.032843 26.517409) (xy 40.5 27.803807) (xy 40.5 29.196193) (xy 41.032843 30.482591)
        (xy 41.256426 30.706174) (xy 40.557765 31.404835) (xy 40.526037 31.426035) (xy 40.442049 31.551732) (xy 40.420001 31.662576)
        (xy 40.420001 31.66258) (xy 40.412558 31.699999) (xy 40.420001 31.737418) (xy 40.420002 36.010052) (xy 40.366518 35.956568)
        (xy 40.109239 35.85) (xy 39.830761 35.85) (xy 39.573482 35.956568) (xy 39.376568 36.153482) (xy 39.27 36.410761)
        (xy 39.27 36.689239) (xy 39.376568 36.946518) (xy 39.573482 37.143432) (xy 39.59 37.150274) (xy 39.590001 41.152598)
        (xy 37.927764 42.814836) (xy 37.927761 42.814838) (xy 37.925757 42.816842) (xy 37.909239 42.81) (xy 37.630761 42.81)
        (xy 37.373482 42.916568) (xy 37.176568 43.113482) (xy 37.07 43.370761) (xy 37.07 43.649239) (xy 37.176568 43.906518)
        (xy 37.373482 44.103432) (xy 37.630761 44.21) (xy 37.909239 44.21) (xy 38.166518 44.103432) (xy 38.363432 43.906518)
        (xy 38.47 43.649239) (xy 38.47 43.370761) (xy 38.463158 43.354243) (xy 38.465162 43.352239) (xy 38.465164 43.352236)
        (xy 40.212239 41.605162) (xy 40.243964 41.583964) (xy 40.26838 41.547424) (xy 40.289397 41.51597) (xy 40.327952 41.458268)
        (xy 40.35 41.347424) (xy 40.35 41.347419) (xy 40.357443 41.31) (xy 40.35 41.272581) (xy 40.35 37.150274)
        (xy 40.366518 37.143432) (xy 40.420002 37.089948) (xy 40.420002 39.932577) (xy 40.412558 39.970001) (xy 40.44205 40.118269)
        (xy 40.504838 40.212238) (xy 40.50484 40.21224) (xy 40.526038 40.243965) (xy 40.557763 40.265163) (xy 41.746842 41.454243)
        (xy 41.74 41.470761) (xy 41.74 41.749239) (xy 41.846568 42.006518) (xy 42.043482 42.203432) (xy 42.300761 42.31)
        (xy 42.579239 42.31) (xy 42.836518 42.203432) (xy 43.033432 42.006518) (xy 43.14 41.749239) (xy 43.14 41.548315)
        (xy 43.227205 41.548315) (xy 43.484484 41.441747) (xy 43.681398 41.244833) (xy 43.787966 40.987554) (xy 43.787966 40.709076)
        (xy 43.681398 40.451797) (xy 43.484484 40.254883) (xy 43.467966 40.248041) (xy 43.467966 37.929434) (xy 43.7164 37.681)
        (xy 44.277 37.681) (xy 44.277 37.810938) (xy 44.369562 38.034404) (xy 44.540595 38.205437) (xy 44.764061 38.298)
        (xy 44.7905 38.298) (xy 44.9425 38.146) (xy 44.9425 37.529) (xy 44.429 37.529) (xy 44.277 37.681)
        (xy 43.7164 37.681) (xy 44.302701 37.094701) (xy 44.429 37.221) (xy 44.9425 37.221) (xy 44.9425 37.201)
        (xy 44.979123 37.201) (xy 44.979123 37.69) (xy 45.002407 37.807054) (xy 45.02 37.833384) (xy 45.02 38.299726)
        (xy 45.003482 38.306568) (xy 44.806568 38.503482) (xy 44.7 38.760761) (xy 44.7 39.039239) (xy 44.806568 39.296518)
        (xy 44.914173 39.404123) (xy 44.885 39.404123) (xy 44.767946 39.427407) (xy 44.668712 39.493712) (xy 44.602407 39.592946)
        (xy 44.579123 39.71) (xy 44.579123 40.34) (xy 44.602407 40.457054) (xy 44.62 40.483385) (xy 44.620001 40.985877)
        (xy 44.473484 41.046566) (xy 44.27657 41.24348) (xy 44.170002 41.500759) (xy 44.170002 41.779237) (xy 44.27657 42.036516)
        (xy 44.473484 42.23343) (xy 44.730763 42.339998) (xy 45.009241 42.339998) (xy 45.26652 42.23343) (xy 45.420001 42.079949)
        (xy 45.420001 42.151441) (xy 45.383482 42.166568) (xy 45.186568 42.363482) (xy 45.08 42.620761) (xy 45.08 42.899239)
        (xy 45.186568 43.156518) (xy 45.383482 43.353432) (xy 45.640761 43.46) (xy 45.919239 43.46) (xy 46.176518 43.353432)
        (xy 46.373432 43.156518) (xy 46.48 42.899239) (xy 46.48 42.620761) (xy 46.373432 42.363482) (xy 46.18 42.17005)
        (xy 46.18 40.645877) (xy 46.315 40.645877) (xy 46.4 40.628969) (xy 46.485 40.645877) (xy 46.715 40.645877)
        (xy 46.832054 40.622593) (xy 46.931288 40.556288) (xy 46.937316 40.547266) (xy 46.983482 40.593432) (xy 47.240761 40.7)
        (xy 47.519239 40.7) (xy 47.776518 40.593432) (xy 47.973432 40.396518) (xy 48.08 40.139239) (xy 48.08 39.860761)
        (xy 47.973432 39.603482) (xy 47.776518 39.406568) (xy 47.519239 39.3) (xy 47.240761 39.3) (xy 46.983482 39.406568)
        (xy 46.910337 39.479713) (xy 46.832054 39.427407) (xy 46.715 39.404123) (xy 46.485 39.404123) (xy 46.4 39.421031)
        (xy 46.315 39.404123) (xy 46.085 39.404123) (xy 46 39.421031) (xy 45.915 39.404123) (xy 45.885827 39.404123)
        (xy 45.993432 39.296518) (xy 46.1 39.039239) (xy 46.1 38.760761) (xy 45.993432 38.503482) (xy 45.796518 38.306568)
        (xy 45.78 38.299726) (xy 45.78 37.995877) (xy 45.915 37.995877) (xy 46 37.978969) (xy 46.085 37.995877)
        (xy 46.315 37.995877) (xy 46.4 37.978969) (xy 46.485 37.995877) (xy 46.715 37.995877) (xy 46.832054 37.972593)
        (xy 46.931288 37.906288) (xy 46.997593 37.807054) (xy 47.020877 37.69) (xy 47.020877 37.06) (xy 46.997593 36.942946)
        (xy 46.931288 36.843712) (xy 46.832054 36.777407) (xy 46.715 36.754123) (xy 46.58 36.754123) (xy 46.58 36.570274)
        (xy 46.596518 36.563432) (xy 46.793432 36.366518) (xy 46.9 36.109239) (xy 46.9 35.830761) (xy 46.793432 35.573482)
        (xy 46.596518 35.376568) (xy 46.339239 35.27) (xy 46.060761 35.27) (xy 45.803482 35.376568) (xy 45.606568 35.573482)
        (xy 45.5 35.830761) (xy 45.5 36.093205) (xy 45.498268 36.092048) (xy 45.387424 36.07) (xy 45.387419 36.07)
        (xy 45.35 36.062557) (xy 45.312581 36.07) (xy 44.447418 36.07) (xy 44.409999 36.062557) (xy 44.37258 36.07)
        (xy 44.372576 36.07) (xy 44.261732 36.092048) (xy 44.261731 36.092049) (xy 44.26173 36.092049) (xy 44.167761 36.154837)
        (xy 44.167758 36.15484) (xy 44.136036 36.176036) (xy 44.114839 36.207759) (xy 42.84573 37.47687) (xy 42.814002 37.49807)
        (xy 42.730014 37.623767) (xy 42.707966 37.734611) (xy 42.707966 37.734615) (xy 42.700523 37.772034) (xy 42.707966 37.809453)
        (xy 42.707967 40.245202) (xy 42.707966 40.245207) (xy 42.707966 40.248041) (xy 42.691448 40.254883) (xy 42.494534 40.451797)
        (xy 42.387966 40.709076) (xy 42.387966 40.91) (xy 42.300761 40.91) (xy 42.284243 40.916842) (xy 41.180001 39.812601)
        (xy 41.180001 31.857399) (xy 41.793826 31.243574) (xy 42.017409 31.467157) (xy 43.303807 32) (xy 44.696193 32)
        (xy 45.982591 31.467157) (xy 46.205167 31.244581) (xy 48.973208 31.244581) (xy 49.344248 31.729139) (xy 50.744083 32.308306)
        (xy 52.258999 32.307693) (xy 53.655752 31.729139) (xy 54.026792 31.244581) (xy 51.5 28.717789) (xy 48.973208 31.244581)
        (xy 46.205167 31.244581) (xy 46.967157 30.482591) (xy 47.5 29.196193) (xy 47.5 27.803807) (xy 47.475262 27.744083)
        (xy 47.691694 27.744083) (xy 47.692307 29.258999) (xy 48.270861 30.655752) (xy 48.755419 31.026792) (xy 51.282211 28.5)
        (xy 48.755419 25.973208) (xy 48.270861 26.344248) (xy 47.691694 27.744083) (xy 47.475262 27.744083) (xy 46.967157 26.517409)
        (xy 45.982591 25.532843) (xy 45.601524 25.375) (xy 49.264506 25.375) (xy 48.973208 25.755419) (xy 51.5 28.282211)
        (xy 54.026792 25.755419) (xy 53.735494 25.375) (xy 54.625 25.375) (xy 54.625 26.264506) (xy 54.244581 25.973208)
        (xy 51.717789 28.5) (xy 54.244581 31.026792) (xy 54.625 30.735494) (xy 54.625001 44.625) (xy 25.375 44.625)
        (xy 25.375 42.630761) (xy 31.49 42.630761) (xy 31.49 42.909239) (xy 31.596568 43.166518) (xy 31.793482 43.363432)
        (xy 32.050761 43.47) (xy 32.329239 43.47) (xy 32.586518 43.363432) (xy 32.783432 43.166518) (xy 32.89 42.909239)
        (xy 32.89 42.630761) (xy 32.883412 42.614857) (xy 32.947951 42.518269) (xy 32.969999 42.407425) (xy 32.969999 42.407421)
        (xy 32.977442 42.370002) (xy 32.969999 42.332583) (xy 32.969999 42.209947) (xy 33.043482 42.28343) (xy 33.300761 42.389998)
        (xy 33.579239 42.389998) (xy 33.836518 42.28343) (xy 34.033432 42.086516) (xy 34.14 41.829237) (xy 34.14 41.635543)
        (xy 34.150761 41.64) (xy 34.429239 41.64) (xy 34.686518 41.533432) (xy 34.883432 41.336518) (xy 34.99 41.079239)
        (xy 34.99 40.800761) (xy 34.925845 40.645877) (xy 35.115 40.645877) (xy 35.232054 40.622593) (xy 35.331288 40.556288)
        (xy 35.397593 40.457054) (xy 35.407947 40.405) (xy 35.44505 40.405) (xy 35.633482 40.593432) (xy 35.890761 40.7)
        (xy 36.169239 40.7) (xy 36.426518 40.593432) (xy 36.623432 40.396518) (xy 36.690001 40.235806) (xy 36.690001 40.339726)
        (xy 36.673482 40.346568) (xy 36.476568 40.543482) (xy 36.37 40.800761) (xy 36.37 41.079239) (xy 36.476568 41.336518)
        (xy 36.673482 41.533432) (xy 36.930761 41.64) (xy 37.209239 41.64) (xy 37.466518 41.533432) (xy 37.663432 41.336518)
        (xy 37.77 41.079239) (xy 37.77 40.800761) (xy 37.663432 40.543482) (xy 37.466518 40.346568) (xy 37.45 40.339726)
        (xy 37.45 36.277419) (xy 37.457443 36.24) (xy 37.45 36.202581) (xy 37.45 36.202576) (xy 37.427952 36.091732)
        (xy 37.343964 35.966036) (xy 37.312239 35.944838) (xy 36.88 35.5126) (xy 36.88 29.055877) (xy 37.75 29.055877)
        (xy 37.867054 29.032593) (xy 37.966288 28.966288) (xy 38.032593 28.867054) (xy 38.055877 28.75) (xy 38.055877 26.25)
        (xy 38.032593 26.132946) (xy 37.966288 26.033712) (xy 37.867054 25.967407) (xy 37.75 25.944123) (xy 35.25 25.944123)
        (xy 35.132946 25.967407) (xy 35.033712 26.033712) (xy 34.967407 26.132946) (xy 34.944123 26.25) (xy 34.944123 28.75)
        (xy 34.967407 28.867054) (xy 35.033712 28.966288) (xy 35.132946 29.032593) (xy 35.25 29.055877) (xy 36.12 29.055877)
        (xy 36.120001 35.632576) (xy 36.112557 35.67) (xy 36.142049 35.818268) (xy 36.188404 35.887644) (xy 36.049239 35.83)
        (xy 35.770761 35.83) (xy 35.513482 35.936568) (xy 35.316568 36.133482) (xy 35.309726 36.15) (xy 35.007418 36.15)
        (xy 34.969999 36.142557) (xy 34.93258 36.15) (xy 34.932576 36.15) (xy 34.864359 36.163569) (xy 34.92 36.029239)
        (xy 34.92 35.750761) (xy 34.813432 35.493482) (xy 34.616518 35.296568) (xy 34.359239 35.19) (xy 34.080761 35.19)
        (xy 33.823482 35.296568) (xy 33.626568 35.493482) (xy 33.52 35.750761) (xy 33.52 36.029239) (xy 33.626568 36.286518)
        (xy 33.82 36.47995) (xy 33.82 36.528241) (xy 33.635939 36.452) (xy 33.6095 36.452) (xy 33.4575 36.604)
        (xy 33.4575 36.860492) (xy 33.402407 36.942946) (xy 33.379123 37.06) (xy 33.379123 37.549) (xy 33.3425 37.549)
        (xy 33.3425 37.529) (xy 32.829 37.529) (xy 32.677 37.681) (xy 32.677 37.810938) (xy 32.769562 38.034404)
        (xy 32.940595 38.205437) (xy 32.958675 38.212926) (xy 32.347761 38.823841) (xy 32.316036 38.845039) (xy 32.294838 38.876764)
        (xy 32.294836 38.876766) (xy 32.232048 38.970735) (xy 32.202556 39.119003) (xy 32.21 39.156427) (xy 32.209999 42.07)
        (xy 32.050761 42.07) (xy 31.793482 42.176568) (xy 31.596568 42.373482) (xy 31.49 42.630761) (xy 25.375 42.630761)
        (xy 25.375 36.939062) (xy 32.677 36.939062) (xy 32.677 37.069) (xy 32.829 37.221) (xy 33.3425 37.221)
        (xy 33.3425 36.604) (xy 33.1905 36.452) (xy 33.164061 36.452) (xy 32.940595 36.544563) (xy 32.769562 36.715596)
        (xy 32.677 36.939062) (xy 25.375 36.939062) (xy 25.375 30.101524) (xy 25.532843 30.482591) (xy 26.517409 31.467157)
        (xy 27.803807 32) (xy 29.196193 32) (xy 30.482591 31.467157) (xy 31.467157 30.482591) (xy 32 29.196193)
        (xy 32 27.803807) (xy 31.467157 26.517409) (xy 30.482591 25.532843) (xy 30.101524 25.375) (xy 42.398476 25.375)
      )
    )
  )
  (zone (net 3) (net_name GND) (layer B.Cu) (tstamp 5C75943D) (hatch edge 0.508)
    (connect_pads (clearance 0.2))
    (min_thickness 0.2)
    (fill yes (arc_segments 16) (thermal_gap 0.508) (thermal_bridge_width 0.508))
    (polygon
      (pts
        (xy 18.61 20.49) (xy 61.05 20.29) (xy 60.74 55.13) (xy 18 55.43)
      )
    )
    (filled_polygon
      (pts
        (xy 25.973208 25.755419) (xy 28.5 28.282211) (xy 31.026792 25.755419) (xy 30.735494 25.375) (xy 42.398476 25.375)
        (xy 42.017409 25.532843) (xy 41.032843 26.517409) (xy 40.5 27.803807) (xy 40.5 29.196193) (xy 41.032843 30.482591)
        (xy 42.017409 31.467157) (xy 43.303807 32) (xy 44.696193 32) (xy 45.982591 31.467157) (xy 46.967157 30.482591)
        (xy 47.5 29.196193) (xy 47.5 27.803807) (xy 46.967157 26.517409) (xy 45.982591 25.532843) (xy 45.601524 25.375)
        (xy 49.898476 25.375) (xy 49.517409 25.532843) (xy 48.532843 26.517409) (xy 48 27.803807) (xy 48 29.196193)
        (xy 48.532843 30.482591) (xy 49.517409 31.467157) (xy 50.803807 32) (xy 52.196193 32) (xy 53.482591 31.467157)
        (xy 54.467157 30.482591) (xy 54.625 30.101523) (xy 54.625001 44.625) (xy 44.4524 44.625) (xy 45.624243 43.453158)
        (xy 45.640761 43.46) (xy 45.919239 43.46) (xy 46.176518 43.353432) (xy 46.373432 43.156518) (xy 46.48 42.899239)
        (xy 46.48 42.620761) (xy 46.373432 42.363482) (xy 46.176518 42.166568) (xy 45.919239 42.06) (xy 45.640761 42.06)
        (xy 45.383482 42.166568) (xy 45.186568 42.363482) (xy 45.08 42.620761) (xy 45.08 42.899239) (xy 45.086842 42.915757)
        (xy 43.9326 44.07) (xy 38.19995 44.07) (xy 38.363432 43.906518) (xy 38.444123 43.711712) (xy 38.444123 43.75)
        (xy 38.467407 43.867054) (xy 38.533712 43.966288) (xy 38.632946 44.032593) (xy 38.75 44.055877) (xy 41.25 44.055877)
        (xy 41.367054 44.032593) (xy 41.466288 43.966288) (xy 41.532593 43.867054) (xy 41.555877 43.75) (xy 41.555877 41.263278)
        (xy 41.746842 41.454243) (xy 41.74 41.470761) (xy 41.74 41.749239) (xy 41.846568 42.006518) (xy 42.043482 42.203432)
        (xy 42.300761 42.31) (xy 42.579239 42.31) (xy 42.836518 42.203432) (xy 43.019952 42.019998) (xy 44.269728 42.019998)
        (xy 44.27657 42.036516) (xy 44.473484 42.23343) (xy 44.730763 42.339998) (xy 45.009241 42.339998) (xy 45.26652 42.23343)
        (xy 45.463434 42.036516) (xy 45.570002 41.779237) (xy 45.570002 41.500759) (xy 45.463434 41.24348) (xy 45.26652 41.046566)
        (xy 45.009241 40.939998) (xy 44.730763 40.939998) (xy 44.473484 41.046566) (xy 44.27657 41.24348) (xy 44.269728 41.259998)
        (xy 43.666233 41.259998) (xy 43.681398 41.244833) (xy 43.787966 40.987554) (xy 43.787966 40.709076) (xy 43.681398 40.451797)
        (xy 43.484484 40.254883) (xy 43.227205 40.148315) (xy 42.948727 40.148315) (xy 42.932208 40.155157) (xy 42.774804 39.997753)
        (xy 42.753604 39.966025) (xy 42.627908 39.882037) (xy 42.517064 39.859989) (xy 42.517059 39.859989) (xy 42.47964 39.852546)
        (xy 42.442221 39.859989) (xy 37.807429 39.859989) (xy 37.77001 39.852546) (xy 37.732591 39.859989) (xy 37.732587 39.859989)
        (xy 37.621743 39.882037) (xy 37.621742 39.882038) (xy 37.621741 39.882038) (xy 37.527773 39.944826) (xy 37.496047 39.966025)
        (xy 37.474848 39.997751) (xy 37.225757 40.246842) (xy 37.209239 40.24) (xy 36.930761 40.24) (xy 36.673482 40.346568)
        (xy 36.476568 40.543482) (xy 36.469726 40.56) (xy 34.890274 40.56) (xy 34.883432 40.543482) (xy 34.686518 40.346568)
        (xy 34.429239 40.24) (xy 34.150761 40.24) (xy 33.893482 40.346568) (xy 33.696568 40.543482) (xy 33.59 40.800761)
        (xy 33.59 40.994455) (xy 33.579239 40.989998) (xy 33.300761 40.989998) (xy 33.043482 41.096566) (xy 32.846568 41.29348)
        (xy 32.74 41.550759) (xy 32.74 41.829237) (xy 32.846568 42.086516) (xy 33.043482 42.28343) (xy 33.300761 42.389998)
        (xy 33.579239 42.389998) (xy 33.836518 42.28343) (xy 34.033432 42.086516) (xy 34.040274 42.069998) (xy 37.768581 42.069998)
        (xy 37.806 42.077441) (xy 37.843419 42.069998) (xy 37.843424 42.069998) (xy 37.954268 42.04795) (xy 38.079964 41.963962)
        (xy 38.101164 41.932234) (xy 38.444123 41.589275) (xy 38.444123 42.141572) (xy 38.441732 42.142048) (xy 38.441731 42.142049)
        (xy 38.44173 42.142049) (xy 38.349865 42.203432) (xy 38.316036 42.226036) (xy 38.294838 42.257762) (xy 37.7426 42.81)
        (xy 37.630761 42.81) (xy 37.373482 42.916568) (xy 37.176568 43.113482) (xy 37.07 43.370761) (xy 37.07 43.649239)
        (xy 37.176568 43.906518) (xy 37.34005 44.07) (xy 34.027401 44.07) (xy 32.883158 42.925758) (xy 32.89 42.909239)
        (xy 32.89 42.630761) (xy 32.783432 42.373482) (xy 32.586518 42.176568) (xy 32.329239 42.07) (xy 32.050761 42.07)
        (xy 31.793482 42.176568) (xy 31.596568 42.373482) (xy 31.49 42.630761) (xy 31.49 42.909239) (xy 31.596568 43.166518)
        (xy 31.793482 43.363432) (xy 32.050761 43.47) (xy 32.329239 43.47) (xy 32.345758 43.463158) (xy 33.507599 44.625)
        (xy 25.375 44.625) (xy 25.375 38.730761) (xy 33.47 38.730761) (xy 33.47 39.009239) (xy 33.576568 39.266518)
        (xy 33.773482 39.463432) (xy 34.030761 39.57) (xy 34.309239 39.57) (xy 34.566518 39.463432) (xy 34.763432 39.266518)
        (xy 34.770274 39.25) (xy 44.7873 39.25) (xy 44.806568 39.296518) (xy 45.003482 39.493432) (xy 45.260761 39.6)
        (xy 45.539239 39.6) (xy 45.796518 39.493432) (xy 45.993432 39.296518) (xy 46.1 39.039239) (xy 46.1 38.760761)
        (xy 45.993432 38.503482) (xy 45.796518 38.306568) (xy 45.539239 38.2) (xy 45.260761 38.2) (xy 45.003482 38.306568)
        (xy 44.82005 38.49) (xy 34.770274 38.49) (xy 34.763432 38.473482) (xy 34.566518 38.276568) (xy 34.309239 38.17)
        (xy 34.030761 38.17) (xy 33.773482 38.276568) (xy 33.576568 38.473482) (xy 33.47 38.730761) (xy 25.375 38.730761)
        (xy 25.375 35.750761) (xy 33.52 35.750761) (xy 33.52 36.029239) (xy 33.626568 36.286518) (xy 33.823482 36.483432)
        (xy 34.080761 36.59) (xy 34.359239 36.59) (xy 34.616518 36.483432) (xy 34.813432 36.286518) (xy 34.92 36.029239)
        (xy 34.92 35.950001) (xy 35.500049 35.950001) (xy 35.316568 36.133482) (xy 35.21 36.390761) (xy 35.21 36.669239)
        (xy 35.316568 36.926518) (xy 35.513482 37.123432) (xy 35.770761 37.23) (xy 36.049239 37.23) (xy 36.306518 37.123432)
        (xy 36.503432 36.926518) (xy 36.510274 36.91) (xy 39.361442 36.91) (xy 39.376568 36.946518) (xy 39.573482 37.143432)
        (xy 39.830761 37.25) (xy 40.109239 37.25) (xy 40.366518 37.143432) (xy 40.563432 36.946518) (xy 40.67 36.689239)
        (xy 40.67 36.410761) (xy 40.563432 36.153482) (xy 40.366518 35.956568) (xy 40.350664 35.950001) (xy 45.5 35.950001)
        (xy 45.5 36.109239) (xy 45.606568 36.366518) (xy 45.803482 36.563432) (xy 46.060761 36.67) (xy 46.339239 36.67)
        (xy 46.596518 36.563432) (xy 46.793432 36.366518) (xy 46.9 36.109239) (xy 46.9 35.830761) (xy 46.793432 35.573482)
        (xy 46.596518 35.376568) (xy 46.339239 35.27) (xy 46.060761 35.27) (xy 46.044857 35.276588) (xy 45.948269 35.212049)
        (xy 45.837425 35.190001) (xy 45.83742 35.190001) (xy 45.800001 35.182558) (xy 45.762582 35.190001) (xy 34.577418 35.190001)
        (xy 34.539999 35.182558) (xy 34.50258 35.190001) (xy 34.502575 35.190001) (xy 34.405742 35.209262) (xy 34.359239 35.19)
        (xy 34.080761 35.19) (xy 33.823482 35.296568) (xy 33.626568 35.493482) (xy 33.52 35.750761) (xy 25.375 35.750761)
        (xy 25.375 31.244581) (xy 25.973208 31.244581) (xy 26.344248 31.729139) (xy 27.744083 32.308306) (xy 29.258999 32.307693)
        (xy 30.655752 31.729139) (xy 31.026792 31.244581) (xy 28.5 28.717789) (xy 25.973208 31.244581) (xy 25.375 31.244581)
        (xy 25.375 30.735494) (xy 25.755419 31.026792) (xy 28.282211 28.5) (xy 28.717789 28.5) (xy 31.244581 31.026792)
        (xy 31.729139 30.655752) (xy 32.308306 29.255917) (xy 32.307693 27.741001) (xy 31.729139 26.344248) (xy 31.244581 25.973208)
        (xy 28.717789 28.5) (xy 28.282211 28.5) (xy 25.755419 25.973208) (xy 25.375 26.264506) (xy 25.375 25.375)
        (xy 26.264506 25.375)
      )
    )
  )
)
