EESchema Schematic File Version 4
LIBS:xor-cache
EELAYER 26 0
EELAYER END
$Descr A4 11693 8268
encoding utf-8
Sheet 1 1
Title ""
Date ""
Rev ""
Comp ""
Comment1 ""
Comment2 ""
Comment3 ""
Comment4 ""
$EndDescr
$Comp
L Custom:2NAND_1NOT_BoB U1
U 2 1 5C59ABF6
P 1700 1600
F 0 "U1" H 1250 1600 50  0000 C CNN
F 1 "2NAND_1NOT_BoB" H 1700 1834 50  0000 C CNN
F 2 "Custom:2NAND_1NOT_BoB" H 1650 1600 50  0001 C CNN
F 3 "" H 1650 1600 50  0001 C CNN
	2    1700 1600
	1    0    0    -1  
$EndComp
$Comp
L Custom:2NAND_1NOT_BoB U1
U 3 1 5C59AC44
P 3550 1600
F 0 "U1" H 3550 1925 50  0000 C CNN
F 1 "2NAND_1NOT_BoB" H 3550 1834 50  0000 C CNN
F 2 "Custom:2NAND_1NOT_BoB" H 3500 1600 50  0001 C CNN
F 3 "" H 3500 1600 50  0001 C CNN
	3    3550 1600
	1    0    0    -1  
$EndComp
$Comp
L Custom:2NAND_1NOT_BoB U2
U 2 1 5C59AC9D
P 2700 1400
F 0 "U2" H 2700 1725 50  0000 C CNN
F 1 "2NAND_1NOT_BoB" H 2700 1634 50  0000 C CNN
F 2 "Custom:2NAND_1NOT_BoB" H 2650 1400 50  0001 C CNN
F 3 "" H 2650 1400 50  0001 C CNN
	2    2700 1400
	1    0    0    -1  
$EndComp
$Comp
L Custom:2NAND_1NOT_BoB U2
U 3 1 5C59AD1B
P 2700 1800
F 0 "U2" H 2700 1600 50  0000 C CNN
F 1 "2NAND_1NOT_BoB" H 2700 1500 50  0000 C CNN
F 2 "Custom:2NAND_1NOT_BoB" H 2650 1800 50  0001 C CNN
F 3 "" H 2650 1800 50  0001 C CNN
	3    2700 1800
	1    0    0    -1  
$EndComp
Wire Wire Line
	2400 1700 2000 1700
Wire Wire Line
	2000 1700 2000 1600
Wire Wire Line
	2000 1600 2000 1500
Wire Wire Line
	2000 1500 2400 1500
Connection ~ 2000 1600
Wire Wire Line
	3000 1400 3000 1500
Wire Wire Line
	3000 1500 3250 1500
Wire Wire Line
	3250 1700 3000 1700
Wire Wire Line
	3000 1700 3000 1800
$Comp
L Custom:2NAND_1NOT_BoB U1
U 1 1 5C59AE67
P 1900 2800
F 0 "U1" H 1900 3025 50  0000 C CNN
F 1 "2NAND_1NOT_BoB" H 1900 2934 50  0000 C CNN
F 2 "Custom:2NAND_1NOT_BoB" H 1850 2800 50  0001 C CNN
F 3 "" H 1850 2800 50  0001 C CNN
	1    1900 2800
	1    0    0    -1  
$EndComp
$Comp
L Custom:2NAND_1NOT_BoB U2
U 1 1 5C59AECE
P 2800 2800
F 0 "U2" H 2800 3025 50  0000 C CNN
F 1 "2NAND_1NOT_BoB" H 2800 2934 50  0000 C CNN
F 2 "Custom:2NAND_1NOT_BoB" H 2750 2800 50  0001 C CNN
F 3 "" H 2750 2800 50  0001 C CNN
	1    2800 2800
	1    0    0    -1  
$EndComp
$Comp
L power:GND #PWR0101
U 1 1 5C59AF61
P 1650 2800
F 0 "#PWR0101" H 1650 2550 50  0001 C CNN
F 1 "GND" H 1655 2627 50  0000 C CNN
F 2 "" H 1650 2800 50  0001 C CNN
F 3 "" H 1650 2800 50  0001 C CNN
	1    1650 2800
	1    0    0    -1  
$EndComp
$Comp
L power:VCC #PWR0102
U 1 1 5C59AFDB
P 2150 2800
F 0 "#PWR0102" H 2150 2650 50  0001 C CNN
F 1 "VCC" V 2167 2928 50  0000 L CNN
F 2 "" H 2150 2800 50  0001 C CNN
F 3 "" H 2150 2800 50  0001 C CNN
	1    2150 2800
	0    1    1    0   
$EndComp
$Comp
L power:GND #PWR0103
U 1 1 5C59B054
P 2550 2800
F 0 "#PWR0103" H 2550 2550 50  0001 C CNN
F 1 "GND" H 2555 2627 50  0000 C CNN
F 2 "" H 2550 2800 50  0001 C CNN
F 3 "" H 2550 2800 50  0001 C CNN
	1    2550 2800
	1    0    0    -1  
$EndComp
$Comp
L power:VCC #PWR0104
U 1 1 5C59B10B
P 3050 2800
F 0 "#PWR0104" H 3050 2650 50  0001 C CNN
F 1 "VCC" V 3067 2928 50  0000 L CNN
F 2 "" H 3050 2800 50  0001 C CNN
F 3 "" H 3050 2800 50  0001 C CNN
	1    3050 2800
	0    1    1    0   
$EndComp
Wire Wire Line
	2400 1300 1250 1300
Wire Wire Line
	1400 1500 1250 1500
Wire Wire Line
	1250 1500 1250 1300
Connection ~ 1250 1300
Wire Wire Line
	1250 1300 1000 1300
Wire Wire Line
	2400 1900 1250 1900
Wire Wire Line
	1400 1700 1250 1700
Wire Wire Line
	1250 1700 1250 1900
Connection ~ 1250 1900
Wire Wire Line
	1250 1900 1000 1900
Text Label 1050 1300 0    50   ~ 0
A
Text Label 1050 1900 0    50   ~ 0
B
Wire Wire Line
	3850 1600 4450 1600
Text Label 4350 1600 0    50   ~ 0
Q
$Comp
L Mechanical:MountingHole_Pad H3
U 1 1 5C59BBD7
P 900 1300
F 0 "H3" V 1137 1305 50  0000 C CNN
F 1 "MountingHole_Pad" V 1046 1305 50  0000 C CNN
F 2 "MountingHole:MountingHole_3.2mm_M3_Pad_Via" H 900 1300 50  0001 C CNN
F 3 "~" H 900 1300 50  0001 C CNN
	1    900  1300
	0    -1   -1   0   
$EndComp
$Comp
L Connector:TestPoint TP1
U 1 1 5C59BF0B
P 1000 1900
F 0 "TP1" V 1195 1974 50  0000 C CNN
F 1 "TestPoint" V 1104 1974 50  0000 C CNN
F 2 "TestPoint:TestPoint_Pad_2.5x2.5mm" H 1200 1900 50  0001 C CNN
F 3 "~" H 1200 1900 50  0001 C CNN
	1    1000 1900
	0    -1   -1   0   
$EndComp
$Comp
L Mechanical:MountingHole_Pad H2
U 1 1 5C59C79C
P 1450 2350
F 0 "H2" V 1404 2500 50  0000 L CNN
F 1 "MountingHole_Pad" V 1495 2500 50  0000 L CNN
F 2 "MountingHole:MountingHole_3.2mm_M3_Pad_Via" H 1450 2350 50  0001 C CNN
F 3 "~" H 1450 2350 50  0001 C CNN
	1    1450 2350
	0    1    1    0   
$EndComp
$Comp
L Mechanical:MountingHole_Pad H1
U 1 1 5C59C809
P 900 2350
F 0 "H1" V 1137 2355 50  0000 C CNN
F 1 "MountingHole_Pad" V 1046 2355 50  0000 C CNN
F 2 "MountingHole:MountingHole_3.2mm_M3_Pad_Via" H 900 2350 50  0001 C CNN
F 3 "~" H 900 2350 50  0001 C CNN
	1    900  2350
	0    -1   -1   0   
$EndComp
$Comp
L power:VCC #PWR0105
U 1 1 5C59CF9C
P 1350 2350
F 0 "#PWR0105" H 1350 2200 50  0001 C CNN
F 1 "VCC" H 1367 2523 50  0000 C CNN
F 2 "" H 1350 2350 50  0001 C CNN
F 3 "" H 1350 2350 50  0001 C CNN
	1    1350 2350
	1    0    0    -1  
$EndComp
$Comp
L power:GND #PWR0106
U 1 1 5C59D039
P 1000 2350
F 0 "#PWR0106" H 1000 2100 50  0001 C CNN
F 1 "GND" H 1005 2177 50  0000 C CNN
F 2 "" H 1000 2350 50  0001 C CNN
F 3 "" H 1000 2350 50  0001 C CNN
	1    1000 2350
	1    0    0    -1  
$EndComp
$Comp
L Connector:TestPoint TP2
U 1 1 5C59D174
P 4450 1600
F 0 "TP2" V 4404 1788 50  0000 L CNN
F 1 "TestPoint" V 4495 1788 50  0000 L CNN
F 2 "TestPoint:TestPoint_Pad_2.5x2.5mm" H 4650 1600 50  0001 C CNN
F 3 "~" H 4650 1600 50  0001 C CNN
	1    4450 1600
	0    1    1    0   
$EndComp
$EndSCHEMATC
