G04 #@! TF.GenerationSoftware,KiCad,Pcbnew,5.0.2+dfsg1-1*
G04 #@! TF.CreationDate,2019-02-17T13:46:16+13:00*
G04 #@! TF.ProjectId,xor,786f722e-6b69-4636-9164-5f7063625858,rev?*
G04 #@! TF.SameCoordinates,Original*
G04 #@! TF.FileFunction,Soldermask,Bot*
G04 #@! TF.FilePolarity,Negative*
%FSLAX46Y46*%
G04 Gerber Fmt 4.6, Leading zero omitted, Abs format (unit mm)*
G04 Created by KiCad (PCBNEW 5.0.2+dfsg1-1) date Sun 17 Feb 2019 13:46:16 NZDT*
%MOMM*%
%LPD*%
G01*
G04 APERTURE LIST*
%ADD10C,0.100000*%
G04 APERTURE END LIST*
D10*
G36*
X41301000Y-43801000D02*
X38699000Y-43801000D01*
X38699000Y-41199000D01*
X41301000Y-41199000D01*
X41301000Y-43801000D01*
X41301000Y-43801000D01*
G37*
G36*
X52134239Y-25311467D02*
X52448282Y-25373934D01*
X53039926Y-25619001D01*
X53329523Y-25812504D01*
X53572395Y-25974786D01*
X54025214Y-26427605D01*
X54025216Y-26427608D01*
X54380999Y-26960074D01*
X54502724Y-27253944D01*
X54626066Y-27551719D01*
X54751000Y-28179803D01*
X54751000Y-28820197D01*
X54688533Y-29134239D01*
X54626066Y-29448282D01*
X54380999Y-30039926D01*
X54133265Y-30410685D01*
X54025214Y-30572395D01*
X53572395Y-31025214D01*
X53572392Y-31025216D01*
X53039926Y-31380999D01*
X52448282Y-31626066D01*
X52134239Y-31688533D01*
X51820197Y-31751000D01*
X51179803Y-31751000D01*
X50865761Y-31688533D01*
X50551718Y-31626066D01*
X49960074Y-31380999D01*
X49427608Y-31025216D01*
X49427605Y-31025214D01*
X48974786Y-30572395D01*
X48866735Y-30410685D01*
X48619001Y-30039926D01*
X48373934Y-29448282D01*
X48311467Y-29134239D01*
X48249000Y-28820197D01*
X48249000Y-28179803D01*
X48373934Y-27551719D01*
X48497276Y-27253944D01*
X48619001Y-26960074D01*
X48974784Y-26427608D01*
X48974786Y-26427605D01*
X49427605Y-25974786D01*
X49670477Y-25812504D01*
X49960074Y-25619001D01*
X50551718Y-25373934D01*
X50865761Y-25311467D01*
X51179803Y-25249000D01*
X51820197Y-25249000D01*
X52134239Y-25311467D01*
X52134239Y-25311467D01*
G37*
G36*
X29134239Y-25311467D02*
X29448282Y-25373934D01*
X30039926Y-25619001D01*
X30329523Y-25812504D01*
X30572395Y-25974786D01*
X31025214Y-26427605D01*
X31025216Y-26427608D01*
X31380999Y-26960074D01*
X31502724Y-27253944D01*
X31626066Y-27551719D01*
X31751000Y-28179803D01*
X31751000Y-28820197D01*
X31688533Y-29134239D01*
X31626066Y-29448282D01*
X31380999Y-30039926D01*
X31133265Y-30410685D01*
X31025214Y-30572395D01*
X30572395Y-31025214D01*
X30572392Y-31025216D01*
X30039926Y-31380999D01*
X29448282Y-31626066D01*
X29134239Y-31688533D01*
X28820197Y-31751000D01*
X28179803Y-31751000D01*
X27865761Y-31688533D01*
X27551718Y-31626066D01*
X26960074Y-31380999D01*
X26427608Y-31025216D01*
X26427605Y-31025214D01*
X25974786Y-30572395D01*
X25866735Y-30410685D01*
X25619001Y-30039926D01*
X25373934Y-29448282D01*
X25311467Y-29134239D01*
X25249000Y-28820197D01*
X25249000Y-28179803D01*
X25373934Y-27551719D01*
X25497276Y-27253944D01*
X25619001Y-26960074D01*
X25974784Y-26427608D01*
X25974786Y-26427605D01*
X26427605Y-25974786D01*
X26670477Y-25812504D01*
X26960074Y-25619001D01*
X27551718Y-25373934D01*
X27865761Y-25311467D01*
X28179803Y-25249000D01*
X28820197Y-25249000D01*
X29134239Y-25311467D01*
X29134239Y-25311467D01*
G37*
G36*
X44634239Y-25311467D02*
X44948282Y-25373934D01*
X45539926Y-25619001D01*
X45829523Y-25812504D01*
X46072395Y-25974786D01*
X46525214Y-26427605D01*
X46525216Y-26427608D01*
X46880999Y-26960074D01*
X47002724Y-27253944D01*
X47126066Y-27551719D01*
X47251000Y-28179803D01*
X47251000Y-28820197D01*
X47188533Y-29134239D01*
X47126066Y-29448282D01*
X46880999Y-30039926D01*
X46633265Y-30410685D01*
X46525214Y-30572395D01*
X46072395Y-31025214D01*
X46072392Y-31025216D01*
X45539926Y-31380999D01*
X44948282Y-31626066D01*
X44634239Y-31688533D01*
X44320197Y-31751000D01*
X43679803Y-31751000D01*
X43365761Y-31688533D01*
X43051718Y-31626066D01*
X42460074Y-31380999D01*
X41927608Y-31025216D01*
X41927605Y-31025214D01*
X41474786Y-30572395D01*
X41366735Y-30410685D01*
X41119001Y-30039926D01*
X40873934Y-29448282D01*
X40811467Y-29134239D01*
X40749000Y-28820197D01*
X40749000Y-28179803D01*
X40873934Y-27551719D01*
X40997276Y-27253944D01*
X41119001Y-26960074D01*
X41474784Y-26427608D01*
X41474786Y-26427605D01*
X41927605Y-25974786D01*
X42170477Y-25812504D01*
X42460074Y-25619001D01*
X43051718Y-25373934D01*
X43365761Y-25311467D01*
X43679803Y-25249000D01*
X44320197Y-25249000D01*
X44634239Y-25311467D01*
X44634239Y-25311467D01*
G37*
M02*
