#! /usr/bin/vvp
:ivl_version "10.2 (stable)";
:ivl_delay_selection "TYPICAL";
:vpi_time_precision + 0;
:vpi_module "system";
:vpi_module "vhdl_sys";
:vpi_module "v2005_math";
:vpi_module "va_math";
S_0x558ebfb128a0 .scope module, "adder_tb" "adder_tb" 2 3;
 .timescale 0 0;
v0x558ebfb55130_0 .var "a", 31 0;
v0x558ebfb55210_0 .var "b", 31 0;
v0x558ebfb552b0_0 .var "cIn", 0 0;
v0x558ebfb553e0_0 .net "cOut", 0 0, L_0x558ebfb62900;  1 drivers
v0x558ebfb55510_0 .net "sumOut", 31 0, L_0x558ebfb63330;  1 drivers
S_0x558ebfb12ad0 .scope module, "atest" "thirtytwobitadder" 2 11, 3 3 0, S_0x558ebfb128a0;
 .timescale 0 0;
    .port_info 0 /INPUT 1 "cIn"
    .port_info 1 /INPUT 32 "a"
    .port_info 2 /INPUT 32 "b"
    .port_info 3 /OUTPUT 32 "sum"
    .port_info 4 /OUTPUT 1 "cOut"
v0x558ebfb54c10_0 .net "a", 31 0, v0x558ebfb55130_0;  1 drivers
v0x558ebfb54d10_0 .net "b", 31 0, v0x558ebfb55210_0;  1 drivers
v0x558ebfb54df0_0 .net "c1", 0 0, L_0x558ebfb5bb60;  1 drivers
v0x558ebfb54e90_0 .net "cIn", 0 0, v0x558ebfb552b0_0;  1 drivers
v0x558ebfb54f30_0 .net "cOut", 0 0, L_0x558ebfb62900;  alias, 1 drivers
v0x558ebfb54fd0_0 .net "sum", 31 0, L_0x558ebfb63330;  alias, 1 drivers
L_0x558ebfb5c450 .part v0x558ebfb55130_0, 0, 16;
L_0x558ebfb5c540 .part v0x558ebfb55210_0, 0, 16;
L_0x558ebfb631f0 .part v0x558ebfb55130_0, 16, 16;
L_0x558ebfb63290 .part v0x558ebfb55210_0, 16, 16;
L_0x558ebfb63330 .concat8 [ 16 16 0 0], L_0x558ebfb5c310, L_0x558ebfb630b0;
S_0x558ebfb17ea0 .scope module, "a1" "sixteenbitadder" 3 12, 4 3 0, S_0x558ebfb12ad0;
 .timescale 0 0;
    .port_info 0 /INPUT 1 "cIn"
    .port_info 1 /INPUT 16 "a"
    .port_info 2 /INPUT 16 "b"
    .port_info 3 /OUTPUT 16 "sum"
    .port_info 4 /OUTPUT 1 "cOut"
v0x558ebfb47120_0 .net "a", 15 0, L_0x558ebfb5c450;  1 drivers
v0x558ebfb47220_0 .net "b", 15 0, L_0x558ebfb5c540;  1 drivers
v0x558ebfb47300_0 .net "c1", 0 0, L_0x558ebfb56af0;  1 drivers
v0x558ebfb473a0_0 .net "c2", 0 0, L_0x558ebfb58600;  1 drivers
v0x558ebfb47440_0 .net "c3", 0 0, L_0x558ebfb5a0e0;  1 drivers
v0x558ebfb47570_0 .net "cIn", 0 0, v0x558ebfb552b0_0;  alias, 1 drivers
v0x558ebfb47610_0 .net "cOut", 0 0, L_0x558ebfb5bb60;  alias, 1 drivers
v0x558ebfb476b0_0 .net "sum", 15 0, L_0x558ebfb5c310;  1 drivers
L_0x558ebfb56ff0 .part L_0x558ebfb5c450, 0, 4;
L_0x558ebfb57090 .part L_0x558ebfb5c540, 0, 4;
L_0x558ebfb58b00 .part L_0x558ebfb5c450, 4, 4;
L_0x558ebfb58bf0 .part L_0x558ebfb5c540, 4, 4;
L_0x558ebfb5a5e0 .part L_0x558ebfb5c450, 8, 4;
L_0x558ebfb5a680 .part L_0x558ebfb5c540, 8, 4;
L_0x558ebfb5c060 .part L_0x558ebfb5c450, 12, 4;
L_0x558ebfb5c190 .part L_0x558ebfb5c540, 12, 4;
L_0x558ebfb5c310 .concat8 [ 4 4 4 4], L_0x558ebfb56eb0, L_0x558ebfb589c0, L_0x558ebfb5a4a0, L_0x558ebfb5bf20;
S_0x558ebfb02b80 .scope module, "a1" "fourbitadder" 4 12, 5 3 0, S_0x558ebfb17ea0;
 .timescale 0 0;
    .port_info 0 /INPUT 1 "cIn"
    .port_info 1 /INPUT 4 "a"
    .port_info 2 /INPUT 4 "b"
    .port_info 3 /OUTPUT 4 "sum"
    .port_info 4 /OUTPUT 1 "cOut"
v0x558ebfb3d370_0 .net "a", 3 0, L_0x558ebfb56ff0;  1 drivers
v0x558ebfb3d470_0 .net "b", 3 0, L_0x558ebfb57090;  1 drivers
v0x558ebfb3d550_0 .net "c1", 0 0, L_0x558ebfb55900;  1 drivers
v0x558ebfb3d5f0_0 .net "c2", 0 0, L_0x558ebfb55f00;  1 drivers
v0x558ebfb3d6e0_0 .net "c3", 0 0, L_0x558ebfb56540;  1 drivers
v0x558ebfb3d820_0 .net "cIn", 0 0, v0x558ebfb552b0_0;  alias, 1 drivers
v0x558ebfb3d8c0_0 .net "cOut", 0 0, L_0x558ebfb56af0;  alias, 1 drivers
v0x558ebfb3d960_0 .net "sum", 3 0, L_0x558ebfb56eb0;  1 drivers
L_0x558ebfb55a10 .part L_0x558ebfb56ff0, 0, 1;
L_0x558ebfb55ab0 .part L_0x558ebfb57090, 0, 1;
L_0x558ebfb56010 .part L_0x558ebfb56ff0, 1, 1;
L_0x558ebfb56100 .part L_0x558ebfb57090, 1, 1;
L_0x558ebfb56650 .part L_0x558ebfb56ff0, 2, 1;
L_0x558ebfb566f0 .part L_0x558ebfb57090, 2, 1;
L_0x558ebfb56c00 .part L_0x558ebfb56ff0, 3, 1;
L_0x558ebfb56d30 .part L_0x558ebfb57090, 3, 1;
L_0x558ebfb56eb0 .concat8 [ 1 1 1 1], L_0x558ebfb55680, L_0x558ebfb55bf0, L_0x558ebfb56290, L_0x558ebfb56840;
S_0x558ebfb27620 .scope module, "a1" "onebitadder" 5 12, 6 1 0, S_0x558ebfb02b80;
 .timescale 0 0;
    .port_info 0 /INPUT 1 "cIn"
    .port_info 1 /INPUT 1 "a"
    .port_info 2 /INPUT 1 "b"
    .port_info 3 /OUTPUT 1 "sum"
    .port_info 4 /OUTPUT 1 "cOut"
    .port_info 5 /OUTPUT 1 "w1"
    .port_info 6 /OUTPUT 1 "w2"
    .port_info 7 /OUTPUT 1 "w3"
L_0x558ebfb555b0 .functor XOR 1, L_0x558ebfb55a10, L_0x558ebfb55ab0, C4<0>, C4<0>;
L_0x558ebfb55680 .functor XOR 1, L_0x558ebfb555b0, v0x558ebfb552b0_0, C4<0>, C4<0>;
L_0x558ebfb55720 .functor AND 1, v0x558ebfb552b0_0, L_0x558ebfb555b0, C4<1>, C4<1>;
L_0x558ebfb55790 .functor AND 1, L_0x558ebfb55a10, L_0x558ebfb55ab0, C4<1>, C4<1>;
L_0x558ebfb55900 .functor OR 1, L_0x558ebfb55790, L_0x558ebfb55720, C4<0>, C4<0>;
v0x558ebfb1a6a0_0 .net "a", 0 0, L_0x558ebfb55a10;  1 drivers
v0x558ebfb05380_0 .net "b", 0 0, L_0x558ebfb55ab0;  1 drivers
v0x558ebfb15390_0 .net "cIn", 0 0, v0x558ebfb552b0_0;  alias, 1 drivers
v0x558ebfb23880_0 .net "cOut", 0 0, L_0x558ebfb55900;  alias, 1 drivers
v0x558ebfb3b1a0_0 .net "sum", 0 0, L_0x558ebfb55680;  1 drivers
v0x558ebfb3b260_0 .net "w1", 0 0, L_0x558ebfb555b0;  1 drivers
v0x558ebfb3b320_0 .net "w2", 0 0, L_0x558ebfb55720;  1 drivers
v0x558ebfb3b3e0_0 .net "w3", 0 0, L_0x558ebfb55790;  1 drivers
S_0x558ebfb3b5a0 .scope module, "a2" "onebitadder" 5 13, 6 1 0, S_0x558ebfb02b80;
 .timescale 0 0;
    .port_info 0 /INPUT 1 "cIn"
    .port_info 1 /INPUT 1 "a"
    .port_info 2 /INPUT 1 "b"
    .port_info 3 /OUTPUT 1 "sum"
    .port_info 4 /OUTPUT 1 "cOut"
    .port_info 5 /OUTPUT 1 "w1"
    .port_info 6 /OUTPUT 1 "w2"
    .port_info 7 /OUTPUT 1 "w3"
L_0x558ebfb55b50 .functor XOR 1, L_0x558ebfb56010, L_0x558ebfb56100, C4<0>, C4<0>;
L_0x558ebfb55bf0 .functor XOR 1, L_0x558ebfb55b50, L_0x558ebfb55900, C4<0>, C4<0>;
L_0x558ebfb55d70 .functor AND 1, L_0x558ebfb55900, L_0x558ebfb55b50, C4<1>, C4<1>;
L_0x558ebfb55de0 .functor AND 1, L_0x558ebfb56010, L_0x558ebfb56100, C4<1>, C4<1>;
L_0x558ebfb55f00 .functor OR 1, L_0x558ebfb55de0, L_0x558ebfb55d70, C4<0>, C4<0>;
v0x558ebfb3b810_0 .net "a", 0 0, L_0x558ebfb56010;  1 drivers
v0x558ebfb3b8d0_0 .net "b", 0 0, L_0x558ebfb56100;  1 drivers
v0x558ebfb3b990_0 .net "cIn", 0 0, L_0x558ebfb55900;  alias, 1 drivers
v0x558ebfb3ba30_0 .net "cOut", 0 0, L_0x558ebfb55f00;  alias, 1 drivers
v0x558ebfb3bad0_0 .net "sum", 0 0, L_0x558ebfb55bf0;  1 drivers
v0x558ebfb3bb70_0 .net "w1", 0 0, L_0x558ebfb55b50;  1 drivers
v0x558ebfb3bc30_0 .net "w2", 0 0, L_0x558ebfb55d70;  1 drivers
v0x558ebfb3bcf0_0 .net "w3", 0 0, L_0x558ebfb55de0;  1 drivers
S_0x558ebfb3bf00 .scope module, "a3" "onebitadder" 5 14, 6 1 0, S_0x558ebfb02b80;
 .timescale 0 0;
    .port_info 0 /INPUT 1 "cIn"
    .port_info 1 /INPUT 1 "a"
    .port_info 2 /INPUT 1 "b"
    .port_info 3 /OUTPUT 1 "sum"
    .port_info 4 /OUTPUT 1 "cOut"
    .port_info 5 /OUTPUT 1 "w1"
    .port_info 6 /OUTPUT 1 "w2"
    .port_info 7 /OUTPUT 1 "w3"
L_0x558ebfb56220 .functor XOR 1, L_0x558ebfb56650, L_0x558ebfb566f0, C4<0>, C4<0>;
L_0x558ebfb56290 .functor XOR 1, L_0x558ebfb56220, L_0x558ebfb55f00, C4<0>, C4<0>;
L_0x558ebfb563e0 .functor AND 1, L_0x558ebfb55f00, L_0x558ebfb56220, C4<1>, C4<1>;
L_0x558ebfb56450 .functor AND 1, L_0x558ebfb56650, L_0x558ebfb566f0, C4<1>, C4<1>;
L_0x558ebfb56540 .functor OR 1, L_0x558ebfb56450, L_0x558ebfb563e0, C4<0>, C4<0>;
v0x558ebfb3c1a0_0 .net "a", 0 0, L_0x558ebfb56650;  1 drivers
v0x558ebfb3c260_0 .net "b", 0 0, L_0x558ebfb566f0;  1 drivers
v0x558ebfb3c320_0 .net "cIn", 0 0, L_0x558ebfb55f00;  alias, 1 drivers
v0x558ebfb3c420_0 .net "cOut", 0 0, L_0x558ebfb56540;  alias, 1 drivers
v0x558ebfb3c4c0_0 .net "sum", 0 0, L_0x558ebfb56290;  1 drivers
v0x558ebfb3c5b0_0 .net "w1", 0 0, L_0x558ebfb56220;  1 drivers
v0x558ebfb3c670_0 .net "w2", 0 0, L_0x558ebfb563e0;  1 drivers
v0x558ebfb3c730_0 .net "w3", 0 0, L_0x558ebfb56450;  1 drivers
S_0x558ebfb3c940 .scope module, "a4" "onebitadder" 5 15, 6 1 0, S_0x558ebfb02b80;
 .timescale 0 0;
    .port_info 0 /INPUT 1 "cIn"
    .port_info 1 /INPUT 1 "a"
    .port_info 2 /INPUT 1 "b"
    .port_info 3 /OUTPUT 1 "sum"
    .port_info 4 /OUTPUT 1 "cOut"
    .port_info 5 /OUTPUT 1 "w1"
    .port_info 6 /OUTPUT 1 "w2"
    .port_info 7 /OUTPUT 1 "w3"
L_0x558ebfb567d0 .functor XOR 1, L_0x558ebfb56c00, L_0x558ebfb56d30, C4<0>, C4<0>;
L_0x558ebfb56840 .functor XOR 1, L_0x558ebfb567d0, L_0x558ebfb56540, C4<0>, C4<0>;
L_0x558ebfb56990 .functor AND 1, L_0x558ebfb56540, L_0x558ebfb567d0, C4<1>, C4<1>;
L_0x558ebfb56a00 .functor AND 1, L_0x558ebfb56c00, L_0x558ebfb56d30, C4<1>, C4<1>;
L_0x558ebfb56af0 .functor OR 1, L_0x558ebfb56a00, L_0x558ebfb56990, C4<0>, C4<0>;
v0x558ebfb3cbe0_0 .net "a", 0 0, L_0x558ebfb56c00;  1 drivers
v0x558ebfb3ccc0_0 .net "b", 0 0, L_0x558ebfb56d30;  1 drivers
v0x558ebfb3cd80_0 .net "cIn", 0 0, L_0x558ebfb56540;  alias, 1 drivers
v0x558ebfb3ce50_0 .net "cOut", 0 0, L_0x558ebfb56af0;  alias, 1 drivers
v0x558ebfb3cef0_0 .net "sum", 0 0, L_0x558ebfb56840;  1 drivers
v0x558ebfb3cfe0_0 .net "w1", 0 0, L_0x558ebfb567d0;  1 drivers
v0x558ebfb3d0a0_0 .net "w2", 0 0, L_0x558ebfb56990;  1 drivers
v0x558ebfb3d160_0 .net "w3", 0 0, L_0x558ebfb56a00;  1 drivers
S_0x558ebfb3da80 .scope module, "a2" "fourbitadder" 4 13, 5 3 0, S_0x558ebfb17ea0;
 .timescale 0 0;
    .port_info 0 /INPUT 1 "cIn"
    .port_info 1 /INPUT 4 "a"
    .port_info 2 /INPUT 4 "b"
    .port_info 3 /OUTPUT 4 "sum"
    .port_info 4 /OUTPUT 1 "cOut"
v0x558ebfb405a0_0 .net "a", 3 0, L_0x558ebfb58b00;  1 drivers
v0x558ebfb406a0_0 .net "b", 3 0, L_0x558ebfb58bf0;  1 drivers
v0x558ebfb40780_0 .net "c1", 0 0, L_0x558ebfb57410;  1 drivers
v0x558ebfb40820_0 .net "c2", 0 0, L_0x558ebfb57a10;  1 drivers
v0x558ebfb40910_0 .net "c3", 0 0, L_0x558ebfb58050;  1 drivers
v0x558ebfb40a50_0 .net "cIn", 0 0, L_0x558ebfb56af0;  alias, 1 drivers
v0x558ebfb40af0_0 .net "cOut", 0 0, L_0x558ebfb58600;  alias, 1 drivers
v0x558ebfb40b90_0 .net "sum", 3 0, L_0x558ebfb589c0;  1 drivers
L_0x558ebfb57520 .part L_0x558ebfb58b00, 0, 1;
L_0x558ebfb575c0 .part L_0x558ebfb58bf0, 0, 1;
L_0x558ebfb57b20 .part L_0x558ebfb58b00, 1, 1;
L_0x558ebfb57c10 .part L_0x558ebfb58bf0, 1, 1;
L_0x558ebfb58160 .part L_0x558ebfb58b00, 2, 1;
L_0x558ebfb58200 .part L_0x558ebfb58bf0, 2, 1;
L_0x558ebfb58710 .part L_0x558ebfb58b00, 3, 1;
L_0x558ebfb58840 .part L_0x558ebfb58bf0, 3, 1;
L_0x558ebfb589c0 .concat8 [ 1 1 1 1], L_0x558ebfb571a0, L_0x558ebfb57700, L_0x558ebfb57da0, L_0x558ebfb58350;
S_0x558ebfb3dc70 .scope module, "a1" "onebitadder" 5 12, 6 1 0, S_0x558ebfb3da80;
 .timescale 0 0;
    .port_info 0 /INPUT 1 "cIn"
    .port_info 1 /INPUT 1 "a"
    .port_info 2 /INPUT 1 "b"
    .port_info 3 /OUTPUT 1 "sum"
    .port_info 4 /OUTPUT 1 "cOut"
    .port_info 5 /OUTPUT 1 "w1"
    .port_info 6 /OUTPUT 1 "w2"
    .port_info 7 /OUTPUT 1 "w3"
L_0x558ebfb57130 .functor XOR 1, L_0x558ebfb57520, L_0x558ebfb575c0, C4<0>, C4<0>;
L_0x558ebfb571a0 .functor XOR 1, L_0x558ebfb57130, L_0x558ebfb56af0, C4<0>, C4<0>;
L_0x558ebfb57260 .functor AND 1, L_0x558ebfb56af0, L_0x558ebfb57130, C4<1>, C4<1>;
L_0x558ebfb572d0 .functor AND 1, L_0x558ebfb57520, L_0x558ebfb575c0, C4<1>, C4<1>;
L_0x558ebfb57410 .functor OR 1, L_0x558ebfb572d0, L_0x558ebfb57260, C4<0>, C4<0>;
v0x558ebfb3df60_0 .net "a", 0 0, L_0x558ebfb57520;  1 drivers
v0x558ebfb3e040_0 .net "b", 0 0, L_0x558ebfb575c0;  1 drivers
v0x558ebfb3e100_0 .net "cIn", 0 0, L_0x558ebfb56af0;  alias, 1 drivers
v0x558ebfb3e1f0_0 .net "cOut", 0 0, L_0x558ebfb57410;  alias, 1 drivers
v0x558ebfb3e290_0 .net "sum", 0 0, L_0x558ebfb571a0;  1 drivers
v0x558ebfb3e3a0_0 .net "w1", 0 0, L_0x558ebfb57130;  1 drivers
v0x558ebfb3e460_0 .net "w2", 0 0, L_0x558ebfb57260;  1 drivers
v0x558ebfb3e520_0 .net "w3", 0 0, L_0x558ebfb572d0;  1 drivers
S_0x558ebfb3e730 .scope module, "a2" "onebitadder" 5 13, 6 1 0, S_0x558ebfb3da80;
 .timescale 0 0;
    .port_info 0 /INPUT 1 "cIn"
    .port_info 1 /INPUT 1 "a"
    .port_info 2 /INPUT 1 "b"
    .port_info 3 /OUTPUT 1 "sum"
    .port_info 4 /OUTPUT 1 "cOut"
    .port_info 5 /OUTPUT 1 "w1"
    .port_info 6 /OUTPUT 1 "w2"
    .port_info 7 /OUTPUT 1 "w3"
L_0x558ebfb57660 .functor XOR 1, L_0x558ebfb57b20, L_0x558ebfb57c10, C4<0>, C4<0>;
L_0x558ebfb57700 .functor XOR 1, L_0x558ebfb57660, L_0x558ebfb57410, C4<0>, C4<0>;
L_0x558ebfb57880 .functor AND 1, L_0x558ebfb57410, L_0x558ebfb57660, C4<1>, C4<1>;
L_0x558ebfb578f0 .functor AND 1, L_0x558ebfb57b20, L_0x558ebfb57c10, C4<1>, C4<1>;
L_0x558ebfb57a10 .functor OR 1, L_0x558ebfb578f0, L_0x558ebfb57880, C4<0>, C4<0>;
v0x558ebfb3e9f0_0 .net "a", 0 0, L_0x558ebfb57b20;  1 drivers
v0x558ebfb3eab0_0 .net "b", 0 0, L_0x558ebfb57c10;  1 drivers
v0x558ebfb3eb70_0 .net "cIn", 0 0, L_0x558ebfb57410;  alias, 1 drivers
v0x558ebfb3ec10_0 .net "cOut", 0 0, L_0x558ebfb57a10;  alias, 1 drivers
v0x558ebfb3ecb0_0 .net "sum", 0 0, L_0x558ebfb57700;  1 drivers
v0x558ebfb3eda0_0 .net "w1", 0 0, L_0x558ebfb57660;  1 drivers
v0x558ebfb3ee60_0 .net "w2", 0 0, L_0x558ebfb57880;  1 drivers
v0x558ebfb3ef20_0 .net "w3", 0 0, L_0x558ebfb578f0;  1 drivers
S_0x558ebfb3f130 .scope module, "a3" "onebitadder" 5 14, 6 1 0, S_0x558ebfb3da80;
 .timescale 0 0;
    .port_info 0 /INPUT 1 "cIn"
    .port_info 1 /INPUT 1 "a"
    .port_info 2 /INPUT 1 "b"
    .port_info 3 /OUTPUT 1 "sum"
    .port_info 4 /OUTPUT 1 "cOut"
    .port_info 5 /OUTPUT 1 "w1"
    .port_info 6 /OUTPUT 1 "w2"
    .port_info 7 /OUTPUT 1 "w3"
L_0x558ebfb57d30 .functor XOR 1, L_0x558ebfb58160, L_0x558ebfb58200, C4<0>, C4<0>;
L_0x558ebfb57da0 .functor XOR 1, L_0x558ebfb57d30, L_0x558ebfb57a10, C4<0>, C4<0>;
L_0x558ebfb57ef0 .functor AND 1, L_0x558ebfb57a10, L_0x558ebfb57d30, C4<1>, C4<1>;
L_0x558ebfb57f60 .functor AND 1, L_0x558ebfb58160, L_0x558ebfb58200, C4<1>, C4<1>;
L_0x558ebfb58050 .functor OR 1, L_0x558ebfb57f60, L_0x558ebfb57ef0, C4<0>, C4<0>;
v0x558ebfb3f3d0_0 .net "a", 0 0, L_0x558ebfb58160;  1 drivers
v0x558ebfb3f490_0 .net "b", 0 0, L_0x558ebfb58200;  1 drivers
v0x558ebfb3f550_0 .net "cIn", 0 0, L_0x558ebfb57a10;  alias, 1 drivers
v0x558ebfb3f650_0 .net "cOut", 0 0, L_0x558ebfb58050;  alias, 1 drivers
v0x558ebfb3f6f0_0 .net "sum", 0 0, L_0x558ebfb57da0;  1 drivers
v0x558ebfb3f7e0_0 .net "w1", 0 0, L_0x558ebfb57d30;  1 drivers
v0x558ebfb3f8a0_0 .net "w2", 0 0, L_0x558ebfb57ef0;  1 drivers
v0x558ebfb3f960_0 .net "w3", 0 0, L_0x558ebfb57f60;  1 drivers
S_0x558ebfb3fb70 .scope module, "a4" "onebitadder" 5 15, 6 1 0, S_0x558ebfb3da80;
 .timescale 0 0;
    .port_info 0 /INPUT 1 "cIn"
    .port_info 1 /INPUT 1 "a"
    .port_info 2 /INPUT 1 "b"
    .port_info 3 /OUTPUT 1 "sum"
    .port_info 4 /OUTPUT 1 "cOut"
    .port_info 5 /OUTPUT 1 "w1"
    .port_info 6 /OUTPUT 1 "w2"
    .port_info 7 /OUTPUT 1 "w3"
L_0x558ebfb582e0 .functor XOR 1, L_0x558ebfb58710, L_0x558ebfb58840, C4<0>, C4<0>;
L_0x558ebfb58350 .functor XOR 1, L_0x558ebfb582e0, L_0x558ebfb58050, C4<0>, C4<0>;
L_0x558ebfb584a0 .functor AND 1, L_0x558ebfb58050, L_0x558ebfb582e0, C4<1>, C4<1>;
L_0x558ebfb58510 .functor AND 1, L_0x558ebfb58710, L_0x558ebfb58840, C4<1>, C4<1>;
L_0x558ebfb58600 .functor OR 1, L_0x558ebfb58510, L_0x558ebfb584a0, C4<0>, C4<0>;
v0x558ebfb3fe10_0 .net "a", 0 0, L_0x558ebfb58710;  1 drivers
v0x558ebfb3fef0_0 .net "b", 0 0, L_0x558ebfb58840;  1 drivers
v0x558ebfb3ffb0_0 .net "cIn", 0 0, L_0x558ebfb58050;  alias, 1 drivers
v0x558ebfb40080_0 .net "cOut", 0 0, L_0x558ebfb58600;  alias, 1 drivers
v0x558ebfb40120_0 .net "sum", 0 0, L_0x558ebfb58350;  1 drivers
v0x558ebfb40210_0 .net "w1", 0 0, L_0x558ebfb582e0;  1 drivers
v0x558ebfb402d0_0 .net "w2", 0 0, L_0x558ebfb584a0;  1 drivers
v0x558ebfb40390_0 .net "w3", 0 0, L_0x558ebfb58510;  1 drivers
S_0x558ebfb40cd0 .scope module, "a3" "fourbitadder" 4 14, 5 3 0, S_0x558ebfb17ea0;
 .timescale 0 0;
    .port_info 0 /INPUT 1 "cIn"
    .port_info 1 /INPUT 4 "a"
    .port_info 2 /INPUT 4 "b"
    .port_info 3 /OUTPUT 4 "sum"
    .port_info 4 /OUTPUT 1 "cOut"
v0x558ebfb437d0_0 .net "a", 3 0, L_0x558ebfb5a5e0;  1 drivers
v0x558ebfb438d0_0 .net "b", 3 0, L_0x558ebfb5a680;  1 drivers
v0x558ebfb439b0_0 .net "c1", 0 0, L_0x558ebfb58f90;  1 drivers
v0x558ebfb43a50_0 .net "c2", 0 0, L_0x558ebfb59530;  1 drivers
v0x558ebfb43b40_0 .net "c3", 0 0, L_0x558ebfb59b70;  1 drivers
v0x558ebfb43c80_0 .net "cIn", 0 0, L_0x558ebfb58600;  alias, 1 drivers
v0x558ebfb43d20_0 .net "cOut", 0 0, L_0x558ebfb5a0e0;  alias, 1 drivers
v0x558ebfb43dc0_0 .net "sum", 3 0, L_0x558ebfb5a4a0;  1 drivers
L_0x558ebfb590a0 .part L_0x558ebfb5a5e0, 0, 1;
L_0x558ebfb59140 .part L_0x558ebfb5a680, 0, 1;
L_0x558ebfb59640 .part L_0x558ebfb5a5e0, 1, 1;
L_0x558ebfb59730 .part L_0x558ebfb5a680, 1, 1;
L_0x558ebfb59c80 .part L_0x558ebfb5a5e0, 2, 1;
L_0x558ebfb59d20 .part L_0x558ebfb5a680, 2, 1;
L_0x558ebfb5a1f0 .part L_0x558ebfb5a5e0, 3, 1;
L_0x558ebfb5a320 .part L_0x558ebfb5a680, 3, 1;
L_0x558ebfb5a4a0 .concat8 [ 1 1 1 1], L_0x558ebfb58d50, L_0x558ebfb59250, L_0x558ebfb598c0, L_0x558ebfb59e30;
S_0x558ebfb40ea0 .scope module, "a1" "onebitadder" 5 12, 6 1 0, S_0x558ebfb40cd0;
 .timescale 0 0;
    .port_info 0 /INPUT 1 "cIn"
    .port_info 1 /INPUT 1 "a"
    .port_info 2 /INPUT 1 "b"
    .port_info 3 /OUTPUT 1 "sum"
    .port_info 4 /OUTPUT 1 "cOut"
    .port_info 5 /OUTPUT 1 "w1"
    .port_info 6 /OUTPUT 1 "w2"
    .port_info 7 /OUTPUT 1 "w3"
L_0x558ebfb58ce0 .functor XOR 1, L_0x558ebfb590a0, L_0x558ebfb59140, C4<0>, C4<0>;
L_0x558ebfb58d50 .functor XOR 1, L_0x558ebfb58ce0, L_0x558ebfb58600, C4<0>, C4<0>;
L_0x558ebfb58e10 .functor AND 1, L_0x558ebfb58600, L_0x558ebfb58ce0, C4<1>, C4<1>;
L_0x558ebfb58e80 .functor AND 1, L_0x558ebfb590a0, L_0x558ebfb59140, C4<1>, C4<1>;
L_0x558ebfb58f90 .functor OR 1, L_0x558ebfb58e80, L_0x558ebfb58e10, C4<0>, C4<0>;
v0x558ebfb41190_0 .net "a", 0 0, L_0x558ebfb590a0;  1 drivers
v0x558ebfb41270_0 .net "b", 0 0, L_0x558ebfb59140;  1 drivers
v0x558ebfb41330_0 .net "cIn", 0 0, L_0x558ebfb58600;  alias, 1 drivers
v0x558ebfb41420_0 .net "cOut", 0 0, L_0x558ebfb58f90;  alias, 1 drivers
v0x558ebfb414c0_0 .net "sum", 0 0, L_0x558ebfb58d50;  1 drivers
v0x558ebfb415d0_0 .net "w1", 0 0, L_0x558ebfb58ce0;  1 drivers
v0x558ebfb41690_0 .net "w2", 0 0, L_0x558ebfb58e10;  1 drivers
v0x558ebfb41750_0 .net "w3", 0 0, L_0x558ebfb58e80;  1 drivers
S_0x558ebfb41960 .scope module, "a2" "onebitadder" 5 13, 6 1 0, S_0x558ebfb40cd0;
 .timescale 0 0;
    .port_info 0 /INPUT 1 "cIn"
    .port_info 1 /INPUT 1 "a"
    .port_info 2 /INPUT 1 "b"
    .port_info 3 /OUTPUT 1 "sum"
    .port_info 4 /OUTPUT 1 "cOut"
    .port_info 5 /OUTPUT 1 "w1"
    .port_info 6 /OUTPUT 1 "w2"
    .port_info 7 /OUTPUT 1 "w3"
L_0x558ebfb591e0 .functor XOR 1, L_0x558ebfb59640, L_0x558ebfb59730, C4<0>, C4<0>;
L_0x558ebfb59250 .functor XOR 1, L_0x558ebfb591e0, L_0x558ebfb58f90, C4<0>, C4<0>;
L_0x558ebfb593a0 .functor AND 1, L_0x558ebfb58f90, L_0x558ebfb591e0, C4<1>, C4<1>;
L_0x558ebfb59410 .functor AND 1, L_0x558ebfb59640, L_0x558ebfb59730, C4<1>, C4<1>;
L_0x558ebfb59530 .functor OR 1, L_0x558ebfb59410, L_0x558ebfb593a0, C4<0>, C4<0>;
v0x558ebfb41c20_0 .net "a", 0 0, L_0x558ebfb59640;  1 drivers
v0x558ebfb41ce0_0 .net "b", 0 0, L_0x558ebfb59730;  1 drivers
v0x558ebfb41da0_0 .net "cIn", 0 0, L_0x558ebfb58f90;  alias, 1 drivers
v0x558ebfb41e40_0 .net "cOut", 0 0, L_0x558ebfb59530;  alias, 1 drivers
v0x558ebfb41ee0_0 .net "sum", 0 0, L_0x558ebfb59250;  1 drivers
v0x558ebfb41fd0_0 .net "w1", 0 0, L_0x558ebfb591e0;  1 drivers
v0x558ebfb42090_0 .net "w2", 0 0, L_0x558ebfb593a0;  1 drivers
v0x558ebfb42150_0 .net "w3", 0 0, L_0x558ebfb59410;  1 drivers
S_0x558ebfb42360 .scope module, "a3" "onebitadder" 5 14, 6 1 0, S_0x558ebfb40cd0;
 .timescale 0 0;
    .port_info 0 /INPUT 1 "cIn"
    .port_info 1 /INPUT 1 "a"
    .port_info 2 /INPUT 1 "b"
    .port_info 3 /OUTPUT 1 "sum"
    .port_info 4 /OUTPUT 1 "cOut"
    .port_info 5 /OUTPUT 1 "w1"
    .port_info 6 /OUTPUT 1 "w2"
    .port_info 7 /OUTPUT 1 "w3"
L_0x558ebfb59850 .functor XOR 1, L_0x558ebfb59c80, L_0x558ebfb59d20, C4<0>, C4<0>;
L_0x558ebfb598c0 .functor XOR 1, L_0x558ebfb59850, L_0x558ebfb59530, C4<0>, C4<0>;
L_0x558ebfb59a10 .functor AND 1, L_0x558ebfb59530, L_0x558ebfb59850, C4<1>, C4<1>;
L_0x558ebfb59a80 .functor AND 1, L_0x558ebfb59c80, L_0x558ebfb59d20, C4<1>, C4<1>;
L_0x558ebfb59b70 .functor OR 1, L_0x558ebfb59a80, L_0x558ebfb59a10, C4<0>, C4<0>;
v0x558ebfb42600_0 .net "a", 0 0, L_0x558ebfb59c80;  1 drivers
v0x558ebfb426c0_0 .net "b", 0 0, L_0x558ebfb59d20;  1 drivers
v0x558ebfb42780_0 .net "cIn", 0 0, L_0x558ebfb59530;  alias, 1 drivers
v0x558ebfb42880_0 .net "cOut", 0 0, L_0x558ebfb59b70;  alias, 1 drivers
v0x558ebfb42920_0 .net "sum", 0 0, L_0x558ebfb598c0;  1 drivers
v0x558ebfb42a10_0 .net "w1", 0 0, L_0x558ebfb59850;  1 drivers
v0x558ebfb42ad0_0 .net "w2", 0 0, L_0x558ebfb59a10;  1 drivers
v0x558ebfb42b90_0 .net "w3", 0 0, L_0x558ebfb59a80;  1 drivers
S_0x558ebfb42da0 .scope module, "a4" "onebitadder" 5 15, 6 1 0, S_0x558ebfb40cd0;
 .timescale 0 0;
    .port_info 0 /INPUT 1 "cIn"
    .port_info 1 /INPUT 1 "a"
    .port_info 2 /INPUT 1 "b"
    .port_info 3 /OUTPUT 1 "sum"
    .port_info 4 /OUTPUT 1 "cOut"
    .port_info 5 /OUTPUT 1 "w1"
    .port_info 6 /OUTPUT 1 "w2"
    .port_info 7 /OUTPUT 1 "w3"
L_0x558ebfb59dc0 .functor XOR 1, L_0x558ebfb5a1f0, L_0x558ebfb5a320, C4<0>, C4<0>;
L_0x558ebfb59e30 .functor XOR 1, L_0x558ebfb59dc0, L_0x558ebfb59b70, C4<0>, C4<0>;
L_0x558ebfb59f80 .functor AND 1, L_0x558ebfb59b70, L_0x558ebfb59dc0, C4<1>, C4<1>;
L_0x558ebfb59ff0 .functor AND 1, L_0x558ebfb5a1f0, L_0x558ebfb5a320, C4<1>, C4<1>;
L_0x558ebfb5a0e0 .functor OR 1, L_0x558ebfb59ff0, L_0x558ebfb59f80, C4<0>, C4<0>;
v0x558ebfb43040_0 .net "a", 0 0, L_0x558ebfb5a1f0;  1 drivers
v0x558ebfb43120_0 .net "b", 0 0, L_0x558ebfb5a320;  1 drivers
v0x558ebfb431e0_0 .net "cIn", 0 0, L_0x558ebfb59b70;  alias, 1 drivers
v0x558ebfb432b0_0 .net "cOut", 0 0, L_0x558ebfb5a0e0;  alias, 1 drivers
v0x558ebfb43350_0 .net "sum", 0 0, L_0x558ebfb59e30;  1 drivers
v0x558ebfb43440_0 .net "w1", 0 0, L_0x558ebfb59dc0;  1 drivers
v0x558ebfb43500_0 .net "w2", 0 0, L_0x558ebfb59f80;  1 drivers
v0x558ebfb435c0_0 .net "w3", 0 0, L_0x558ebfb59ff0;  1 drivers
S_0x558ebfb43f00 .scope module, "a4" "fourbitadder" 4 15, 5 3 0, S_0x558ebfb17ea0;
 .timescale 0 0;
    .port_info 0 /INPUT 1 "cIn"
    .port_info 1 /INPUT 4 "a"
    .port_info 2 /INPUT 4 "b"
    .port_info 3 /OUTPUT 4 "sum"
    .port_info 4 /OUTPUT 1 "cOut"
v0x558ebfb469f0_0 .net "a", 3 0, L_0x558ebfb5c060;  1 drivers
v0x558ebfb46af0_0 .net "b", 3 0, L_0x558ebfb5c190;  1 drivers
v0x558ebfb46bd0_0 .net "c1", 0 0, L_0x558ebfb5a9d0;  1 drivers
v0x558ebfb46c70_0 .net "c2", 0 0, L_0x558ebfb5af70;  1 drivers
v0x558ebfb46d60_0 .net "c3", 0 0, L_0x558ebfb5b5b0;  1 drivers
v0x558ebfb46ea0_0 .net "cIn", 0 0, L_0x558ebfb5a0e0;  alias, 1 drivers
v0x558ebfb46f40_0 .net "cOut", 0 0, L_0x558ebfb5bb60;  alias, 1 drivers
v0x558ebfb46fe0_0 .net "sum", 3 0, L_0x558ebfb5bf20;  1 drivers
L_0x558ebfb5aae0 .part L_0x558ebfb5c060, 0, 1;
L_0x558ebfb5ab80 .part L_0x558ebfb5c190, 0, 1;
L_0x558ebfb5b080 .part L_0x558ebfb5c060, 1, 1;
L_0x558ebfb5b170 .part L_0x558ebfb5c190, 1, 1;
L_0x558ebfb5b6c0 .part L_0x558ebfb5c060, 2, 1;
L_0x558ebfb5b760 .part L_0x558ebfb5c190, 2, 1;
L_0x558ebfb5bc70 .part L_0x558ebfb5c060, 3, 1;
L_0x558ebfb5bda0 .part L_0x558ebfb5c190, 3, 1;
L_0x558ebfb5bf20 .concat8 [ 1 1 1 1], L_0x558ebfb5a790, L_0x558ebfb5ac90, L_0x558ebfb5b300, L_0x558ebfb5b8b0;
S_0x558ebfb440d0 .scope module, "a1" "onebitadder" 5 12, 6 1 0, S_0x558ebfb43f00;
 .timescale 0 0;
    .port_info 0 /INPUT 1 "cIn"
    .port_info 1 /INPUT 1 "a"
    .port_info 2 /INPUT 1 "b"
    .port_info 3 /OUTPUT 1 "sum"
    .port_info 4 /OUTPUT 1 "cOut"
    .port_info 5 /OUTPUT 1 "w1"
    .port_info 6 /OUTPUT 1 "w2"
    .port_info 7 /OUTPUT 1 "w3"
L_0x558ebfb5a720 .functor XOR 1, L_0x558ebfb5aae0, L_0x558ebfb5ab80, C4<0>, C4<0>;
L_0x558ebfb5a790 .functor XOR 1, L_0x558ebfb5a720, L_0x558ebfb5a0e0, C4<0>, C4<0>;
L_0x558ebfb5a850 .functor AND 1, L_0x558ebfb5a0e0, L_0x558ebfb5a720, C4<1>, C4<1>;
L_0x558ebfb5a8c0 .functor AND 1, L_0x558ebfb5aae0, L_0x558ebfb5ab80, C4<1>, C4<1>;
L_0x558ebfb5a9d0 .functor OR 1, L_0x558ebfb5a8c0, L_0x558ebfb5a850, C4<0>, C4<0>;
v0x558ebfb443e0_0 .net "a", 0 0, L_0x558ebfb5aae0;  1 drivers
v0x558ebfb444c0_0 .net "b", 0 0, L_0x558ebfb5ab80;  1 drivers
v0x558ebfb44580_0 .net "cIn", 0 0, L_0x558ebfb5a0e0;  alias, 1 drivers
v0x558ebfb44670_0 .net "cOut", 0 0, L_0x558ebfb5a9d0;  alias, 1 drivers
v0x558ebfb44710_0 .net "sum", 0 0, L_0x558ebfb5a790;  1 drivers
v0x558ebfb44820_0 .net "w1", 0 0, L_0x558ebfb5a720;  1 drivers
v0x558ebfb448e0_0 .net "w2", 0 0, L_0x558ebfb5a850;  1 drivers
v0x558ebfb449a0_0 .net "w3", 0 0, L_0x558ebfb5a8c0;  1 drivers
S_0x558ebfb44bb0 .scope module, "a2" "onebitadder" 5 13, 6 1 0, S_0x558ebfb43f00;
 .timescale 0 0;
    .port_info 0 /INPUT 1 "cIn"
    .port_info 1 /INPUT 1 "a"
    .port_info 2 /INPUT 1 "b"
    .port_info 3 /OUTPUT 1 "sum"
    .port_info 4 /OUTPUT 1 "cOut"
    .port_info 5 /OUTPUT 1 "w1"
    .port_info 6 /OUTPUT 1 "w2"
    .port_info 7 /OUTPUT 1 "w3"
L_0x558ebfb5ac20 .functor XOR 1, L_0x558ebfb5b080, L_0x558ebfb5b170, C4<0>, C4<0>;
L_0x558ebfb5ac90 .functor XOR 1, L_0x558ebfb5ac20, L_0x558ebfb5a9d0, C4<0>, C4<0>;
L_0x558ebfb5ade0 .functor AND 1, L_0x558ebfb5a9d0, L_0x558ebfb5ac20, C4<1>, C4<1>;
L_0x558ebfb5ae50 .functor AND 1, L_0x558ebfb5b080, L_0x558ebfb5b170, C4<1>, C4<1>;
L_0x558ebfb5af70 .functor OR 1, L_0x558ebfb5ae50, L_0x558ebfb5ade0, C4<0>, C4<0>;
v0x558ebfb44e70_0 .net "a", 0 0, L_0x558ebfb5b080;  1 drivers
v0x558ebfb44f30_0 .net "b", 0 0, L_0x558ebfb5b170;  1 drivers
v0x558ebfb44ff0_0 .net "cIn", 0 0, L_0x558ebfb5a9d0;  alias, 1 drivers
v0x558ebfb45090_0 .net "cOut", 0 0, L_0x558ebfb5af70;  alias, 1 drivers
v0x558ebfb45130_0 .net "sum", 0 0, L_0x558ebfb5ac90;  1 drivers
v0x558ebfb45220_0 .net "w1", 0 0, L_0x558ebfb5ac20;  1 drivers
v0x558ebfb452e0_0 .net "w2", 0 0, L_0x558ebfb5ade0;  1 drivers
v0x558ebfb453a0_0 .net "w3", 0 0, L_0x558ebfb5ae50;  1 drivers
S_0x558ebfb455b0 .scope module, "a3" "onebitadder" 5 14, 6 1 0, S_0x558ebfb43f00;
 .timescale 0 0;
    .port_info 0 /INPUT 1 "cIn"
    .port_info 1 /INPUT 1 "a"
    .port_info 2 /INPUT 1 "b"
    .port_info 3 /OUTPUT 1 "sum"
    .port_info 4 /OUTPUT 1 "cOut"
    .port_info 5 /OUTPUT 1 "w1"
    .port_info 6 /OUTPUT 1 "w2"
    .port_info 7 /OUTPUT 1 "w3"
L_0x558ebfb5b290 .functor XOR 1, L_0x558ebfb5b6c0, L_0x558ebfb5b760, C4<0>, C4<0>;
L_0x558ebfb5b300 .functor XOR 1, L_0x558ebfb5b290, L_0x558ebfb5af70, C4<0>, C4<0>;
L_0x558ebfb5b450 .functor AND 1, L_0x558ebfb5af70, L_0x558ebfb5b290, C4<1>, C4<1>;
L_0x558ebfb5b4c0 .functor AND 1, L_0x558ebfb5b6c0, L_0x558ebfb5b760, C4<1>, C4<1>;
L_0x558ebfb5b5b0 .functor OR 1, L_0x558ebfb5b4c0, L_0x558ebfb5b450, C4<0>, C4<0>;
v0x558ebfb45850_0 .net "a", 0 0, L_0x558ebfb5b6c0;  1 drivers
v0x558ebfb45910_0 .net "b", 0 0, L_0x558ebfb5b760;  1 drivers
v0x558ebfb459d0_0 .net "cIn", 0 0, L_0x558ebfb5af70;  alias, 1 drivers
v0x558ebfb45aa0_0 .net "cOut", 0 0, L_0x558ebfb5b5b0;  alias, 1 drivers
v0x558ebfb45b40_0 .net "sum", 0 0, L_0x558ebfb5b300;  1 drivers
v0x558ebfb45c30_0 .net "w1", 0 0, L_0x558ebfb5b290;  1 drivers
v0x558ebfb45cf0_0 .net "w2", 0 0, L_0x558ebfb5b450;  1 drivers
v0x558ebfb45db0_0 .net "w3", 0 0, L_0x558ebfb5b4c0;  1 drivers
S_0x558ebfb45fc0 .scope module, "a4" "onebitadder" 5 15, 6 1 0, S_0x558ebfb43f00;
 .timescale 0 0;
    .port_info 0 /INPUT 1 "cIn"
    .port_info 1 /INPUT 1 "a"
    .port_info 2 /INPUT 1 "b"
    .port_info 3 /OUTPUT 1 "sum"
    .port_info 4 /OUTPUT 1 "cOut"
    .port_info 5 /OUTPUT 1 "w1"
    .port_info 6 /OUTPUT 1 "w2"
    .port_info 7 /OUTPUT 1 "w3"
L_0x558ebfb5b840 .functor XOR 1, L_0x558ebfb5bc70, L_0x558ebfb5bda0, C4<0>, C4<0>;
L_0x558ebfb5b8b0 .functor XOR 1, L_0x558ebfb5b840, L_0x558ebfb5b5b0, C4<0>, C4<0>;
L_0x558ebfb5ba00 .functor AND 1, L_0x558ebfb5b5b0, L_0x558ebfb5b840, C4<1>, C4<1>;
L_0x558ebfb5ba70 .functor AND 1, L_0x558ebfb5bc70, L_0x558ebfb5bda0, C4<1>, C4<1>;
L_0x558ebfb5bb60 .functor OR 1, L_0x558ebfb5ba70, L_0x558ebfb5ba00, C4<0>, C4<0>;
v0x558ebfb46260_0 .net "a", 0 0, L_0x558ebfb5bc70;  1 drivers
v0x558ebfb46340_0 .net "b", 0 0, L_0x558ebfb5bda0;  1 drivers
v0x558ebfb46400_0 .net "cIn", 0 0, L_0x558ebfb5b5b0;  alias, 1 drivers
v0x558ebfb464d0_0 .net "cOut", 0 0, L_0x558ebfb5bb60;  alias, 1 drivers
v0x558ebfb46570_0 .net "sum", 0 0, L_0x558ebfb5b8b0;  1 drivers
v0x558ebfb46660_0 .net "w1", 0 0, L_0x558ebfb5b840;  1 drivers
v0x558ebfb46720_0 .net "w2", 0 0, L_0x558ebfb5ba00;  1 drivers
v0x558ebfb467e0_0 .net "w3", 0 0, L_0x558ebfb5ba70;  1 drivers
S_0x558ebfb47810 .scope module, "a2" "sixteenbitadder" 3 13, 4 3 0, S_0x558ebfb12ad0;
 .timescale 0 0;
    .port_info 0 /INPUT 1 "cIn"
    .port_info 1 /INPUT 16 "a"
    .port_info 2 /INPUT 16 "b"
    .port_info 3 /OUTPUT 16 "sum"
    .port_info 4 /OUTPUT 1 "cOut"
v0x558ebfb54400_0 .net "a", 15 0, L_0x558ebfb631f0;  1 drivers
v0x558ebfb54500_0 .net "b", 15 0, L_0x558ebfb63290;  1 drivers
v0x558ebfb545e0_0 .net "c1", 0 0, L_0x558ebfb5d940;  1 drivers
v0x558ebfb54710_0 .net "c2", 0 0, L_0x558ebfb5f3e0;  1 drivers
v0x558ebfb54840_0 .net "c3", 0 0, L_0x558ebfb60ec0;  1 drivers
v0x558ebfb54970_0 .net "cIn", 0 0, L_0x558ebfb5bb60;  alias, 1 drivers
v0x558ebfb54a10_0 .net "cOut", 0 0, L_0x558ebfb62900;  alias, 1 drivers
v0x558ebfb54ab0_0 .net "sum", 15 0, L_0x558ebfb630b0;  1 drivers
L_0x558ebfb5de40 .part L_0x558ebfb631f0, 0, 4;
L_0x558ebfb5dee0 .part L_0x558ebfb63290, 0, 4;
L_0x558ebfb5f8e0 .part L_0x558ebfb631f0, 4, 4;
L_0x558ebfb5f9d0 .part L_0x558ebfb63290, 4, 4;
L_0x558ebfb613c0 .part L_0x558ebfb631f0, 8, 4;
L_0x558ebfb61460 .part L_0x558ebfb63290, 8, 4;
L_0x558ebfb62e00 .part L_0x558ebfb631f0, 12, 4;
L_0x558ebfb62f30 .part L_0x558ebfb63290, 12, 4;
L_0x558ebfb630b0 .concat8 [ 4 4 4 4], L_0x558ebfb5dd00, L_0x558ebfb5f7a0, L_0x558ebfb61280, L_0x558ebfb62cc0;
S_0x558ebfb47a00 .scope module, "a1" "fourbitadder" 4 12, 5 3 0, S_0x558ebfb47810;
 .timescale 0 0;
    .port_info 0 /INPUT 1 "cIn"
    .port_info 1 /INPUT 4 "a"
    .port_info 2 /INPUT 4 "b"
    .port_info 3 /OUTPUT 4 "sum"
    .port_info 4 /OUTPUT 1 "cOut"
v0x558ebfb4a4a0_0 .net "a", 3 0, L_0x558ebfb5de40;  1 drivers
v0x558ebfb4a5a0_0 .net "b", 3 0, L_0x558ebfb5dee0;  1 drivers
v0x558ebfb4a680_0 .net "c1", 0 0, L_0x558ebfb5c8e0;  1 drivers
v0x558ebfb4a720_0 .net "c2", 0 0, L_0x558ebfb5cd90;  1 drivers
v0x558ebfb4a810_0 .net "c3", 0 0, L_0x558ebfb5d3d0;  1 drivers
v0x558ebfb4a950_0 .net "cIn", 0 0, L_0x558ebfb5bb60;  alias, 1 drivers
v0x558ebfb4aa80_0 .net "cOut", 0 0, L_0x558ebfb5d940;  alias, 1 drivers
v0x558ebfb4ab20_0 .net "sum", 3 0, L_0x558ebfb5dd00;  1 drivers
L_0x558ebfb5c9f0 .part L_0x558ebfb5de40, 0, 1;
L_0x558ebfb5ca90 .part L_0x558ebfb5dee0, 0, 1;
L_0x558ebfb5cea0 .part L_0x558ebfb5de40, 1, 1;
L_0x558ebfb5cf90 .part L_0x558ebfb5dee0, 1, 1;
L_0x558ebfb5d4e0 .part L_0x558ebfb5de40, 2, 1;
L_0x558ebfb5d580 .part L_0x558ebfb5dee0, 2, 1;
L_0x558ebfb5da50 .part L_0x558ebfb5de40, 3, 1;
L_0x558ebfb5db80 .part L_0x558ebfb5dee0, 3, 1;
L_0x558ebfb5dd00 .concat8 [ 1 1 1 1], L_0x558ebfb5c6a0, L_0x558ebfb5cba0, L_0x558ebfb5d120, L_0x558ebfb5d690;
S_0x558ebfb47bd0 .scope module, "a1" "onebitadder" 5 12, 6 1 0, S_0x558ebfb47a00;
 .timescale 0 0;
    .port_info 0 /INPUT 1 "cIn"
    .port_info 1 /INPUT 1 "a"
    .port_info 2 /INPUT 1 "b"
    .port_info 3 /OUTPUT 1 "sum"
    .port_info 4 /OUTPUT 1 "cOut"
    .port_info 5 /OUTPUT 1 "w1"
    .port_info 6 /OUTPUT 1 "w2"
    .port_info 7 /OUTPUT 1 "w3"
L_0x558ebfb5c630 .functor XOR 1, L_0x558ebfb5c9f0, L_0x558ebfb5ca90, C4<0>, C4<0>;
L_0x558ebfb5c6a0 .functor XOR 1, L_0x558ebfb5c630, L_0x558ebfb5bb60, C4<0>, C4<0>;
L_0x558ebfb5c760 .functor AND 1, L_0x558ebfb5bb60, L_0x558ebfb5c630, C4<1>, C4<1>;
L_0x558ebfb5c7d0 .functor AND 1, L_0x558ebfb5c9f0, L_0x558ebfb5ca90, C4<1>, C4<1>;
L_0x558ebfb5c8e0 .functor OR 1, L_0x558ebfb5c7d0, L_0x558ebfb5c760, C4<0>, C4<0>;
v0x558ebfb47ee0_0 .net "a", 0 0, L_0x558ebfb5c9f0;  1 drivers
v0x558ebfb47fc0_0 .net "b", 0 0, L_0x558ebfb5ca90;  1 drivers
v0x558ebfb48080_0 .net "cIn", 0 0, L_0x558ebfb5bb60;  alias, 1 drivers
v0x558ebfb48120_0 .net "cOut", 0 0, L_0x558ebfb5c8e0;  alias, 1 drivers
v0x558ebfb481c0_0 .net "sum", 0 0, L_0x558ebfb5c6a0;  1 drivers
v0x558ebfb482d0_0 .net "w1", 0 0, L_0x558ebfb5c630;  1 drivers
v0x558ebfb48390_0 .net "w2", 0 0, L_0x558ebfb5c760;  1 drivers
v0x558ebfb48450_0 .net "w3", 0 0, L_0x558ebfb5c7d0;  1 drivers
S_0x558ebfb48660 .scope module, "a2" "onebitadder" 5 13, 6 1 0, S_0x558ebfb47a00;
 .timescale 0 0;
    .port_info 0 /INPUT 1 "cIn"
    .port_info 1 /INPUT 1 "a"
    .port_info 2 /INPUT 1 "b"
    .port_info 3 /OUTPUT 1 "sum"
    .port_info 4 /OUTPUT 1 "cOut"
    .port_info 5 /OUTPUT 1 "w1"
    .port_info 6 /OUTPUT 1 "w2"
    .port_info 7 /OUTPUT 1 "w3"
L_0x558ebfb5cb30 .functor XOR 1, L_0x558ebfb5cea0, L_0x558ebfb5cf90, C4<0>, C4<0>;
L_0x558ebfb5cba0 .functor XOR 1, L_0x558ebfb5cb30, L_0x558ebfb5c8e0, C4<0>, C4<0>;
L_0x558ebfb5cc60 .functor AND 1, L_0x558ebfb5c8e0, L_0x558ebfb5cb30, C4<1>, C4<1>;
L_0x558ebfb5ccd0 .functor AND 1, L_0x558ebfb5cea0, L_0x558ebfb5cf90, C4<1>, C4<1>;
L_0x558ebfb5cd90 .functor OR 1, L_0x558ebfb5ccd0, L_0x558ebfb5cc60, C4<0>, C4<0>;
v0x558ebfb48920_0 .net "a", 0 0, L_0x558ebfb5cea0;  1 drivers
v0x558ebfb489e0_0 .net "b", 0 0, L_0x558ebfb5cf90;  1 drivers
v0x558ebfb48aa0_0 .net "cIn", 0 0, L_0x558ebfb5c8e0;  alias, 1 drivers
v0x558ebfb48b40_0 .net "cOut", 0 0, L_0x558ebfb5cd90;  alias, 1 drivers
v0x558ebfb48be0_0 .net "sum", 0 0, L_0x558ebfb5cba0;  1 drivers
v0x558ebfb48cd0_0 .net "w1", 0 0, L_0x558ebfb5cb30;  1 drivers
v0x558ebfb48d90_0 .net "w2", 0 0, L_0x558ebfb5cc60;  1 drivers
v0x558ebfb48e50_0 .net "w3", 0 0, L_0x558ebfb5ccd0;  1 drivers
S_0x558ebfb49060 .scope module, "a3" "onebitadder" 5 14, 6 1 0, S_0x558ebfb47a00;
 .timescale 0 0;
    .port_info 0 /INPUT 1 "cIn"
    .port_info 1 /INPUT 1 "a"
    .port_info 2 /INPUT 1 "b"
    .port_info 3 /OUTPUT 1 "sum"
    .port_info 4 /OUTPUT 1 "cOut"
    .port_info 5 /OUTPUT 1 "w1"
    .port_info 6 /OUTPUT 1 "w2"
    .port_info 7 /OUTPUT 1 "w3"
L_0x558ebfb5d0b0 .functor XOR 1, L_0x558ebfb5d4e0, L_0x558ebfb5d580, C4<0>, C4<0>;
L_0x558ebfb5d120 .functor XOR 1, L_0x558ebfb5d0b0, L_0x558ebfb5cd90, C4<0>, C4<0>;
L_0x558ebfb5d270 .functor AND 1, L_0x558ebfb5cd90, L_0x558ebfb5d0b0, C4<1>, C4<1>;
L_0x558ebfb5d2e0 .functor AND 1, L_0x558ebfb5d4e0, L_0x558ebfb5d580, C4<1>, C4<1>;
L_0x558ebfb5d3d0 .functor OR 1, L_0x558ebfb5d2e0, L_0x558ebfb5d270, C4<0>, C4<0>;
v0x558ebfb49300_0 .net "a", 0 0, L_0x558ebfb5d4e0;  1 drivers
v0x558ebfb493c0_0 .net "b", 0 0, L_0x558ebfb5d580;  1 drivers
v0x558ebfb49480_0 .net "cIn", 0 0, L_0x558ebfb5cd90;  alias, 1 drivers
v0x558ebfb49550_0 .net "cOut", 0 0, L_0x558ebfb5d3d0;  alias, 1 drivers
v0x558ebfb495f0_0 .net "sum", 0 0, L_0x558ebfb5d120;  1 drivers
v0x558ebfb496e0_0 .net "w1", 0 0, L_0x558ebfb5d0b0;  1 drivers
v0x558ebfb497a0_0 .net "w2", 0 0, L_0x558ebfb5d270;  1 drivers
v0x558ebfb49860_0 .net "w3", 0 0, L_0x558ebfb5d2e0;  1 drivers
S_0x558ebfb49a70 .scope module, "a4" "onebitadder" 5 15, 6 1 0, S_0x558ebfb47a00;
 .timescale 0 0;
    .port_info 0 /INPUT 1 "cIn"
    .port_info 1 /INPUT 1 "a"
    .port_info 2 /INPUT 1 "b"
    .port_info 3 /OUTPUT 1 "sum"
    .port_info 4 /OUTPUT 1 "cOut"
    .port_info 5 /OUTPUT 1 "w1"
    .port_info 6 /OUTPUT 1 "w2"
    .port_info 7 /OUTPUT 1 "w3"
L_0x558ebfb5d620 .functor XOR 1, L_0x558ebfb5da50, L_0x558ebfb5db80, C4<0>, C4<0>;
L_0x558ebfb5d690 .functor XOR 1, L_0x558ebfb5d620, L_0x558ebfb5d3d0, C4<0>, C4<0>;
L_0x558ebfb5d7e0 .functor AND 1, L_0x558ebfb5d3d0, L_0x558ebfb5d620, C4<1>, C4<1>;
L_0x558ebfb5d850 .functor AND 1, L_0x558ebfb5da50, L_0x558ebfb5db80, C4<1>, C4<1>;
L_0x558ebfb5d940 .functor OR 1, L_0x558ebfb5d850, L_0x558ebfb5d7e0, C4<0>, C4<0>;
v0x558ebfb49d10_0 .net "a", 0 0, L_0x558ebfb5da50;  1 drivers
v0x558ebfb49df0_0 .net "b", 0 0, L_0x558ebfb5db80;  1 drivers
v0x558ebfb49eb0_0 .net "cIn", 0 0, L_0x558ebfb5d3d0;  alias, 1 drivers
v0x558ebfb49f80_0 .net "cOut", 0 0, L_0x558ebfb5d940;  alias, 1 drivers
v0x558ebfb4a020_0 .net "sum", 0 0, L_0x558ebfb5d690;  1 drivers
v0x558ebfb4a110_0 .net "w1", 0 0, L_0x558ebfb5d620;  1 drivers
v0x558ebfb4a1d0_0 .net "w2", 0 0, L_0x558ebfb5d7e0;  1 drivers
v0x558ebfb4a290_0 .net "w3", 0 0, L_0x558ebfb5d850;  1 drivers
S_0x558ebfb4ac60 .scope module, "a2" "fourbitadder" 4 13, 5 3 0, S_0x558ebfb47810;
 .timescale 0 0;
    .port_info 0 /INPUT 1 "cIn"
    .port_info 1 /INPUT 4 "a"
    .port_info 2 /INPUT 4 "b"
    .port_info 3 /OUTPUT 4 "sum"
    .port_info 4 /OUTPUT 1 "cOut"
v0x558ebfb4d780_0 .net "a", 3 0, L_0x558ebfb5f8e0;  1 drivers
v0x558ebfb4d880_0 .net "b", 3 0, L_0x558ebfb5f9d0;  1 drivers
v0x558ebfb4d960_0 .net "c1", 0 0, L_0x558ebfb5e230;  1 drivers
v0x558ebfb4da00_0 .net "c2", 0 0, L_0x558ebfb5e830;  1 drivers
v0x558ebfb4daf0_0 .net "c3", 0 0, L_0x558ebfb5ee70;  1 drivers
v0x558ebfb4dc30_0 .net "cIn", 0 0, L_0x558ebfb5d940;  alias, 1 drivers
v0x558ebfb4dcd0_0 .net "cOut", 0 0, L_0x558ebfb5f3e0;  alias, 1 drivers
v0x558ebfb4dd70_0 .net "sum", 3 0, L_0x558ebfb5f7a0;  1 drivers
L_0x558ebfb5e340 .part L_0x558ebfb5f8e0, 0, 1;
L_0x558ebfb5e3e0 .part L_0x558ebfb5f9d0, 0, 1;
L_0x558ebfb5e940 .part L_0x558ebfb5f8e0, 1, 1;
L_0x558ebfb5ea30 .part L_0x558ebfb5f9d0, 1, 1;
L_0x558ebfb5ef80 .part L_0x558ebfb5f8e0, 2, 1;
L_0x558ebfb5f020 .part L_0x558ebfb5f9d0, 2, 1;
L_0x558ebfb5f4f0 .part L_0x558ebfb5f8e0, 3, 1;
L_0x558ebfb5f620 .part L_0x558ebfb5f9d0, 3, 1;
L_0x558ebfb5f7a0 .concat8 [ 1 1 1 1], L_0x558ebfb5dff0, L_0x558ebfb5e520, L_0x558ebfb5ebc0, L_0x558ebfb5f130;
S_0x558ebfb4ae80 .scope module, "a1" "onebitadder" 5 12, 6 1 0, S_0x558ebfb4ac60;
 .timescale 0 0;
    .port_info 0 /INPUT 1 "cIn"
    .port_info 1 /INPUT 1 "a"
    .port_info 2 /INPUT 1 "b"
    .port_info 3 /OUTPUT 1 "sum"
    .port_info 4 /OUTPUT 1 "cOut"
    .port_info 5 /OUTPUT 1 "w1"
    .port_info 6 /OUTPUT 1 "w2"
    .port_info 7 /OUTPUT 1 "w3"
L_0x558ebfb5df80 .functor XOR 1, L_0x558ebfb5e340, L_0x558ebfb5e3e0, C4<0>, C4<0>;
L_0x558ebfb5dff0 .functor XOR 1, L_0x558ebfb5df80, L_0x558ebfb5d940, C4<0>, C4<0>;
L_0x558ebfb5e0b0 .functor AND 1, L_0x558ebfb5d940, L_0x558ebfb5df80, C4<1>, C4<1>;
L_0x558ebfb5e120 .functor AND 1, L_0x558ebfb5e340, L_0x558ebfb5e3e0, C4<1>, C4<1>;
L_0x558ebfb5e230 .functor OR 1, L_0x558ebfb5e120, L_0x558ebfb5e0b0, C4<0>, C4<0>;
v0x558ebfb4b170_0 .net "a", 0 0, L_0x558ebfb5e340;  1 drivers
v0x558ebfb4b250_0 .net "b", 0 0, L_0x558ebfb5e3e0;  1 drivers
v0x558ebfb4b310_0 .net "cIn", 0 0, L_0x558ebfb5d940;  alias, 1 drivers
v0x558ebfb4b400_0 .net "cOut", 0 0, L_0x558ebfb5e230;  alias, 1 drivers
v0x558ebfb4b4a0_0 .net "sum", 0 0, L_0x558ebfb5dff0;  1 drivers
v0x558ebfb4b5b0_0 .net "w1", 0 0, L_0x558ebfb5df80;  1 drivers
v0x558ebfb4b670_0 .net "w2", 0 0, L_0x558ebfb5e0b0;  1 drivers
v0x558ebfb4b730_0 .net "w3", 0 0, L_0x558ebfb5e120;  1 drivers
S_0x558ebfb4b940 .scope module, "a2" "onebitadder" 5 13, 6 1 0, S_0x558ebfb4ac60;
 .timescale 0 0;
    .port_info 0 /INPUT 1 "cIn"
    .port_info 1 /INPUT 1 "a"
    .port_info 2 /INPUT 1 "b"
    .port_info 3 /OUTPUT 1 "sum"
    .port_info 4 /OUTPUT 1 "cOut"
    .port_info 5 /OUTPUT 1 "w1"
    .port_info 6 /OUTPUT 1 "w2"
    .port_info 7 /OUTPUT 1 "w3"
L_0x558ebfb5e480 .functor XOR 1, L_0x558ebfb5e940, L_0x558ebfb5ea30, C4<0>, C4<0>;
L_0x558ebfb5e520 .functor XOR 1, L_0x558ebfb5e480, L_0x558ebfb5e230, C4<0>, C4<0>;
L_0x558ebfb5e6a0 .functor AND 1, L_0x558ebfb5e230, L_0x558ebfb5e480, C4<1>, C4<1>;
L_0x558ebfb5e710 .functor AND 1, L_0x558ebfb5e940, L_0x558ebfb5ea30, C4<1>, C4<1>;
L_0x558ebfb5e830 .functor OR 1, L_0x558ebfb5e710, L_0x558ebfb5e6a0, C4<0>, C4<0>;
v0x558ebfb4bc00_0 .net "a", 0 0, L_0x558ebfb5e940;  1 drivers
v0x558ebfb4bcc0_0 .net "b", 0 0, L_0x558ebfb5ea30;  1 drivers
v0x558ebfb4bd80_0 .net "cIn", 0 0, L_0x558ebfb5e230;  alias, 1 drivers
v0x558ebfb4be20_0 .net "cOut", 0 0, L_0x558ebfb5e830;  alias, 1 drivers
v0x558ebfb4bec0_0 .net "sum", 0 0, L_0x558ebfb5e520;  1 drivers
v0x558ebfb4bfb0_0 .net "w1", 0 0, L_0x558ebfb5e480;  1 drivers
v0x558ebfb4c070_0 .net "w2", 0 0, L_0x558ebfb5e6a0;  1 drivers
v0x558ebfb4c130_0 .net "w3", 0 0, L_0x558ebfb5e710;  1 drivers
S_0x558ebfb4c340 .scope module, "a3" "onebitadder" 5 14, 6 1 0, S_0x558ebfb4ac60;
 .timescale 0 0;
    .port_info 0 /INPUT 1 "cIn"
    .port_info 1 /INPUT 1 "a"
    .port_info 2 /INPUT 1 "b"
    .port_info 3 /OUTPUT 1 "sum"
    .port_info 4 /OUTPUT 1 "cOut"
    .port_info 5 /OUTPUT 1 "w1"
    .port_info 6 /OUTPUT 1 "w2"
    .port_info 7 /OUTPUT 1 "w3"
L_0x558ebfb5eb50 .functor XOR 1, L_0x558ebfb5ef80, L_0x558ebfb5f020, C4<0>, C4<0>;
L_0x558ebfb5ebc0 .functor XOR 1, L_0x558ebfb5eb50, L_0x558ebfb5e830, C4<0>, C4<0>;
L_0x558ebfb5ed10 .functor AND 1, L_0x558ebfb5e830, L_0x558ebfb5eb50, C4<1>, C4<1>;
L_0x558ebfb5ed80 .functor AND 1, L_0x558ebfb5ef80, L_0x558ebfb5f020, C4<1>, C4<1>;
L_0x558ebfb5ee70 .functor OR 1, L_0x558ebfb5ed80, L_0x558ebfb5ed10, C4<0>, C4<0>;
v0x558ebfb4c5e0_0 .net "a", 0 0, L_0x558ebfb5ef80;  1 drivers
v0x558ebfb4c6a0_0 .net "b", 0 0, L_0x558ebfb5f020;  1 drivers
v0x558ebfb4c760_0 .net "cIn", 0 0, L_0x558ebfb5e830;  alias, 1 drivers
v0x558ebfb4c830_0 .net "cOut", 0 0, L_0x558ebfb5ee70;  alias, 1 drivers
v0x558ebfb4c8d0_0 .net "sum", 0 0, L_0x558ebfb5ebc0;  1 drivers
v0x558ebfb4c9c0_0 .net "w1", 0 0, L_0x558ebfb5eb50;  1 drivers
v0x558ebfb4ca80_0 .net "w2", 0 0, L_0x558ebfb5ed10;  1 drivers
v0x558ebfb4cb40_0 .net "w3", 0 0, L_0x558ebfb5ed80;  1 drivers
S_0x558ebfb4cd50 .scope module, "a4" "onebitadder" 5 15, 6 1 0, S_0x558ebfb4ac60;
 .timescale 0 0;
    .port_info 0 /INPUT 1 "cIn"
    .port_info 1 /INPUT 1 "a"
    .port_info 2 /INPUT 1 "b"
    .port_info 3 /OUTPUT 1 "sum"
    .port_info 4 /OUTPUT 1 "cOut"
    .port_info 5 /OUTPUT 1 "w1"
    .port_info 6 /OUTPUT 1 "w2"
    .port_info 7 /OUTPUT 1 "w3"
L_0x558ebfb5f0c0 .functor XOR 1, L_0x558ebfb5f4f0, L_0x558ebfb5f620, C4<0>, C4<0>;
L_0x558ebfb5f130 .functor XOR 1, L_0x558ebfb5f0c0, L_0x558ebfb5ee70, C4<0>, C4<0>;
L_0x558ebfb5f280 .functor AND 1, L_0x558ebfb5ee70, L_0x558ebfb5f0c0, C4<1>, C4<1>;
L_0x558ebfb5f2f0 .functor AND 1, L_0x558ebfb5f4f0, L_0x558ebfb5f620, C4<1>, C4<1>;
L_0x558ebfb5f3e0 .functor OR 1, L_0x558ebfb5f2f0, L_0x558ebfb5f280, C4<0>, C4<0>;
v0x558ebfb4cff0_0 .net "a", 0 0, L_0x558ebfb5f4f0;  1 drivers
v0x558ebfb4d0d0_0 .net "b", 0 0, L_0x558ebfb5f620;  1 drivers
v0x558ebfb4d190_0 .net "cIn", 0 0, L_0x558ebfb5ee70;  alias, 1 drivers
v0x558ebfb4d260_0 .net "cOut", 0 0, L_0x558ebfb5f3e0;  alias, 1 drivers
v0x558ebfb4d300_0 .net "sum", 0 0, L_0x558ebfb5f130;  1 drivers
v0x558ebfb4d3f0_0 .net "w1", 0 0, L_0x558ebfb5f0c0;  1 drivers
v0x558ebfb4d4b0_0 .net "w2", 0 0, L_0x558ebfb5f280;  1 drivers
v0x558ebfb4d570_0 .net "w3", 0 0, L_0x558ebfb5f2f0;  1 drivers
S_0x558ebfb4deb0 .scope module, "a3" "fourbitadder" 4 14, 5 3 0, S_0x558ebfb47810;
 .timescale 0 0;
    .port_info 0 /INPUT 1 "cIn"
    .port_info 1 /INPUT 4 "a"
    .port_info 2 /INPUT 4 "b"
    .port_info 3 /OUTPUT 4 "sum"
    .port_info 4 /OUTPUT 1 "cOut"
v0x558ebfb50a30_0 .net "a", 3 0, L_0x558ebfb613c0;  1 drivers
v0x558ebfb50b30_0 .net "b", 3 0, L_0x558ebfb61460;  1 drivers
v0x558ebfb50c10_0 .net "c1", 0 0, L_0x558ebfb5fd70;  1 drivers
v0x558ebfb50cb0_0 .net "c2", 0 0, L_0x558ebfb60310;  1 drivers
v0x558ebfb50da0_0 .net "c3", 0 0, L_0x558ebfb60950;  1 drivers
v0x558ebfb50ee0_0 .net "cIn", 0 0, L_0x558ebfb5f3e0;  alias, 1 drivers
v0x558ebfb50f80_0 .net "cOut", 0 0, L_0x558ebfb60ec0;  alias, 1 drivers
v0x558ebfb51020_0 .net "sum", 3 0, L_0x558ebfb61280;  1 drivers
L_0x558ebfb5fe80 .part L_0x558ebfb613c0, 0, 1;
L_0x558ebfb5ff20 .part L_0x558ebfb61460, 0, 1;
L_0x558ebfb60420 .part L_0x558ebfb613c0, 1, 1;
L_0x558ebfb60510 .part L_0x558ebfb61460, 1, 1;
L_0x558ebfb60a60 .part L_0x558ebfb613c0, 2, 1;
L_0x558ebfb60b00 .part L_0x558ebfb61460, 2, 1;
L_0x558ebfb60fd0 .part L_0x558ebfb613c0, 3, 1;
L_0x558ebfb61100 .part L_0x558ebfb61460, 3, 1;
L_0x558ebfb61280 .concat8 [ 1 1 1 1], L_0x558ebfb5fb30, L_0x558ebfb60030, L_0x558ebfb606a0, L_0x558ebfb60c10;
S_0x558ebfb4e100 .scope module, "a1" "onebitadder" 5 12, 6 1 0, S_0x558ebfb4deb0;
 .timescale 0 0;
    .port_info 0 /INPUT 1 "cIn"
    .port_info 1 /INPUT 1 "a"
    .port_info 2 /INPUT 1 "b"
    .port_info 3 /OUTPUT 1 "sum"
    .port_info 4 /OUTPUT 1 "cOut"
    .port_info 5 /OUTPUT 1 "w1"
    .port_info 6 /OUTPUT 1 "w2"
    .port_info 7 /OUTPUT 1 "w3"
L_0x558ebfb5fac0 .functor XOR 1, L_0x558ebfb5fe80, L_0x558ebfb5ff20, C4<0>, C4<0>;
L_0x558ebfb5fb30 .functor XOR 1, L_0x558ebfb5fac0, L_0x558ebfb5f3e0, C4<0>, C4<0>;
L_0x558ebfb5fbf0 .functor AND 1, L_0x558ebfb5f3e0, L_0x558ebfb5fac0, C4<1>, C4<1>;
L_0x558ebfb5fc60 .functor AND 1, L_0x558ebfb5fe80, L_0x558ebfb5ff20, C4<1>, C4<1>;
L_0x558ebfb5fd70 .functor OR 1, L_0x558ebfb5fc60, L_0x558ebfb5fbf0, C4<0>, C4<0>;
v0x558ebfb4e3f0_0 .net "a", 0 0, L_0x558ebfb5fe80;  1 drivers
v0x558ebfb4e4d0_0 .net "b", 0 0, L_0x558ebfb5ff20;  1 drivers
v0x558ebfb4e590_0 .net "cIn", 0 0, L_0x558ebfb5f3e0;  alias, 1 drivers
v0x558ebfb4e680_0 .net "cOut", 0 0, L_0x558ebfb5fd70;  alias, 1 drivers
v0x558ebfb4e720_0 .net "sum", 0 0, L_0x558ebfb5fb30;  1 drivers
v0x558ebfb4e830_0 .net "w1", 0 0, L_0x558ebfb5fac0;  1 drivers
v0x558ebfb4e8f0_0 .net "w2", 0 0, L_0x558ebfb5fbf0;  1 drivers
v0x558ebfb4e9b0_0 .net "w3", 0 0, L_0x558ebfb5fc60;  1 drivers
S_0x558ebfb4ebc0 .scope module, "a2" "onebitadder" 5 13, 6 1 0, S_0x558ebfb4deb0;
 .timescale 0 0;
    .port_info 0 /INPUT 1 "cIn"
    .port_info 1 /INPUT 1 "a"
    .port_info 2 /INPUT 1 "b"
    .port_info 3 /OUTPUT 1 "sum"
    .port_info 4 /OUTPUT 1 "cOut"
    .port_info 5 /OUTPUT 1 "w1"
    .port_info 6 /OUTPUT 1 "w2"
    .port_info 7 /OUTPUT 1 "w3"
L_0x558ebfb5ffc0 .functor XOR 1, L_0x558ebfb60420, L_0x558ebfb60510, C4<0>, C4<0>;
L_0x558ebfb60030 .functor XOR 1, L_0x558ebfb5ffc0, L_0x558ebfb5fd70, C4<0>, C4<0>;
L_0x558ebfb60180 .functor AND 1, L_0x558ebfb5fd70, L_0x558ebfb5ffc0, C4<1>, C4<1>;
L_0x558ebfb601f0 .functor AND 1, L_0x558ebfb60420, L_0x558ebfb60510, C4<1>, C4<1>;
L_0x558ebfb60310 .functor OR 1, L_0x558ebfb601f0, L_0x558ebfb60180, C4<0>, C4<0>;
v0x558ebfb4ee80_0 .net "a", 0 0, L_0x558ebfb60420;  1 drivers
v0x558ebfb4ef40_0 .net "b", 0 0, L_0x558ebfb60510;  1 drivers
v0x558ebfb4f000_0 .net "cIn", 0 0, L_0x558ebfb5fd70;  alias, 1 drivers
v0x558ebfb4f0a0_0 .net "cOut", 0 0, L_0x558ebfb60310;  alias, 1 drivers
v0x558ebfb4f140_0 .net "sum", 0 0, L_0x558ebfb60030;  1 drivers
v0x558ebfb4f230_0 .net "w1", 0 0, L_0x558ebfb5ffc0;  1 drivers
v0x558ebfb4f2f0_0 .net "w2", 0 0, L_0x558ebfb60180;  1 drivers
v0x558ebfb4f3b0_0 .net "w3", 0 0, L_0x558ebfb601f0;  1 drivers
S_0x558ebfb4f5c0 .scope module, "a3" "onebitadder" 5 14, 6 1 0, S_0x558ebfb4deb0;
 .timescale 0 0;
    .port_info 0 /INPUT 1 "cIn"
    .port_info 1 /INPUT 1 "a"
    .port_info 2 /INPUT 1 "b"
    .port_info 3 /OUTPUT 1 "sum"
    .port_info 4 /OUTPUT 1 "cOut"
    .port_info 5 /OUTPUT 1 "w1"
    .port_info 6 /OUTPUT 1 "w2"
    .port_info 7 /OUTPUT 1 "w3"
L_0x558ebfb60630 .functor XOR 1, L_0x558ebfb60a60, L_0x558ebfb60b00, C4<0>, C4<0>;
L_0x558ebfb606a0 .functor XOR 1, L_0x558ebfb60630, L_0x558ebfb60310, C4<0>, C4<0>;
L_0x558ebfb607f0 .functor AND 1, L_0x558ebfb60310, L_0x558ebfb60630, C4<1>, C4<1>;
L_0x558ebfb60860 .functor AND 1, L_0x558ebfb60a60, L_0x558ebfb60b00, C4<1>, C4<1>;
L_0x558ebfb60950 .functor OR 1, L_0x558ebfb60860, L_0x558ebfb607f0, C4<0>, C4<0>;
v0x558ebfb4f860_0 .net "a", 0 0, L_0x558ebfb60a60;  1 drivers
v0x558ebfb4f920_0 .net "b", 0 0, L_0x558ebfb60b00;  1 drivers
v0x558ebfb4f9e0_0 .net "cIn", 0 0, L_0x558ebfb60310;  alias, 1 drivers
v0x558ebfb4fae0_0 .net "cOut", 0 0, L_0x558ebfb60950;  alias, 1 drivers
v0x558ebfb4fb80_0 .net "sum", 0 0, L_0x558ebfb606a0;  1 drivers
v0x558ebfb4fc70_0 .net "w1", 0 0, L_0x558ebfb60630;  1 drivers
v0x558ebfb4fd30_0 .net "w2", 0 0, L_0x558ebfb607f0;  1 drivers
v0x558ebfb4fdf0_0 .net "w3", 0 0, L_0x558ebfb60860;  1 drivers
S_0x558ebfb50000 .scope module, "a4" "onebitadder" 5 15, 6 1 0, S_0x558ebfb4deb0;
 .timescale 0 0;
    .port_info 0 /INPUT 1 "cIn"
    .port_info 1 /INPUT 1 "a"
    .port_info 2 /INPUT 1 "b"
    .port_info 3 /OUTPUT 1 "sum"
    .port_info 4 /OUTPUT 1 "cOut"
    .port_info 5 /OUTPUT 1 "w1"
    .port_info 6 /OUTPUT 1 "w2"
    .port_info 7 /OUTPUT 1 "w3"
L_0x558ebfb60ba0 .functor XOR 1, L_0x558ebfb60fd0, L_0x558ebfb61100, C4<0>, C4<0>;
L_0x558ebfb60c10 .functor XOR 1, L_0x558ebfb60ba0, L_0x558ebfb60950, C4<0>, C4<0>;
L_0x558ebfb60d60 .functor AND 1, L_0x558ebfb60950, L_0x558ebfb60ba0, C4<1>, C4<1>;
L_0x558ebfb60dd0 .functor AND 1, L_0x558ebfb60fd0, L_0x558ebfb61100, C4<1>, C4<1>;
L_0x558ebfb60ec0 .functor OR 1, L_0x558ebfb60dd0, L_0x558ebfb60d60, C4<0>, C4<0>;
v0x558ebfb502a0_0 .net "a", 0 0, L_0x558ebfb60fd0;  1 drivers
v0x558ebfb50380_0 .net "b", 0 0, L_0x558ebfb61100;  1 drivers
v0x558ebfb50440_0 .net "cIn", 0 0, L_0x558ebfb60950;  alias, 1 drivers
v0x558ebfb50510_0 .net "cOut", 0 0, L_0x558ebfb60ec0;  alias, 1 drivers
v0x558ebfb505b0_0 .net "sum", 0 0, L_0x558ebfb60c10;  1 drivers
v0x558ebfb506a0_0 .net "w1", 0 0, L_0x558ebfb60ba0;  1 drivers
v0x558ebfb50760_0 .net "w2", 0 0, L_0x558ebfb60d60;  1 drivers
v0x558ebfb50820_0 .net "w3", 0 0, L_0x558ebfb60dd0;  1 drivers
S_0x558ebfb51160 .scope module, "a4" "fourbitadder" 4 15, 5 3 0, S_0x558ebfb47810;
 .timescale 0 0;
    .port_info 0 /INPUT 1 "cIn"
    .port_info 1 /INPUT 4 "a"
    .port_info 2 /INPUT 4 "b"
    .port_info 3 /OUTPUT 4 "sum"
    .port_info 4 /OUTPUT 1 "cOut"
v0x558ebfb53cd0_0 .net "a", 3 0, L_0x558ebfb62e00;  1 drivers
v0x558ebfb53dd0_0 .net "b", 3 0, L_0x558ebfb62f30;  1 drivers
v0x558ebfb53eb0_0 .net "c1", 0 0, L_0x558ebfb617b0;  1 drivers
v0x558ebfb53f50_0 .net "c2", 0 0, L_0x558ebfb61d50;  1 drivers
v0x558ebfb54040_0 .net "c3", 0 0, L_0x558ebfb62390;  1 drivers
v0x558ebfb54180_0 .net "cIn", 0 0, L_0x558ebfb60ec0;  alias, 1 drivers
v0x558ebfb54220_0 .net "cOut", 0 0, L_0x558ebfb62900;  alias, 1 drivers
v0x558ebfb542c0_0 .net "sum", 3 0, L_0x558ebfb62cc0;  1 drivers
L_0x558ebfb618c0 .part L_0x558ebfb62e00, 0, 1;
L_0x558ebfb61960 .part L_0x558ebfb62f30, 0, 1;
L_0x558ebfb61e60 .part L_0x558ebfb62e00, 1, 1;
L_0x558ebfb61f50 .part L_0x558ebfb62f30, 1, 1;
L_0x558ebfb624a0 .part L_0x558ebfb62e00, 2, 1;
L_0x558ebfb62540 .part L_0x558ebfb62f30, 2, 1;
L_0x558ebfb62a10 .part L_0x558ebfb62e00, 3, 1;
L_0x558ebfb62b40 .part L_0x558ebfb62f30, 3, 1;
L_0x558ebfb62cc0 .concat8 [ 1 1 1 1], L_0x558ebfb61570, L_0x558ebfb61a70, L_0x558ebfb620e0, L_0x558ebfb62650;
S_0x558ebfb513b0 .scope module, "a1" "onebitadder" 5 12, 6 1 0, S_0x558ebfb51160;
 .timescale 0 0;
    .port_info 0 /INPUT 1 "cIn"
    .port_info 1 /INPUT 1 "a"
    .port_info 2 /INPUT 1 "b"
    .port_info 3 /OUTPUT 1 "sum"
    .port_info 4 /OUTPUT 1 "cOut"
    .port_info 5 /OUTPUT 1 "w1"
    .port_info 6 /OUTPUT 1 "w2"
    .port_info 7 /OUTPUT 1 "w3"
L_0x558ebfb61500 .functor XOR 1, L_0x558ebfb618c0, L_0x558ebfb61960, C4<0>, C4<0>;
L_0x558ebfb61570 .functor XOR 1, L_0x558ebfb61500, L_0x558ebfb60ec0, C4<0>, C4<0>;
L_0x558ebfb61630 .functor AND 1, L_0x558ebfb60ec0, L_0x558ebfb61500, C4<1>, C4<1>;
L_0x558ebfb616a0 .functor AND 1, L_0x558ebfb618c0, L_0x558ebfb61960, C4<1>, C4<1>;
L_0x558ebfb617b0 .functor OR 1, L_0x558ebfb616a0, L_0x558ebfb61630, C4<0>, C4<0>;
v0x558ebfb516c0_0 .net "a", 0 0, L_0x558ebfb618c0;  1 drivers
v0x558ebfb517a0_0 .net "b", 0 0, L_0x558ebfb61960;  1 drivers
v0x558ebfb51860_0 .net "cIn", 0 0, L_0x558ebfb60ec0;  alias, 1 drivers
v0x558ebfb51950_0 .net "cOut", 0 0, L_0x558ebfb617b0;  alias, 1 drivers
v0x558ebfb519f0_0 .net "sum", 0 0, L_0x558ebfb61570;  1 drivers
v0x558ebfb51b00_0 .net "w1", 0 0, L_0x558ebfb61500;  1 drivers
v0x558ebfb51bc0_0 .net "w2", 0 0, L_0x558ebfb61630;  1 drivers
v0x558ebfb51c80_0 .net "w3", 0 0, L_0x558ebfb616a0;  1 drivers
S_0x558ebfb51e90 .scope module, "a2" "onebitadder" 5 13, 6 1 0, S_0x558ebfb51160;
 .timescale 0 0;
    .port_info 0 /INPUT 1 "cIn"
    .port_info 1 /INPUT 1 "a"
    .port_info 2 /INPUT 1 "b"
    .port_info 3 /OUTPUT 1 "sum"
    .port_info 4 /OUTPUT 1 "cOut"
    .port_info 5 /OUTPUT 1 "w1"
    .port_info 6 /OUTPUT 1 "w2"
    .port_info 7 /OUTPUT 1 "w3"
L_0x558ebfb61a00 .functor XOR 1, L_0x558ebfb61e60, L_0x558ebfb61f50, C4<0>, C4<0>;
L_0x558ebfb61a70 .functor XOR 1, L_0x558ebfb61a00, L_0x558ebfb617b0, C4<0>, C4<0>;
L_0x558ebfb61bc0 .functor AND 1, L_0x558ebfb617b0, L_0x558ebfb61a00, C4<1>, C4<1>;
L_0x558ebfb61c30 .functor AND 1, L_0x558ebfb61e60, L_0x558ebfb61f50, C4<1>, C4<1>;
L_0x558ebfb61d50 .functor OR 1, L_0x558ebfb61c30, L_0x558ebfb61bc0, C4<0>, C4<0>;
v0x558ebfb52150_0 .net "a", 0 0, L_0x558ebfb61e60;  1 drivers
v0x558ebfb52210_0 .net "b", 0 0, L_0x558ebfb61f50;  1 drivers
v0x558ebfb522d0_0 .net "cIn", 0 0, L_0x558ebfb617b0;  alias, 1 drivers
v0x558ebfb52370_0 .net "cOut", 0 0, L_0x558ebfb61d50;  alias, 1 drivers
v0x558ebfb52410_0 .net "sum", 0 0, L_0x558ebfb61a70;  1 drivers
v0x558ebfb52500_0 .net "w1", 0 0, L_0x558ebfb61a00;  1 drivers
v0x558ebfb525c0_0 .net "w2", 0 0, L_0x558ebfb61bc0;  1 drivers
v0x558ebfb52680_0 .net "w3", 0 0, L_0x558ebfb61c30;  1 drivers
S_0x558ebfb52890 .scope module, "a3" "onebitadder" 5 14, 6 1 0, S_0x558ebfb51160;
 .timescale 0 0;
    .port_info 0 /INPUT 1 "cIn"
    .port_info 1 /INPUT 1 "a"
    .port_info 2 /INPUT 1 "b"
    .port_info 3 /OUTPUT 1 "sum"
    .port_info 4 /OUTPUT 1 "cOut"
    .port_info 5 /OUTPUT 1 "w1"
    .port_info 6 /OUTPUT 1 "w2"
    .port_info 7 /OUTPUT 1 "w3"
L_0x558ebfb62070 .functor XOR 1, L_0x558ebfb624a0, L_0x558ebfb62540, C4<0>, C4<0>;
L_0x558ebfb620e0 .functor XOR 1, L_0x558ebfb62070, L_0x558ebfb61d50, C4<0>, C4<0>;
L_0x558ebfb62230 .functor AND 1, L_0x558ebfb61d50, L_0x558ebfb62070, C4<1>, C4<1>;
L_0x558ebfb622a0 .functor AND 1, L_0x558ebfb624a0, L_0x558ebfb62540, C4<1>, C4<1>;
L_0x558ebfb62390 .functor OR 1, L_0x558ebfb622a0, L_0x558ebfb62230, C4<0>, C4<0>;
v0x558ebfb52b30_0 .net "a", 0 0, L_0x558ebfb624a0;  1 drivers
v0x558ebfb52bf0_0 .net "b", 0 0, L_0x558ebfb62540;  1 drivers
v0x558ebfb52cb0_0 .net "cIn", 0 0, L_0x558ebfb61d50;  alias, 1 drivers
v0x558ebfb52d80_0 .net "cOut", 0 0, L_0x558ebfb62390;  alias, 1 drivers
v0x558ebfb52e20_0 .net "sum", 0 0, L_0x558ebfb620e0;  1 drivers
v0x558ebfb52f10_0 .net "w1", 0 0, L_0x558ebfb62070;  1 drivers
v0x558ebfb52fd0_0 .net "w2", 0 0, L_0x558ebfb62230;  1 drivers
v0x558ebfb53090_0 .net "w3", 0 0, L_0x558ebfb622a0;  1 drivers
S_0x558ebfb532a0 .scope module, "a4" "onebitadder" 5 15, 6 1 0, S_0x558ebfb51160;
 .timescale 0 0;
    .port_info 0 /INPUT 1 "cIn"
    .port_info 1 /INPUT 1 "a"
    .port_info 2 /INPUT 1 "b"
    .port_info 3 /OUTPUT 1 "sum"
    .port_info 4 /OUTPUT 1 "cOut"
    .port_info 5 /OUTPUT 1 "w1"
    .port_info 6 /OUTPUT 1 "w2"
    .port_info 7 /OUTPUT 1 "w3"
L_0x558ebfb625e0 .functor XOR 1, L_0x558ebfb62a10, L_0x558ebfb62b40, C4<0>, C4<0>;
L_0x558ebfb62650 .functor XOR 1, L_0x558ebfb625e0, L_0x558ebfb62390, C4<0>, C4<0>;
L_0x558ebfb627a0 .functor AND 1, L_0x558ebfb62390, L_0x558ebfb625e0, C4<1>, C4<1>;
L_0x558ebfb62810 .functor AND 1, L_0x558ebfb62a10, L_0x558ebfb62b40, C4<1>, C4<1>;
L_0x558ebfb62900 .functor OR 1, L_0x558ebfb62810, L_0x558ebfb627a0, C4<0>, C4<0>;
v0x558ebfb53540_0 .net "a", 0 0, L_0x558ebfb62a10;  1 drivers
v0x558ebfb53620_0 .net "b", 0 0, L_0x558ebfb62b40;  1 drivers
v0x558ebfb536e0_0 .net "cIn", 0 0, L_0x558ebfb62390;  alias, 1 drivers
v0x558ebfb537b0_0 .net "cOut", 0 0, L_0x558ebfb62900;  alias, 1 drivers
v0x558ebfb53850_0 .net "sum", 0 0, L_0x558ebfb62650;  1 drivers
v0x558ebfb53940_0 .net "w1", 0 0, L_0x558ebfb625e0;  1 drivers
v0x558ebfb53a00_0 .net "w2", 0 0, L_0x558ebfb627a0;  1 drivers
v0x558ebfb53ac0_0 .net "w3", 0 0, L_0x558ebfb62810;  1 drivers
    .scope S_0x558ebfb128a0;
T_0 ;
    %pushi/vec4 2849303285, 0, 32;
    %store/vec4 v0x558ebfb55130_0, 0, 32;
    %pushi/vec4 3579138081, 0, 32;
    %store/vec4 v0x558ebfb55210_0, 0, 32;
    %pushi/vec4 0, 0, 1;
    %store/vec4 v0x558ebfb552b0_0, 0, 1;
    %delay 20, 0;
    %vpi_call 2 18 "$display", "%d + %d = %b%b", v0x558ebfb55130_0, v0x558ebfb55210_0, v0x558ebfb553e0_0, v0x558ebfb55510_0 {0 0 0};
    %delay 30, 0;
    %vpi_call 2 20 "$finish" {0 0 0};
    %end;
    .thread T_0;
# The file index is used to find the file name in the following table.
:file_names 7;
    "N/A";
    "<interactive>";
    "adder_tb.v";
    "./32bitadder.v";
    "./16bitadder.v";
    "./4bitadder.v";
    "./1bitadder.v";
