EESchema Schematic File Version 4
LIBS:motherboard-cache
EELAYER 26 0
EELAYER END
$Descr A4 11693 8268
encoding utf-8
Sheet 2 2
Title ""
Date ""
Rev ""
Comp ""
Comment1 ""
Comment2 ""
Comment3 ""
Comment4 ""
$EndDescr
$Comp
L Custom:2NAND_1NOT_BoB U1
U 2 1 5C577B58
P 3500 1800
F 0 "U1" H 3500 2125 50  0000 C CNN
F 1 "2NAND_1NOT_BoB" H 3500 2034 50  0000 C CNN
F 2 "Custom:2NAND_1NOT_BoB_fixed" H 3450 1800 50  0001 C CNN
F 3 "" H 3450 1800 50  0001 C CNN
	2    3500 1800
	1    0    0    -1  
$EndComp
$Comp
L Custom:2NAND_1NOT_BoB U1
U 3 1 5C577B5F
P 4250 2000
F 0 "U1" H 4250 2325 50  0000 C CNN
F 1 "2NAND_1NOT_BoB" H 4250 2234 50  0000 C CNN
F 2 "Custom:2NAND_1NOT_BoB_fixed" H 4200 2000 50  0001 C CNN
F 3 "" H 4200 2000 50  0001 C CNN
	3    4250 2000
	1    0    0    -1  
$EndComp
$Comp
L Custom:2NAND_1NOT_BoB U1
U 4 1 5C577B66
P 4950 2000
F 0 "U1" H 5000 2317 50  0000 C CNN
F 1 "2NAND_1NOT_BoB" H 5000 2226 50  0000 C CNN
F 2 "Custom:2NAND_1NOT_BoB_fixed" H 4900 2000 50  0001 C CNN
F 3 "" H 4900 2000 50  0001 C CNN
	4    4950 2000
	1    0    0    -1  
$EndComp
Wire Wire Line
	3200 2100 3150 2100
Wire Wire Line
	3150 2100 3150 2200
Wire Wire Line
	3150 2300 3200 2300
Wire Wire Line
	3150 2200 2600 2200
Connection ~ 3150 2200
Wire Wire Line
	3150 2200 3150 2300
Wire Wire Line
	3150 1800 2600 1800
Wire Wire Line
	3200 1900 3150 1900
Wire Wire Line
	3150 1900 3150 1800
Wire Wire Line
	3200 1700 3150 1700
Wire Wire Line
	3150 1700 3150 1800
Connection ~ 3150 1800
Wire Wire Line
	3800 2200 3950 2200
Wire Wire Line
	3950 2200 3950 2100
Wire Wire Line
	3800 1800 3950 1800
Wire Wire Line
	3950 1800 3950 1900
Wire Wire Line
	4550 2000 4700 2000
$Comp
L Custom:2NAND_1NOT_BoB U6
U 3 1 5C577B7E
P 4250 2800
F 0 "U6" H 4250 3125 50  0000 C CNN
F 1 "2NAND_1NOT_BoB" H 4250 3034 50  0000 C CNN
F 2 "Custom:2NAND_1NOT_BoB_fixed" H 4200 2800 50  0001 C CNN
F 3 "" H 4200 2800 50  0001 C CNN
	3    4250 2800
	1    0    0    -1  
$EndComp
$Comp
L Custom:2NAND_1NOT_BoB U6
U 4 1 5C577B85
P 4950 2800
F 0 "U6" H 5000 3117 50  0000 C CNN
F 1 "2NAND_1NOT_BoB" H 5000 3026 50  0000 C CNN
F 2 "Custom:2NAND_1NOT_BoB_fixed" H 4900 2800 50  0001 C CNN
F 3 "" H 4900 2800 50  0001 C CNN
	4    4950 2800
	1    0    0    -1  
$EndComp
$Comp
L Custom:2NAND_1NOT_BoB U2
U 2 1 5C577B8C
P 3500 3000
F 0 "U2" H 3500 3325 50  0000 C CNN
F 1 "2NAND_1NOT_BoB" H 3500 3234 50  0000 C CNN
F 2 "Custom:2NAND_1NOT_BoB_fixed" H 3450 3000 50  0001 C CNN
F 3 "" H 3450 3000 50  0001 C CNN
	2    3500 3000
	1    0    0    -1  
$EndComp
Wire Wire Line
	3200 2900 3150 2900
Wire Wire Line
	3150 2900 3150 3000
Wire Wire Line
	3150 3100 3200 3100
Wire Wire Line
	3150 3000 2600 3000
Connection ~ 3150 3000
Wire Wire Line
	3150 3000 3150 3100
Wire Wire Line
	3800 3000 3950 3000
Wire Wire Line
	3950 3000 3950 2900
Wire Wire Line
	3800 2600 3950 2600
Wire Wire Line
	3950 2600 3950 2700
Wire Wire Line
	4550 2800 4700 2800
$Comp
L Custom:2NAND_1NOT_BoB U3
U 3 1 5C577B9E
P 4250 3600
F 0 "U3" H 4250 3925 50  0000 C CNN
F 1 "2NAND_1NOT_BoB" H 4250 3834 50  0000 C CNN
F 2 "Custom:2NAND_1NOT_BoB_fixed" H 4200 3600 50  0001 C CNN
F 3 "" H 4200 3600 50  0001 C CNN
	3    4250 3600
	1    0    0    -1  
$EndComp
$Comp
L Custom:2NAND_1NOT_BoB U3
U 4 1 5C577BA5
P 4950 3600
F 0 "U3" H 5000 3917 50  0000 C CNN
F 1 "2NAND_1NOT_BoB" H 5000 3826 50  0000 C CNN
F 2 "Custom:2NAND_1NOT_BoB_fixed" H 4900 3600 50  0001 C CNN
F 3 "" H 4900 3600 50  0001 C CNN
	4    4950 3600
	1    0    0    -1  
$EndComp
Wire Wire Line
	3150 3400 2600 3400
Wire Wire Line
	3200 3500 3150 3500
Wire Wire Line
	3150 3500 3150 3400
Wire Wire Line
	3200 3300 3150 3300
Wire Wire Line
	3150 3300 3150 3400
Connection ~ 3150 3400
Wire Wire Line
	3800 3800 3950 3800
Wire Wire Line
	3950 3800 3950 3700
Wire Wire Line
	3800 3400 3950 3400
Wire Wire Line
	3950 3400 3950 3500
Wire Wire Line
	4550 3600 4700 3600
$Comp
L Custom:2NAND_1NOT_BoB U4
U 2 1 5C577BB7
P 3500 4200
F 0 "U4" H 3500 4525 50  0000 C CNN
F 1 "2NAND_1NOT_BoB" H 3500 4434 50  0000 C CNN
F 2 "Custom:2NAND_1NOT_BoB_fixed" H 3450 4200 50  0001 C CNN
F 3 "" H 3450 4200 50  0001 C CNN
	2    3500 4200
	1    0    0    -1  
$EndComp
$Comp
L Custom:2NAND_1NOT_BoB U7
U 3 1 5C577BBE
P 4250 4400
F 0 "U7" H 4250 4725 50  0000 C CNN
F 1 "2NAND_1NOT_BoB" H 4250 4634 50  0000 C CNN
F 2 "Custom:2NAND_1NOT_BoB_fixed" H 4200 4400 50  0001 C CNN
F 3 "" H 4200 4400 50  0001 C CNN
	3    4250 4400
	1    0    0    -1  
$EndComp
$Comp
L Custom:2NAND_1NOT_BoB U7
U 4 1 5C577BC5
P 4950 4400
F 0 "U7" H 5000 4717 50  0000 C CNN
F 1 "2NAND_1NOT_BoB" H 5000 4626 50  0000 C CNN
F 2 "Custom:2NAND_1NOT_BoB_fixed" H 4900 4400 50  0001 C CNN
F 3 "" H 4900 4400 50  0001 C CNN
	4    4950 4400
	1    0    0    -1  
$EndComp
Wire Wire Line
	3200 4500 3150 4500
Wire Wire Line
	3150 4500 3150 4600
Wire Wire Line
	3150 4700 3200 4700
Wire Wire Line
	3150 4600 2600 4600
Connection ~ 3150 4600
Wire Wire Line
	3150 4600 3150 4700
Wire Wire Line
	3150 4200 2600 4200
Wire Wire Line
	3200 4300 3150 4300
Wire Wire Line
	3150 4300 3150 4200
Wire Wire Line
	3200 4100 3150 4100
Wire Wire Line
	3150 4100 3150 4200
Connection ~ 3150 4200
Wire Wire Line
	3800 4600 3950 4600
Wire Wire Line
	3950 4600 3950 4500
Wire Wire Line
	3800 4200 3950 4200
Wire Wire Line
	3950 4200 3950 4300
Wire Wire Line
	4550 4400 4700 4400
$Comp
L Custom:2NAND_1NOT_BoB U6
U 2 1 5C577BDD
P 5850 2450
F 0 "U6" H 5850 2775 50  0000 C CNN
F 1 "2NAND_1NOT_BoB" H 5850 2684 50  0000 C CNN
F 2 "Custom:2NAND_1NOT_BoB_fixed" H 5800 2450 50  0001 C CNN
F 3 "" H 5800 2450 50  0001 C CNN
	2    5850 2450
	1    0    0    -1  
$EndComp
$Comp
L Custom:2NAND_1NOT_BoB U9
U 4 1 5C577BEB
P 6600 4000
F 0 "U9" H 6650 4317 50  0000 C CNN
F 1 "2NAND_1NOT_BoB" H 6650 4226 50  0000 C CNN
F 2 "Custom:2NAND_1NOT_BoB_fixed" H 6550 4000 50  0001 C CNN
F 3 "" H 6550 4000 50  0001 C CNN
	4    6600 4000
	1    0    0    -1  
$EndComp
$Comp
L Custom:2NAND_1NOT_BoB U9
U 2 1 5C577BF2
P 6600 2450
F 0 "U9" H 6600 2775 50  0000 C CNN
F 1 "2NAND_1NOT_BoB" H 6600 2684 50  0000 C CNN
F 2 "Custom:2NAND_1NOT_BoB_fixed" H 6550 2450 50  0001 C CNN
F 3 "" H 6550 2450 50  0001 C CNN
	2    6600 2450
	1    0    0    -1  
$EndComp
$Comp
L Custom:2NAND_1NOT_BoB U9
U 3 1 5C577BF9
P 7650 3200
F 0 "U9" H 7650 3525 50  0000 C CNN
F 1 "2NAND_1NOT_BoB" H 7650 3434 50  0000 C CNN
F 2 "Custom:2NAND_1NOT_BoB_fixed" H 7600 3200 50  0001 C CNN
F 3 "" H 7600 3200 50  0001 C CNN
	3    7650 3200
	1    0    0    -1  
$EndComp
Wire Wire Line
	5300 3600 5400 3600
Wire Wire Line
	5400 3600 5400 3900
Wire Wire Line
	5400 3900 5600 3900
Wire Wire Line
	5600 4100 5400 4100
Wire Wire Line
	5400 4100 5400 4400
Wire Wire Line
	5400 4400 5300 4400
Wire Wire Line
	5300 2800 5400 2800
Wire Wire Line
	5400 2800 5400 2550
Wire Wire Line
	5400 2550 5550 2550
Wire Wire Line
	5400 2350 5400 2000
Wire Wire Line
	5400 2000 5300 2000
Wire Wire Line
	5550 2350 5400 2350
Wire Wire Line
	6150 2450 6250 2450
Wire Wire Line
	6250 2450 6250 2350
Wire Wire Line
	6250 2350 6300 2350
Wire Wire Line
	6250 2450 6250 2550
Wire Wire Line
	6250 2550 6300 2550
Connection ~ 6250 2450
Wire Wire Line
	6900 2450 7200 2450
Wire Wire Line
	7200 2450 7200 3100
Wire Wire Line
	7200 3100 7350 3100
Wire Wire Line
	7350 3300 7200 3300
Wire Wire Line
	7200 3300 7200 4000
Wire Wire Line
	7200 4000 6950 4000
Wire Wire Line
	6350 4000 6200 4000
$Comp
L Custom:2NAND_1NOT_BoB U2
U 3 1 5C577C19
P 3500 2200
F 0 "U2" H 3500 2525 50  0000 C CNN
F 1 "2NAND_1NOT_BoB" H 3500 2434 50  0000 C CNN
F 2 "Custom:2NAND_1NOT_BoB_fixed" H 3450 2200 50  0001 C CNN
F 3 "" H 3450 2200 50  0001 C CNN
	3    3500 2200
	1    0    0    -1  
$EndComp
$Comp
L Custom:2NAND_1NOT_BoB U2
U 4 1 5C577C20
P 3450 2600
F 0 "U2" H 3500 2917 50  0000 C CNN
F 1 "2NAND_1NOT_BoB" H 3500 2826 50  0000 C CNN
F 2 "Custom:2NAND_1NOT_BoB_fixed" H 3400 2600 50  0001 C CNN
F 3 "" H 3400 2600 50  0001 C CNN
	4    3450 2600
	1    0    0    -1  
$EndComp
Wire Wire Line
	2600 2600 3200 2600
$Comp
L Custom:2NAND_1NOT_BoB U4
U 4 1 5C577C2F
P 3450 3800
F 0 "U4" H 3500 4117 50  0000 C CNN
F 1 "2NAND_1NOT_BoB" H 3500 4026 50  0000 C CNN
F 2 "Custom:2NAND_1NOT_BoB_fixed" H 3400 3800 50  0001 C CNN
F 3 "" H 3400 3800 50  0001 C CNN
	4    3450 3800
	1    0    0    -1  
$EndComp
Wire Wire Line
	2600 3800 3200 3800
$Comp
L Custom:2NAND_1NOT_BoB U4
U 3 1 5C577C37
P 3500 4600
F 0 "U4" H 3500 4925 50  0000 C CNN
F 1 "2NAND_1NOT_BoB" H 3500 4834 50  0000 C CNN
F 2 "Custom:2NAND_1NOT_BoB_fixed" H 3450 4600 50  0001 C CNN
F 3 "" H 3450 4600 50  0001 C CNN
	3    3500 4600
	1    0    0    -1  
$EndComp
Wire Wire Line
	7950 3200 8350 3200
Text Label 6250 1800 0    197  ~ 0
ZFCalculation
Wire Wire Line
	2600 5000 3200 5000
$Comp
L Custom:2NAND_1NOT_BoB U5
U 4 1 5C577C41
P 3450 5000
F 0 "U5" H 3500 5317 50  0000 C CNN
F 1 "2NAND_1NOT_BoB" H 3500 5226 50  0000 C CNN
F 2 "Custom:2NAND_1NOT_BoB_fixed" H 3400 5000 50  0001 C CNN
F 3 "" H 3400 5000 50  0001 C CNN
	4    3450 5000
	1    0    0    -1  
$EndComp
Wire Wire Line
	3200 5300 3150 5300
Wire Wire Line
	3150 5300 3150 5400
Wire Wire Line
	3150 5500 3200 5500
Wire Wire Line
	3150 5400 2600 5400
Connection ~ 3150 5400
Wire Wire Line
	3150 5400 3150 5500
$Comp
L Custom:2NAND_1NOT_BoB U8
U 2 1 5C577C55
P 4250 5200
F 0 "U8" H 4250 5525 50  0000 C CNN
F 1 "2NAND_1NOT_BoB" H 4250 5434 50  0000 C CNN
F 2 "Custom:2NAND_1NOT_BoB_fixed" H 4200 5200 50  0001 C CNN
F 3 "" H 4200 5200 50  0001 C CNN
	2    4250 5200
	1    0    0    -1  
$EndComp
Wire Wire Line
	3950 5300 3950 5400
Wire Wire Line
	3950 5400 3800 5400
Wire Wire Line
	3950 5100 3950 5000
Wire Wire Line
	3950 5000 3800 5000
$Comp
L Custom:2NAND_1NOT_BoB U8
U 4 1 5C577C60
P 4950 5200
F 0 "U8" H 5000 5517 50  0000 C CNN
F 1 "2NAND_1NOT_BoB" H 5000 5426 50  0000 C CNN
F 2 "Custom:2NAND_1NOT_BoB_fixed" H 4900 5200 50  0001 C CNN
F 3 "" H 4900 5200 50  0001 C CNN
	4    4950 5200
	1    0    0    -1  
$EndComp
Wire Wire Line
	4700 5200 4550 5200
Wire Wire Line
	5300 5200 7600 5200
Wire Wire Line
	7600 5200 7600 3500
$Comp
L Custom:2NAND_1NOT_BoB U5
U 3 1 5C577C6A
P 8700 3200
F 0 "U5" H 8700 3525 50  0000 C CNN
F 1 "2NAND_1NOT_BoB" H 8700 3434 50  0000 C CNN
F 2 "Custom:2NAND_1NOT_BoB_fixed" H 8650 3200 50  0001 C CNN
F 3 "" H 8650 3200 50  0001 C CNN
	3    8700 3200
	1    0    0    -1  
$EndComp
Wire Wire Line
	8400 3300 8350 3300
Wire Wire Line
	8350 3300 8350 3200
Wire Wire Line
	8350 3200 8350 3100
Wire Wire Line
	8350 3100 8400 3100
Connection ~ 8350 3200
Wire Wire Line
	9250 3250 9100 3200
Wire Wire Line
	9100 3200 9000 3200
Wire Wire Line
	9100 3500 9250 3450
Wire Wire Line
	7600 3500 9100 3500
$Comp
L Custom:2NAND_1NOT_BoB U5
U 2 1 5C5802BD
P 3500 5400
F 0 "U5" H 3500 5725 50  0000 C CNN
F 1 "2NAND_1NOT_BoB" H 3500 5634 50  0000 C CNN
F 2 "Custom:2NAND_1NOT_BoB_fixed" H 3450 5400 50  0001 C CNN
F 3 "" H 3450 5400 50  0001 C CNN
	2    3500 5400
	1    0    0    -1  
$EndComp
Text HLabel 9850 3350 2    50   Output ~ 0
ZF
Text HLabel 2600 1800 0    50   Input ~ 0
A
Text HLabel 2600 2200 0    50   Input ~ 0
B
Text HLabel 2600 2600 0    50   Input ~ 0
C
Text HLabel 2600 3000 0    50   Input ~ 0
D
Text HLabel 2600 3400 0    50   Input ~ 0
E
Text HLabel 2600 3800 0    50   Input ~ 0
F
Text HLabel 2600 4200 0    50   Input ~ 0
G
Text HLabel 2600 4600 0    50   Input ~ 0
H
Text HLabel 2600 5000 0    50   Input ~ 0
I
Text HLabel 2600 5400 0    50   Input ~ 0
J
$Comp
L Custom:2NAND_1NOT_BoB U3
U 2 1 5C5DDFC9
P 3500 3400
F 0 "U3" H 3500 3725 50  0000 C CNN
F 1 "2NAND_1NOT_BoB" H 3500 3634 50  0000 C CNN
F 2 "Custom:2NAND_1NOT_BoB_fixed" H 3450 3400 50  0001 C CNN
F 3 "" H 3450 3400 50  0001 C CNN
	2    3500 3400
	1    0    0    -1  
$EndComp
$Comp
L Custom:2NAND_1NOT_BoB U7
U 2 1 5C5DE31C
P 5900 4000
F 0 "U7" H 5900 4325 50  0000 C CNN
F 1 "2NAND_1NOT_BoB" H 5900 4234 50  0000 C CNN
F 2 "Custom:2NAND_1NOT_BoB_fixed" H 5850 4000 50  0001 C CNN
F 3 "" H 5850 4000 50  0001 C CNN
	2    5900 4000
	1    0    0    -1  
$EndComp
$Comp
L Custom:2NAND_1NOT_BoB U1
U 1 1 5C559BFA
P 4250 6100
F 0 "U1" H 4250 6325 50  0000 C CNN
F 1 "2NAND_1NOT_BoB" H 4250 6234 50  0000 C CNN
F 2 "Custom:2NAND_1NOT_BoB_fixed" H 4200 6100 50  0001 C CNN
F 3 "" H 4200 6100 50  0001 C CNN
	1    4250 6100
	1    0    0    -1  
$EndComp
$Comp
L power:GND #PWR06
U 1 1 5C559D27
P 4000 6100
F 0 "#PWR06" H 4000 5850 50  0001 C CNN
F 1 "GND" H 4005 5927 50  0000 C CNN
F 2 "" H 4000 6100 50  0001 C CNN
F 3 "" H 4000 6100 50  0001 C CNN
	1    4000 6100
	1    0    0    -1  
$EndComp
$Comp
L power:VCC #PWR07
U 1 1 5C559E22
P 4500 6100
F 0 "#PWR07" H 4500 5950 50  0001 C CNN
F 1 "VCC" V 4517 6228 50  0000 L CNN
F 2 "" H 4500 6100 50  0001 C CNN
F 3 "" H 4500 6100 50  0001 C CNN
	1    4500 6100
	0    1    1    0   
$EndComp
$Comp
L Custom:2NAND_1NOT_BoB U2
U 1 1 5C559ECB
P 5100 6100
F 0 "U2" H 5100 6325 50  0000 C CNN
F 1 "2NAND_1NOT_BoB" H 5100 6234 50  0000 C CNN
F 2 "Custom:2NAND_1NOT_BoB_fixed" H 5050 6100 50  0001 C CNN
F 3 "" H 5050 6100 50  0001 C CNN
	1    5100 6100
	1    0    0    -1  
$EndComp
$Comp
L power:GND #PWR08
U 1 1 5C559ED2
P 4850 6100
F 0 "#PWR08" H 4850 5850 50  0001 C CNN
F 1 "GND" H 4855 5927 50  0000 C CNN
F 2 "" H 4850 6100 50  0001 C CNN
F 3 "" H 4850 6100 50  0001 C CNN
	1    4850 6100
	1    0    0    -1  
$EndComp
$Comp
L power:VCC #PWR09
U 1 1 5C559ED8
P 5350 6100
F 0 "#PWR09" H 5350 5950 50  0001 C CNN
F 1 "VCC" V 5367 6228 50  0000 L CNN
F 2 "" H 5350 6100 50  0001 C CNN
F 3 "" H 5350 6100 50  0001 C CNN
	1    5350 6100
	0    1    1    0   
$EndComp
$Comp
L Custom:2NAND_1NOT_BoB U9
U 1 1 5C55C2D3
P 4250 6500
F 0 "U9" H 4250 6725 50  0000 C CNN
F 1 "2NAND_1NOT_BoB" H 4250 6634 50  0000 C CNN
F 2 "Custom:2NAND_1NOT_BoB_fixed" H 4200 6500 50  0001 C CNN
F 3 "" H 4200 6500 50  0001 C CNN
	1    4250 6500
	1    0    0    -1  
$EndComp
$Comp
L power:GND #PWR012
U 1 1 5C55C2DA
P 4000 6500
F 0 "#PWR012" H 4000 6250 50  0001 C CNN
F 1 "GND" H 4005 6327 50  0000 C CNN
F 2 "" H 4000 6500 50  0001 C CNN
F 3 "" H 4000 6500 50  0001 C CNN
	1    4000 6500
	1    0    0    -1  
$EndComp
$Comp
L power:VCC #PWR013
U 1 1 5C55C2E0
P 4500 6500
F 0 "#PWR013" H 4500 6350 50  0001 C CNN
F 1 "VCC" V 4517 6628 50  0000 L CNN
F 2 "" H 4500 6500 50  0001 C CNN
F 3 "" H 4500 6500 50  0001 C CNN
	1    4500 6500
	0    1    1    0   
$EndComp
$Comp
L Custom:2NAND_1NOT_BoB U5
U 1 1 5C55C2E6
P 5100 6500
F 0 "U5" H 5100 6725 50  0000 C CNN
F 1 "2NAND_1NOT_BoB" H 5100 6634 50  0000 C CNN
F 2 "Custom:2NAND_1NOT_BoB_fixed" H 5050 6500 50  0001 C CNN
F 3 "" H 5050 6500 50  0001 C CNN
	1    5100 6500
	1    0    0    -1  
$EndComp
$Comp
L power:GND #PWR014
U 1 1 5C55C2ED
P 4850 6500
F 0 "#PWR014" H 4850 6250 50  0001 C CNN
F 1 "GND" H 4855 6327 50  0000 C CNN
F 2 "" H 4850 6500 50  0001 C CNN
F 3 "" H 4850 6500 50  0001 C CNN
	1    4850 6500
	1    0    0    -1  
$EndComp
$Comp
L power:VCC #PWR015
U 1 1 5C55C2F3
P 5350 6500
F 0 "#PWR015" H 5350 6350 50  0001 C CNN
F 1 "VCC" V 5367 6628 50  0000 L CNN
F 2 "" H 5350 6500 50  0001 C CNN
F 3 "" H 5350 6500 50  0001 C CNN
	1    5350 6500
	0    1    1    0   
$EndComp
$Comp
L Custom:2NAND_1NOT_BoB U8
U 1 1 5C55E779
P 4250 6900
F 0 "U8" H 4250 7125 50  0000 C CNN
F 1 "2NAND_1NOT_BoB" H 4250 7034 50  0000 C CNN
F 2 "Custom:2NAND_1NOT_BoB_fixed" H 4200 6900 50  0001 C CNN
F 3 "" H 4200 6900 50  0001 C CNN
	1    4250 6900
	1    0    0    -1  
$EndComp
$Comp
L power:GND #PWR016
U 1 1 5C55E780
P 4000 6900
F 0 "#PWR016" H 4000 6650 50  0001 C CNN
F 1 "GND" H 4005 6727 50  0000 C CNN
F 2 "" H 4000 6900 50  0001 C CNN
F 3 "" H 4000 6900 50  0001 C CNN
	1    4000 6900
	1    0    0    -1  
$EndComp
$Comp
L power:VCC #PWR017
U 1 1 5C55E786
P 4500 6900
F 0 "#PWR017" H 4500 6750 50  0001 C CNN
F 1 "VCC" V 4517 7028 50  0000 L CNN
F 2 "" H 4500 6900 50  0001 C CNN
F 3 "" H 4500 6900 50  0001 C CNN
	1    4500 6900
	0    1    1    0   
$EndComp
$Comp
L Custom:2NAND_1NOT_BoB U3
U 1 1 5C55E78C
P 5100 6900
F 0 "U3" H 5100 7125 50  0000 C CNN
F 1 "2NAND_1NOT_BoB" H 5100 7034 50  0000 C CNN
F 2 "Custom:2NAND_1NOT_BoB_fixed" H 5050 6900 50  0001 C CNN
F 3 "" H 5050 6900 50  0001 C CNN
	1    5100 6900
	1    0    0    -1  
$EndComp
$Comp
L power:GND #PWR018
U 1 1 5C55E793
P 4850 6900
F 0 "#PWR018" H 4850 6650 50  0001 C CNN
F 1 "GND" H 4855 6727 50  0000 C CNN
F 2 "" H 4850 6900 50  0001 C CNN
F 3 "" H 4850 6900 50  0001 C CNN
	1    4850 6900
	1    0    0    -1  
$EndComp
$Comp
L power:VCC #PWR019
U 1 1 5C55E799
P 5350 6900
F 0 "#PWR019" H 5350 6750 50  0001 C CNN
F 1 "VCC" V 5367 7028 50  0000 L CNN
F 2 "" H 5350 6900 50  0001 C CNN
F 3 "" H 5350 6900 50  0001 C CNN
	1    5350 6900
	0    1    1    0   
$EndComp
$Comp
L Custom:2NAND_1NOT_BoB U4
U 1 1 5C55E79F
P 4250 7300
F 0 "U4" H 4250 7525 50  0000 C CNN
F 1 "2NAND_1NOT_BoB" H 4250 7434 50  0000 C CNN
F 2 "Custom:2NAND_1NOT_BoB_fixed" H 4200 7300 50  0001 C CNN
F 3 "" H 4200 7300 50  0001 C CNN
	1    4250 7300
	1    0    0    -1  
$EndComp
$Comp
L power:GND #PWR020
U 1 1 5C55E7A6
P 4000 7300
F 0 "#PWR020" H 4000 7050 50  0001 C CNN
F 1 "GND" H 4005 7127 50  0000 C CNN
F 2 "" H 4000 7300 50  0001 C CNN
F 3 "" H 4000 7300 50  0001 C CNN
	1    4000 7300
	1    0    0    -1  
$EndComp
$Comp
L power:VCC #PWR021
U 1 1 5C55E7AC
P 4500 7300
F 0 "#PWR021" H 4500 7150 50  0001 C CNN
F 1 "VCC" V 4517 7428 50  0000 L CNN
F 2 "" H 4500 7300 50  0001 C CNN
F 3 "" H 4500 7300 50  0001 C CNN
	1    4500 7300
	0    1    1    0   
$EndComp
$Comp
L Custom:2NAND_1NOT_BoB U7
U 1 1 5C55E7B2
P 5100 7300
F 0 "U7" H 5100 7525 50  0000 C CNN
F 1 "2NAND_1NOT_BoB" H 5100 7434 50  0000 C CNN
F 2 "Custom:2NAND_1NOT_BoB_fixed" H 5050 7300 50  0001 C CNN
F 3 "" H 5050 7300 50  0001 C CNN
	1    5100 7300
	1    0    0    -1  
$EndComp
$Comp
L power:GND #PWR022
U 1 1 5C55E7B9
P 4850 7300
F 0 "#PWR022" H 4850 7050 50  0001 C CNN
F 1 "GND" H 4855 7127 50  0000 C CNN
F 2 "" H 4850 7300 50  0001 C CNN
F 3 "" H 4850 7300 50  0001 C CNN
	1    4850 7300
	1    0    0    -1  
$EndComp
$Comp
L power:VCC #PWR023
U 1 1 5C55E7BF
P 5350 7300
F 0 "#PWR023" H 5350 7150 50  0001 C CNN
F 1 "VCC" V 5367 7428 50  0000 L CNN
F 2 "" H 5350 7300 50  0001 C CNN
F 3 "" H 5350 7300 50  0001 C CNN
	1    5350 7300
	0    1    1    0   
$EndComp
$Comp
L Custom:2NAND_1NOT_BoB U6
U 1 1 5C563765
P 5950 6100
F 0 "U6" H 5950 6325 50  0000 C CNN
F 1 "2NAND_1NOT_BoB" H 5950 6234 50  0000 C CNN
F 2 "Custom:2NAND_1NOT_BoB_fixed" H 5900 6100 50  0001 C CNN
F 3 "" H 5900 6100 50  0001 C CNN
	1    5950 6100
	1    0    0    -1  
$EndComp
$Comp
L power:GND #PWR010
U 1 1 5C56376C
P 5700 6100
F 0 "#PWR010" H 5700 5850 50  0001 C CNN
F 1 "GND" H 5705 5927 50  0000 C CNN
F 2 "" H 5700 6100 50  0001 C CNN
F 3 "" H 5700 6100 50  0001 C CNN
	1    5700 6100
	1    0    0    -1  
$EndComp
$Comp
L power:VCC #PWR011
U 1 1 5C563772
P 6200 6100
F 0 "#PWR011" H 6200 5950 50  0001 C CNN
F 1 "VCC" V 6217 6228 50  0000 L CNN
F 2 "" H 6200 6100 50  0001 C CNN
F 3 "" H 6200 6100 50  0001 C CNN
	1    6200 6100
	0    1    1    0   
$EndComp
$Comp
L Custom:2NAND_1NOT_BoB U8
U 3 1 5C568758
P 9550 3350
F 0 "U8" H 9550 3675 50  0000 C CNN
F 1 "2NAND_1NOT_BoB" H 9550 3584 50  0000 C CNN
F 2 "Custom:2NAND_1NOT_BoB_fixed" H 9500 3350 50  0001 C CNN
F 3 "" H 9500 3350 50  0001 C CNN
	3    9550 3350
	1    0    0    -1  
$EndComp
$EndSCHEMATC
